#Query ID	Target ID	Optimal offset	p-value	E-value	q-value	Overlap	Query consensus	Target consensus	Orientation
1	1	0	1.25391e-08	1.75548e-07	3.51096e-07	6	GCACGC	GCACGC	+
1	9	-1	0.00619508	0.0867312	0.0867312	5	GCACGC	CACACAC	+
2	2	0	0	0	0	30	GAGCCCAGGAGGGGGTGGAGGCAGTGAGCC	GAGCCCAGGAGGGGGTGGAGGCAGTGAGCC	+
2	7	-12	0.000364002	0.00509603	0.00509603	16	GAGCCCAGGAGGGGGTGGAGGCAGTGAGCC	GGGTGGAGAGCTGGGG	-
3	3	0	3.35609e-36	4.69852e-35	9.39705e-35	16	GTATGTGTGTGTGTGT	GTATGTGTGTGTGTGT	+
3	9	-6	1.37289e-05	0.000192205	0.000192205	7	GTATGTGTGTGTGTGT	GTGTGTG	-
4	4	0	1.31534e-40	1.84148e-39	3.68296e-39	16	AAAAAAAAAAAATAAA	AAAAAAAAAAAATAAA	+
4	13	-9	0.00489953	0.0685934	0.0685934	6	AAAAAAAAAAAATAAA	AGATAA	-
5	5	0	1.08018e-09	1.51225e-08	3.0245e-08	6	TGTTTG	TGTTTG	+
6	6	0	9.63908e-24	1.34947e-22	2.69894e-22	11	GGCCTCAGGGC	GGCCTCAGGGC	+
7	7	0	2.22292e-38	3.11209e-37	6.22419e-37	16	CCCCAGCTCTCCACCC	CCCCAGCTCTCCACCC	+
7	2	2	0.000592431	0.00829404	0.00829404	16	CCCCAGCTCTCCACCC	GGCTCACTGCCTCCACCCCCTCCTGGGCTC	-
8	8	0	2.68153e-08	3.75414e-07	7.50828e-07	7	TGACTCA	TGACTCA	+
8	12	4	5.50155e-06	7.70218e-05	7.70218e-05	7	TGACTCA	AGGATGACTCAC	-
9	9	0	9.56375e-10	1.33892e-08	2.67785e-08	7	CACACAC	CACACAC	+
9	3	3	9.94679e-05	0.00139255	0.00139255	7	CACACAC	ACACACACACACATAC	-
10	10	0	1.03136e-09	1.4439e-08	2.8878e-08	7	ATCTCTC	ATCTCTC	+
11	11	0	0	0	0	30	TGGTAGCTCATGACTGTAATCTCAGCTCTT	TGGTAGCTCATGACTGTAATCTCAGCTCTT	+
12	12	0	2.74439e-25	3.84215e-24	7.68429e-24	12	GTGAGTCATCCT	GTGAGTCATCCT	+
12	8	-1	2.48407e-07	3.4777e-06	3.4777e-06	7	GTGAGTCATCCT	TGAGTCA	-
13	13	0	1.40423e-08	1.96592e-07	3.93185e-07	6	TTATCT	TTATCT	+
14	14	0	1.05547e-08	1.47766e-07	2.95531e-07	7	CCGCCTC	CCGCCTC	+
