# motif_id	motif_alt_id	sequence_name	start	stop	strand	score	p-value	q-value	matched_sequence
CTCTGTCACSCAGGCTGGARTGCAGTGGCG	MEME-6	chr12	100543237	100543266	+	53.8197	2.68e-19	3.06e-13	ctctgtcacccaggctggagtgcagtggcg
CTCTGTCACSCAGGCTGGARTGCAGTGGCG	MEME-6	chr15	63764937	63764966	-	52.5492	1.08e-18	6.18e-13	CTCTGTCACCCAGGCTGGAGTGCGGTGGCG
CTCTGTCACSCAGGCTGGARTGCAGTGGCG	MEME-6	chr12	13036244	13036273	-	52.1393	2.6e-18	9.9e-13	CTCTGTCGCCCAGGCTGGAGTGCAGTGGCG
CTCTGTCACSCAGGCTGGARTGCAGTGGCG	MEME-6	chr14	51377205	51377234	+	51.9672	3.81e-18	1.09e-12	ctctgtcacccaggctggagtgcagtggtg
CTCTGTCACSCAGGCTGGARTGCAGTGGCG	MEME-6	chr15	86422076	86422105	-	51.5574	7.83e-18	1.79e-12	CTCTGTCACCCAGGCTGGAGTGCAGTGGCA
CTCTGTCACSCAGGCTGGARTGCAGTGGCG	MEME-6	chr10	127258142	127258171	-	50.9754	1.49e-17	2.83e-12	CTCTGTCACGCAGGCTGGAGTGCAGTGGCA
CTCTGTCACSCAGGCTGGARTGCAGTGGCG	MEME-6	chr8	117000706	117000735	+	50.2869	3.13e-17	4.49e-12	ctctgtcgcccaggctggagtgcagtggtg
CTCTGTCACSCAGGCTGGARTGCAGTGGCG	MEME-6	chr20	49039636	49039665	-	50.1639	3.22e-17	4.49e-12	CTGTGTCGCCCAGGCTGGAGTGCAGTGGCG
CTCTGTCACSCAGGCTGGARTGCAGTGGCG	MEME-6	chr1	8889369	8889398	-	49.877	5.11e-17	4.49e-12	CTCTGTCGCCCAGGCTGGAGTGCAGTGGCA
CTCTGTCACSCAGGCTGGARTGCAGTGGCG	MEME-6	chr7	12584061	12584090	-	49.877	5.11e-17	4.49e-12	CTCTGTTGCCCAGGCTGGAGTGCAGTGGCG
CTCTGTCACSCAGGCTGGARTGCAGTGGCG	MEME-6	chr9	97581231	97581260	-	49.877	5.11e-17	4.49e-12	CTCTGTCGCCCAGGCTGGAGTGCAGTGGCA
CTCTGTCACSCAGGCTGGARTGCAGTGGCG	MEME-6	chr9	128274892	128274921	+	49.877	5.11e-17	4.49e-12	ctctgtcgcccaggttggagtgcagtggcg
CTCTGTCACSCAGGCTGGARTGCAGTGGCG	MEME-6	chr11	129716316	129716345	-	49.877	5.11e-17	4.49e-12	CTCTGTCGCCCAGGCTGGAGTGCAGTGGCA
CTCTGTCACSCAGGCTGGARTGCAGTGGCG	MEME-6	chr2	208694029	208694058	+	49.7049	6.89e-17	5.62e-12	ctctgtcacccaggctgaagtgcagtggtg
CTCTGTCACSCAGGCTGGARTGCAGTGGCG	MEME-6	chr17	4681857	4681886	-	48.8361	1.57e-16	1.2e-11	CTCTGTCATCCAGGCTGGAATGCAGTGGTG
CTCTGTCACSCAGGCTGGARTGCAGTGGCG	MEME-6	chr11	69329328	69329357	-	48.7131	1.78e-16	1.27e-11	CTCTGTCACGCAGGTTGGAGTGCAGTGGCA
CTCTGTCACSCAGGCTGGARTGCAGTGGCG	MEME-6	chr17	76742981	76743010	-	47.5574	4.95e-16	3.32e-11	CTCTGTCACGAAGACTGGAGTGCAGTGGGG
CTCTGTCACSCAGGCTGGARTGCAGTGGCG	MEME-6	chr12	32828078	32828107	+	47.4426	5.79e-16	3.67e-11	ctgtgtcacccaggctggaatgcggtgacg
CTCTGTCACSCAGGCTGGARTGCAGTGGCG	MEME-6	chr8	18858636	18858665	+	46.5738	1.1e-15	6.44e-11	ctctgtcacccagactggaatgcagtgatg
CTCTGTCACSCAGGCTGGARTGCAGTGGCG	MEME-6	chr1	233005363	233005392	+	46.4672	1.13e-15	6.44e-11	ctctgttgcccaggctggagtgctgtggtg
CTCTGTCACSCAGGCTGGARTGCAGTGGCG	MEME-6	chr20	31097276	31097305	-	44.6557	4.02e-15	2.18e-10	CTCTGCCACCCAGGCTGGAGTGCAGTGGCC
CTCTGTCACSCAGGCTGGARTGCAGTGGCG	MEME-6	chr11	9124981	9125010	-	44.4836	4.63e-15	2.22e-10	CTCTGTCACCAAGGCTGGAGTGCAGTGGCT
CTCTGTCACSCAGGCTGGARTGCAGTGGCG	MEME-6	chr17	60938212	60938241	-	44.459	4.67e-15	2.22e-10	CTCTGTCACCCAGGCCGGAGTGCAGTGGTG
CTCTGTCACSCAGGCTGGARTGCAGTGGCG	MEME-6	chr11	68111818	68111847	+	44.4508	4.68e-15	2.22e-10	ctctgtcacccaggctggagtgcaatgggg
CTCTGTCACSCAGGCTGGARTGCAGTGGCG	MEME-6	chr6	56593429	56593458	-	44.3361	4.87e-15	2.22e-10	CTCTGTCACCCGTGCTGGAGTGCAGTGGCG
CTCTGTCACSCAGGCTGGARTGCAGTGGCG	MEME-6	chr16	78087216	78087245	+	44.0738	5.89e-15	2.51e-10	ctatgtcacccaggttggagtgcagtggcg
CTCTGTCACSCAGGCTGGARTGCAGTGGCG	MEME-6	chr15	93289523	93289552	+	44.0492	5.94e-15	2.51e-10	ctccgtcacccaggctggagtgcagtggca
CTCTGTCACSCAGGCTGGARTGCAGTGGCG	MEME-6	chr9	97581888	97581917	+	43.7541	7.18e-15	2.82e-10	ctctgtcacccaggctggagtgcaatggca
CTCTGTCACSCAGGCTGGARTGCAGTGGCG	MEME-6	chr7	100996202	100996231	-	43.7541	7.18e-15	2.82e-10	CTCTGTCACCCAGGCTGGAGTGCAATGGCA
CTCTGTCACSCAGGCTGGARTGCAGTGGCG	MEME-6	chr10	121546094	121546123	+	43.6148	8e-15	3.04e-10	ctctgtcacacaggctggaatgcagtgacg
CTCTGTCACSCAGGCTGGARTGCAGTGGCG	MEME-6	chr9	97394910	97394939	-	42.9016	1.22e-14	4.46e-10	CTCTGTCACCCAGGCTGGAGGGCTGTGGTG
CTCTGTCACSCAGGCTGGARTGCAGTGGCG	MEME-6	chr20	49262696	49262725	+	42.8033	1.27e-14	4.46e-10	ctatgtcgcccaggctggagtgcagtggtg
CTCTGTCACSCAGGCTGGARTGCAGTGGCG	MEME-6	chr9	123464276	123464305	-	42.7787	1.29e-14	4.46e-10	CTCTGTCGCCTAGGCTGGAGAGCAGTGGCG
CTCTGTCACSCAGGCTGGARTGCAGTGGCG	MEME-6	chr3	131447709	131447738	-	42.3934	1.6e-14	5.24e-10	CTCTGTTGCCCAGGCTGGAGTGCAGTGGCC
CTCTGTCACSCAGGCTGGARTGCAGTGGCG	MEME-6	chr19	45245663	45245692	+	42.3689	1.61e-14	5.24e-10	ctctgccacccaggctggagcgcagtggca
CTCTGTCACSCAGGCTGGARTGCAGTGGCG	MEME-6	chr4	140074544	140074573	-	42.2213	1.81e-14	5.75e-10	CTCTGTTACTCAGGCTGGAGTGCAGTGGCA
CTCTGTCACSCAGGCTGGARTGCAGTGGCG	MEME-6	chr19	46696404	46696433	-	42.1066	1.91e-14	5.88e-10	CTCTGTCCCCCAGGCTGGAGTGCAGTGACA
CTCTGTCACSCAGGCTGGARTGCAGTGGCG	MEME-6	chr13	20368427	20368456	+	41.4918	2.78e-14	8.36e-10	ctctgtcatccaggctagagtgcagtggca
CTCTGTCACSCAGGCTGGARTGCAGTGGCG	MEME-6	chr20	48759006	48759035	+	40.8443	3.96e-14	1.16e-09	ctctgctgcctgggctgaagtgctgtggcg
CTCTGTCACSCAGGCTGGARTGCAGTGGCG	MEME-6	chr6	19527421	19527450	+	40.6311	4.57e-14	1.31e-09	ctctgtcgcctaggctggagtacagtggtg
CTCTGTCACSCAGGCTGGARTGCAGTGGCG	MEME-6	chr16	377097	377126	-	40.2213	5.88e-14	1.64e-09	CTCTGTCGCCCAGGTTGGAGTGCAATGGTG
CTCTGTCACSCAGGCTGGARTGCAGTGGCG	MEME-6	chr9	130769384	130769413	+	39.8115	7.3e-14	1.98e-09	ctctgttgcccaggctggagtccagtggca
CTCTGTCACSCAGGCTGGARTGCAGTGGCG	MEME-6	chr16	69757660	69757689	-	39.6393	8.38e-14	2.22e-09	CTCTGTTGCGCAGGCTGGAGTGCAATGGTG
CTCTGTCACSCAGGCTGGARTGCAGTGGCG	MEME-6	chr12	32340561	32340590	-	38.8361	1.26e-13	3.27e-09	CTCTGTTGCCCAGGCTGGAGTGCGGGGGCA
CTCTGTCACSCAGGCTGGARTGCAGTGGCG	MEME-6	chr2	226105468	226105497	+	37.5492	2.59e-13	6.57e-09	ctctgttgcccagactggagtacagtggca
CTCTGTCACSCAGGCTGGARTGCAGTGGCG	MEME-6	chr20	43359077	43359106	-	37.2951	2.98e-13	7.16e-09	CTCTGTCCACCAGGCTGGAGTGCAGTGGTG
CTCTGTCACSCAGGCTGGARTGCAGTGGCG	MEME-6	chr15	90460503	90460532	+	37.2951	2.98e-13	7.16e-09	ctctgtatcccaggctggagtgcagtggtg
CTCTGTCACSCAGGCTGGARTGCAGTGGCG	MEME-6	chr20	49287496	49287525	+	37.2705	3.01e-13	7.16e-09	ccctgacacccaggctggagtgcagtggtg
CTCTGTCACSCAGGCTGGARTGCAGTGGCG	MEME-6	chr16	15583755	15583784	+	37.1721	3.16e-13	7.37e-09	ctctgtcgcccaggctgcagtgcagtggct
CTCTGTCACSCAGGCTGGARTGCAGTGGCG	MEME-6	chr2	43862396	43862425	+	36.6803	4.17e-13	9.51e-09	ctctgtcacccaatctggagtgcagtggtg
CTCTGTCACSCAGGCTGGARTGCAGTGGCG	MEME-6	chr8	48454448	48454477	-	36.5328	4.4e-13	9.85e-09	TTCTGTCGCCCAAGCTGGAGTGCAGTGGCG
CTCTGTCACSCAGGCTGGARTGCAGTGGCG	MEME-6	chr21	35816815	35816844	-	36.3607	4.87e-13	1.05e-08	CTCTCTCACCCAGGCTGGAGTACAGTGGTG
CTCTGTCACSCAGGCTGGARTGCAGTGGCG	MEME-6	chr16	75594027	75594056	-	36.3607	4.87e-13	1.05e-08	CTCTGTCACCCAGGCTAGAGTGCAGTAGTG
CTCTGTCACSCAGGCTGGARTGCAGTGGCG	MEME-6	chr5	133974529	133974558	-	35.5902	7.04e-13	1.49e-08	CTCAGTCACCCTGGCTGGAGTGCGGTGGCA
CTCTGTCACSCAGGCTGGARTGCAGTGGCG	MEME-6	chr19	42278870	42278899	+	35.4426	7.58e-13	1.57e-08	ctctgtctcttaggctggagtgcagtggca
CTCTGTCACSCAGGCTGGARTGCAGTGGCG	MEME-6	chr12	122934024	122934053	-	34.5902	1.15e-12	2.33e-08	CTCTGTGGCCCAGGCTGGAGTGTAGTGGCA
CTCTGTCACSCAGGCTGGARTGCAGTGGCG	MEME-6	chr20	19747511	19747540	-	34.5656	1.17e-12	2.34e-08	CGCTATTGCCCAGGCTGGAGTGCAGTGGCG
CTCTGTCACSCAGGCTGGARTGCAGTGGCG	MEME-6	chr5	132580767	132580796	-	33.9836	1.55e-12	3.06e-08	CTCTGTCACCCAGACTGGAGCACAGTGGCA
CTCTGTCACSCAGGCTGGARTGCAGTGGCG	MEME-6	chr8	121085243	121085272	-	32.8197	2.71e-12	5.25e-08	CTCTGTCACCCAGGCTGGAATGCAATTACA
CTCTGTCACSCAGGCTGGARTGCAGTGGCG	MEME-6	chr9	128058972	128059001	+	32.418	3.31e-12	6.21e-08	ttctgttgcccatgctggagtgcagtggtg
CTCTGTCACSCAGGCTGGARTGCAGTGGCG	MEME-6	chr17	29893616	29893645	-	32.3279	3.37e-12	6.21e-08	CTCTATTGCCCAGGCTGGAGTGCAGTGACC
CTCTGTCACSCAGGCTGGARTGCAGTGGCG	MEME-6	chr2	114634151	114634180	-	32.3279	3.37e-12	6.21e-08	CTCTCTCGCCCAGATTGGAGTGCAGTGTCG
CTCTGTCACSCAGGCTGGARTGCAGTGGCG	MEME-6	chr9	97582259	97582288	+	31.0246	6.24e-12	1.13e-07	ctttgtcacccaggctggagcacagtggcg
CTCTGTCACSCAGGCTGGARTGCAGTGGCG	MEME-6	chr15	93288991	93289020	-	29.377	1.33e-11	2.37e-07	CTCTGTCCCCCAGGCTGCTGTGCAGTGGCA
CTCTGTCACSCAGGCTGGARTGCAGTGGCG	MEME-6	chr17	40295610	40295639	-	29.0574	1.53e-11	2.68e-07	CTCTGTCCCCCAGGCTGGAGTGCAGCTGCA
CTCTGTCACSCAGGCTGGARTGCAGTGGCG	MEME-6	chr9	136608871	136608900	+	28.1557	2.31e-11	3.99e-07	tcccgtcacgcaggctggagtgcagtggca
CTCTGTCACSCAGGCTGGARTGCAGTGGCG	MEME-6	chr5	16573885	16573914	+	27.082	3.58e-11	5.95e-07	tcttgccacccaggctggagtgcagtggca
CTCTGTCACSCAGGCTGGARTGCAGTGGCG	MEME-6	chr11	123016202	123016231	+	27.0574	3.65e-11	5.95e-07	ccctgttgcccaagctggagtgcagcggcg
CTCTGTCACSCAGGCTGGARTGCAGTGGCG	MEME-6	chr7	75735623	75735652	-	27.0574	3.65e-11	5.95e-07	CTCTGCCACCCAGGCCTGCGTGCAGTGGCA
CTCTGTCACSCAGGCTGGARTGCAGTGGCG	MEME-6	chr5	98937926	98937955	-	27.0574	3.65e-11	5.95e-07	CACCATCGCCCAGGCTGGAGTGCAGTGGCA
CTCTGTCACSCAGGCTGGARTGCAGTGGCG	MEME-6	chr12	122934594	122934623	+	25.4262	7.14e-11	1.15e-06	gtctatcacccaggctggaatgcaatggta
CTCTGTCACSCAGGCTGGARTGCAGTGGCG	MEME-6	chr5	173249104	173249133	+	25.3443	7.49e-11	1.19e-06	ctctgttgctcaggctggagtgcaatagtg
CTCTGTCACSCAGGCTGGARTGCAGTGGCG	MEME-6	chr12	100542559	100542588	-	24.7869	9.29e-11	1.45e-06	TCGTGTTGCCCAGGCTAGAGTGCAGTGGCG
CTCTGTCACSCAGGCTGGARTGCAGTGGCG	MEME-6	chr12	117173801	117173830	-	22.9344	1.99e-10	3.07e-06	TGCTCTTGCCCAGGCTGGAGTGCAGTGGGA
CTCTGTCACSCAGGCTGGARTGCAGTGGCG	MEME-6	chr9	88358872	88358901	+	22.2131	2.66e-10	4.04e-06	ctctgttgccaaggctgtaatacagtagtg
CTCTGTCACSCAGGCTGGARTGCAGTGGCG	MEME-6	chr12	50595636	50595665	-	21.5738	3.38e-10	5.07e-06	TCTTGTTCCCCAGGCTGGAGTGCAGTGGCG
CTCTGTCACSCAGGCTGGARTGCAGTGGCG	MEME-6	chr10	121545326	121545355	-	21.5	3.51e-10	5.2e-06	CTCCACCATCTAGGCTAGAGTGCTGTGGTG
CTCTGTCACSCAGGCTGGARTGCAGTGGCG	MEME-6	chr4	24765124	24765153	+	19.9836	6.27e-10	9.08e-06	ctctgtcgcccaggctggagtgctcaagct
CTCTGTCACSCAGGCTGGARTGCAGTGGCG	MEME-6	chr3	40509339	40509368	+	19.9754	6.28e-10	9.08e-06	tgctctcgcccaggctggagtgcagtgggt
CTCTGTCACSCAGGCTGGARTGCAGTGGCG	MEME-6	chr15	70800101	70800130	-	19.7213	6.94e-10	9.9e-06	TCTTGACACCTAGGCTGGAGTGCAGTGGCA
CTCTGTCACSCAGGCTGGARTGCAGTGGCG	MEME-6	chr20	49360683	49360712	+	19.2787	8.13e-10	1.14e-05	tcttgttgcccaggctggagtgcaatggcg
CTCTGTCACSCAGGCTGGARTGCAGTGGCG	MEME-6	chr20	49286649	49286678	-	17.4262	1.62e-09	2.25e-05	TCTTGTTGCCCAGGCTGGAGTGCAATGGTG
CTCTGTCACSCAGGCTGGARTGCAGTGGCG	MEME-6	chr18	55396814	55396843	+	17.0164	1.86e-09	2.52e-05	tcttgttgcccaggctggagtgcaatggca
CTCTGTCACSCAGGCTGGARTGCAGTGGCG	MEME-6	chr8	142164693	142164722	+	17.0164	1.86e-09	2.52e-05	tcttgttgcccaggctggagtgcaatggca
CTCTGTCACSCAGGCTGGARTGCAGTGGCG	MEME-6	chr2	204408727	204408756	-	15.8852	2.81e-09	3.78e-05	CTGTGTCGCTCAGGTTACAGTACAGTGGTG
CTCTGTCACSCAGGCTGGARTGCAGTGGCG	MEME-6	chr14	34949951	34949980	-	15.1639	3.66e-09	4.85e-05	TCTTGTTGCCCAGACTGGAGTGCAATGGTG
CTCTGTCACSCAGGCTGGARTGCAGTGGCG	MEME-6	chr15	90459857	90459886	-	14.2377	5.05e-09	6.63e-05	CTCTGTGCCCCAGGCTGGAATGCAGGGTGC
CTCTGTCACSCAGGCTGGARTGCAGTGGCG	MEME-6	chr20	50366650	50366679	-	14.1721	5.18e-09	6.71e-05	CTTTGTCACCCAGGCTGGAGTGCAAGTGGT
CTCTGTCACSCAGGCTGGARTGCAGTGGCG	MEME-6	chr5	154080481	154080510	-	13.5164	6.49e-09	8.32e-05	CTCTGACACCCAGGCTGGAGTGTGGAGTGC
CTCTGTCACSCAGGCTGGARTGCAGTGGCG	MEME-6	chr18	55755061	55755090	-	13.4836	6.56e-09	8.32e-05	TCTTGCTGTCCAGGCTGGAGTGCAATGGTG
CTCTGTCACSCAGGCTGGARTGCAGTGGCG	MEME-6	chr10	30712863	30712892	+	12.9016	8.09e-09	0.000101	tcttgttgcccaggctgaagtgcattgatg
CTCTGTCACSCAGGCTGGARTGCAGTGGCG	MEME-6	chr5	67746917	67746946	-	11.8852	1.14e-08	0.000141	TCTTGTCGCCCAGGCTGGAGTACAATGGTG
CTCTGTCACSCAGGCTGGARTGCAGTGGCG	MEME-6	chr3	150062622	150062651	+	11.4754	1.3e-08	0.000159	tcttgttgcccaggctggagtacaatggcg
CTCTGTCACSCAGGCTGGARTGCAGTGGCG	MEME-6	chr13	20368825	20368854	-	9.7459	2.31e-08	0.00028	CTCTGTCATTCAAGCCAGAGTGCTGTCACG
CTCTGTCACSCAGGCTGGARTGCAGTGGCG	MEME-6	chr8	17663753	17663782	+	9.5082	2.47e-08	0.000297	tcttgttgcccagactggagggcaatggcg
CTCTGTCACSCAGGCTGGARTGCAGTGGCG	MEME-6	chr14	34837297	34837326	+	8.5	3.43e-08	0.000408	ttctgtcatctaagctggggtgccgtgagt
CTCTGTCACSCAGGCTGGARTGCAGTGGCG	MEME-6	chrX	122937068	122937097	-	7.68033	4.48e-08	0.000527	TCTTGTTGCCAAGGATGGAGTGCAATGGCA
CTCTGTCACSCAGGCTGGARTGCAGTGGCG	MEME-6	chr3	13236785	13236814	-	6.79508	5.94e-08	0.000692	TTCAGTCATCACGGTAGGCATGCAGTGGCA
CTCTGTCACSCAGGCTGGARTGCAGTGGCG	MEME-6	chr12	104614458	104614487	-	5.64754	8.51e-08	0.000981	TCTCATCACCCAGGCTGGAGTGCAATGGCA
CTCTGTCACSCAGGCTGGARTGCAGTGGCG	MEME-6	chr12	93481062	93481091	-	3.96721	1.42e-07	0.00162	TCTTGTTGCCCAGGCTGGAGTACAACGGCG
CTCTGTCACSCAGGCTGGARTGCAGTGGCG	MEME-6	chr7	101619368	101619397	-	0.467213	3.97e-07	0.00449	TCTCTGTGCCCAGGTTGGAGTGCAGTGGTG
CTCTGTCACSCAGGCTGGARTGCAGTGGCG	MEME-6	chr3	72677299	72677328	-	-0.442623	5.2e-07	0.00581	ATGCTGCACGCAGACTGGGGTGCACTGAGG
CTCTGTCACSCAGGCTGGARTGCAGTGGCG	MEME-6	chr17	4090650	4090679	-	-1.22131	6.44e-07	0.00713	CCGTGGAGTCCAGGCTGGAGCCAAGTGGGA
CTCTGTCACSCAGGCTGGARTGCAGTGGCG	MEME-6	chr10	3510266	3510295	-	-2.69672	9.84e-07	0.0108	CTCTGCTGACCATGCCAAGATGCACTGGTG
CTCTGTCACSCAGGCTGGARTGCAGTGGCG	MEME-6	chr6	24879529	24879558	-	-2.90164	1.03e-06	0.0112	CCACTCTCGCCAGGCTGGAGTACAGTGGCG
CTCTGTCACSCAGGCTGGARTGCAGTGGCG	MEME-6	chr3	4786225	4786254	-	-4.51639	1.6e-06	0.0173	CTCTGCCCCTGAAGCAGGAAAGCAGTTAGG
CTCTGTCACSCAGGCTGGARTGCAGTGGCG	MEME-6	chr5	16573246	16573275	-	-4.7541	1.71e-06	0.0182	ACTCTCTCACCAGGCTGGAGTGCAGTGGTG
CTCTGTCACSCAGGCTGGARTGCAGTGGCG	MEME-6	chr5	177507846	177507875	+	-5.44262	2.05e-06	0.0215	ctaagtaaactgggaagaaatgctgtgaga
CTCTGTCACSCAGGCTGGARTGCAGTGGCG	MEME-6	chr11	80431964	80431993	+	-5.45082	2.05e-06	0.0215	gctctgtctccaggctggagtgcagtggca
CTCTGTCACSCAGGCTGGARTGCAGTGGCG	MEME-6	chr9	97545383	97545412	+	-5.65574	2.18e-06	0.0226	CTGGGTCACCTGCATTGAAGGTCAGAGTGG
CTCTGTCACSCAGGCTGGARTGCAGTGGCG	MEME-6	chr2	161078430	161078459	-	-5.79508	2.25e-06	0.0232	TTAGGTCACGCTGCCTGGAATCCTGGGAGG
CTCTGTCACSCAGGCTGGARTGCAGTGGCG	MEME-6	chrX	129169546	129169575	+	-5.93443	2.35e-06	0.0239	CACTCCCAGCCAGACTGGTCAGCTCTGGGG
CTCTGTCACSCAGGCTGGARTGCAGTGGCG	MEME-6	chr8	67036630	67036659	-	-6.34426	2.6e-06	0.0263	CACGGTGGCTTGAGCTGGAGTGCAGGCACG
CTCTGTCACSCAGGCTGGARTGCAGTGGCG	MEME-6	chr15	93211013	93211042	-	-6.5	2.72e-06	0.0272	GTGTATCCCTGAGGCTGGAGAGGAGTGAGA
CTCTGTCACSCAGGCTGGARTGCAGTGGCG	MEME-6	chr3	50306281	50306310	+	-7.18852	3.26e-06	0.0324	CTCCCAGGTCTAGGCTGGCATGAAGTGGGT
CTCTGTCACSCAGGCTGGARTGCAGTGGCG	MEME-6	chr2	85224789	85224818	+	-7.35246	3.39e-06	0.0334	CTCATCTATAAGGGTTGAAAGGCCTTGGGG
CTCTGTCACSCAGGCTGGARTGCAGTGGCG	MEME-6	chr8	131045510	131045539	-	-7.47541	3.51e-06	0.0342	TCTTGTTGCCCAGGCTGGAATGGCGCGATC
CTCTGTCACSCAGGCTGGARTGCAGTGGCG	MEME-6	chr12	124716952	124716981	-	-7.7623	3.77e-06	0.0364	CCCGGCAGCATACACTGGACTGCACTGGTG
CTCTGTCACSCAGGCTGGARTGCAGTGGCG	MEME-6	chr4	75579499	75579528	-	-7.86066	3.88e-06	0.0372	CTGCGTTTCAAGCATTGCAGTGCAGTTACA
CTCTGTCACSCAGGCTGGARTGCAGTGGCG	MEME-6	chr2	226983243	226983272	+	-7.88525	3.91e-06	0.0372	ATCGTGTGGCCAAGATGGAATGCTGTGGCA
CTCTGTCACSCAGGCTGGARTGCAGTGGCG	MEME-6	chr13	110651202	110651231	+	-8.2377	4.3e-06	0.0405	CTTTCTCCTGAATGCTGAAATACCCTGGGG
CTCTGTCACSCAGGCTGGARTGCAGTGGCG	MEME-6	chr4	6752804	6752833	+	-8.28689	4.33e-06	0.0405	CTCTGTGTCCTGGGGTGGGGATGGGTGACA
CTCTGTCACSCAGGCTGGARTGCAGTGGCG	MEME-6	chr5	177508624	177508653	-	-8.38525	4.45e-06	0.0413	GCTTTGTCACCAGGCTGGAGTGCAGTGCCG
CTCTGTCACSCAGGCTGGARTGCAGTGGCG	MEME-6	chr14	51377372	51377401	+	-8.55738	4.65e-06	0.0428	ctatgctgcccaggctgAACTTCTCTCTCT
CTCTGTCACSCAGGCTGGARTGCAGTGGCG	MEME-6	chr13	95898697	95898726	+	-8.68852	4.8e-06	0.0438	CTCTGTTTCCCCGAGAGGGGAGAGGTGACA
CTCTGTCACSCAGGCTGGARTGCAGTGGCG	MEME-6	chr12	104571963	104571992	-	-8.90164	5.1e-06	0.0462	GGCTGGAACCCAGGCTGGGAGGAAGTGGGC
CTCTGTCACSCAGGCTGGARTGCAGTGGCG	MEME-6	chr2	237654592	237654621	+	-9.13115	5.39e-06	0.0481	CTCTGGTAGGAGGGCTGAGGCACAGTGAAC
CTCTGTCACSCAGGCTGGARTGCAGTGGCG	MEME-6	chr11	67449266	67449295	+	-9.13934	5.4e-06	0.0481	atctggccagcagcccgcaatgcaatgggg
CTCTGTCACSCAGGCTGGARTGCAGTGGCG	MEME-6	chr7	27824394	27824423	-	-9.18852	5.49e-06	0.0484	CCATGTCACCCAGGCTGAAACTCCTGGGCT
CTCTGTCACSCAGGCTGGARTGCAGTGGCG	MEME-6	chr7	101618791	101618820	-	-9.20492	5.52e-06	0.0484	TTCTGTCACCCAGGTTGGAGTACATGACAC
CTCTGTCACSCAGGCTGGARTGCAGTGGCG	MEME-6	chr2	226105885	226105914	+	-9.45902	5.87e-06	0.0511	CAGTGCCTTGCAGAATGATATGGATTGAGA
CTCTGTCACSCAGGCTGGARTGCAGTGGCG	MEME-6	chr6	170440132	170440161	-	-9.59016	6.05e-06	0.0523	CTCTGCCGTGACTCTTCAACTGCTGTTGTA
CTCTGTCACSCAGGCTGGARTGCAGTGGCG	MEME-6	chr13	114488300	114488329	-	-9.7459	6.31e-06	0.0541	CTCTGTCATGGTATTAGAAGTGCAGGTGGA
CTCTGTCACSCAGGCTGGARTGCAGTGGCG	MEME-6	chr12	124716552	124716581	+	-10.2295	7.13e-06	0.0607	CTCTCCGGCTCCGGATGGGGTGCGTTGGAG
CTCTGTCACSCAGGCTGGARTGCAGTGGCG	MEME-6	chr6	150944572	150944601	+	-10.3279	7.29e-06	0.0616	ATGTGTCAGGCGGCCTGTAATGATCAGATG
CTCTGTCACSCAGGCTGGARTGCAGTGGCG	MEME-6	chr14	96562527	96562556	+	-10.459	7.55e-06	0.0634	CTCTGTCTTGTGTGGTGGGGGGTGGGGGGA
CTCTGTCACSCAGGCTGGARTGCAGTGGCG	MEME-6	chr5	159688442	159688471	+	-10.6311	7.86e-06	0.0654	CCCAGTCACTCAGCCTGCAATGGTGCTGTG
CTCTGTCACSCAGGCTGGARTGCAGTGGCG	MEME-6	chr2	182886086	182886115	+	-10.6721	7.95e-06	0.0657	gctctgtcaccaggctggagtgcagtggca
CTCTGTCACSCAGGCTGGARTGCAGTGGCG	MEME-6	chr5	124983096	124983125	-	-10.8115	8.25e-06	0.0677	CTCTGCTATTTCTTTTGCTGTGCAGAGGCA
CTCTGTCACSCAGGCTGGARTGCAGTGGCG	MEME-6	chr10	74032634	74032663	+	-11.5246	9.81e-06	0.0795	CACTGCTGCCAGGCCAGATTTCCTGTGGCC
CTCTGTCACSCAGGCTGGARTGCAGTGGCG	MEME-6	chr17	60938519	60938548	+	-11.5328	9.82e-06	0.0795	CCATGGCACCGGGGCTGCAGGCCAGAGGTA
CTCTGTCACSCAGGCTGGARTGCAGTGGCG	MEME-6	chrX	23815498	23815527	+	-11.6721	1.02e-05	0.0816	CTCCGCCAGACCGGATGGAATTCTGGGGAA
CTCTGTCACSCAGGCTGGARTGCAGTGGCG	MEME-6	chr1	17577210	17577239	-	-12.1311	1.14e-05	0.0902	CAGTCACCCCATGGCAGGCAGGCAGTGGTG
CTCTGTCACSCAGGCTGGARTGCAGTGGCG	MEME-6	chr17	40295262	40295291	-	-12.1311	1.14e-05	0.0902	TTCTCTCAGGTATGTTGACATAGAGTGATG
CTCTGTCACSCAGGCTGGARTGCAGTGGCG	MEME-6	chr8	142164258	142164287	-	-12.2131	1.16e-05	0.0909	CTGGGCCCCGCCCTTTGGAGTGCAGTTCAG
CTCTGTCACSCAGGCTGGARTGCAGTGGCG	MEME-6	chr14	96561846	96561875	+	-12.2295	1.16e-05	0.0909	CTCTGTCCAGGAGTTGGTTATGCTGTGGGT
CTCTGTCACSCAGGCTGGARTGCAGTGGCG	MEME-6	chr16	89571953	89571982	+	-12.8361	1.35e-05	0.104	CAGAGTTCAGAGGGCTGAGGAGGGGTGACG
CTCTGTCACSCAGGCTGGARTGCAGTGGCG	MEME-6	chr3	20085138	20085167	+	-12.8443	1.35e-05	0.104	CTGGGGTGCGTGGCCAAGAGGGCACTGAGG
CTCTGTCACSCAGGCTGGARTGCAGTGGCG	MEME-6	chr4	108979951	108979980	-	-12.9016	1.37e-05	0.105	GTAAGTCACGAATCCTGTTAGGCGGTGGGG
CTCTGTCACSCAGGCTGGARTGCAGTGGCG	MEME-6	chr16	82172436	82172465	-	-12.9754	1.39e-05	0.106	CTCAGGTGTGCTGATTGGACTGTTGGCGTG
CTCTGTCACSCAGGCTGGARTGCAGTGGCG	MEME-6	chr12	15942887	15942916	+	-13.0492	1.42e-05	0.108	CTCTCCAACCCATGCGGTAAACTGGTGGTG
CTCTGTCACSCAGGCTGGARTGCAGTGGCG	MEME-6	chr7	52900798	52900827	+	-13.1393	1.45e-05	0.109	GTGTGTGGCACAGGGAGGAAAGGAGGGGCA
CTCTGTCACSCAGGCTGGARTGCAGTGGCG	MEME-6	chr9	114828775	114828804	+	-13.6803	1.65e-05	0.123	CAGTGTTCCTAAGTCAGGTCTGGAGTGGCA
CTCTGTCACSCAGGCTGGARTGCAGTGGCG	MEME-6	chr3	73730692	73730721	-	-13.7049	1.66e-05	0.123	CTCAATAGCTCTGGCTAAGGTGCTTTGGTG
CTCTGTCACSCAGGCTGGARTGCAGTGGCG	MEME-6	chr4	86015010	86015039	+	-13.7131	1.67e-05	0.123	GTCTGCTGTGCATACATGGCTGCTGTGACT
CTCTGTCACSCAGGCTGGARTGCAGTGGCG	MEME-6	chr19	45245337	45245366	+	-13.8525	1.71e-05	0.125	CAGAGCTGCCAAGGCTCCAGGGTGGGGAGG
CTCTGTCACSCAGGCTGGARTGCAGTGGCG	MEME-6	chr1	3571291	3571320	+	-14.0984	1.82e-05	0.132	ATCTCCAGGGCAGGAGGGATGGCAGTGAGG
CTCTGTCACSCAGGCTGGARTGCAGTGGCG	MEME-6	chr7	101344056	101344085	+	-14.1557	1.85e-05	0.133	tcttgttgcccaggctggagtgggcaatgg
CTCTGTCACSCAGGCTGGARTGCAGTGGCG	MEME-6	chr2	11638490	11638519	+	-14.2705	1.89e-05	0.136	ctgtctctcctacaatggattgcctttgca
CTCTGTCACSCAGGCTGGARTGCAGTGGCG	MEME-6	chr9	97581589	97581618	-	-14.2951	1.91e-05	0.136	CTCTATTTGGAAGATGCGGGTGGGGTGACA
CTCTGTCACSCAGGCTGGARTGCAGTGGCG	MEME-6	chr16	64512841	64512870	-	-14.3033	1.92e-05	0.136	CTCTTGCATGTGTCTTTGAGTGCATGGAGA
CTCTGTCACSCAGGCTGGARTGCAGTGGCG	MEME-6	chr5	67746089	67746118	-	-14.4426	1.98e-05	0.14	TTGTGTCTGGTGGACTGGAATCCTTTCCTA
CTCTGTCACSCAGGCTGGARTGCAGTGGCG	MEME-6	chr11	80411417	80411446	-	-14.4754	1.99e-05	0.14	CCCTGTCACGCACGTCCATGTGAAGAGACC
CTCTGTCACSCAGGCTGGARTGCAGTGGCG	MEME-6	chr11	86289288	86289317	+	-14.5902	2.05e-05	0.142	CTGAGTCAGCTGGACTGCAACAAAGTAATA
CTCTGTCACSCAGGCTGGARTGCAGTGGCG	MEME-6	chr1	109496099	109496128	+	-14.5902	2.05e-05	0.142	atgtgtagccaagacagaaaaccactgtta
CTCTGTCACSCAGGCTGGARTGCAGTGGCG	MEME-6	chr9	130769417	130769446	-	-14.6475	2.08e-05	0.143	CTGGGAGGTGGAGGTTGCAGTGAGCTGAGA
CTCTGTCACSCAGGCTGGARTGCAGTGGCG	MEME-6	chr8	125150415	125150444	-	-14.7377	2.13e-05	0.144	ATCTATATTCCAGGCAGGAATCAAGGGACA
CTCTGTCACSCAGGCTGGARTGCAGTGGCG	MEME-6	chr7	475967	475996	-	-14.7787	2.14e-05	0.144	CTGAGCCAACGGGGCGGGGCTGCTGTTCCA
CTCTGTCACSCAGGCTGGARTGCAGTGGCG	MEME-6	chr1	37504801	37504830	+	-14.7787	2.14e-05	0.144	TTCTGCTGCCGTGTGAGGAGCACTGTGGGG
CTCTGTCACSCAGGCTGGARTGCAGTGGCG	MEME-6	chr20	49039922	49039951	-	-14.8115	2.15e-05	0.144	GTGTGCTCTCAGGGCTGAGGAGCAGGAGAA
CTCTGTCACSCAGGCTGGARTGCAGTGGCG	MEME-6	chr2	197466266	197466295	+	-14.8197	2.16e-05	0.144	CTGGGTTGCCTGGACTGCAGAAGGTTGACT
CTCTGTCACSCAGGCTGGARTGCAGTGGCG	MEME-6	chr8	129154297	129154326	+	-14.9836	2.25e-05	0.149	CTCTGACTTCAAAGCTGGGACACGCTGACC
CTCTGTCACSCAGGCTGGARTGCAGTGGCG	MEME-6	chr2	217657566	217657595	+	-14.9918	2.26e-05	0.149	CACTGCTGCGGAGTCTGCAAACCAGCAGGG
CTCTGTCACSCAGGCTGGARTGCAGTGGCG	MEME-6	chr16	89572036	89572065	+	-15.0984	2.31e-05	0.151	CAGAGTTCAGAGGGCTGAGGAGGGGTGACA
CTCTGTCACSCAGGCTGGARTGCAGTGGCG	MEME-6	chr22	30194936	30194965	-	-15.123	2.32e-05	0.151	TGGGGCCCTCTGGGCTGGCACGCAGAGAGA
CTCTGTCACSCAGGCTGGARTGCAGTGGCG	MEME-6	chr6	129017605	129017634	+	-15.1639	2.35e-05	0.151	CTGTATTTCATAGGAAAGAAGGCAGTAGTG
CTCTGTCACSCAGGCTGGARTGCAGTGGCG	MEME-6	chr5	16815820	16815849	+	-15.1885	2.36e-05	0.151	AGCGGTCATGTGGATACCTATGCAGTGGTA
CTCTGTCACSCAGGCTGGARTGCAGTGGCG	MEME-6	chr12	48298580	48298609	-	-15.1885	2.36e-05	0.151	TACTGAGGTCCGGGCTGTCGTGCCATGAGG
CTCTGTCACSCAGGCTGGARTGCAGTGGCG	MEME-6	chr11	82611609	82611638	-	-15.2295	2.37e-05	0.151	CTCGGGGATGGGGGCGGAGTGGCTGTGGTG
CTCTGTCACSCAGGCTGGARTGCAGTGGCG	MEME-6	chr4	3782524	3782553	+	-15.4016	2.48e-05	0.158	CTATGTCGTGCAGCTTGGAGACCCTGCGCA
CTCTGTCACSCAGGCTGGARTGCAGTGGCG	MEME-6	chr9	134273735	134273764	+	-15.582	2.59e-05	0.162	ATCCTTCGTCCGAGCTGAAGTGCACCTCCG
CTCTGTCACSCAGGCTGGARTGCAGTGGCG	MEME-6	chr8	96222697	96222726	+	-15.6311	2.62e-05	0.162	CACTGTGATACCATGTGGAGTGTGGTGAGA
CTCTGTCACSCAGGCTGGARTGCAGTGGCG	MEME-6	chr12	132315741	132315770	+	-15.6475	2.63e-05	0.162	ATCTGGGTCCTGGGTGGCAGTTGTGTGGTG
CTCTGTCACSCAGGCTGGARTGCAGTGGCG	MEME-6	chr5	159688310	159688339	-	-15.6475	2.63e-05	0.162	CTCTGCATCAAAGACCAGAGCTCTGTGTCA
CTCTGTCACSCAGGCTGGARTGCAGTGGCG	MEME-6	chr15	42222872	42222901	-	-15.6557	2.63e-05	0.162	CTTAATTGCTAGAGCTGGTCTGCAGTGCCA
CTCTGTCACSCAGGCTGGARTGCAGTGGCG	MEME-6	chr1	97438183	97438212	-	-15.7377	2.69e-05	0.164	AAATGTCACCTGGGTGGGAGGGAGGGAGGG
CTCTGTCACSCAGGCTGGARTGCAGTGGCG	MEME-6	chr3	20085022	20085051	+	-15.7459	2.69e-05	0.164	CTTGGCAGGGCAGAGTGGGGTGGGGTGAAG
CTCTGTCACSCAGGCTGGARTGCAGTGGCG	MEME-6	chr17	37926479	37926508	-	-15.7541	2.7e-05	0.164	ATGCTCCGTGCAGGTTTGGAAGCAGTTACA
CTCTGTCACSCAGGCTGGARTGCAGTGGCG	MEME-6	chr3	187468048	187468077	-	-16	2.86e-05	0.173	CATGGTCAGGTGTACAAGAGGGCGGTGGGG
CTCTGTCACSCAGGCTGGARTGCAGTGGCG	MEME-6	chr5	173018305	173018334	-	-16.1475	2.95e-05	0.177	CTCAATTCAGAATGCAGGAATGCAGGGATC
CTCTGTCACSCAGGCTGGARTGCAGTGGCG	MEME-6	chr5	1516154	1516183	+	-16.2049	2.99e-05	0.178	CAGAGGTGACCAGCCTGACGTGCAGCTGTG
CTCTGTCACSCAGGCTGGARTGCAGTGGCG	MEME-6	chr6	170440287	170440316	-	-16.3197	3.08e-05	0.183	ATGGGTGACGTGGGCGTGGGTGGGGAGGTG
CTCTGTCACSCAGGCTGGARTGCAGTGGCG	MEME-6	chr17	25897709	25897738	+	-16.3934	3.13e-05	0.184	GAGTTTGGGCTGGGCTCGAGTTCAGTGGAA
CTCTGTCACSCAGGCTGGARTGCAGTGGCG	MEME-6	chr19	42278554	42278583	+	-16.3934	3.13e-05	0.184	CTGAGTCGTCAGGGTGGAGGAGCTGAAAAG
CTCTGTCACSCAGGCTGGARTGCAGTGGCG	MEME-6	chr17	4064613	4064642	+	-16.5164	3.2e-05	0.188	GGCTGTCCTTGCGGTAGGAATGCAGGGAGA
CTCTGTCACSCAGGCTGGARTGCAGTGGCG	MEME-6	chr8	48455035	48455064	-	-16.5656	3.26e-05	0.19	GTGTGGAATCTGAATTAGAAACCAGTGGGA
CTCTGTCACSCAGGCTGGARTGCAGTGGCG	MEME-6	chr17	40295577	40295606	+	-16.6148	3.3e-05	0.191	ctgggaggcagaggctgcagtgagctgaga
CTCTGTCACSCAGGCTGGARTGCAGTGGCG	MEME-6	chr14	104320623	104320652	-	-16.6393	3.31e-05	0.191	CTGTGTCACCAGGGCCTGGACCTGGGTGGG
CTCTGTCACSCAGGCTGGARTGCAGTGGCG	MEME-6	chr14	96562529	96562558	+	-16.6721	3.34e-05	0.192	CTGTCTTGTGTGGTGGGGGGTGGGGGGAGG
CTCTGTCACSCAGGCTGGARTGCAGTGGCG	MEME-6	chr3	140675924	140675953	-	-16.9344	3.54e-05	0.202	CTCTGCTGTCTCAGTTGTACTTAGGTTACA
CTCTGTCACSCAGGCTGGARTGCAGTGGCG	MEME-6	chr20	61745822	61745851	-	-17.0574	3.65e-05	0.206	CCTTGCCCCTCCGGCGGGAAAGTTGAGGCG
CTCTGTCACSCAGGCTGGARTGCAGTGGCG	MEME-6	chr11	78508713	78508742	-	-17.0656	3.65e-05	0.206	CCCAGTTGCCTGGGAGGTAGTGTGGCGGTT
CTCTGTCACSCAGGCTGGARTGCAGTGGCG	MEME-6	chr5	173018418	173018447	-	-17.1967	3.76e-05	0.211	CTCTGTAAAGGAGGGAGGCCTGCAGCGAGC
CTCTGTCACSCAGGCTGGARTGCAGTGGCG	MEME-6	chrX	104395241	104395270	+	-17.2377	3.79e-05	0.212	CTGTCTGTTTCAGACTAGACTGGACTGACA
CTCTGTCACSCAGGCTGGARTGCAGTGGCG	MEME-6	chr10	119242663	119242692	+	-17.2541	3.82e-05	0.213	CTGTCCCCCGACAGCTGCAAGACAGGGAGG
CTCTGTCACSCAGGCTGGARTGCAGTGGCG	MEME-6	chr8	18858669	18858698	-	-17.3115	3.88e-05	0.213	CTAGGAGGTCAAGGCTGCAGTGAGTTGTGA
CTCTGTCACSCAGGCTGGARTGCAGTGGCG	MEME-6	chr22	46307895	46307924	-	-17.3361	3.89e-05	0.213	CTGGGTGGGGCGGGAGGAATCCCTGTGGGG
CTCTGTCACSCAGGCTGGARTGCAGTGGCG	MEME-6	chr13	25576512	25576541	+	-17.3361	3.89e-05	0.213	CTGGGCTTTTTAGGGTGGAGTGAGGCCTCG
CTCTGTCACSCAGGCTGGARTGCAGTGGCG	MEME-6	chr1	43672861	43672890	-	-17.3689	3.92e-05	0.213	CCATGCCTGGAAGGTGGGAGAGAAGTTACA
CTCTGTCACSCAGGCTGGARTGCAGTGGCG	MEME-6	chr12	76118878	76118907	+	-17.377	3.93e-05	0.213	ATCTGTTGACAATACTCTTGTGCAGAGCCA
CTCTGTCACSCAGGCTGGARTGCAGTGGCG	MEME-6	chr20	58707636	58707665	+	-17.4262	3.97e-05	0.215	CAGATTCGTGCAGAGGTGTGTGCAGGGGTG
CTCTGTCACSCAGGCTGGARTGCAGTGGCG	MEME-6	chr17	61656766	61656795	+	-17.4754	4.01e-05	0.216	CTGACCTCCTTTGACTGGAATGAGGTGGAT
CTCTGTCACSCAGGCTGGARTGCAGTGGCG	MEME-6	chr1	37504687	37504716	+	-17.5082	4.03e-05	0.216	CTGTGTTTCAATAGTTCGGGTGCGGTTCTG
CTCTGTCACSCAGGCTGGARTGCAGTGGCG	MEME-6	chr3	20085116	20085145	+	-17.5246	4.05e-05	0.216	CTTTGTTGCCTAGGGCCACCGGCTGGGGTG
CTCTGTCACSCAGGCTGGARTGCAGTGGCG	MEME-6	chr17	73642117	73642146	-	-17.6066	4.15e-05	0.219	CTGTGCCCTGGTGCTTGAAACCTAGTGGCC
CTCTGTCACSCAGGCTGGARTGCAGTGGCG	MEME-6	chr7	3284223	3284252	+	-17.6475	4.17e-05	0.219	ACCTCCCTCCTGGGATGAAGTCCTGAGCTG
CTCTGTCACSCAGGCTGGARTGCAGTGGCG	MEME-6	chr11	78508995	78509024	+	-17.6475	4.17e-05	0.219	CTGTGCTTTCTGGACTGAGAAGCTAATGCT
CTCTGTCACSCAGGCTGGARTGCAGTGGCG	MEME-6	chr14	96562107	96562136	+	-17.6475	4.17e-05	0.219	CTGAGCCTTTAGGGTTGGAGGAGGGGGAGA
CTCTGTCACSCAGGCTGGARTGCAGTGGCG	MEME-6	chr21	45029524	45029553	-	-17.6885	4.22e-05	0.22	CACTAACGCCCACCCTTGAGTCCTCTGGAG
CTCTGTCACSCAGGCTGGARTGCAGTGGCG	MEME-6	chr4	75579713	75579742	+	-17.7213	4.25e-05	0.22	TTCTGTTCCTCAAACTGTAATGTGTTTGTA
CTCTGTCACSCAGGCTGGARTGCAGTGGCG	MEME-6	chr22	46084511	46084540	-	-17.7705	4.28e-05	0.22	CTGAGCTGCCCAGGTTACAGAGCTGCTCAG
CTCTGTCACSCAGGCTGGARTGCAGTGGCG	MEME-6	chr6	96644543	96644572	-	-17.7705	4.28e-05	0.22	ACTCTGTCACCAGGCCGGAGTGCAGTGGTG
CTCTGTCACSCAGGCTGGARTGCAGTGGCG	MEME-6	chrX	78094361	78094390	+	-17.8689	4.4e-05	0.225	cccattaatgcagactaaagtgttctgggt
CTCTGTCACSCAGGCTGGARTGCAGTGGCG	MEME-6	chr1	20864829	20864858	+	-18.0246	4.55e-05	0.232	CTGTGGCTCACAGCCTGGTGAGCTGCAGGT
CTCTGTCACSCAGGCTGGARTGCAGTGGCG	MEME-6	chr20	18883037	18883066	+	-18.0656	4.58e-05	0.232	CAATGTCTTTCAGCTGGGAGGTCACTGGCG
CTCTGTCACSCAGGCTGGARTGCAGTGGCG	MEME-6	chr9	114828333	114828362	-	-18.1557	4.68e-05	0.236	CTCGGCCGGCCGTCTTCTAGTGGTGTGACT
CTCTGTCACSCAGGCTGGARTGCAGTGGCG	MEME-6	chr5	177508591	177508620	+	-18.2131	4.74e-05	0.238	cagggtgtcggaggttgcagtgtgctgaga
CTCTGTCACSCAGGCTGGARTGCAGTGGCG	MEME-6	chr12	104571659	104571688	-	-18.2377	4.78e-05	0.239	CTGTAACAGGAGGGTGGGATTCTGGAGGCA
CTCTGTCACSCAGGCTGGARTGCAGTGGCG	MEME-6	chr22	31976055	31976084	+	-18.2705	4.82e-05	0.24	gcctgctgtgcaggctggcttgtgttaggc
CTCTGTCACSCAGGCTGGARTGCAGTGGCG	MEME-6	chr21	43784121	43784150	-	-18.3525	4.89e-05	0.243	CTCTGCCTCCTGGGTTCAAGTGATTCTCCT
CTCTGTCACSCAGGCTGGARTGCAGTGGCG	MEME-6	chr3	139021629	139021658	-	-18.418	4.96e-05	0.245	CTCAGTAAAGAGCTTTGAAATGCACGAGTG
CTCTGTCACSCAGGCTGGARTGCAGTGGCG	MEME-6	chr5	67845435	67845464	-	-18.5082	5.05e-05	0.248	CACAGGCACTCAGACTGGTCAGATGTGAAG
CTCTGTCACSCAGGCTGGARTGCAGTGGCG	MEME-6	chr13	33859918	33859947	-	-18.5164	5.06e-05	0.248	GAGGGCCCCGGGGGTTGGAATTCTGAGTTG
CTCTGTCACSCAGGCTGGARTGCAGTGGCG	MEME-6	chr7	100996256	100996285	-	-18.5656	5.15e-05	0.251	GACTGTCCCCAAGGCTGGAGTAGATTTTTT
CTCTGTCACSCAGGCTGGARTGCAGTGGCG	MEME-6	chr14	104320492	104320521	-	-18.6721	5.26e-05	0.255	CAGGTCTGGGCAGTCTGGAGGAATGTGGTG
CTCTGTCACSCAGGCTGGARTGCAGTGGCG	MEME-6	chr10	121558340	121558369	+	-18.6885	5.28e-05	0.255	ctatattgcccaggctggactcaaactgct
CTCTGTCACSCAGGCTGGARTGCAGTGGCG	MEME-6	chr2	197451677	197451706	-	-18.7541	5.34e-05	0.257	CTTTGTCAAATAACATGGTTGGCTGTGGCA
CTCTGTCACSCAGGCTGGARTGCAGTGGCG	MEME-6	chr10	33562559	33562588	-	-18.8033	5.39e-05	0.258	CATTCTCACCTTTGCCGGGCTGCTGTGCTG
CTCTGTCACSCAGGCTGGARTGCAGTGGCG	MEME-6	chr12	52672558	52672587	+	-18.8115	5.41e-05	0.258	TCCTCTTGAGAAGGCAGAAGGGCTGTGTTT
CTCTGTCACSCAGGCTGGARTGCAGTGGCG	MEME-6	chr5	38831139	38831168	-	-18.8689	5.5e-05	0.26	GGCTGCTACCTATACTGGTGCAATGTGCTG
CTCTGTCACSCAGGCTGGARTGCAGTGGCG	MEME-6	chr10	74032352	74032381	+	-18.877	5.51e-05	0.26	TTCTTTTTTCTAAGTTGGGGTGGGGATGGG
CTCTGTCACSCAGGCTGGARTGCAGTGGCG	MEME-6	chr15	86422044	86422073	+	-18.877	5.51e-05	0.26	ctgggaggcagaggttgcagtgagctgaga
CTCTGTCACSCAGGCTGGARTGCAGTGGCG	MEME-6	chr15	40377761	40377790	-	-19.041	5.69e-05	0.266	CTCAGCTGAGAGGTGGGGAGAGCGGGAGGG
CTCTGTCACSCAGGCTGGARTGCAGTGGCG	MEME-6	chr13	25691517	25691546	-	-19.0492	5.7e-05	0.266	GGCTCTCATGAAGACTGAGAAGCAGCAGTC
CTCTGTCACSCAGGCTGGARTGCAGTGGCG	MEME-6	chr6	24879532	24879561	+	-19.0738	5.72e-05	0.266	cactgtactccagcctggcgagagtggggg
CTCTGTCACSCAGGCTGGARTGCAGTGGCG	MEME-6	chr6	33956001	33956030	+	-19.0738	5.72e-05	0.266	CTGGGCCACCTGGACAGTGGGGTGGTAGGT
CTCTGTCACSCAGGCTGGARTGCAGTGGCG	MEME-6	chr7	101619335	101619364	+	-19.1967	5.9e-05	0.272	ctgggaggtgaagattgcagtgagccgaga
CTCTGTCACSCAGGCTGGARTGCAGTGGCG	MEME-6	chr11	71856320	71856349	-	-19.2049	5.9e-05	0.272	CTTGCTTTATCAGTTTGGAATGCAATTGCG
CTCTGTCACSCAGGCTGGARTGCAGTGGCG	MEME-6	chr6	16146941	16146970	-	-19.2541	6e-05	0.275	TCAGATTGAGAAGACTGGTGTGCGTTGGCA
CTCTGTCACSCAGGCTGGARTGCAGTGGCG	MEME-6	chr21	46823596	46823625	+	-19.3033	6.05e-05	0.276	cacagacacacccacTGCACTGCAGAGACA
CTCTGTCACSCAGGCTGGARTGCAGTGGCG	MEME-6	chr11	123016369	123016398	+	-19.377	6.13e-05	0.276	ccatgttggccaggctggtatcgagctgct
CTCTGTCACSCAGGCTGGARTGCAGTGGCG	MEME-6	chr8	125192977	125193006	+	-19.377	6.13e-05	0.276	AAATGTTGCCCAGACTGAAGAGTGCTTTCA
CTCTGTCACSCAGGCTGGARTGCAGTGGCG	MEME-6	chr5	131721236	131721265	+	-19.377	6.13e-05	0.276	CTGTCTGGCCTTCACTAGAGGGCAGCAACA
CTCTGTCACSCAGGCTGGARTGCAGTGGCG	MEME-6	chr5	173251421	173251450	-	-19.3852	6.14e-05	0.276	TAAAGTCTCCTTCACTGAAATTCTGTGGTA
CTCTGTCACSCAGGCTGGARTGCAGTGGCG	MEME-6	chr11	35413141	35413170	+	-19.582	6.44e-05	0.287	GACCGTCAACCAGTCTAGAAGGAAATGGGA
CTCTGTCACSCAGGCTGGARTGCAGTGGCG	MEME-6	chr7	74050261	74050290	-	-19.6066	6.47e-05	0.287	CTGTGTCAAGGTGCACAGGGTGCAGAGGGA
CTCTGTCACSCAGGCTGGARTGCAGTGGCG	MEME-6	chr1	204386625	204386654	-	-19.6475	6.52e-05	0.287	CAGGGCAGTGTGGATTGGTAGGAGGCGGCA
CTCTGTCACSCAGGCTGGARTGCAGTGGCG	MEME-6	chr17	39560287	39560316	-	-19.6639	6.55e-05	0.287	CTGTGTTTCTTAAGTTCACATCCAGTGCTC
CTCTGTCACSCAGGCTGGARTGCAGTGGCG	MEME-6	chr15	63752617	63752646	+	-19.6885	6.58e-05	0.287	CTCAGGCACCCAGACCTGAGGCAggtctgg
CTCTGTCACSCAGGCTGGARTGCAGTGGCG	MEME-6	chr22	43130413	43130442	-	-19.6967	6.59e-05	0.287	GCCTGCCGAGCAAACTGGAGAGAAAGGAGA
CTCTGTCACSCAGGCTGGARTGCAGTGGCG	MEME-6	chr5	67745836	67745865	+	-19.7377	6.63e-05	0.287	GTGTGTTATAATGGGGGAACAGCTGTGTCA
CTCTGTCACSCAGGCTGGARTGCAGTGGCG	MEME-6	chr11	76483725	76483754	-	-19.7377	6.63e-05	0.287	CTTTGTTATCATGCTTGGGTTGTTGCGTGA
CTCTGTCACSCAGGCTGGARTGCAGTGGCG	MEME-6	chr20	31779119	31779148	+	-19.7541	6.65e-05	0.287	CTTTTTCACCAAGCCCAGAATGTAAAAGTG
CTCTGTCACSCAGGCTGGARTGCAGTGGCG	MEME-6	chr10	33587485	33587514	+	-19.7705	6.67e-05	0.287	CTCCTCCTTGCTGGCTGGGGAGCAGGAGGT
CTCTGTCACSCAGGCTGGARTGCAGTGGCG	MEME-6	chr12	117174062	117174091	+	-19.7705	6.67e-05	0.287	ctgagtcagatagagaggaaggcagaggac
CTCTGTCACSCAGGCTGGARTGCAGTGGCG	MEME-6	chr4	88221043	88221072	-	-19.8115	6.75e-05	0.288	CTGACTTGCCTAGGGTGCAATCATGTCTCA
CTCTGTCACSCAGGCTGGARTGCAGTGGCG	MEME-6	chr10	33587546	33587575	-	-19.8279	6.78e-05	0.288	CTCTGATGCCAAAACCAACATGCAGCCAAG
CTCTGTCACSCAGGCTGGARTGCAGTGGCG	MEME-6	chr13	33859818	33859847	-	-19.8361	6.81e-05	0.288	CTCTTTGACTGAGACTGGAGACAGACGGCA
CTCTGTCACSCAGGCTGGARTGCAGTGGCG	MEME-6	chr21	45616412	45616441	+	-19.8607	6.84e-05	0.288	CTGTGGCTTCCTGGTGGGAGGACACAGGCC
CTCTGTCACSCAGGCTGGARTGCAGTGGCG	MEME-6	chr11	27423663	27423692	-	-19.8689	6.85e-05	0.288	CTGAGTCATGTGGACGGGAGGATATTTGAA
CTCTGTCACSCAGGCTGGARTGCAGTGGCG	MEME-6	chr14	96561831	96561860	-	-19.8852	6.87e-05	0.288	AACTCCTGGACAGAGTGAAGAGCTGTGGTT
CTCTGTCACSCAGGCTGGARTGCAGTGGCG	MEME-6	chr20	49286616	49286645	+	-19.8934	6.88e-05	0.288	ccgggaggcggaggttgcagtgagctgaga
CTCTGTCACSCAGGCTGGARTGCAGTGGCG	MEME-6	chr11	68111851	68111880	-	-19.8934	6.88e-05	0.288	CCGAGAAGTGGAGGTTGCAGTGAGCTGAGG
CTCTGTCACSCAGGCTGGARTGCAGTGGCG	MEME-6	chr17	73641827	73641856	-	-19.9508	6.98e-05	0.291	AGGTGTGGCCAGGGTTGGATGACAGATGGA
CTCTGTCACSCAGGCTGGARTGCAGTGGCG	MEME-6	chr6	96644538	96644567	-	-20.0082	7.05e-05	0.292	GTCACCAGGCCGGAGTGCAGTGGTGTGATG
CTCTGTCACSCAGGCTGGARTGCAGTGGCG	MEME-6	chr10	111942045	111942074	+	-20.0492	7.09e-05	0.292	CCCAGATGCCCCTGCTGGAAAGTTGAGGCC
CTCTGTCACSCAGGCTGGARTGCAGTGGCG	MEME-6	chr6	33956534	33956563	+	-20.0574	7.1e-05	0.292	AGGAGCCAGCAGGACTGAGGGGCAGGGCTG
CTCTGTCACSCAGGCTGGARTGCAGTGGCG	MEME-6	chr12	104571966	104571995	+	-20.0656	7.12e-05	0.292	CACTTCCTCCCAGCCTGGGTTCCAGCCACA
CTCTGTCACSCAGGCTGGARTGCAGTGGCG	MEME-6	chr15	27656029	27656058	+	-20.1557	7.28e-05	0.297	gtgtgtTggaatgctttcagtgctttggca
CTCTGTCACSCAGGCTGGARTGCAGTGGCG	MEME-6	chr1	232736584	232736613	-	-20.1721	7.3e-05	0.297	CATTGCTGTGTAGGCTGCCTGGCTGTCACC
CTCTGTCACSCAGGCTGGARTGCAGTGGCG	MEME-6	chr15	99398707	99398736	-	-20.1885	7.33e-05	0.298	CTCTGTAATTCTTTCTGCAGTCCTATAGCA
CTCTGTCACSCAGGCTGGARTGCAGTGGCG	MEME-6	chr9	15401114	15401143	+	-20.2213	7.4e-05	0.298	ctatgttgcccaggctggcctcaaattctt
CTCTGTCACSCAGGCTGGARTGCAGTGGCG	MEME-6	chr3	189497428	189497457	+	-20.2213	7.4e-05	0.298	CTgtgtagcacaggggagcatgaagtttgg
CTCTGTCACSCAGGCTGGARTGCAGTGGCG	MEME-6	chr6	36992611	36992640	+	-20.2295	7.41e-05	0.298	CCCTGCCTGCCAGACGGGAATCCTTGTGAG
CTCTGTCACSCAGGCTGGARTGCAGTGGCG	MEME-6	chr2	438821	438850	-	-20.2869	7.5e-05	0.298	CCCCGGCACCAAGGTGTGAGCCCAGCTGTG
CTCTGTCACSCAGGCTGGARTGCAGTGGCG	MEME-6	chr15	90460500	90460529	-	-20.2951	7.51e-05	0.298	CACTGCACTCCAGCCTGGGATACAGAGCAA
CTCTGTCACSCAGGCTGGARTGCAGTGGCG	MEME-6	chr5	66511735	66511764	+	-20.3115	7.53e-05	0.298	CTGACCCGGCTGGGCAGGGTGGCTGTGAGC
CTCTGTCACSCAGGCTGGARTGCAGTGGCG	MEME-6	chr20	43201663	43201692	-	-20.3197	7.54e-05	0.298	CTCTGCCCTGAAAAAAGAACTTCTGTGCTT
CTCTGTCACSCAGGCTGGARTGCAGTGGCG	MEME-6	chr2	46391693	46391722	+	-20.3279	7.55e-05	0.298	CTCAGCTGGCCATACTGAATCTGGGTGACC
CTCTGTCACSCAGGCTGGARTGCAGTGGCG	MEME-6	chr1	204386358	204386387	+	-20.3607	7.6e-05	0.299	CCTTCCCAAGCCTGCTAGAGGGCAGAGGGA
CTCTGTCACSCAGGCTGGARTGCAGTGGCG	MEME-6	chr10	32250915	32250944	+	-20.3934	7.66e-05	0.3	ctgagtcatgcagcatcaaagtaTGTGAGC
CTCTGTCACSCAGGCTGGARTGCAGTGGCG	MEME-6	chr3	31198856	31198885	+	-20.4016	7.67e-05	0.3	CTTTGCCTCAGGGGATGGGATGCTATGTAA
CTCTGTCACSCAGGCTGGARTGCAGTGGCG	MEME-6	chr16	73030492	73030521	-	-20.4344	7.72e-05	0.301	CCCCGCCTTGTAGGCTCACAACCAGTTATG
CTCTGTCACSCAGGCTGGARTGCAGTGGCG	MEME-6	chr14	69274563	69274592	+	-20.5	7.85e-05	0.305	CTGGACCCCGAGAGTTGGACTCCAGAGCTA
CTCTGTCACSCAGGCTGGARTGCAGTGGCG	MEME-6	chr14	77371424	77371453	+	-20.5574	7.97e-05	0.305	ctttgaagcaatgccttaagggcactgggg
CTCTGTCACSCAGGCTGGARTGCAGTGGCG	MEME-6	chr7	16845322	16845351	+	-20.5984	8.01e-05	0.305	TCCTGCCACGCAAGCAGGAAGCCATTTACT
CTCTGTCACSCAGGCTGGARTGCAGTGGCG	MEME-6	chr17	25897170	25897199	+	-20.6066	8.02e-05	0.305	AGCTGGGCCCAGGGATAGAGCGGTGTGGGG
CTCTGTCACSCAGGCTGGARTGCAGTGGCG	MEME-6	chr8	11219140	11219169	-	-20.6148	8.04e-05	0.305	CAGCGACATCCAGGATGTTATGCAGGCCTG
CTCTGTCACSCAGGCTGGARTGCAGTGGCG	MEME-6	chr8	142164539	142164568	+	-20.6393	8.08e-05	0.305	TGGTGGTGCCCTCACTGGAGTTCTGGAATG
CTCTGTCACSCAGGCTGGARTGCAGTGGCG	MEME-6	chr3	12486247	12486276	-	-20.6475	8.1e-05	0.305	TGTTTTGGCGCTGGCTGGGGTCCAGGGATG
CTCTGTCACSCAGGCTGGARTGCAGTGGCG	MEME-6	chr21	46129991	46130020	-	-20.6475	8.1e-05	0.305	CTCCTCAGCACACCCTGGAGTGGGGGTGGG
CTCTGTCACSCAGGCTGGARTGCAGTGGCG	MEME-6	chr1	232736615	232736644	-	-20.6557	8.11e-05	0.305	TTCTACAACCCATTTTGTAGGACAGGGGTG
CTCTGTCACSCAGGCTGGARTGCAGTGGCG	MEME-6	chr1	235109654	235109683	-	-20.6557	8.11e-05	0.305	CTGTGTCAGGTGGCCACGAGGGCATCTGCT
CTCTGTCACSCAGGCTGGARTGCAGTGGCG	MEME-6	chr20	31097279	31097308	+	-20.6967	8.17e-05	0.305	cactgcactccagcctgggtggcagagtga
CTCTGTCACSCAGGCTGGARTGCAGTGGCG	MEME-6	chr22	46307598	46307627	-	-20.6967	8.17e-05	0.305	CGCCTCCCCTCGGTGTGTTGTGCAGTGATG
CTCTGTCACSCAGGCTGGARTGCAGTGGCG	MEME-6	chr11	27423623	27423652	-	-20.7049	8.19e-05	0.305	CTCTGCCAGGAAGGCGTGAATGGGTGTTAG
CTCTGTCACSCAGGCTGGARTGCAGTGGCG	MEME-6	chr4	24765501	24765530	-	-20.7213	8.21e-05	0.305	CTATGCTGGAGAGGCTGCTATGCTGGAGAG
CTCTGTCACSCAGGCTGGARTGCAGTGGCG	MEME-6	chr3	42942447	42942476	+	-20.7623	8.27e-05	0.306	CTGGGTTGTCAGGGCAGAGGTGaaccgccc
CTCTGTCACSCAGGCTGGARTGCAGTGGCG	MEME-6	chr20	33114051	33114080	+	-20.7787	8.3e-05	0.306	CTTGGTCTTGTTTTCTGGCAGGCAGAGGTG
CTCTGTCACSCAGGCTGGARTGCAGTGGCG	MEME-6	chr17	66374777	66374806	-	-20.7869	8.33e-05	0.307	ATCTGGCATGGAGAAGGGAAGGCGGCTGCT
CTCTGTCACSCAGGCTGGARTGCAGTGGCG	MEME-6	chr4	3113481	3113510	+	-20.9016	8.55e-05	0.314	ggctgcttcctgggctgccttggattggag
CTCTGTCACSCAGGCTGGARTGCAGTGGCG	MEME-6	chr3	72031756	72031785	+	-20.918	8.59e-05	0.314	cgaggccatcagggcaggctgggggtgaga
CTCTGTCACSCAGGCTGGARTGCAGTGGCG	MEME-6	chr2	197466110	197466139	+	-20.9426	8.65e-05	0.314	CTCAGTCTCCCAGATTTGTCTCCACTCTCA
CTCTGTCACSCAGGCTGGARTGCAGTGGCG	MEME-6	chr18	55756229	55756258	-	-20.9672	8.69e-05	0.314	TTCTTACGACCAGGTTGGAAGCTGTAGGCG
CTCTGTCACSCAGGCTGGARTGCAGTGGCG	MEME-6	chr16	64512034	64512063	+	-20.9672	8.69e-05	0.314	ATATCTCACAAATGGAGAAATGCTGTTGCC
CTCTGTCACSCAGGCTGGARTGCAGTGGCG	MEME-6	chr17	4681860	4681889	+	-20.9918	8.72e-05	0.314	cactgcattccagcctggatgacagagtga
CTCTGTCACSCAGGCTGGARTGCAGTGGCG	MEME-6	chr6	164129812	164129841	+	-21	8.73e-05	0.314	TTCTGTCCCGAGAACTTAACTGGGCTAGGA
CTCTGTCACSCAGGCTGGARTGCAGTGGCG	MEME-6	chr5	43484770	43484799	-	-21.0492	8.8e-05	0.314	CTGTGCTTCCTAGAGTCAAATGTCAAGCTG
CTCTGTCACSCAGGCTGGARTGCAGTGGCG	MEME-6	chr2	216483879	216483908	-	-21.0574	8.81e-05	0.314	CTGTGTTCACTTAGGTCAAATGTGGTCAGG
CTCTGTCACSCAGGCTGGARTGCAGTGGCG	MEME-6	chr20	52130511	52130540	-	-21.0656	8.82e-05	0.314	TTCAGTCGAGATGACGGGGTTGCTGTTGAG
CTCTGTCACSCAGGCTGGARTGCAGTGGCG	MEME-6	chr6	7975531	7975560	-	-21.082	8.88e-05	0.316	CTCTGCCAAGTGGAGTCGGCTCGAGAGATA
CTCTGTCACSCAGGCTGGARTGCAGTGGCG	MEME-6	chr19	18491427	18491456	-	-21.0984	8.91e-05	0.316	GTCCTCTCACAGTGCTGGGATCCTGTGATG
CTCTGTCACSCAGGCTGGARTGCAGTGGCG	MEME-6	chr9	134273695	134273724	+	-21.1557	9.03e-05	0.317	CTCAGCTGTACTTGTTGGTTTTCTGTGTGA
CTCTGTCACSCAGGCTGGARTGCAGTGGCG	MEME-6	chr10	28552593	28552622	+	-21.1639	9.04e-05	0.317	ATCTGCAAAGAGGAAAGGATGGCAGGGGAG
CTCTGTCACSCAGGCTGGARTGCAGTGGCG	MEME-6	chrX	106604235	106604264	-	-21.1885	9.09e-05	0.317	CCCTCCCCTGGGGTCTGGATGGCAAGGGTG
CTCTGTCACSCAGGCTGGARTGCAGTGGCG	MEME-6	chr3	8542229	8542258	-	-21.1967	9.12e-05	0.317	CGGTTGCACAGAGACTGAAGAGTGGTCCCG
CTCTGTCACSCAGGCTGGARTGCAGTGGCG	MEME-6	chr5	173018548	173018577	+	-21.1967	9.12e-05	0.317	AACTGCAGGCAGAGATGACATGAAGTGGTA
CTCTGTCACSCAGGCTGGARTGCAGTGGCG	MEME-6	chr12	6885471	6885500	+	-21.2049	9.14e-05	0.317	CTGACTCAGCCTGTCAGTAATCCACTGGTA
CTCTGTCACSCAGGCTGGARTGCAGTGGCG	MEME-6	chr13	100635944	100635973	+	-21.2049	9.14e-05	0.317	GTGGGTCGCGGGGGCTTTACTGTGGTTTCG
CTCTGTCACSCAGGCTGGARTGCAGTGGCG	MEME-6	chr13	36288364	36288393	+	-21.2213	9.17e-05	0.317	TGCTGTCCCCGGGGCAGGAGTGGCTTAAGA
CTCTGTCACSCAGGCTGGARTGCAGTGGCG	MEME-6	chr11	70029583	70029612	+	-21.2295	9.2e-05	0.317	ctgggtcatgtgccAGGGTGTGAGGTCACA
CTCTGTCACSCAGGCTGGARTGCAGTGGCG	MEME-6	chr12	92171536	92171565	-	-21.2377	9.22e-05	0.317	ATGTCCTGAGCAAGTTGGAGTGGGGACGTT
CTCTGTCACSCAGGCTGGARTGCAGTGGCG	MEME-6	chr14	101539722	101539751	+	-21.2623	9.26e-05	0.317	CTATGAAACCTGCCGTGTAGTGCGCTAGCA
CTCTGTCACSCAGGCTGGARTGCAGTGGCG	MEME-6	chr6	14744332	14744361	-	-21.2869	9.29e-05	0.318	GTGGTCCACCCAGGCTAGCATTCTCAGGCT
CTCTGTCACSCAGGCTGGARTGCAGTGGCG	MEME-6	chr4	108980033	108980062	-	-21.3443	9.38e-05	0.32	GTCCTTTGTCCAGCTGGAAGACCGGTGTCA
CTCTGTCACSCAGGCTGGARTGCAGTGGCG	MEME-6	chr11	112455658	112455687	+	-21.3852	9.47e-05	0.32	AGCAGACATCTGGGTTACAAGGTTGTGATG
CTCTGTCACSCAGGCTGGARTGCAGTGGCG	MEME-6	chr19	5857687	5857716	+	-21.3934	9.49e-05	0.32	GGCTGTCACGTGGTCTGggcttcctggagg
CTCTGTCACSCAGGCTGGARTGCAGTGGCG	MEME-6	chr6	45678652	45678681	-	-21.3934	9.49e-05	0.32	CTGGGAGTCCCTGGCTACAGGGCAGGGATA
CTCTGTCACSCAGGCTGGARTGCAGTGGCG	MEME-6	chr1	68663721	68663750	-	-21.4016	9.52e-05	0.32	CTCTCCTAGGAATACTGGGGAGTGGTTATT
CTCTGTCACSCAGGCTGGARTGCAGTGGCG	MEME-6	chr15	90459860	90459889	+	-21.4262	9.56e-05	0.32	ccctgcattccagcctggggcacagagcga
CTCTGTCACSCAGGCTGGARTGCAGTGGCG	MEME-6	chr2	121096068	121096097	-	-21.4672	9.63e-05	0.32	GCCTGTCACGCAAACTGGTCTCAAGCCAGG
CTCTGTCACSCAGGCTGGARTGCAGTGGCG	MEME-6	chr11	71211753	71211782	+	-21.4754	9.65e-05	0.32	AGGGGTCACAGGGTCTGGAAAGCTGGGACT
CTCTGTCACSCAGGCTGGARTGCAGTGGCG	MEME-6	chr19	30808862	30808891	-	-21.4836	9.69e-05	0.32	CTCGGTCGCTTAGCCTGCAGCGTAGGCATT
CTCTGTCACSCAGGCTGGARTGCAGTGGCG	MEME-6	chr2	160142356	160142385	-	-21.4836	9.69e-05	0.32	GATTGTTTTCAAGACAGCAGTACAGGGATA
CTCTGTCACSCAGGCTGGARTGCAGTGGCG	MEME-6	chr6	44826507	44826536	+	-21.4918	9.71e-05	0.32	CTGTGTCAACAGAGCTTTGTTCCTATGGCT
CTCTGTCACSCAGGCTGGARTGCAGTGGCG	MEME-6	chr7	475710	475739	+	-21.5164	9.79e-05	0.32	CTCTGTGGTgacggcgtacgcgaaatgaga
CTCTGTCACSCAGGCTGGARTGCAGTGGCG	MEME-6	chr9	134273782	134273811	+	-21.5246	9.81e-05	0.32	CTGATTTGTGAAGCATTGCGTGCAGCAGGA
CTCTGTCACSCAGGCTGGARTGCAGTGGCG	MEME-6	chr11	70634528	70634557	+	-21.582	9.9e-05	0.32	ctgagtagcgtgatgtcgagtgccgttccg
CTCTGTCACSCAGGCTGGARTGCAGTGGCG	MEME-6	chr7	52900833	52900862	-	-21.5902	9.91e-05	0.32	GACTGCGGTCTGGGGTGCAGCGCTGGTGTA
CTCTGTCACSCAGGCTGGARTGCAGTGGCG	MEME-6	chr17	65634050	65634079	-	-21.5984	9.93e-05	0.32	CTCTTATGGGCGGGCAGGGTCTCAGTGGTC
CTCTGTCACSCAGGCTGGARTGCAGTGGCG	MEME-6	chr5	132580770	132580799	+	-21.5984	9.93e-05	0.32	cactgtgctccagtctgggtgacagagaga
CTCTGTCACSCAGGCTGGARTGCAGTGGCG	MEME-6	chr14	34635464	34635493	-	-21.6066	9.95e-05	0.32	GTGACTGAACTGGGCTGTAGGGCAGGGCTG
CTCTGTCACSCAGGCTGGARTGCAGTGGCG	MEME-6	chr14	95522921	95522950	-	-21.623	9.97e-05	0.32	TGCTGCCCTGATGGGTGGGGCGGAGGGGGG
CTCTGTCACSCAGGCTGGARTGCAGTGGCG	MEME-6	chr16	31085458	31085487	-	-21.6311	0.0001	0.32	TTCTACAGCCCTGGCCACAGTACTTTGGTG
CTCTGTCACSCAGGCTGGARTGCAGTGGCG	MEME-6	chr14	37325368	37325397	-	-21.6311	0.0001	0.32	CTCAGGAGCGAGGATTTGTGTTCAAAGACA
CTCTGTCACSCAGGCTGGARTGCAGTGGCG	MEME-6	chr1	45877193	45877222	-	-21.6311	0.0001	0.32	CTGGGCCACACAGCAGGAGGTGAACAGGTG
