# motif_id	motif_alt_id	sequence_name	start	stop	strand	score	p-value	q-value	matched_sequence
AARRRAYTBTTGCMYGVVMAMASDHASAG	MEME-2	chr4	131057532	131057560	+	32.6869	2.23e-13	7.01e-09	aaagagcttttgcatgacaaaaggaacag
AARRRAYTBTTGCMYGVVMAMASDHASAG	MEME-2	chr17	78690211	78690239	-	31.2727	2.67e-12	4.19e-08	AAAGGCCTTTTGCACGGCAAAAGGAACAG
AARRRAYTBTTGCMYGVVMAMASDHASAG	MEME-2	chr3	100314573	100314601	-	29.1616	5.05e-11	5.29e-07	AAACAGCTTTTGCACGGCAAAAGGAACAG
AARRRAYTBTTGCMYGVVMAMASDHASAG	MEME-2	chr5	53039715	53039743	+	28.2424	1.48e-10	9.67e-07	taaggagttttgcacggcaaagggaacag
AARRRAYTBTTGCMYGVVMAMASDHASAG	MEME-2	chr13	76836187	76836215	+	28.2121	1.54e-10	9.67e-07	ATAGGACTGGTGGATGAACACAGAAAGAG
AARRRAYTBTTGCMYGVVMAMASDHASAG	MEME-2	chr6	171042899	171042927	-	27.2727	4.19e-10	2.2e-06	AAAAGACTGAGGCACGCACACAGACAGAC
AARRRAYTBTTGCMYGVVMAMASDHASAG	MEME-2	chr1	524070	524098	+	26.5758	8.36e-10	3.76e-06	AAAAGATTGAGGcacgcacacagacagac
AARRRAYTBTTGCMYGVVMAMASDHASAG	MEME-2	chr7	117565371	117565399	+	23.6768	9.75e-09	3.83e-05	gaagagcttttgcatggcaaaaggaacag
AARRRAYTBTTGCMYGVVMAMASDHASAG	MEME-2	chr2	223843323	223843351	+	22.6566	2.03e-08	7.08e-05	atcaagtctttgcatgagaaaggtaagag
AARRRAYTBTTGCMYGVVMAMASDHASAG	MEME-2	chr6	474098	474126	-	21.4545	4.46e-08	0.00014	CAACAAGGCTTGCGTGCCACAGCTAACAG
AARRRAYTBTTGCMYGVVMAMASDHASAG	MEME-2	chr3	133718583	133718611	+	20.7273	6.94e-08	0.000198	AAAGGGTTGGTACCTGAGAGAAGCTACGG
AARRRAYTBTTGCMYGVVMAMASDHASAG	MEME-2	chr3	100314665	100314693	+	20.5758	7.58e-08	0.000199	atgaaattcttgcctaagccaacgtctag
AARRRAYTBTTGCMYGVVMAMASDHASAG	MEME-2	chr3	197391658	197391686	-	18.899	1.91e-07	0.000462	CACGCACGCATGGCTGCACACACGTGCAC
AARRRAYTBTTGCMYGVVMAMASDHASAG	MEME-2	chr6	26257421	26257449	-	17.5455	3.74e-07	0.000816	CAGGGAATGTCACGCACACACGCACACAC
AARRRAYTBTTGCMYGVVMAMASDHASAG	MEME-2	chr1	153651104	153651132	-	17.4646	3.89e-07	0.000816	AAGGGGCGTCCGGCCGGCCCAAGTCTCCG
AARRRAYTBTTGCMYGVVMAMASDHASAG	MEME-2	chr2	43826796	43826824	-	16.8485	5.19e-07	0.00102	ATGAAATCCTTGCCTAAGCCAACGTCAGG
AARRRAYTBTTGCMYGVVMAMASDHASAG	MEME-2	chr2	43826888	43826916	+	10.4444	6.92e-06	0.0128	aaagagcttttgcacggcaaagaacagtc
AARRRAYTBTTGCMYGVVMAMASDHASAG	MEME-2	chr2	138011756	138011784	+	9.51515	9.63e-06	0.0168	TGAGACCTTATGGATAACCAAAGGAATAC
AARRRAYTBTTGCMYGVVMAMASDHASAG	MEME-2	chr15	75054525	75054553	+	8.9596	1.17e-05	0.0189	Aacacacacacacacacacacacacacac
AARRRAYTBTTGCMYGVVMAMASDHASAG	MEME-2	chr17	78690303	78690331	+	8.52525	1.35e-05	0.0189	atgagatccttgcctaaaccagtctctag
AARRRAYTBTTGCMYGVVMAMASDHASAG	MEME-2	chr3	197391654	197391682	-	8.15152	1.54e-05	0.0189	CACGCATGGCTGCACACACGTGCACAGAG
AARRRAYTBTTGCMYGVVMAMASDHASAG	MEME-2	chr15	75054527	75054555	+	7.66667	1.8e-05	0.0189	cacacacacacacacacacacacacacac
AARRRAYTBTTGCMYGVVMAMASDHASAG	MEME-2	chr15	75054529	75054557	+	7.66667	1.8e-05	0.0189	cacacacacacacacacacacacacacac
AARRRAYTBTTGCMYGVVMAMASDHASAG	MEME-2	chr15	75054531	75054559	+	7.66667	1.8e-05	0.0189	cacacacacacacacacacacacacacac
AARRRAYTBTTGCMYGVVMAMASDHASAG	MEME-2	chr15	75054533	75054561	+	7.66667	1.8e-05	0.0189	cacacacacacacacacacacacacacac
AARRRAYTBTTGCMYGVVMAMASDHASAG	MEME-2	chr15	75054535	75054563	+	7.66667	1.8e-05	0.0189	cacacacacacacacacacacacacacac
AARRRAYTBTTGCMYGVVMAMASDHASAG	MEME-2	chr15	75054537	75054565	+	7.66667	1.8e-05	0.0189	cacacacacacacacacacacacacacac
AARRRAYTBTTGCMYGVVMAMASDHASAG	MEME-2	chr15	75054539	75054567	+	7.66667	1.8e-05	0.0189	cacacacacacacacacacacacacacac
AARRRAYTBTTGCMYGVVMAMASDHASAG	MEME-2	chr15	75054541	75054569	+	7.66667	1.8e-05	0.0189	cacacacacacacacacacacacacacac
AARRRAYTBTTGCMYGVVMAMASDHASAG	MEME-2	chr15	75054543	75054571	+	7.66667	1.8e-05	0.0189	cacacacacacacacacacacacacacac
AARRRAYTBTTGCMYGVVMAMASDHASAG	MEME-2	chr6	10317358	10317386	+	7.41414	1.96e-05	0.0199	AAGGGGCCCAGGGCCACCACTGGCCTGAG
AARRRAYTBTTGCMYGVVMAMASDHASAG	MEME-2	chr1	524094	524122	+	7.20202	2.1e-05	0.02	cagacacacccacccacacacagatacgg
AARRRAYTBTTGCMYGVVMAMASDHASAG	MEME-2	chr6	171042875	171042903	-	7.20202	2.1e-05	0.02	CAGACACACCCACCCACACACAGATACGG
AARRRAYTBTTGCMYGVVMAMASDHASAG	MEME-2	chr3	197391695	197391723	-	6.30303	2.79e-05	0.0258	CAGGCACGGACGCACGCACACACTCCACA
AARRRAYTBTTGCMYGVVMAMASDHASAG	MEME-2	chr1	524088	524116	+	4.84848	4.37e-05	0.0382	cacagacagacacacccacccacacacag
AARRRAYTBTTGCMYGVVMAMASDHASAG	MEME-2	chr6	171042881	171042909	-	4.84848	4.37e-05	0.0382	CACAGACAGACACACCCACCCACACACAG
AARRRAYTBTTGCMYGVVMAMASDHASAG	MEME-2	chr13	111252478	111252506	-	4.55556	4.77e-05	0.0405	CACACACACACACGCAAGCGCACGCACAC
AARRRAYTBTTGCMYGVVMAMASDHASAG	MEME-2	chr3	197391611	197391639	-	4.32323	5.11e-05	0.0423	GGAACACAGATGCACGCACACAGGCACAG
AARRRAYTBTTGCMYGVVMAMASDHASAG	MEME-2	chr13	111252476	111252504	-	4.06061	5.52e-05	0.0445	CACACACACACGCAAGCGCACGCACACAC
AARRRAYTBTTGCMYGVVMAMASDHASAG	MEME-2	chr3	197391699	197391727	-	3.52525	6.46e-05	0.0503	CACCCAGGCACGGACGCACGCACACACTC
AARRRAYTBTTGCMYGVVMAMASDHASAG	MEME-2	chr13	100629821	100629849	-	3.47475	6.56e-05	0.0503	TATACATTGCTGGACAGGAGAAGTCAAAG
AARRRAYTBTTGCMYGVVMAMASDHASAG	MEME-2	chr19	24065251	24065279	-	3.15152	7.2e-05	0.0539	CAGGGTCCGTGGGACAGACCAGGCACTCC
AARRRAYTBTTGCMYGVVMAMASDHASAG	MEME-2	chr19	24065292	24065320	+	3	7.52e-05	0.055	atgaaaggagtactcagacacaggtacac
AARRRAYTBTTGCMYGVVMAMASDHASAG	MEME-2	chr5	53039624	53039652	-	2.67677	8.25e-05	0.0578	ATGAAATCCTTGCCTAAGCCGATGTCTAG
AARRRAYTBTTGCMYGVVMAMASDHASAG	MEME-2	chr13	111252486	111252514	-	2.66667	8.27e-05	0.0578	AACACATACACACACACACACGCAAGCGC
AARRRAYTBTTGCMYGVVMAMASDHASAG	MEME-2	chr1	524170	524198	-	2.42424	8.86e-05	0.0592	ATGTGGCTGGTGGCTCACCCCAGGAACTG
AARRRAYTBTTGCMYGVVMAMASDHASAG	MEME-2	chr6	171042799	171042827	+	2.42424	8.86e-05	0.0592	ATGTGGCTGGTGGCTCACCCCAGGAACTG
AARRRAYTBTTGCMYGVVMAMASDHASAG	MEME-2	chr3	42538496	42538524	+	2.31313	9.14e-05	0.0593	TGCCGAAGGTCAGCTACACACAGGAACGC
AARRRAYTBTTGCMYGVVMAMASDHASAG	MEME-2	chr7	117565279	117565307	-	2.27273	9.24e-05	0.0593	ATGAAATCCTTGCCTAGGGCAATGCCTAG
AARRRAYTBTTGCMYGVVMAMASDHASAG	MEME-2	chr15	75054523	75054551	+	2.07071	9.78e-05	0.0615	ACAacacacacacacacacacacacacac
