# motif_id	motif_alt_id	sequence_name	start	stop	strand	score	p-value	q-value	matched_sequence
AWGATCRYGCCACTGCACTCCA	MEME-7	chr10	127258060	127258081	+	36.6545	1.96e-13	4.96e-08	aagatcatgccactgcactcca
AWGATCRYGCCACTGCACTCCA	MEME-7	chr5	133974472	133974493	+	36.4091	2.4e-13	4.96e-08	aagatcgtgccaccgcactcca
AWGATCRYGCCACTGCACTCCA	MEME-7	chr9	136608786	136608807	-	36.1455	3.27e-13	4.96e-08	GAGATCGTGCCACTGCACTCCA
AWGATCRYGCCACTGCACTCCA	MEME-7	chr11	69329271	69329292	+	36.1455	3.27e-13	4.96e-08	gagatcgtgccactgcactcca
AWGATCRYGCCACTGCACTCCA	MEME-7	chr5	98937644	98937665	+	36.1455	3.27e-13	4.96e-08	gagatcgtgccactgcactcca
AWGATCRYGCCACTGCACTCCA	MEME-7	chr2	70882660	70882681	-	35.8182	5.79e-13	6.28e-08	AAGATCGTGCCATTGCACTCCA
AWGATCRYGCCACTGCACTCCA	MEME-7	chrX	140222383	140222404	+	35.8182	5.79e-13	6.28e-08	aagatcgtgccattgcactcca
AWGATCRYGCCACTGCACTCCA	MEME-7	chr6	33512314	33512335	+	35.2455	9.99e-13	8.42e-08	gagatcatgccactgcactcca
AWGATCRYGCCACTGCACTCCA	MEME-7	chr9	132701153	132701174	-	35.2455	9.99e-13	8.42e-08	GAGATCATGCCACTGCACTCCA
AWGATCRYGCCACTGCACTCCA	MEME-7	chr6	56593197	56593218	+	34.6818	2.04e-12	1.54e-07	gagatcacgccactgcactcca
AWGATCRYGCCACTGCACTCCA	MEME-7	chr19	46696122	46696143	+	34.6091	2.24e-12	1.55e-07	aagatcgtgtcactgcactcca
AWGATCRYGCCACTGCACTCCA	MEME-7	chr12	112574800	112574821	+	34.4091	2.7e-12	1.71e-07	gagatcgtgccattgcactcca
AWGATCRYGCCACTGCACTCCA	MEME-7	chr19	16603590	16603611	+	32.9455	1.24e-11	6.71e-07	gagatcacgccattgcactcca
AWGATCRYGCCACTGCACTCCA	MEME-7	chr16	89909979	89910000	-	32.9455	1.24e-11	6.71e-07	GAGATCACGCCACTGCATTCCA
AWGATCRYGCCACTGCACTCCA	MEME-7	chr7	130858351	130858372	+	32.6727	1.52e-11	7.36e-07	gagatcgtgccattgcattcca
AWGATCRYGCCACTGCACTCCA	MEME-7	chr7	101525288	101525309	+	32.6455	1.55e-11	7.36e-07	atgatcacaccactgcactcca
AWGATCRYGCCACTGCACTCCA	MEME-7	chr7	99935822	99935843	+	32.0636	2.67e-11	1.19e-06	gagatcacgccactgcacgcca
AWGATCRYGCCACTGCACTCCA	MEME-7	chr12	112555406	112555427	+	31.6364	3.86e-11	1.63e-06	aagatcacaccactgcattcca
AWGATCRYGCCACTGCACTCCA	MEME-7	chr20	48758946	48758967	-	31.0818	5.85e-11	2.34e-06	AAGATCACGCCACAGCACTTCA
AWGATCRYGCCACTGCACTCCA	MEME-7	chr7	75735591	75735612	+	28.8727	2.64e-10	9.5e-06	atgatcgtgccactgcacgcag
AWGATCRYGCCACTGCACTCCA	MEME-7	chr17	76742949	76742970	+	28.8455	2.7e-10	9.5e-06	gtcatcaccccactgcactcca
AWGATCRYGCCACTGCACTCCA	MEME-7	chr14	77512053	77512074	-	28.8273	2.76e-10	9.5e-06	CAGATCATGCCACTGCACTCCA
AWGATCRYGCCACTGCACTCCA	MEME-7	chr22	30190743	30190764	-	28.2727	3.83e-10	1.26e-05	AAGATCATATCACTGCACTCTA
AWGATCRYGCCACTGCACTCCA	MEME-7	chr12	32827993	32828014	-	27.5455	5.76e-10	1.82e-05	AAAATCACGTCACCGCATTCCA
AWGATCRYGCCACTGCACTCCA	MEME-7	chr8	18858501	18858522	-	26.5545	9.98e-10	3.03e-05	GTGATCACATCACTGCATTCCA
AWGATCRYGCCACTGCACTCCA	MEME-7	chr22	41107590	41107611	+	25.8909	1.42e-09	4.13e-05	atgatcgtactactgcactgta
AWGATCRYGCCACTGCACTCCA	MEME-7	chr8	17663743	17663764	-	24.7	2.57e-09	7.22e-05	GAGATCACGCCATTGCCCTCCA
AWGATCRYGCCACTGCACTCCA	MEME-7	chr19	10728577	10728598	-	23.9091	3.8e-09	0.000103	GAGATCACGCCACTGCACTTCC
AWGATCRYGCCACTGCACTCCA	MEME-7	chr17	4681650	4681671	+	23.4	4.88e-09	0.000128	atgattgcaccactgcattcca
AWGATCRYGCCACTGCACTCCA	MEME-7	chr5	177517458	177517479	+	21.8182	1.03e-08	0.000259	gagattacaccattgcactcca
AWGATCRYGCCACTGCACTCCA	MEME-7	chr15	63789036	63789057	-	21.5091	1.19e-08	0.000291	GTGATCGTACTGCTGCACTCCA
AWGATCRYGCCACTGCACTCCA	MEME-7	chr14	102948233	102948254	-	21.3636	1.27e-08	0.0003	TTGATCGCACCATTGCACGCCA
AWGATCRYGCCACTGCACTCCA	MEME-7	chr2	208693969	208693990	-	21	1.5e-08	0.000345	GAGGTCACACCACTGCACTTCA
AWGATCRYGCCACTGCACTCCA	MEME-7	chr2	204408645	204408666	+	20.5909	1.81e-08	0.000395	aagatcgcaccactgtactgta
AWGATCRYGCCACTGCACTCCA	MEME-7	chr17	57919932	57919953	-	20.5636	1.82e-08	0.000395	GAGATTGTACCATTGCACTCTA
AWGATCRYGCCACTGCACTCCA	MEME-7	chr5	177508592	177508613	+	18.9545	3.69e-08	0.000777	gagattgcggcactgcactcca
AWGATCRYGCCACTGCACTCCA	MEME-7	chr12	93480755	93480776	+	17.1909	7.59e-08	0.00156	gagatcgcgccgttgtactcca
AWGATCRYGCCACTGCACTCCA	MEME-7	chr21	35816683	35816704	+	16.7273	9.14e-08	0.0018	atgattgcaccactgtactcca
AWGATCRYGCCACTGCACTCCA	MEME-7	chr8	145030534	145030555	+	16.6545	9.41e-08	0.0018	gtgattgcgccactgcattcct
AWGATCRYGCCACTGCACTCCA	MEME-7	chr11	71856238	71856259	+	16.5727	9.7e-08	0.0018	tagatcacgcaattgcattcca
AWGATCRYGCCACTGCACTCCA	MEME-7	chr13	23557407	23557428	-	16.5636	9.74e-08	0.0018	GAGATTGCGCCACTGCAGTCCG
AWGATCRYGCCACTGCACTCCA	MEME-7	chr20	49358336	49358357	-	16.4545	1.01e-07	0.00183	GAGGTCACGCCCCTGCATTCCA
AWGATCRYGCCACTGCACTCCA	MEME-7	chr14	75756534	75756555	+	10.1545	1.03e-06	0.0182	AACATCACGCAAGTGCATTTAA
AWGATCRYGCCACTGCACTCCA	MEME-7	chr20	49378087	49378108	-	8.10909	2.04e-06	0.0352	ATGATCGCACCACCGCCCACGA
AWGATCRYGCCACTGCACTCCA	MEME-7	chr16	89970736	89970757	+	7.57273	2.44e-06	0.041	gtgtttgtgctgctgcactcca
AWGATCRYGCCACTGCACTCCA	MEME-7	chr3	11816909	11816930	+	6.52727	3.39e-06	0.056	AAAGTCACGCCACTGCACTGGT
AWGATCRYGCCACTGCACTCCA	MEME-7	chr17	78796782	78796803	+	5.96364	4.04e-06	0.0652	GAGGTCGTATAACTGCACTCCC
AWGATCRYGCCACTGCACTCCA	MEME-7	chr2	239710499	239710520	-	5.39091	4.83e-06	0.0763	GACAGCATGTGACTGCACGGAA
AWGATCRYGCCACTGCACTCCA	MEME-7	chrX	106916303	106916324	+	4.62727	6.13e-06	0.0949	CTCACCACCCCACCCCACTCCA
AWGATCRYGCCACTGCACTCCA	MEME-7	chr20	51961124	51961145	-	4.22727	6.92e-06	0.104	GTGATCACGCCACCGCCTTAGG
AWGATCRYGCCACTGCACTCCA	MEME-7	chr12	125412429	125412450	-	4.18182	7.01e-06	0.104	ACGAACAGGCCACCGCACGCAG
AWGATCRYGCCACTGCACTCCA	MEME-7	chr8	131045333	131045354	+	4.05455	7.3e-06	0.106	gagatcgcgccattccagcctg
AWGATCRYGCCACTGCACTCCA	MEME-7	chr2	197451491	197451512	+	3.4	8.88e-06	0.127	gtaatcgctcttccacactcca
AWGATCRYGCCACTGCACTCCA	MEME-7	chr4	26290942	26290963	+	3.29091	9.17e-06	0.129	ATGATCATATTACAACACTTGG
AWGATCRYGCCACTGCACTCCA	MEME-7	chr11	95650369	95650390	-	2.45455	1.17e-05	0.16	AAGTTAATGCTATTGTATTCAA
AWGATCRYGCCACTGCACTCCA	MEME-7	chr6	76233960	76233981	-	2.39091	1.2e-05	0.16	AAGATCATGCCGCAGAGTTCAG
AWGATCRYGCCACTGCACTCCA	MEME-7	chr6	125523375	125523396	+	2.37273	1.2e-05	0.16	AAACTGGTCCCACAGCCCTCAA
AWGATCRYGCCACTGCACTCCA	MEME-7	chr13	20368468	20368489	+	2.22727	1.26e-05	0.164	aggattgcgtgacagcactctg
AWGATCRYGCCACTGCACTCCA	MEME-7	chr16	53925741	53925762	-	2.18182	1.27e-05	0.164	AAGATCATCCCAAGACACGCTG
AWGATCRYGCCACTGCACTCCA	MEME-7	chr21	43476169	43476190	-	1.91818	1.38e-05	0.174	ATCATCCTGCCCTAGCATTGCC
AWGATCRYGCCACTGCACTCCA	MEME-7	chr22	41107716	41107737	-	1.66364	1.48e-05	0.184	AAACTGTCATCACTGCACTGCA
AWGATCRYGCCACTGCACTCCA	MEME-7	chr5	173250855	173250876	-	1.4	1.6e-05	0.196	GTCATGGCCACATTGCCTTCCA
AWGATCRYGCCACTGCACTCCA	MEME-7	chr15	93187375	93187396	+	1.00909	1.79e-05	0.215	AATCTCATCTTACTCCACTGCA
AWGATCRYGCCACTGCACTCCA	MEME-7	chr8	67036273	67036294	+	0.781818	1.9e-05	0.223	ttgagcgcgtgcctgcactcca
AWGATCRYGCCACTGCACTCCA	MEME-7	chr19	35135746	35135767	+	0.772727	1.91e-05	0.223	gtgctccttccactgcacGCCC
AWGATCRYGCCACTGCACTCCA	MEME-7	chr1	118624007	118624028	+	0.663636	1.97e-05	0.227	AGGCTCGTTCTACTTCATTCCA
AWGATCRYGCCACTGCACTCCA	MEME-7	chr19	44020038	44020059	-	0.509091	2.06e-05	0.233	AATCTCACACCATCCCACTCAG
AWGATCRYGCCACTGCACTCCA	MEME-7	chr15	39696986	39697007	-	-0.190909	2.5e-05	0.275	ATGATCACTTCTTGGCATGTCA
AWGATCRYGCCACTGCACTCCA	MEME-7	chr12	104613782	104613803	-	-0.2	2.51e-05	0.275	CAGATTGCATGACTGCATGTCA
AWGATCRYGCCACTGCACTCCA	MEME-7	chr8	142164118	142164139	+	-0.3	2.58e-05	0.279	AGGAACCTGGCATTGCATTCCG
AWGATCRYGCCACTGCACTCCA	MEME-7	chr8	125192733	125192754	-	-0.472727	2.71e-05	0.281	ACAAGCACGCCACTGCTTTTTG
AWGATCRYGCCACTGCACTCCA	MEME-7	chr12	116827858	116827879	+	-0.472727	2.71e-05	0.281	ttgatcctaacactgctctgca
AWGATCRYGCCACTGCACTCCA	MEME-7	chr13	53383786	53383807	-	-0.5	2.73e-05	0.281	AAAGTCATTCTTTTGCACTGAA
AWGATCRYGCCACTGCACTCCA	MEME-7	chr15	75121160	75121181	+	-0.518182	2.74e-05	0.281	AATATCACCCTAGTGCATCCAG
AWGATCRYGCCACTGCACTCCA	MEME-7	chr17	37926152	37926173	+	-0.572727	2.78e-05	0.281	AAAATCACACCACGCCTTTGAA
AWGATCRYGCCACTGCACTCCA	MEME-7	chr5	10453489	10453510	-	-0.654545	2.85e-05	0.284	AAATTATTCTCATCGCACTTCA
AWGATCRYGCCACTGCACTCCA	MEME-7	chr1	41966594	41966615	+	-0.772727	2.94e-05	0.289	ATGTTGGTCCCATTTCCCTCCA
AWGATCRYGCCACTGCACTCCA	MEME-7	chr8	128812706	128812727	-	-1.05455	3.18e-05	0.309	AGCACCACGCCCCAGCCCTCCA
AWGATCRYGCCACTGCACTCCA	MEME-7	chr22	36861631	36861652	-	-1.22727	3.33e-05	0.313	CACATTACCTCATCGAATTCCA
AWGATCRYGCCACTGCACTCCA	MEME-7	chr6	474211	474232	+	-1.23636	3.34e-05	0.313	CAGGTCACTCCAATGCACTGTA
AWGATCRYGCCACTGCACTCCA	MEME-7	chr11	66794853	66794874	-	-1.29091	3.39e-05	0.313	AAGTACACCCCACAGCACAACA
AWGATCRYGCCACTGCACTCCA	MEME-7	chr6	139139085	139139106	+	-1.29091	3.39e-05	0.313	GCATTCATGCAACTGCATTCCC
AWGATCRYGCCACTGCACTCCA	MEME-7	chr5	66511197	66511218	-	-1.35455	3.44e-05	0.314	GAGAGCTCGTGACTGCATTTAG
AWGATCRYGCCACTGCACTCCA	MEME-7	chr5	30099819	30099840	+	-1.52727	3.6e-05	0.325	TAGATCACGCAACTGCCATCTG
AWGATCRYGCCACTGCACTCCA	MEME-7	chr6	170589112	170589133	-	-1.96364	4.06e-05	0.362	GTGATGGTGCTCTTGCAGTTTG
AWGATCRYGCCACTGCACTCCA	MEME-7	chr12	67989223	67989244	-	-2.27273	4.4e-05	0.388	CATATCGCTCTACTGCATCTCA
AWGATCRYGCCACTGCACTCCA	MEME-7	chr11	129716176	129716197	+	-2.62727	4.84e-05	0.418	tagatcaaatctctgctttcca
AWGATCRYGCCACTGCACTCCA	MEME-7	chr20	49360676	49360697	+	-2.63636	4.85e-05	0.418	aagtgtgacccactgcactgcg
AWGATCRYGCCACTGCACTCCA	MEME-7	chr19	38432225	38432246	-	-2.70909	4.94e-05	0.421	TCAAGCGTGCTACTGCTCTCAA
AWGATCRYGCCACTGCACTCCA	MEME-7	chr2	175525405	175525426	+	-2.77273	5.02e-05	0.423	ATCTTCCCTGCATTGCACTGCA
AWGATCRYGCCACTGCACTCCA	MEME-7	chr11	39016031	39016052	+	-2.90909	5.2e-05	0.433	GAGATGGACTGATAGCACGCTA
AWGATCRYGCCACTGCACTCCA	MEME-7	chr17	57425118	57425139	+	-3.18182	5.59e-05	0.458	gagatcatctcacttaacacct
AWGATCRYGCCACTGCACTCCA	MEME-7	chr16	89910033	89910054	+	-3.19091	5.61e-05	0.458	gtgatcctcccacctcagtctc
AWGATCRYGCCACTGCACTCCA	MEME-7	chr5	173314665	173314686	+	-3.27273	5.74e-05	0.463	GAGCTCGGGCCAGAGCACGTGA
AWGATCRYGCCACTGCACTCCA	MEME-7	chr2	134035337	134035358	+	-3.45455	6.02e-05	0.48	gaaaccacgccatcacaaggaa
AWGATCRYGCCACTGCACTCCA	MEME-7	chr3	72359880	72359901	+	-3.52727	6.13e-05	0.482	AAGATCGCCTTCTCACGTTGCA
AWGATCRYGCCACTGCACTCCA	MEME-7	chr3	64142799	64142820	+	-3.58182	6.21e-05	0.482	TTGATCTGGCCTCCGCACTGTG
AWGATCRYGCCACTGCACTCCA	MEME-7	chr16	87274186	87274207	-	-3.59091	6.23e-05	0.482	ATCCTCACCCCACCCCAGCCCA
AWGATCRYGCCACTGCACTCCA	MEME-7	chr4	186558312	186558333	-	-3.67273	6.37e-05	0.488	TACAGCAGGTTCCTGCACTCCA
AWGATCRYGCCACTGCACTCCA	MEME-7	chr3	187635059	187635080	+	-3.97273	6.88e-05	0.521	AAAATCATATTAAGGAACTCAG
AWGATCRYGCCACTGCACTCCA	MEME-7	chr12	115912685	115912706	+	-4.01818	6.96e-05	0.523	TTGATAAGCCCAGCGCATTTCA
AWGATCRYGCCACTGCACTCCA	MEME-7	chr7	22612564	22612585	+	-4.1	7.12e-05	0.526	AAGCTCATTCTGGTGCACGCTA
AWGATCRYGCCACTGCACTCCA	MEME-7	chr8	129154154	129154175	-	-4.11818	7.15e-05	0.526	GTCAGCGTGTCCCAGCTTTGAA
AWGATCRYGCCACTGCACTCCA	MEME-7	chr13	28530889	28530910	+	-4.17273	7.25e-05	0.528	AAAATCATTTCATCTCAGGGAA
AWGATCRYGCCACTGCACTCCA	MEME-7	chr22	36861853	36861874	-	-4.4	7.68e-05	0.554	ATCTTCATCTCACAACAGGCAA
AWGATCRYGCCACTGCACTCCA	MEME-7	chr8	59143506	59143527	-	-4.42727	7.74e-05	0.554	CAGCTGTCCCCATAGCACTCCG
AWGATCRYGCCACTGCACTCCA	MEME-7	chr13	114488206	114488227	+	-4.56364	8e-05	0.567	AAGTTCACTGCCCTGCACGCAG
AWGATCRYGCCACTGCACTCCA	MEME-7	chr5	154080673	154080694	+	-4.68182	8.26e-05	0.58	AGTAACGCCCCATTGCCCTCTG
AWGATCRYGCCACTGCACTCCA	MEME-7	chr4	146734035	146734056	+	-4.78182	8.47e-05	0.589	aatctcttgccatcccattctg
AWGATCRYGCCACTGCACTCCA	MEME-7	chr20	43201409	43201430	+	-4.85455	8.63e-05	0.594	ATAAACATGCCTCTGCTCTGAT
AWGATCRYGCCACTGCACTCCA	MEME-7	chr6	8083394	8083415	-	-4.9	8.72e-05	0.594	GTCATCAGATAATTCCACTGTA
AWGATCRYGCCACTGCACTCCA	MEME-7	chr8	96222612	96222633	-	-4.91818	8.77e-05	0.594	CTAATGCTCTCACCACACTCCA
AWGATCRYGCCACTGCACTCCA	MEME-7	chr3	23061610	23061631	+	-5.04545	9.05e-05	0.607	aagatctgatccctgcacactg
AWGATCRYGCCACTGCACTCCA	MEME-7	chr15	75121269	75121290	+	-5.31818	9.7e-05	0.645	AACATCACattcactcattcaa
AWGATCRYGCCACTGCACTCCA	MEME-7	chr13	106589813	106589834	-	-5.41818	9.96e-05	0.657	TGCAGCATCCCAGTGCACTCTG
