prim_db	prim_id	prim_alt	prim_cons	sec_db	sec_id	sec_alt	sec_cons	trim_left	trim_right	red_db	red_id	red_alt	E-value	gap	orient	count	total	adj_p-value	p-value
JASPAR2018_CORE_non-redundant	MA0291.1	DAL82	AWWDTGCGC	JASPAR2018_CORE_non-redundant	MA1316.1	WRKY71	AAAAGTCAACG	0	1	.	.	.	1.32e+00	67	5	4	20	8.13e-08	7.32e-07
JASPAR2018_CORE_non-redundant	MA0291.1	DAL82	AWWDTGCGC	JASPAR2018_CORE_non-redundant	MA1316.1	WRKY71	AAAAGTCAACG	0	1	.	.	.	1.32e+00	67	8	4	20	1.24e-06	1.12e-05
JASPAR2018_CORE_non-redundant	MA0291.1	DAL82	AWWDTGCGC	JASPAR2018_CORE_non-redundant	MA1079.1	WRKY21	NNRGTCAACG	2	1	JASPAR2018_CORE_non-redundant	MA1316.1	WRKY71	7.58e+00	67	5	6	118	4.60e-07	4.14e-06
JASPAR2018_CORE_non-redundant	MA0291.1	DAL82	AWWDTGCGC	JASPAR2018_CORE_non-redundant	MA0850.1	FOXP3	RTAAACA	0	0	.	.	.	4.71e+00	4	1	6	215	2.85e-07	2.57e-06
JASPAR2018_CORE_non-redundant	MA0291.1	DAL82	AWWDTGCGC	JASPAR2018_CORE_non-redundant	MA0850.1	FOXP3	RTAAACA	0	0	.	.	.	4.71e+00	4	4	7	215	1.38e-06	1.24e-05
JASPAR2018_CORE_non-redundant	MA0291.1	DAL82	AWWDTGCGC	JASPAR2018_CORE_non-redundant	MA1107.1	KLF9	VSCCACACCCACH	1	1	.	.	.	7.33e+00	0	3	6	227	4.57e-07	4.11e-06
JASPAR2018_CORE_non-redundant	MA0291.1	DAL82	AWWDTGCGC	JASPAR2018_CORE_non-redundant	MA1107.1	KLF9	VSCCACACCCACH	1	1	.	.	.	7.33e+00	28	7	7	227	2.33e-06	2.10e-05
JASPAR2018_CORE_non-redundant	MA0291.1	DAL82	AWWDTGCGC	JASPAR2018_CORE_non-redundant	MA0926.1	unc-86	DTATGCAT	0	0	.	.	.	9.22e+00	81	1	3	19	5.63e-07	5.07e-06
JASPAR2018_CORE_non-redundant	MA0291.1	DAL82	AWWDTGCGC	JASPAR2018_CORE_non-redundant	MA0926.1	unc-86	DTATGCAT	0	0	.	.	.	9.22e+00	81	4	3	19	4.41e-06	3.97e-05
JASPAR2018_CORE_non-redundant	MA0291.1	DAL82	AWWDTGCGC	JASPAR2018_CORE_non-redundant	MA0926.1	unc-86	DTATGCAT	0	0	.	.	.	9.22e+00	81	6	3	19	4.41e-06	3.97e-05
##
# Detailed descriptions of columns in this file:
#
# prim_db:	The name of the database (file name) that contains the primary motif.
# prim_id:	A name for the primary motif that is unique in the motif database file.
# prim_alt:	An alternate name of the primary motif that may be provided
#		in the motif database file.
# prim_cons:	A consensus sequence computed from the primary motif (see doc/motif-consensus.html).
# sec_db:	The name of the database (file name) that contains the secondary motif.
# sec_id:	A name for the motif that is unique in the motif database file.
# sec_alt:	An alternate name of the secondary motif that may be provided
#		in the motif database file.
# sec_cons:	A consensus sequence computed from the secondary motif (see doc/motif-consensus.html).
# trim_left:	Number of positions trimmed from left of secondary motif
# trim_right:	Number of positions trimmed from right of secondary motif
# If the next three fields are not blank, the motif is redundant with a more significant ('parent') motif.
# red_db:	The database (file name) that contains the parent motif.
# red_id:	A name for the parent motif that is unique in the motif database file.
# red_alt:	An alternate name of the parent motif that may be provided
#		in the motif database file.
# E-value:	The expected number motifs that would have least one
#		spacing as enriched as the best spacing for this secondary.
#		The E-value is the best spacing p-value multiplied by the number of motifs in the
#		input database(s).
# gap:		The distance between the edge of the primary and the (trimmed) secondary motif.
# orient:	The (combination) of quadrants for which occurrences
#		of this spacing are combined.
# count:	The number of occurrences of the secondary motif with the
#		given spacing and orientation to the primary motif.
# total:	The total number of occurrences of the secondary motif within the
#		margins around the best primary motif occurrence.
# adj_p-value:	The p-value of the gap and orientation, adjusted for
#		nine combinations of quadrants times the number of gaps tested
#		(as controlled by the -range switch).
# p-value:	The p-value of the gap and orientation adjusted only for the number of gaps tested.
