# motif_id	motif_alt_id	sequence_name	start	stop	strand	score	p-value	q-value	matched_sequence
GTRTGTGTGYGTGTKT	MEME-1	chr20	52131957	52131972	+	25.3258	2.61e-10	4.24e-06	gtatgtgtgtgtgtgt
GTRTGTGTGYGTGTKT	MEME-1	chr6	9251313	9251328	-	25	6.97e-10	4.24e-06	GTGTGTGTGTGTGTGT
GTRTGTGTGYGTGTKT	MEME-1	chr6	13873392	13873407	+	25	6.97e-10	4.24e-06	gtgtgtgtgtgtgtgt
GTRTGTGTGYGTGTKT	MEME-1	chr6	13873394	13873409	+	25	6.97e-10	4.24e-06	gtgtgtgtgtgtgtgt
GTRTGTGTGYGTGTKT	MEME-1	chr20	15843156	15843171	-	25	6.97e-10	4.24e-06	GTGTGTGTGTGTGTGT
GTRTGTGTGYGTGTKT	MEME-1	chr15	27655901	27655916	+	25	6.97e-10	4.24e-06	gtgtgtgtgtgtgtgt
GTRTGTGTGYGTGTKT	MEME-1	chr15	27655903	27655918	+	25	6.97e-10	4.24e-06	gtgtgtgtgtgtgtgt
GTRTGTGTGYGTGTKT	MEME-1	chr15	27655905	27655920	+	25	6.97e-10	4.24e-06	gtgtgtgtgtgtgtgt
GTRTGTGTGYGTGTKT	MEME-1	chr15	27655907	27655922	+	25	6.97e-10	4.24e-06	gtgtgtgtgtgtgtgt
GTRTGTGTGYGTGTKT	MEME-1	chr15	27655909	27655924	+	25	6.97e-10	4.24e-06	gtgtgtgtgtgtgtgt
GTRTGTGTGYGTGTKT	MEME-1	chr15	27655911	27655926	+	25	6.97e-10	4.24e-06	gtgtgtgtgtgtgtgt
GTRTGTGTGYGTGTKT	MEME-1	chr15	27655913	27655928	+	25	6.97e-10	4.24e-06	gtgtgtgtgtgtgtgt
GTRTGTGTGYGTGTKT	MEME-1	chr15	27655915	27655930	+	25	6.97e-10	4.24e-06	gtgtgtgtgtgtgtgt
GTRTGTGTGYGTGTKT	MEME-1	chr15	27655917	27655932	+	25	6.97e-10	4.24e-06	gtgtgtgtgtgtgtgt
GTRTGTGTGYGTGTKT	MEME-1	chr15	27655919	27655934	+	25	6.97e-10	4.24e-06	gtgtgtgtgtgtgtgt
GTRTGTGTGYGTGTKT	MEME-1	chr22	37908223	37908238	-	25	6.97e-10	4.24e-06	GTGTGTGTGTGTGTGT
GTRTGTGTGYGTGTKT	MEME-1	chr22	37908225	37908240	-	25	6.97e-10	4.24e-06	GTGTGTGTGTGTGTGT
GTRTGTGTGYGTGTKT	MEME-1	chr22	37908227	37908242	-	25	6.97e-10	4.24e-06	GTGTGTGTGTGTGTGT
GTRTGTGTGYGTGTKT	MEME-1	chr22	37908229	37908244	-	25	6.97e-10	4.24e-06	GTGTGTGTGTGTGTGT
GTRTGTGTGYGTGTKT	MEME-1	chr22	37908231	37908246	-	25	6.97e-10	4.24e-06	GTGTGTGTGTGTGTGT
GTRTGTGTGYGTGTKT	MEME-1	chr22	37908233	37908248	-	25	6.97e-10	4.24e-06	GTGTGTGTGTGTGTGT
GTRTGTGTGYGTGTKT	MEME-1	chr22	37908235	37908250	-	25	6.97e-10	4.24e-06	GTGTGTGTGTGTGTGT
GTRTGTGTGYGTGTKT	MEME-1	chr22	37908237	37908252	-	25	6.97e-10	4.24e-06	GTGTGTGTGTGTGTGT
GTRTGTGTGYGTGTKT	MEME-1	chr22	37908239	37908254	-	25	6.97e-10	4.24e-06	GTGTGTGTGTGTGTGT
GTRTGTGTGYGTGTKT	MEME-1	chr22	37908241	37908256	-	25	6.97e-10	4.24e-06	GTGTGTGTGTGTGTGT
GTRTGTGTGYGTGTKT	MEME-1	chr22	37908243	37908258	-	25	6.97e-10	4.24e-06	GTGTGTGTGTGTGTGT
GTRTGTGTGYGTGTKT	MEME-1	chr22	37908245	37908260	-	25	6.97e-10	4.24e-06	GTGTGTGTGTGTGTGT
GTRTGTGTGYGTGTKT	MEME-1	chr22	37908247	37908262	-	25	6.97e-10	4.24e-06	GTGTGTGTGTGTGTGT
GTRTGTGTGYGTGTKT	MEME-1	chr22	37908249	37908264	-	25	6.97e-10	4.24e-06	GTGTGTGTGTGTGTGT
GTRTGTGTGYGTGTKT	MEME-1	chr22	37908251	37908266	-	25	6.97e-10	4.24e-06	GTGTGTGTGTGTGTGT
GTRTGTGTGYGTGTKT	MEME-1	chr22	37908253	37908268	-	25	6.97e-10	4.24e-06	GTGTGTGTGTGTGTGT
GTRTGTGTGYGTGTKT	MEME-1	chr22	37908255	37908270	-	25	6.97e-10	4.24e-06	GTGTGTGTGTGTGTGT
GTRTGTGTGYGTGTKT	MEME-1	chr22	37908257	37908272	-	25	6.97e-10	4.24e-06	GTGTGTGTGTGTGTGT
GTRTGTGTGYGTGTKT	MEME-1	chr22	37908259	37908274	-	25	6.97e-10	4.24e-06	GTGTGTGTGTGTGTGT
GTRTGTGTGYGTGTKT	MEME-1	chr22	37908261	37908276	-	25	6.97e-10	4.24e-06	GTGTGTGTGTGTGTGT
GTRTGTGTGYGTGTKT	MEME-1	chr4	48957001	48957016	-	25	6.97e-10	4.24e-06	GTGTGTGTGTGTGTGT
GTRTGTGTGYGTGTKT	MEME-1	chr4	48957003	48957018	-	25	6.97e-10	4.24e-06	GTGTGTGTGTGTGTGT
GTRTGTGTGYGTGTKT	MEME-1	chr4	48957005	48957020	-	25	6.97e-10	4.24e-06	GTGTGTGTGTGTGTGT
GTRTGTGTGYGTGTKT	MEME-1	chr4	48957007	48957022	-	25	6.97e-10	4.24e-06	GTGTGTGTGTGTGTGT
GTRTGTGTGYGTGTKT	MEME-1	chr4	48957009	48957024	-	25	6.97e-10	4.24e-06	GTGTGTGTGTGTGTGT
GTRTGTGTGYGTGTKT	MEME-1	chr4	48957011	48957026	-	25	6.97e-10	4.24e-06	GTGTGTGTGTGTGTGT
GTRTGTGTGYGTGTKT	MEME-1	chr4	48957013	48957028	-	25	6.97e-10	4.24e-06	GTGTGTGTGTGTGTGT
GTRTGTGTGYGTGTKT	MEME-1	chr4	48957015	48957030	-	25	6.97e-10	4.24e-06	GTGTGTGTGTGTGTGT
GTRTGTGTGYGTGTKT	MEME-1	chr4	48957017	48957032	-	25	6.97e-10	4.24e-06	GTGTGTGTGTGTGTGT
GTRTGTGTGYGTGTKT	MEME-1	chr4	48957019	48957034	-	25	6.97e-10	4.24e-06	GTGTGTGTGTGTGTGT
GTRTGTGTGYGTGTKT	MEME-1	chr4	48957021	48957036	-	25	6.97e-10	4.24e-06	GTGTGTGTGTGTGTGT
GTRTGTGTGYGTGTKT	MEME-1	chr20	52131961	52131976	+	25	6.97e-10	4.24e-06	gtgtgtgtgtgtgtgt
GTRTGTGTGYGTGTKT	MEME-1	chr14	56648434	56648449	+	25	6.97e-10	4.24e-06	gtgtgtgtgtgtgtgt
GTRTGTGTGYGTGTKT	MEME-1	chr14	56648436	56648451	+	25	6.97e-10	4.24e-06	gtgtgtgtgtgtgtgt
GTRTGTGTGYGTGTKT	MEME-1	chr14	56648438	56648453	+	25	6.97e-10	4.24e-06	gtgtgtgtgtgtgtgt
GTRTGTGTGYGTGTKT	MEME-1	chr14	56648440	56648455	+	25	6.97e-10	4.24e-06	gtgtgtgtgtgtgtgt
GTRTGTGTGYGTGTKT	MEME-1	chr14	56648442	56648457	+	25	6.97e-10	4.24e-06	gtgtgtgtgtgtgtgt
GTRTGTGTGYGTGTKT	MEME-1	chr14	56648444	56648459	+	25	6.97e-10	4.24e-06	gtgtgtgtgtgtgtgt
GTRTGTGTGYGTGTKT	MEME-1	chr14	56648446	56648461	+	25	6.97e-10	4.24e-06	gtgtgtgtgtgtgtgt
GTRTGTGTGYGTGTKT	MEME-1	chr14	56648448	56648463	+	25	6.97e-10	4.24e-06	gtgtgtgtgtgtgtgt
GTRTGTGTGYGTGTKT	MEME-1	chr14	56648450	56648465	+	25	6.97e-10	4.24e-06	gtgtgtgtgtgtgtgt
GTRTGTGTGYGTGTKT	MEME-1	chr17	65387076	65387091	+	25	6.97e-10	4.24e-06	gtgtgtgtgtgtgtgt
GTRTGTGTGYGTGTKT	MEME-1	chr17	65387078	65387093	+	25	6.97e-10	4.24e-06	gtgtgtgtgtgtgtgt
GTRTGTGTGYGTGTKT	MEME-1	chr17	65387080	65387095	+	25	6.97e-10	4.24e-06	gtgtgtgtgtgtgtgt
GTRTGTGTGYGTGTKT	MEME-1	chr17	65387082	65387097	+	25	6.97e-10	4.24e-06	gtgtgtgtgtgtgtgt
GTRTGTGTGYGTGTKT	MEME-1	chr17	65387084	65387099	+	25	6.97e-10	4.24e-06	gtgtgtgtgtgtgtgt
GTRTGTGTGYGTGTKT	MEME-1	chr17	65387086	65387101	+	25	6.97e-10	4.24e-06	gtgtgtgtgtgtgtgt
GTRTGTGTGYGTGTKT	MEME-1	chr11	131566605	131566620	-	25	6.97e-10	4.24e-06	GTGTGTGTGTGTGTGT
GTRTGTGTGYGTGTKT	MEME-1	chr11	131566607	131566622	-	25	6.97e-10	4.24e-06	GTGTGTGTGTGTGTGT
GTRTGTGTGYGTGTKT	MEME-1	chr11	131566609	131566624	-	25	6.97e-10	4.24e-06	GTGTGTGTGTGTGTGT
GTRTGTGTGYGTGTKT	MEME-1	chr11	131566611	131566626	-	25	6.97e-10	4.24e-06	GTGTGTGTGTGTGTGT
GTRTGTGTGYGTGTKT	MEME-1	chr11	131566613	131566628	-	25	6.97e-10	4.24e-06	GTGTGTGTGTGTGTGT
GTRTGTGTGYGTGTKT	MEME-1	chr1	188458311	188458326	+	25	6.97e-10	4.24e-06	gtgtgtgtgtgtgtgt
GTRTGTGTGYGTGTKT	MEME-1	chr1	188458313	188458328	+	25	6.97e-10	4.24e-06	gtgtgtgtgtgtgtgt
GTRTGTGTGYGTGTKT	MEME-1	chr1	188458315	188458330	+	25	6.97e-10	4.24e-06	gtgtgtgtgtgtgtgt
GTRTGTGTGYGTGTKT	MEME-1	chr1	188458317	188458332	+	25	6.97e-10	4.24e-06	gtgtgtgtgtgtgtgt
GTRTGTGTGYGTGTKT	MEME-1	chr1	188458319	188458334	+	25	6.97e-10	4.24e-06	gtgtgtgtgtgtgtgt
GTRTGTGTGYGTGTKT	MEME-1	chr1	188458321	188458336	+	25	6.97e-10	4.24e-06	gtgtgtgtgtgtgtgt
GTRTGTGTGYGTGTKT	MEME-1	chr1	188458323	188458338	+	25	6.97e-10	4.24e-06	gtgtgtgtgtgtgtgt
GTRTGTGTGYGTGTKT	MEME-1	chr1	188458325	188458340	+	25	6.97e-10	4.24e-06	gtgtgtgtgtgtgtgt
GTRTGTGTGYGTGTKT	MEME-1	chr1	188458327	188458342	+	25	6.97e-10	4.24e-06	gtgtgtgtgtgtgtgt
GTRTGTGTGYGTGTKT	MEME-1	chr1	188458329	188458344	+	25	6.97e-10	4.24e-06	gtgtgtgtgtgtgtgt
GTRTGTGTGYGTGTKT	MEME-1	chr1	188458331	188458346	+	25	6.97e-10	4.24e-06	gtgtgtgtgtgtgtgt
GTRTGTGTGYGTGTKT	MEME-1	chr6	9251323	9251338	-	24.7191	8.79e-10	4.96e-06	GTGTGTGTGCGTGTGT
GTRTGTGTGYGTGTKT	MEME-1	chr20	15843148	15843163	-	24.7191	8.79e-10	4.96e-06	GTGTGTGTGCGTGTGT
GTRTGTGTGYGTGTKT	MEME-1	chr4	48957031	48957046	-	24.7191	8.79e-10	4.96e-06	GTGTGTGTGCGTGTGT
GTRTGTGTGYGTGTKT	MEME-1	chr1	85763399	85763414	-	24.7191	8.79e-10	4.96e-06	GTGTGTGTGCGTGTGT
GTRTGTGTGYGTGTKT	MEME-1	chr2	164205633	164205648	-	24.7191	8.79e-10	4.96e-06	GTGTGTGTGCGTGTGT
GTRTGTGTGYGTGTKT	MEME-1	chr1	169042780	169042795	-	24.7191	8.79e-10	4.96e-06	GTGTGTGTGCGTGTGT
GTRTGTGTGYGTGTKT	MEME-1	chr17	4681708	4681723	-	23.7416	2.67e-09	1.44e-05	GTGTGTGTGTGTGTTT
GTRTGTGTGYGTGTKT	MEME-1	chr4	48956999	48957014	-	23.7416	2.67e-09	1.44e-05	GTGTGTGTGTGTGTTT
GTRTGTGTGYGTGTKT	MEME-1	chr14	56648452	56648467	+	23.7416	2.67e-09	1.44e-05	gtgtgtgtgtgtgtTT
GTRTGTGTGYGTGTKT	MEME-1	chr17	65387088	65387103	+	23.7416	2.67e-09	1.44e-05	gtgtgtgtgtgtgtTT
GTRTGTGTGYGTGTKT	MEME-1	chr6	13873396	13873411	+	23.6742	3.04e-09	1.56e-05	gtgtgtgtgtgtgtgc
GTRTGTGTGYGTGTKT	MEME-1	chr20	15843154	15843169	-	23.6742	3.04e-09	1.56e-05	GTGTGTGTGTGTGTGC
GTRTGTGTGYGTGTKT	MEME-1	chr11	131566603	131566618	-	23.6742	3.04e-09	1.56e-05	GTGTGTGTGTGTGTGC
GTRTGTGTGYGTGTKT	MEME-1	chr1	169042786	169042801	-	23.6742	3.04e-09	1.56e-05	GTGTGTGTGTGTGTGC
GTRTGTGTGYGTGTKT	MEME-1	chr1	188458307	188458322	+	23.6629	3.26e-09	1.64e-05	gcatgtgtgtgtgtgt
GTRTGTGTGYGTGTKT	MEME-1	chr1	169042790	169042805	-	23.6629	3.26e-09	1.64e-05	GCATGTGTGTGTGTGT
GTRTGTGTGYGTGTKT	MEME-1	chrX	30922409	30922424	+	23.382	4.46e-09	2.22e-05	GCATGTGTGCGTGTGT
GTRTGTGTGYGTGTKT	MEME-1	chr17	65387074	65387089	+	23.3371	4.64e-09	2.24e-05	GCgtgtgtgtgtgtgt
GTRTGTGTGYGTGTKT	MEME-1	chr6	9251315	9251330	-	23.3371	4.64e-09	2.24e-05	GCGTGTGTGTGTGTGT
GTRTGTGTGYGTGTKT	MEME-1	chr4	48957023	48957038	-	23.3371	4.64e-09	2.24e-05	GCGTGTGTGTGTGTGT
GTRTGTGTGYGTGTKT	MEME-1	chr20	15843160	15843175	-	23.0787	6.1e-09	2.92e-05	GAATGTGTGTGTGTGT
GTRTGTGTGYGTGTKT	MEME-1	chr20	52131955	52131970	+	22.9775	7.04e-09	3.34e-05	gtgtatgtgtgtgtgt
GTRTGTGTGYGTGTKT	MEME-1	chr6	9251311	9251326	-	22.8315	7.74e-09	3.63e-05	GTGTGTGTGTGTGTGA
GTRTGTGTGYGTGTKT	MEME-1	chr12	49275916	49275931	-	22.809	8.58e-09	3.99e-05	GTTTGTGTGTGTGTTT
GTRTGTGTGYGTGTKT	MEME-1	chr3	133705111	133705126	+	22.7416	9.71e-09	4.47e-05	GTTTGTGTGTGTGTGC
GTRTGTGTGYGTGTKT	MEME-1	chr17	46126269	46126284	+	22.6854	1.04e-08	4.72e-05	gtgagtgtgtgtgtgt
GTRTGTGTGYGTGTKT	MEME-1	chr6	13873402	13873417	+	22.5506	1.16e-08	5.22e-05	gtgtgtgtgcgtgtgA
GTRTGTGTGYGTGTKT	MEME-1	chr1	188458333	188458348	+	22.4157	1.38e-08	6.17e-05	gtgtgtgtgtgtgtTC
GTRTGTGTGYGTGTKT	MEME-1	chr6	9251317	9251332	-	21.9551	2.15e-08	9.34e-05	GTGCGTGTGTGTGTGT
GTRTGTGTGYGTGTKT	MEME-1	chr4	48957025	48957040	-	21.9551	2.15e-08	9.34e-05	GTGCGTGTGTGTGTGT
GTRTGTGTGYGTGTKT	MEME-1	chr1	85763393	85763408	-	21.9551	2.15e-08	9.34e-05	GTGCGTGTGTGTGTGT
GTRTGTGTGYGTGTKT	MEME-1	chr5	173249167	173249182	+	21.809	2.46e-08	0.000106	gtgtgtgtgtgtgggt
GTRTGTGTGYGTGTKT	MEME-1	chr17	46126271	46126286	+	21.427	3.61e-08	0.000154	gagtgtgtgtgtgtgc
GTRTGTGTGYGTGTKT	MEME-1	chr2	226199226	226199241	-	21.3596	3.87e-08	0.000164	GTATGTGTGAGTGTGT
GTRTGTGTGYGTGTKT	MEME-1	chr6	139866695	139866710	+	21.3034	4.06e-08	0.00017	GTATCTGTGCCTGTGT
GTRTGTGTGYGTGTKT	MEME-1	chr20	52131963	52131978	+	21.2697	4.22e-08	0.000175	gtgtgtgtgtgtgtCC
GTRTGTGTGYGTGTKT	MEME-1	chr20	15843158	15843173	-	21.0562	5.25e-08	0.000209	ATGTGTGTGTGTGTGT
GTRTGTGTGYGTGTKT	MEME-1	chr20	52131959	52131974	+	21.0562	5.25e-08	0.000209	atgtgtgtgtgtgtgt
GTRTGTGTGYGTGTKT	MEME-1	chr14	56648432	56648447	+	21.0562	5.25e-08	0.000209	Atgtgtgtgtgtgtgt
GTRTGTGTGYGTGTKT	MEME-1	chr1	169042788	169042803	-	21.0562	5.25e-08	0.000209	ATGTGTGTGTGTGTGT
GTRTGTGTGYGTGTKT	MEME-1	chr1	188458309	188458324	+	21.0562	5.25e-08	0.000209	atgtgtgtgtgtgtgt
GTRTGTGTGYGTGTKT	MEME-1	chr6	13873398	13873413	+	20.8315	6.42e-08	0.00025	gtgtgtgtgtgtgcgt
GTRTGTGTGYGTGTKT	MEME-1	chr20	15843152	15843167	-	20.8315	6.42e-08	0.00025	GTGTGTGTGTGTGCGT
GTRTGTGTGYGTGTKT	MEME-1	chr1	169042784	169042799	-	20.8315	6.42e-08	0.00025	GTGTGTGTGTGTGCGT
GTRTGTGTGYGTGTKT	MEME-1	chr10	114875306	114875321	+	20.7753	6.89e-08	0.000265	ATGTGTGTGCGTGTGT
GTRTGTGTGYGTGTKT	MEME-1	chr12	107637931	107637946	+	20.6292	7.68e-08	0.000294	gtgcgtgtgtgtgtgc
GTRTGTGTGYGTGTKT	MEME-1	chr5	173249163	173249178	+	20.618	7.78e-08	0.000295	GCAGgtgtgtgtgtgt
GTRTGTGTGYGTGTKT	MEME-1	chr8	100941838	100941853	-	20.5393	8.31e-08	0.00031	GTGTGTGTGTGGGTGT
GTRTGTGTGYGTGTKT	MEME-1	chr5	173249169	173249184	+	20.5393	8.31e-08	0.00031	gtgtgtgtgtgggtgt
GTRTGTGTGYGTGTKT	MEME-1	chr12	118768203	118768218	+	20.2921	1.02e-07	0.000379	GTGTATGTGCGTGTCT
GTRTGTGTGYGTGTKT	MEME-1	chr17	39560084	39560099	-	20.2584	1.04e-07	0.000383	GTACATGTGTGTGTGT
GTRTGTGTGYGTGTKT	MEME-1	chr21	46823416	46823431	-	20.2472	1.06e-07	0.000383	GTGTGTGTGCATGTGT
GTRTGTGTGYGTGTKT	MEME-1	chr1	169042798	169042813	-	20.2472	1.06e-07	0.000383	GTGTGTGTGCATGTGT
GTRTGTGTGYGTGTKT	MEME-1	chr1	169042792	169042807	-	19.9326	1.35e-07	0.000484	GTGCATGTGTGTGTGT
GTRTGTGTGYGTGTKT	MEME-1	chr10	32250315	32250330	-	19.7978	1.51e-07	0.000538	ATGTGTGTGTGTGTTT
GTRTGTGTGYGTGTKT	MEME-1	chr7	157166489	157166504	-	19.764	1.56e-07	0.000553	GTAGGTGTGCCTGTGT
GTRTGTGTGYGTGTKT	MEME-1	chr17	46126273	46126288	+	19.5056	1.93e-07	0.000678	gtgtgtgtgtgtgcgc
GTRTGTGTGYGTGTKT	MEME-1	chr21	46823361	46823376	-	19.4831	1.96e-07	0.000683	GCCTGTGTGCGTGTGA
GTRTGTGTGYGTGTKT	MEME-1	chr6	24879623	24879638	-	19.2921	2.26e-07	0.000783	GTGTGTGTGCGTGCTT
GTRTGTGTGYGTGTKT	MEME-1	chr9	134622829	134622844	-	19.2247	2.38e-07	0.000817	GTGTGTGTGCGTGCGC
GTRTGTGTGYGTGTKT	MEME-1	chr1	169042810	169042825	-	19.1461	2.51e-07	0.000856	GCCTGTGTGCTTGTGT
GTRTGTGTGYGTGTKT	MEME-1	chr9	84027933	84027948	-	19.1124	2.59e-07	0.000872	GTATATGTGTGTGAGC
GTRTGTGTGYGTGTKT	MEME-1	chr1	85763391	85763406	-	19.1124	2.59e-07	0.000872	GCGTGTGTGTGTGTAT
GTRTGTGTGYGTGTKT	MEME-1	chr12	107637925	107637940	+	18.8539	3.13e-07	0.00104	aaatgtgtgcgtgtgt
GTRTGTGTGYGTGTKT	MEME-1	chr1	8889362	8889377	+	18.8427	3.16e-07	0.00105	GTATCTGTGTGTTTGT
GTRTGTGTGYGTGTKT	MEME-1	chr18	45659656	45659671	-	18.7865	3.3e-07	0.00109	GTGTGTGTGCTTGTTA
GTRTGTGTGYGTGTKT	MEME-1	chr14	56648454	56648469	+	18.764	3.35e-07	0.0011	gtgtgtgtgtgtTTTT
GTRTGTGTGYGTGTKT	MEME-1	chr12	3458982	3458997	+	18.7528	3.38e-07	0.0011	GACAGTGTGCGTGTGT
GTRTGTGTGYGTGTKT	MEME-1	chr6	9251329	9251344	-	18.7079	3.49e-07	0.00112	GAAGGTGTGTGTGTGC
GTRTGTGTGYGTGTKT	MEME-1	chr17	4681706	4681721	-	18.6966	3.51e-07	0.00112	GTGTGTGTGTGTTTGC
GTRTGTGTGYGTGTKT	MEME-1	chr21	46823410	46823425	-	18.6742	3.55e-07	0.00113	GTGCATGTGTGTGTTT
GTRTGTGTGYGTGTKT	MEME-1	chr13	28530861	28530876	+	18.5393	3.93e-07	0.00124	GTAAATGTGCGTGTGA
GTRTGTGTGYGTGTKT	MEME-1	chr17	39560082	39560097	-	18.3933	4.36e-07	0.00137	ACATGTGTGTGTGTGC
GTRTGTGTGYGTGTKT	MEME-1	chr8	119890565	119890580	+	18.3371	4.53e-07	0.00141	GTTTCTTTGCGTGTGT
GTRTGTGTGYGTGTKT	MEME-1	chr5	123935282	123935297	-	18.2921	4.67e-07	0.00145	GCTTGTGTGCTTGTGC
GTRTGTGTGYGTGTKT	MEME-1	chr1	188458305	188458320	+	18.2697	4.76e-07	0.00146	gcgcatgtgtgtgtgt
GTRTGTGTGYGTGTKT	MEME-1	chr15	52273963	52273978	-	18.2584	4.79e-07	0.00147	GTCTCTGTGTTTGTGC
GTRTGTGTGYGTGTKT	MEME-1	chr11	131566583	131566598	-	18.1798	5.06e-07	0.00154	GTGGGTGTGCCTGTTT
GTRTGTGTGYGTGTKT	MEME-1	chr8	116999780	116999795	-	18.1461	5.17e-07	0.00156	GCATCTGTGCGTGTCC
GTRTGTGTGYGTGTKT	MEME-1	chr21	46823355	46823370	-	17.9888	5.74e-07	0.00172	GTGCGTGTGAGTGTGT
GTRTGTGTGYGTGTKT	MEME-1	chr15	67224750	67224765	-	17.9326	5.93e-07	0.00177	GTGAGTGTGCATGTGT
GTRTGTGTGYGTGTKT	MEME-1	chr12	49275920	49275935	-	17.809	6.45e-07	0.00191	GTTAGTTTGTGTGTGT
GTRTGTGTGYGTGTKT	MEME-1	chr5	173249185	173249200	+	17.6742	6.99e-07	0.00206	gtatgtgtgtgggggt
GTRTGTGTGYGTGTKT	MEME-1	chr3	50306378	50306393	+	17.5506	7.6e-07	0.00222	GTGGGTGTGTCTGTGA
GTRTGTGTGYGTGTKT	MEME-1	chr5	173249177	173249192	+	17.4831	7.93e-07	0.00231	gtgggtgtgtatgtgt
GTRTGTGTGYGTGTKT	MEME-1	chr15	67224760	67224775	-	17.2921	8.94e-07	0.00258	GAGAGTGTGCGTGAGT
GTRTGTGTGYGTGTKT	MEME-1	chr2	226199220	226199235	-	17.2584	9.16e-07	0.00263	GTGAGTGTGTGTGCTT
GTRTGTGTGYGTGTKT	MEME-1	chr2	47426247	47426262	+	17.1011	1.01e-06	0.00288	GAATGTGTGCTTGGGT
GTRTGTGTGYGTGTKT	MEME-1	chr17	4681704	4681719	-	17.0674	1.03e-06	0.00292	GTGTGTGTGTTTGCTT
GTRTGTGTGYGTGTKT	MEME-1	chr4	159076916	159076931	-	17	1.07e-06	0.00302	GAAAGTGTGTTTGTTT
GTRTGTGTGYGTGTKT	MEME-1	chr9	134622833	134622848	-	16.8876	1.15e-06	0.00321	ATGTGTGTGTGTGCGT
GTRTGTGTGYGTGTKT	MEME-1	chr6	139866683	139866698	+	16.8764	1.15e-06	0.00321	GCGTGTGTGTCTGTAT
GTRTGTGTGYGTGTKT	MEME-1	chr22	31975938	31975953	+	16.8652	1.16e-06	0.00322	GTGGGTGTGTTTGTTC
GTRTGTGTGYGTGTKT	MEME-1	chr11	131566601	131566616	-	16.6067	1.36e-06	0.00374	GTGTGTGTGTGTGCAT
GTRTGTGTGYGTGTKT	MEME-1	chr7	41188278	41188293	-	16.5506	1.41e-06	0.00386	ATGTGTGTGCGTGTAT
GTRTGTGTGYGTGTKT	MEME-1	chr10	114875302	114875317	+	16.4944	1.46e-06	0.00396	GTGAATGTGTGTGCGT
GTRTGTGTGYGTGTKT	MEME-1	chr3	139021110	139021125	+	16.382	1.55e-06	0.00419	GCATCTGTGTGTGGTC
GTRTGTGTGYGTGTKT	MEME-1	chr5	154080569	154080584	+	16.3596	1.57e-06	0.00422	gtttgtttgtttgttt
GTRTGTGTGYGTGTKT	MEME-1	chr21	46823408	46823423	-	16.2809	1.65e-06	0.00441	GCATGTGTGTGTTTCT
GTRTGTGTGYGTGTKT	MEME-1	chr1	85763403	85763418	-	16.2697	1.66e-06	0.00441	GAGAGTGTGTGTGCGT
GTRTGTGTGYGTGTKT	MEME-1	chr3	107569228	107569243	+	16.1461	1.77e-06	0.00469	GTATATGTGCATGTCT
GTRTGTGTGYGTGTKT	MEME-1	chr7	140677551	140677566	+	16.0899	1.83e-06	0.00479	GCATATGTGTGTGTAC
GTRTGTGTGYGTGTKT	MEME-1	chr2	192731415	192731430	+	16.0899	1.83e-06	0.00479	GCATATGTGTGTGTAC
GTRTGTGTGYGTGTKT	MEME-1	chr11	131566597	131566612	-	16.0787	1.84e-06	0.0048	GTGTGTGTGCATGCGT
GTRTGTGTGYGTGTKT	MEME-1	chr5	173249171	173249186	+	15.7978	2.15e-06	0.00557	gtgtgtgtgggtgtgt
GTRTGTGTGYGTGTKT	MEME-1	chr6	9251309	9251324	-	15.7416	2.21e-06	0.0057	GTGTGTGTGTGTGAAA
GTRTGTGTGYGTGTKT	MEME-1	chr19	24065303	24065318	-	15.6742	2.29e-06	0.00587	GTACCTGTGTCTGAGT
GTRTGTGTGYGTGTKT	MEME-1	chr22	37908221	37908236	-	15.6292	2.35e-06	0.00599	GTGTGTGTGTGTGTGG
GTRTGTGTGYGTGTKT	MEME-1	chr8	100941840	100941855	-	15.618	2.37e-06	0.006	AAGTGTGTGTGTGGGT
GTRTGTGTGYGTGTKT	MEME-1	chr3	50306277	50306292	+	15.5843	2.41e-06	0.00608	ATGTCTGTGAGTGTGT
GTRTGTGTGYGTGTKT	MEME-1	chr20	3791946	3791961	+	15.4607	2.58e-06	0.00645	GAGTCTGTGTGGGTGC
GTRTGTGTGYGTGTKT	MEME-1	chr4	48956997	48957012	-	15.4494	2.59e-06	0.00645	GTGTGTGTGTGTTTCA
GTRTGTGTGYGTGTKT	MEME-1	chr5	100999239	100999254	+	15.1798	2.99e-06	0.00741	ATCTATGTGCGTGTGA
GTRTGTGTGYGTGTKT	MEME-1	chr10	32250317	32250332	-	15.1685	3.01e-06	0.00742	TTATGTGTGTGTGTGT
GTRTGTGTGYGTGTKT	MEME-1	chr6	9251325	9251340	-	15.0449	3.21e-06	0.00748	GTGTGTGTGTGCGTGT
GTRTGTGTGYGTGTKT	MEME-1	chr6	13873400	13873415	+	15.0449	3.21e-06	0.00748	gtgtgtgtgtgcgtgt
GTRTGTGTGYGTGTKT	MEME-1	chr20	15843150	15843165	-	15.0449	3.21e-06	0.00748	GTGTGTGTGTGCGTGT
GTRTGTGTGYGTGTKT	MEME-1	chr4	48957033	48957048	-	15.0449	3.21e-06	0.00748	GTGTGTGTGTGCGTGT
GTRTGTGTGYGTGTKT	MEME-1	chr1	169042782	169042797	-	15.0449	3.21e-06	0.00748	GTGTGTGTGTGCGTGT
GTRTGTGTGYGTGTKT	MEME-1	chr6	9251319	9251334	-	14.9888	3.3e-06	0.00748	GTGTGCGTGTGTGTGT
GTRTGTGTGYGTGTKT	MEME-1	chr6	9251321	9251336	-	14.9888	3.3e-06	0.00748	GTGTGTGCGTGTGTGT
GTRTGTGTGYGTGTKT	MEME-1	chr20	15843146	15843161	-	14.9888	3.3e-06	0.00748	GTGTGTGCGTGTGTGT
GTRTGTGTGYGTGTKT	MEME-1	chr17	46126267	46126282	+	14.9888	3.3e-06	0.00748	gtgtgagtgtgtgtgt
GTRTGTGTGYGTGTKT	MEME-1	chr4	48957027	48957042	-	14.9888	3.3e-06	0.00748	GTGTGCGTGTGTGTGT
GTRTGTGTGYGTGTKT	MEME-1	chr4	48957029	48957044	-	14.9888	3.3e-06	0.00748	GTGTGTGCGTGTGTGT
GTRTGTGTGYGTGTKT	MEME-1	chr1	85763395	85763410	-	14.9888	3.3e-06	0.00748	GTGTGCGTGTGTGTGT
GTRTGTGTGYGTGTKT	MEME-1	chr1	85763397	85763412	-	14.9888	3.3e-06	0.00748	GTGTGTGCGTGTGTGT
GTRTGTGTGYGTGTKT	MEME-1	chr12	107637929	107637944	+	14.9888	3.3e-06	0.00748	gtgtgcgtgtgtgtgt
GTRTGTGTGYGTGTKT	MEME-1	chr6	139866677	139866692	+	14.9888	3.3e-06	0.00748	GTGTGTGCGTGTGTGT
GTRTGTGTGYGTGTKT	MEME-1	chr2	164205631	164205646	-	14.9888	3.3e-06	0.00748	GTGTGTGCGTGTGTGT
GTRTGTGTGYGTGTKT	MEME-1	chr1	169042778	169042793	-	14.9888	3.3e-06	0.00748	GTGTGTGCGTGTGTGT
GTRTGTGTGYGTGTKT	MEME-1	chr1	8889364	8889379	+	14.9775	3.32e-06	0.00748	ATCTGTGTGTTTGTGA
GTRTGTGTGYGTGTKT	MEME-1	chr22	37908265	37908280	-	14.9438	3.37e-06	0.00754	ACCCGTGTGTGTGTGT
GTRTGTGTGYGTGTKT	MEME-1	chr12	107637933	107637948	+	14.9438	3.37e-06	0.00754	gcgtgtgtgtgtgcat
GTRTGTGTGYGTGTKT	MEME-1	chr20	52131953	52131968	+	14.8427	3.55e-06	0.00783	gtgtgtatgtgtgtgt
GTRTGTGTGYGTGTKT	MEME-1	chr14	56648618	56648633	-	14.8427	3.55e-06	0.00783	GTGGATGTGTTTGTTC
GTRTGTGTGYGTGTKT	MEME-1	chr11	131566615	131566630	-	14.8427	3.55e-06	0.00783	TTGTGTGTGTGTGTGT
GTRTGTGTGYGTGTKT	MEME-1	chr20	52131951	52131966	+	14.7303	3.76e-06	0.00824	gtgtgtgtatgtgtgt
GTRTGTGTGYGTGTKT	MEME-1	chr15	27655923	27655938	+	14.6629	3.89e-06	0.00849	gtgtgtgtgtgtTgga
GTRTGTGTGYGTGTKT	MEME-1	chr1	188458335	188458350	+	14.5955	4.02e-06	0.00875	gtgtgtgtgtgtTCTT
GTRTGTGTGYGTGTKT	MEME-1	chr1	65992934	65992949	-	14.5618	4.1e-06	0.00882	TTGTGTGTGCGTGTGT
GTRTGTGTGYGTGTKT	MEME-1	chr6	139866675	139866690	+	14.5618	4.1e-06	0.00882	TTGTGTGTGCGTGTGT
GTRTGTGTGYGTGTKT	MEME-1	chr20	15843162	15843177	-	14.4719	4.28e-06	0.00917	AAGAATGTGTGTGTGT
GTRTGTGTGYGTGTKT	MEME-1	chr15	99398055	99398070	+	14.427	4.37e-06	0.00933	gcctgtgtgtctgact
GTRTGTGTGYGTGTKT	MEME-1	chr3	42538404	42538419	-	14.382	4.47e-06	0.0095	ATTAGTGTGTGTGTTA
GTRTGTGTGYGTGTKT	MEME-1	chr15	27655921	27655936	+	14.3708	4.49e-06	0.00951	gtgtgtgtgtgtgtTg
GTRTGTGTGYGTGTKT	MEME-1	chr16	1950307	1950322	+	14.3596	4.52e-06	0.00952	GAACCTGTGTGTGCGT
GTRTGTGTGYGTGTKT	MEME-1	chr15	67224776	67224791	-	14.2697	4.73e-06	0.00991	ATGAGTGTGTATGTGT
GTRTGTGTGYGTGTKT	MEME-1	chr1	169042802	169042817	-	14.0112	5.34e-06	0.0111	GCTTGTGTGTGTGCAT
GTRTGTGTGYGTGTKT	MEME-1	chr9	114795949	114795964	-	13.9438	5.5e-06	0.0114	GATTGTGTGCCTGGGA
GTRTGTGTGYGTGTKT	MEME-1	chr2	226199216	226199231	-	13.809	5.88e-06	0.0122	GTGTGTGTGCTTTTTA
GTRTGTGTGYGTGTKT	MEME-1	chr7	475813	475828	-	13.7753	5.97e-06	0.0123	GTCCCTTTGTGTGTGC
GTRTGTGTGYGTGTKT	MEME-1	chr9	134622831	134622846	-	13.7191	6.11e-06	0.0125	GTGTGTGTGTGCGTGC
GTRTGTGTGYGTGTKT	MEME-1	chr2	226199222	226199237	-	13.6629	6.27e-06	0.0128	GTGTGAGTGTGTGTGC
GTRTGTGTGYGTGTKT	MEME-1	chr17	65387090	65387105	+	13.6292	6.38e-06	0.013	gtgtgtgtgtgtTTAA
GTRTGTGTGYGTGTKT	MEME-1	chr5	123935419	123935434	-	13.5393	6.66e-06	0.0135	AAGTCTGTGTTTGTTT
GTRTGTGTGYGTGTKT	MEME-1	chr1	85763389	85763404	-	13.5281	6.69e-06	0.0135	GTGTGTGTGTGTATTT
GTRTGTGTGYGTGTKT	MEME-1	chr1	188458293	188458308	+	13.5056	6.76e-06	0.0136	GTTCAtgtgtgtgcgc
GTRTGTGTGYGTGTKT	MEME-1	chr21	46823353	46823368	-	13.3258	7.34e-06	0.0147	GCGTGTGAGTGTGTGT
GTRTGTGTGYGTGTKT	MEME-1	chr1	8889289	8889304	-	13.3146	7.37e-06	0.0147	GTTCGTTTGTTTGTTT
GTRTGTGTGYGTGTKT	MEME-1	chr17	39560062	39560077	-	13.236	7.64e-06	0.0151	ACATCTGTGTGTTTGT
GTRTGTGTGYGTGTKT	MEME-1	chr2	175449845	175449860	-	13.2022	7.75e-06	0.0153	GTGCATGTGTTTGTAT
GTRTGTGTGYGTGTKT	MEME-1	chr17	4681710	4681725	-	13.1798	7.83e-06	0.0153	TCGTGTGTGTGTGTGT
GTRTGTGTGYGTGTKT	MEME-1	chr22	37908263	37908278	-	13.1798	7.83e-06	0.0153	CCGTGTGTGTGTGTGT
GTRTGTGTGYGTGTKT	MEME-1	chr10	114875304	114875319	+	13.1236	8.02e-06	0.0156	GAATGTGTGTGCGTGT
GTRTGTGTGYGTGTKT	MEME-1	chr8	55471068	55471083	-	13.0225	8.39e-06	0.0163	AAGTATGTGTTTGTTT
GTRTGTGTGYGTGTKT	MEME-1	chr14	56648430	56648445	+	12.9213	8.76e-06	0.0169	TAAtgtgtgtgtgtgt
GTRTGTGTGYGTGTKT	MEME-1	chr7	41188282	41188297	-	12.8764	8.95e-06	0.0172	ATAAATGTGTGTGCGT
GTRTGTGTGYGTGTKT	MEME-1	chr1	85763401	85763416	-	12.7978	9.26e-06	0.0178	GAGTGTGTGTGCGTGT
GTRTGTGTGYGTGTKT	MEME-1	chr2	192731401	192731416	+	12.7865	9.31e-06	0.0178	GTTTGTGTGTGCGTGC
GTRTGTGTGYGTGTKT	MEME-1	chr17	46126265	46126280	+	12.7416	9.48e-06	0.018	GAgtgtgagtgtgtgt
GTRTGTGTGYGTGTKT	MEME-1	chr6	100623858	100623873	-	12.6629	9.81e-06	0.0186	GTTCCTGTGCGTGCCT
GTRTGTGTGYGTGTKT	MEME-1	chr16	69757575	69757590	-	12.5843	1.02e-05	0.019	GTTTGTTTGTTTGAGA
GTRTGTGTGYGTGTKT	MEME-1	chr10	114875308	114875323	+	12.5843	1.02e-05	0.019	GTGTGTGCGTGTGTCT
GTRTGTGTGYGTGTKT	MEME-1	chr6	139866679	139866694	+	12.5843	1.02e-05	0.019	GTGTGCGTGTGTGTCT
GTRTGTGTGYGTGTKT	MEME-1	chr3	13236434	13236449	-	12.3596	1.12e-05	0.0209	AAGTGTTTGTTTGTGT
GTRTGTGTGYGTGTKT	MEME-1	chr12	132315386	132315401	+	12.3258	1.13e-05	0.021	GTGTCTGTGCCGGAGC
GTRTGTGTGYGTGTKT	MEME-1	chr9	136608740	136608755	+	12.3146	1.14e-05	0.021	gtgtgtttgttttttt
GTRTGTGTGYGTGTKT	MEME-1	chr2	171095306	171095321	-	12.3146	1.14e-05	0.021	ATTTCTGTGTGTTTGC
GTRTGTGTGYGTGTKT	MEME-1	chr3	72031808	72031823	+	12.3034	1.15e-05	0.0211	gctgctgtgcgtgact
GTRTGTGTGYGTGTKT	MEME-1	chr11	131566617	131566632	-	12.2472	1.17e-05	0.0215	CCTTGTGTGTGTGTGT
GTRTGTGTGYGTGTKT	MEME-1	chr1	85763387	85763402	-	12.1236	1.24e-05	0.0225	GTGTGTGTGTATTTTA
GTRTGTGTGYGTGTKT	MEME-1	chr8	100941961	100941976	+	11.9213	1.34e-05	0.0244	GACAATGTGTTTGTTC
GTRTGTGTGYGTGTKT	MEME-1	chr10	32250319	32250334	-	11.8876	1.36e-05	0.0246	TTTTATGTGTGTGTGT
GTRTGTGTGYGTGTKT	MEME-1	chr6	139866681	139866696	+	11.7416	1.44e-05	0.026	GTGCGTGTGTGTCTGT
GTRTGTGTGYGTGTKT	MEME-1	chr6	7201560	7201575	+	11.7079	1.46e-05	0.0262	GTCTGTGTGCCTGTGG
GTRTGTGTGYGTGTKT	MEME-1	chr8	100941836	100941851	-	11.573	1.55e-05	0.0276	GTGTGTGTGGGTGTAT
GTRTGTGTGYGTGTKT	MEME-1	chr15	67224768	67224783	-	11.4045	1.65e-05	0.0294	GTATGTGTGAGAGTGT
GTRTGTGTGYGTGTKT	MEME-1	chr7	52900692	52900707	+	11.3483	1.69e-05	0.0298	GCAGCTGTGTGTGGCA
GTRTGTGTGYGTGTKT	MEME-1	chr2	171095241	171095256	-	11.3483	1.69e-05	0.0298	GACCCTGTGTGTGATC
GTRTGTGTGYGTGTKT	MEME-1	chr17	39560080	39560095	-	11.3371	1.7e-05	0.0298	ATGTGTGTGTGTGCAC
GTRTGTGTGYGTGTKT	MEME-1	chr1	235109604	235109619	-	11.3371	1.7e-05	0.0298	GACTGCGTGTGTGTGT
GTRTGTGTGYGTGTKT	MEME-1	chr15	67224742	67224757	-	11.3034	1.72e-05	0.0301	GCATGTGTGAGTGCAT
GTRTGTGTGYGTGTKT	MEME-1	chr7	157121965	157121980	+	11.2809	1.74e-05	0.0302	GTGGATGTGTGGGAGC
GTRTGTGTGYGTGTKT	MEME-1	chr2	192731399	192731414	+	11.2809	1.74e-05	0.0302	GTGTTTGTGTGTGCGT
GTRTGTGTGYGTGTKT	MEME-1	chr1	65992932	65992947	-	11.2584	1.75e-05	0.0303	GTGTGTGCGTGTGTCC
GTRTGTGTGYGTGTKT	MEME-1	chr13	20368519	20368534	+	11.2022	1.79e-05	0.0308	AAATGTGTGTTTGCTt
GTRTGTGTGYGTGTKT	MEME-1	chr4	159076912	159076927	-	11.1685	1.81e-05	0.0312	GTGTGTTTGTTTTTCT
GTRTGTGTGYGTGTKT	MEME-1	chr14	56648456	56648471	+	11.1236	1.85e-05	0.0316	gtgtgtgtgtTTTTAA
GTRTGTGTGYGTGTKT	MEME-1	chr20	52131949	52131964	+	11.0787	1.88e-05	0.0318	GGgtgtgtgtatgtgt
GTRTGTGTGYGTGTKT	MEME-1	chr11	86289328	86289343	-	11.0787	1.88e-05	0.0318	GTGTGTCTGTTTGTTT
GTRTGTGTGYGTGTKT	MEME-1	chr1	169042804	169042819	-	11.0787	1.88e-05	0.0318	GTGCTTGTGTGTGTGC
GTRTGTGTGYGTGTKT	MEME-1	chr12	107637927	107637942	+	11.0449	1.91e-05	0.0319	atgtgtgcgtgtgtgt
GTRTGTGTGYGTGTKT	MEME-1	chr1	169042806	169042821	-	11.0449	1.91e-05	0.0319	GTGTGCTTGTGTGTGT
GTRTGTGTGYGTGTKT	MEME-1	chr2	226199224	226199239	-	11.0449	1.91e-05	0.0319	ATGTGTGAGTGTGTGT
GTRTGTGTGYGTGTKT	MEME-1	chr6	24879619	24879634	-	10.9438	1.98e-05	0.0329	GTGTGCGTGCTTGTTT
GTRTGTGTGYGTGTKT	MEME-1	chr15	27655925	27655940	+	10.9438	1.98e-05	0.0329	gtgtgtgtgtTggaat
GTRTGTGTGYGTGTKT	MEME-1	chr6	139866701	139866716	+	10.9438	1.98e-05	0.0329	GTGCCTGTGTATgaga
GTRTGTGTGYGTGTKT	MEME-1	chr18	45659662	45659677	-	10.9213	2e-05	0.033	TCTTGTGTGTGTGTGC
GTRTGTGTGYGTGTKT	MEME-1	chr10	74003915	74003930	-	10.8876	2.03e-05	0.0333	AATTCTTTGCGTGTTT
GTRTGTGTGYGTGTKT	MEME-1	chr17	4681712	4681727	-	10.8652	2.05e-05	0.0335	TTTCGTGTGTGTGTGT
GTRTGTGTGYGTGTKT	MEME-1	chr5	173249173	173249188	+	10.764	2.13e-05	0.0347	gtgtgtgggtgtgtat
GTRTGTGTGYGTGTKT	MEME-1	chr12	116309739	116309754	-	10.7528	2.13e-05	0.0348	CTCTGTGTGCGTGTCT
GTRTGTGTGYGTGTKT	MEME-1	chr1	9173068	9173083	+	10.6629	2.21e-05	0.0359	gcaggtgtgtgagtgt
GTRTGTGTGYGTGTKT	MEME-1	chr9	134180272	134180287	-	10.6292	2.24e-05	0.0362	AACTCTGTGTGTGACT
GTRTGTGTGYGTGTKT	MEME-1	chr9	134622835	134622850	-	10.6067	2.26e-05	0.0364	AGATGTGTGTGTGTGC
GTRTGTGTGYGTGTKT	MEME-1	chr2	226199230	226199245	-	10.573	2.29e-05	0.0368	GTCTGTATGTGTGAGT
GTRTGTGTGYGTGTKT	MEME-1	chr1	235109602	235109617	-	10.5393	2.32e-05	0.037	CTGCGTGTGTGTGTTT
GTRTGTGTGYGTGTKT	MEME-1	chr12	107637937	107637952	+	10.5281	2.33e-05	0.037	gtgtgtgtgcatgcac
GTRTGTGTGYGTGTKT	MEME-1	chr20	19949197	19949212	-	10.5169	2.34e-05	0.037	ATATGTTTGTGTGGCC
GTRTGTGTGYGTGTKT	MEME-1	chr8	100941832	100941847	-	10.5169	2.34e-05	0.037	GTGTGGGTGTATGTGT
GTRTGTGTGYGTGTKT	MEME-1	chrX	23815445	23815460	+	10.4719	2.38e-05	0.0373	GCGTGTGTGTGGTTTA
GTRTGTGTGYGTGTKT	MEME-1	chr6	24879629	24879644	-	10.4719	2.38e-05	0.0373	GACTTTGTGTGTGTGC
GTRTGTGTGYGTGTKT	MEME-1	chr12	116309741	116309756	-	10.4719	2.38e-05	0.0373	GCCTCTGTGTGCGTGT
GTRTGTGTGYGTGTKT	MEME-1	chr8	100941830	100941845	-	10.427	2.42e-05	0.0375	GTGGGTGTATGTGTTT
GTRTGTGTGYGTGTKT	MEME-1	chr21	46823351	46823366	-	10.4157	2.43e-05	0.0375	GTGTGAGTGTGTGTCA
GTRTGTGTGYGTGTKT	MEME-1	chr10	77005069	77005084	+	10.4157	2.43e-05	0.0375	GTAAGTGAGTGTGTTC
GTRTGTGTGYGTGTKT	MEME-1	chr1	97437682	97437697	+	10.4157	2.43e-05	0.0375	ACTCCTGTGTCTGTTT
GTRTGTGTGYGTGTKT	MEME-1	chr5	173249183	173249198	+	10.4157	2.43e-05	0.0375	gtgtatgtgtgtgggg
GTRTGTGTGYGTGTKT	MEME-1	chr2	105813033	105813048	-	10.3933	2.45e-05	0.0377	GCCTGTTTGTCTGGGA
GTRTGTGTGYGTGTKT	MEME-1	chr1	169042774	169042789	-	10.3596	2.48e-05	0.0381	GTGCGTGTGTGTTGTA
GTRTGTGTGYGTGTKT	MEME-1	chr21	43783501	43783516	+	10.3371	2.5e-05	0.0383	ATTTGTGTGCATGAGA
GTRTGTGTGYGTGTKT	MEME-1	chr15	67224774	67224789	-	10.3146	2.53e-05	0.0385	GAGTGTGTATGTGTGA
GTRTGTGTGYGTGTKT	MEME-1	chrX	143455771	143455786	+	10.2809	2.56e-05	0.0388	atatgtttgcatgtct
GTRTGTGTGYGTGTKT	MEME-1	chr12	105050259	105050274	-	10.2472	2.59e-05	0.0392	GAGTGTGTATCTGTGT
GTRTGTGTGYGTGTKT	MEME-1	chr1	188458299	188458314	+	10.236	2.6e-05	0.0392	gtgtgtgcgcatgtgt
GTRTGTGTGYGTGTKT	MEME-1	chr15	67224770	67224785	-	10.1573	2.68e-05	0.0403	GTGTATGTGTGAGAGT
GTRTGTGTGYGTGTKT	MEME-1	chr9	22107349	22107364	-	10.1461	2.69e-05	0.0403	GCTGCTTTGTTTGTTT
GTRTGTGTGYGTGTKT	MEME-1	chr18	45659658	45659673	-	10.0674	2.77e-05	0.0414	GTGTGTGTGTGCTTGT
GTRTGTGTGYGTGTKT	MEME-1	chrX	104413305	104413320	-	10.0562	2.78e-05	0.0414	GAGGGTGTGTCTGGAT
GTRTGTGTGYGTGTKT	MEME-1	chr22	31975936	31975951	+	10.0112	2.83e-05	0.042	GTGTGGGTGTGTTTGT
GTRTGTGTGYGTGTKT	MEME-1	chr6	13873404	13873419	+	9.95506	2.89e-05	0.0427	gtgtgtgcgtgtgAGA
GTRTGTGTGYGTGTKT	MEME-1	chr3	107569167	107569182	+	9.92135	2.92e-05	0.0431	GTTGCTTTGCTTGAGT
GTRTGTGTGYGTGTKT	MEME-1	chr13	100629849	100629864	+	9.85393	3e-05	0.0441	ACCTATTTGTGTGTGA
GTRTGTGTGYGTGTKT	MEME-1	chr12	122192596	122192611	+	9.8427	3.01e-05	0.0441	ATCTCTGTGCCGGTGC
GTRTGTGTGYGTGTKT	MEME-1	chr12	105050265	105050280	-	9.83146	3.02e-05	0.0441	GTTTGTGAGTGTGTAT
GTRTGTGTGYGTGTKT	MEME-1	chr12	3458988	3459003	+	9.80899	3.05e-05	0.0441	GTGCGTGTGTCGGATC
GTRTGTGTGYGTGTKT	MEME-1	chr15	67224772	67224787	-	9.80899	3.05e-05	0.0441	GTGTGTATGTGTGAGA
GTRTGTGTGYGTGTKT	MEME-1	chr7	140677557	140677572	+	9.80899	3.05e-05	0.0441	GTGTGTGTACCTGTCT
GTRTGTGTGYGTGTKT	MEME-1	chr7	140677549	140677564	+	9.77528	3.08e-05	0.0444	GTGCATATGTGTGTGT
GTRTGTGTGYGTGTKT	MEME-1	chr2	192731413	192731428	+	9.77528	3.08e-05	0.0444	GTGCATATGTGTGTGT
GTRTGTGTGYGTGTKT	MEME-1	chr6	24879627	24879642	-	9.74157	3.12e-05	0.0447	CTTTGTGTGTGTGCGT
GTRTGTGTGYGTGTKT	MEME-1	chr5	67845250	67845265	+	9.74157	3.12e-05	0.0447	GTCTGAGTGCCTGTGC
GTRTGTGTGYGTGTKT	MEME-1	chr2	192731512	192731527	+	9.73034	3.13e-05	0.0447	ATCTGTGTGTTTGGAT
GTRTGTGTGYGTGTKT	MEME-1	chr15	67224756	67224771	-	9.69663	3.17e-05	0.0449	GTGTGCGTGAGTGTGC
GTRTGTGTGYGTGTKT	MEME-1	chr8	100941842	100941857	-	9.69663	3.17e-05	0.0449	ATAAGTGTGTGTGTGG
GTRTGTGTGYGTGTKT	MEME-1	chr2	230962279	230962294	+	9.69663	3.17e-05	0.0449	atgtgtttgtgtggat
GTRTGTGTGYGTGTKT	MEME-1	chr15	67224550	67224565	-	9.67416	3.2e-05	0.045	GTTTCTTTGAGTTTGT
GTRTGTGTGYGTGTKT	MEME-1	chr6	139866689	139866704	+	9.66292	3.21e-05	0.045	GTGTCTGTATCTGTGC
GTRTGTGTGYGTGTKT	MEME-1	chr5	150992728	150992743	+	9.66292	3.21e-05	0.045	GAttctttgcctgagc
GTRTGTGTGYGTGTKT	MEME-1	chr4	186558395	186558410	+	9.64045	3.24e-05	0.0452	gcatctgggtttgtgt
GTRTGTGTGYGTGTKT	MEME-1	chr4	158284527	158284542	+	9.62921	3.25e-05	0.0452	GTCAGTGTGACTGATC
GTRTGTGTGYGTGTKT	MEME-1	chr3	193429913	193429928	+	9.62921	3.25e-05	0.0452	GCCCGTGTGTTTGCTC
GTRTGTGTGYGTGTKT	MEME-1	chr17	65387072	65387087	+	9.55056	3.35e-05	0.0464	TAGCgtgtgtgtgtgt
GTRTGTGTGYGTGTKT	MEME-1	chr20	15843144	15843159	-	9.4382	3.49e-05	0.0482	GTGTGCGTGTGTGTAC
GTRTGTGTGYGTGTKT	MEME-1	chr6	138409364	138409379	-	9.42697	3.5e-05	0.0482	GCATGCGTGTGTGTAT
GTRTGTGTGYGTGTKT	MEME-1	chr18	45659660	45659675	-	9.41573	3.52e-05	0.0483	TTGTGTGTGTGTGCTT
GTRTGTGTGYGTGTKT	MEME-1	chrX	30922413	30922428	+	9.39326	3.55e-05	0.0485	GTGTGCGTGTGTGGCT
GTRTGTGTGYGTGTKT	MEME-1	chr10	32250313	32250328	-	9.39326	3.55e-05	0.0485	GTGTGTGTGTGTTTTG
GTRTGTGTGYGTGTKT	MEME-1	chr3	50306279	50306294	+	9.35955	3.59e-05	0.0489	GTCTGTGAGTGTGTAT
GTRTGTGTGYGTGTKT	MEME-1	chr2	14683503	14683518	+	9.29213	3.68e-05	0.0498	GCATCTGTGTGGTTTA
GTRTGTGTGYGTGTKT	MEME-1	chr17	38478664	38478679	+	9.29213	3.68e-05	0.0498	GTGTGTCTGTGTGTAC
GTRTGTGTGYGTGTKT	MEME-1	chr17	46126263	46126278	+	9.26966	3.71e-05	0.0501	GGGAgtgtgagtgtgt
GTRTGTGTGYGTGTKT	MEME-1	chr18	32629603	32629618	+	9.24719	3.74e-05	0.0502	AAAAATGTGTGTGTAC
GTRTGTGTGYGTGTKT	MEME-1	chr3	40509466	40509481	+	9.24719	3.74e-05	0.0502	aagaatgtgagtgttt
GTRTGTGTGYGTGTKT	MEME-1	chr7	41188280	41188295	-	9.17978	3.83e-05	0.0511	AAATGTGTGTGCGTGT
GTRTGTGTGYGTGTKT	MEME-1	chr9	134180274	134180289	-	9.17978	3.83e-05	0.0511	GTAACTCTGTGTGTGA
GTRTGTGTGYGTGTKT	MEME-1	chr3	193552428	193552443	-	9.14607	3.88e-05	0.0516	GCAGGTTTGACTGTGC
GTRTGTGTGYGTGTKT	MEME-1	chr20	50338835	50338850	-	9.13483	3.9e-05	0.0516	GATTGTTTGTTTTTTT
GTRTGTGTGYGTGTKT	MEME-1	chr4	56264676	56264691	+	9.13483	3.9e-05	0.0516	AGTTGTGTGCGTGTTT
GTRTGTGTGYGTGTKT	MEME-1	chr2	192731395	192731410	+	9.08989	3.96e-05	0.0523	GCTGGTGTTTGTGTGT
GTRTGTGTGYGTGTKT	MEME-1	chr7	157166497	157166512	-	9.05618	4.01e-05	0.0528	ACCTGTGTGTAGGTGT
GTRTGTGTGYGTGTKT	MEME-1	chr2	236954047	236954062	-	8.96629	4.13e-05	0.0543	ACCTGTGTGCGTGCCA
GTRTGTGTGYGTGTKT	MEME-1	chr2	105813017	105813032	-	8.95506	4.15e-05	0.0544	GACTGTGTGGGTGGGT
GTRTGTGTGYGTGTKT	MEME-1	chr9	114828082	114828097	+	8.93258	4.19e-05	0.0547	ACCTCTGTGCCTGAGA
GTRTGTGTGYGTGTKT	MEME-1	chr5	100999133	100999148	-	8.88764	4.25e-05	0.0553	GTTTCTGTGTATTTAT
GTRTGTGTGYGTGTKT	MEME-1	chr17	60938077	60938092	-	8.8764	4.27e-05	0.0553	TTTTGTGTGTGTGAGA
GTRTGTGTGYGTGTKT	MEME-1	chr3	189022350	189022365	-	8.8764	4.27e-05	0.0553	GAGGCTGTGAGTGGGA
GTRTGTGTGYGTGTKT	MEME-1	chr10	122012629	122012644	+	8.78652	4.41e-05	0.0569	GTTTCAGTGTTTGTTT
GTRTGTGTGYGTGTKT	MEME-1	chr6	13873388	13873403	+	8.73034	4.5e-05	0.0579	TCCGgtgtgtgtgtgt
GTRTGTGTGYGTGTKT	MEME-1	chr1	9173072	9173087	+	8.68539	4.57e-05	0.0587	gtgtgtgagtgttTGC
GTRTGTGTGYGTGTKT	MEME-1	chr5	67746017	67746032	-	8.66292	4.61e-05	0.0589	GCATGTGTGTATTTAC
GTRTGTGTGYGTGTKT	MEME-1	chr3	13236430	13236445	-	8.65169	4.62e-05	0.0589	GTTTGTTTGTGTCTTT
GTRTGTGTGYGTGTKT	MEME-1	chr15	67224744	67224759	-	8.65169	4.62e-05	0.0589	GTGCATGTGTGAGTGC
GTRTGTGTGYGTGTKT	MEME-1	chr12	6884995	6885010	-	8.64045	4.64e-05	0.059	TTTTCTGTGTTTGTTT
GTRTGTGTGYGTGTKT	MEME-1	chr12	118768199	118768214	+	8.57303	4.76e-05	0.0603	GTAAGTGTATGTGCGT
GTRTGTGTGYGTGTKT	MEME-1	chr5	14768089	14768104	-	8.53933	4.81e-05	0.0608	GTGTGTTTGCATGGCA
GTRTGTGTGYGTGTKT	MEME-1	chr13	26345355	26345370	+	8.52809	4.83e-05	0.0609	AAATATTTGTCTGTCT
GTRTGTGTGYGTGTKT	MEME-1	chr13	20368517	20368532	+	8.49438	4.89e-05	0.0614	AAAAATGTGTGTTTGC
GTRTGTGTGYGTGTKT	MEME-1	chr8	121085130	121085145	+	8.48315	4.91e-05	0.0614	GACTGTGTGATTGTAA
GTRTGTGTGYGTGTKT	MEME-1	chr9	136608736	136608751	+	8.48315	4.91e-05	0.0614	tcttgtgtgtttgttt
GTRTGTGTGYGTGTKT	MEME-1	chr2	150990268	150990283	+	8.46067	4.94e-05	0.0617	GTTCATTTGTGTGACC
GTRTGTGTGYGTGTKT	MEME-1	chr17	61656568	61656583	+	8.4382	4.98e-05	0.062	ATTCCTTTGTGTGGGT
GTRTGTGTGYGTGTKT	MEME-1	chr6	37511603	37511618	+	8.40449	5.05e-05	0.0624	GACCCTGTGTGTGCAT
GTRTGTGTGYGTGTKT	MEME-1	chr10	127258123	127258138	-	8.40449	5.05e-05	0.0624	GCACCTGTGTATTTTT
GTRTGTGTGYGTGTKT	MEME-1	chr18	71510011	71510026	-	8.38202	5.08e-05	0.0628	GACTGTTTGCTTTTTT
GTRTGTGTGYGTGTKT	MEME-1	chr2	237654389	237654404	+	8.34831	5.15e-05	0.0634	GATGCTTTGTGTTTGT
GTRTGTGTGYGTGTKT	MEME-1	chr21	46823406	46823421	-	8.33708	5.17e-05	0.0634	ATGTGTGTGTTTCTGT
GTRTGTGTGYGTGTKT	MEME-1	chr17	60938081	60938096	-	8.32584	5.19e-05	0.0635	GATTTTTTGTGTGTGT
GTRTGTGTGYGTGTKT	MEME-1	chrX	30922407	30922422	+	8.31461	5.21e-05	0.0636	GCGCATGTGTGCGTGT
GTRTGTGTGYGTGTKT	MEME-1	chr1	94510918	94510933	+	8.29213	5.25e-05	0.064	ATGTGTTTGCCTTTGC
GTRTGTGTGYGTGTKT	MEME-1	chr2	85648563	85648578	-	8.2809	5.27e-05	0.064	GCCACTGTGTCTGCTA
GTRTGTGTGYGTGTKT	MEME-1	chr16	15601234	15601249	+	8.24719	5.33e-05	0.0646	ggaagtgtgcgtgaga
GTRTGTGTGYGTGTKT	MEME-1	chr22	37908219	37908234	-	8.21348	5.4e-05	0.0651	GTGTGTGTGTGTGGAG
GTRTGTGTGYGTGTKT	MEME-1	chr10	52360086	52360101	-	8.21348	5.4e-05	0.0651	GAGAATGTGATTGTCC
GTRTGTGTGYGTGTKT	MEME-1	chr9	136608721	136608736	+	8.19101	5.44e-05	0.0653	gtttgtttgttttgtt
GTRTGTGTGYGTGTKT	MEME-1	chr10	114875312	114875327	+	8.17978	5.46e-05	0.0653	GTGCGTGTGTCTCTGC
GTRTGTGTGYGTGTKT	MEME-1	chr3	133705107	133705122	+	8.17978	5.46e-05	0.0653	CTAGGTTTGTGTGTGT
GTRTGTGTGYGTGTKT	MEME-1	chr11	67449465	67449480	-	8.16854	5.48e-05	0.0654	GCCTGTGTTTCTGTTT
GTRTGTGTGYGTGTKT	MEME-1	chr6	16146650	16146665	-	8.10112	5.61e-05	0.0668	GCCTGTGTCTCTGTGC
GTRTGTGTGYGTGTKT	MEME-1	chr3	40509468	40509483	+	8.08989	5.63e-05	0.0669	gaatgtgagtgtttgt
GTRTGTGTGYGTGTKT	MEME-1	chr20	52131945	52131960	+	8.04494	5.72e-05	0.0678	GTAGGGgtgtgtgtat
GTRTGTGTGYGTGTKT	MEME-1	chr6	19526958	19526973	+	8.02247	5.77e-05	0.0681	gctgatttgtttgagt
GTRTGTGTGYGTGTKT	MEME-1	chr12	105050261	105050276	-	8	5.81e-05	0.0685	GTGAGTGTGTATCTGT
GTRTGTGTGYGTGTKT	MEME-1	chr10	32250311	32250326	-	7.93258	5.95e-05	0.0697	GTGTGTGTGTTTTGAA
GTRTGTGTGYGTGTKT	MEME-1	chr20	50366629	50366644	-	7.93258	5.95e-05	0.0697	GCACGTTTGTGTGCCA
GTRTGTGTGYGTGTKT	MEME-1	chr21	46823381	46823396	-	7.8427	6.14e-05	0.0718	CAGTGTGTGCATGTGT
GTRTGTGTGYGTGTKT	MEME-1	chr6	16766343	16766358	+	7.78652	6.25e-05	0.073	GGCTCTGTGCGTGTCA
GTRTGTGTGYGTGTKT	MEME-1	chr7	135338099	135338114	+	7.75281	6.32e-05	0.0736	AAATGTTTGTGTGACA
GTRTGTGTGYGTGTKT	MEME-1	chr1	118623921	118623936	-	7.7191	6.39e-05	0.0743	GATGATGTGTGGGTCA
GTRTGTGTGYGTGTKT	MEME-1	chr9	18976752	18976767	-	7.69663	6.45e-05	0.0747	ACACGTGTGCATGTAT
GTRTGTGTGYGTGTKT	MEME-1	chr1	228081412	228081427	-	7.68539	6.47e-05	0.0748	GTGTTTGTGCTTTTGT
GTRTGTGTGYGTGTKT	MEME-1	chr6	138409366	138409381	-	7.67416	6.49e-05	0.0749	GAGCATGCGTGTGTGT
GTRTGTGTGYGTGTKT	MEME-1	chr12	113683652	113683667	+	7.66292	6.52e-05	0.075	GTTTGTCTGCCTGTCC
GTRTGTGTGYGTGTKT	MEME-1	chr3	50306384	50306399	+	7.65169	6.55e-05	0.0751	GTGTCTGTGATTGTGG
GTRTGTGTGYGTGTKT	MEME-1	chr3	40509383	40509398	+	7.60674	6.65e-05	0.0761	gtgaatgtccttgtgt
GTRTGTGTGYGTGTKT	MEME-1	chr7	157166483	157166498	-	7.5618	6.75e-05	0.0771	GTGCCTGTGTATGAAC
GTRTGTGTGYGTGTKT	MEME-1	chr2	26234869	26234884	+	7.55056	6.77e-05	0.0772	atatgtttgtttttct
GTRTGTGTGYGTGTKT	MEME-1	chr5	34585654	34585669	-	7.51685	6.85e-05	0.0779	GTTCCTTTGTTTGTAC
GTRTGTGTGYGTGTKT	MEME-1	chr6	150944220	150944235	-	7.50562	6.88e-05	0.078	GCACCTGTGTGGTTGA
GTRTGTGTGYGTGTKT	MEME-1	chr11	69329880	69329895	-	7.49438	6.9e-05	0.0781	GCACCTGTGCAGGTCT
GTRTGTGTGYGTGTKT	MEME-1	chr6	9251327	9251342	-	7.4382	7.04e-05	0.0794	AGGTGTGTGTGTGCGT
GTRTGTGTGYGTGTKT	MEME-1	chr5	173249187	173249202	+	7.39326	7.14e-05	0.0804	atgtgtgtgggggtgt
GTRTGTGTGYGTGTKT	MEME-1	chrX	23815443	23815458	+	7.34831	7.26e-05	0.0815	CTGCGTGTGTGTGGTT
GTRTGTGTGYGTGTKT	MEME-1	chr19	28916457	28916472	-	7.32584	7.31e-05	0.0815	AAAAGTTTGCGTGACT
GTRTGTGTGYGTGTKT	MEME-1	chr2	226199234	226199249	-	7.32584	7.31e-05	0.0815	GTGGGTCTGTATGTGT
GTRTGTGTGYGTGTKT	MEME-1	chrX	132431380	132431395	+	7.32584	7.31e-05	0.0815	ATATATGTGTATTTTC
GTRTGTGTGYGTGTKT	MEME-1	chr20	47377734	47377749	+	7.29213	7.39e-05	0.0823	ggatgtttgtctgtct
GTRTGTGTGYGTGTKT	MEME-1	chr2	230962275	230962290	+	7.26966	7.45e-05	0.0827	ttgcatgtgtttgtgt
GTRTGTGTGYGTGTKT	MEME-1	chr3	133705113	133705128	+	7.24719	7.51e-05	0.0831	TTGTGTGTGTGTGCTA
GTRTGTGTGYGTGTKT	MEME-1	chr1	235109606	235109621	-	7.22472	7.56e-05	0.0835	ATGACTGCGTGTGTGT
GTRTGTGTGYGTGTKT	MEME-1	chr3	174988180	174988195	+	7.21348	7.59e-05	0.0837	GCGTGCTTGTGTGTGA
GTRTGTGTGYGTGTKT	MEME-1	chr17	39560064	39560079	-	7.17978	7.68e-05	0.0843	GCACATCTGTGTGTTT
GTRTGTGTGYGTGTKT	MEME-1	chr10	122012705	122012720	+	7.17978	7.68e-05	0.0843	GATTTTGTGTTTGTTC
GTRTGTGTGYGTGTKT	MEME-1	chr12	118768197	118768212	+	7.16854	7.71e-05	0.0844	GTGTAAGTGTATGTGC
GTRTGTGTGYGTGTKT	MEME-1	chr14	27429204	27429219	+	7.1573	7.74e-05	0.0845	GCTTCTTTGTCTTTTC
GTRTGTGTGYGTGTKT	MEME-1	chr12	46197369	46197384	-	7.13483	7.8e-05	0.085	ATGTCTGCGTGTGTCT
GTRTGTGTGYGTGTKT	MEME-1	chr11	86289332	86289347	-	7.11236	7.86e-05	0.0854	CAAAGTGTGTCTGTTT
GTRTGTGTGYGTGTKT	MEME-1	chr10	19501530	19501545	+	7.05618	8.01e-05	0.0868	gcgtatgtgcttattt
GTRTGTGTGYGTGTKT	MEME-1	chr11	71136491	71136506	+	7.04494	8.04e-05	0.087	GTGCATTTGCATGAGC
GTRTGTGTGYGTGTKT	MEME-1	chr9	97581361	97581376	+	7	8.16e-05	0.0881	AACTGTGTGTCTTGGT
GTRTGTGTGYGTGTKT	MEME-1	chr2	171095155	171095170	+	6.98876	8.19e-05	0.0882	GTTGATTTGCCTGTAC
GTRTGTGTGYGTGTKT	MEME-1	chr13	100629853	100629868	+	6.97753	8.22e-05	0.0884	ATTTGTGTGTGAGGGT
GTRTGTGTGYGTGTKT	MEME-1	chr14	77500312	77500327	+	6.94382	8.32e-05	0.089	ACTGCTGTGCCTGGTT
GTRTGTGTGYGTGTKT	MEME-1	chr10	119242654	119242669	+	6.94382	8.32e-05	0.089	GTGCCAGTGTCTGTTT
GTRTGTGTGYGTGTKT	MEME-1	chr6	7201556	7201571	+	6.93258	8.35e-05	0.0891	GCATGTCTGTGTGCCT
GTRTGTGTGYGTGTKT	MEME-1	chr1	207193477	207193492	-	6.8764	8.51e-05	0.0905	GTTTCTGTGTACGTTT
GTRTGTGTGYGTGTKT	MEME-1	chr9	134622837	134622852	-	6.86517	8.54e-05	0.0905	AGAGATGTGTGTGTGT
GTRTGTGTGYGTGTKT	MEME-1	chr2	226199238	226199253	-	6.86517	8.54e-05	0.0905	GCGTGTGGGTCTGTAT
GTRTGTGTGYGTGTKT	MEME-1	chr12	49275912	49275927	-	6.85393	8.57e-05	0.0907	GTGTGTGTGTTTCCTT
GTRTGTGTGYGTGTKT	MEME-1	chr17	65387092	65387107	+	6.83146	8.64e-05	0.0912	gtgtgtgtgtTTAATC
GTRTGTGTGYGTGTKT	MEME-1	chr2	114633958	114633973	-	6.80899	8.7e-05	0.0916	GTTTTTTTGTTTGTTT
GTRTGTGTGYGTGTKT	MEME-1	chr2	226105592	226105607	+	6.79775	8.73e-05	0.0917	GTTTATGTATGTTTGT
GTRTGTGTGYGTGTKT	MEME-1	chr6	45677964	45677979	+	6.77528	8.8e-05	0.092	gaaactttgagtgtca
GTRTGTGTGYGTGTKT	MEME-1	chr3	133705150	133705165	+	6.77528	8.8e-05	0.092	AGGGCTGTGCGTGTGT
GTRTGTGTGYGTGTKT	MEME-1	chr11	86289324	86289339	-	6.74157	8.89e-05	0.0928	GTCTGTTTGTTTTCTT
GTRTGTGTGYGTGTKT	MEME-1	chr6	9251331	9251346	-	6.70787	9e-05	0.0933	ATGAAGGTGTGTGTGT
GTRTGTGTGYGTGTKT	MEME-1	chr9	84027935	84027950	-	6.70787	9e-05	0.0933	ATGTATATGTGTGTGA
GTRTGTGTGYGTGTKT	MEME-1	chr16	1950309	1950324	+	6.70787	9e-05	0.0933	ACCTGTGTGTGCGTGC
GTRTGTGTGYGTGTKT	MEME-1	chr1	84311143	84311158	-	6.69663	9.03e-05	0.0935	CTTTCTGTGCGTGCTT
GTRTGTGTGYGTGTKT	MEME-1	chr17	46126287	46126302	+	6.66292	9.13e-05	0.0941	gcacgttcgtgtgtgt
GTRTGTGTGYGTGTKT	MEME-1	chr6	91521349	91521364	+	6.66292	9.13e-05	0.0941	GTTTATCTGAGTGTTT
GTRTGTGTGYGTGTKT	MEME-1	chr17	46126291	46126306	+	6.64045	9.21e-05	0.0946	gttcgtgtgtgtacgt
GTRTGTGTGYGTGTKT	MEME-1	chr15	90459870	90459885	+	6.61798	9.27e-05	0.0951	gtgcatttgtgtgtgg
GTRTGTGTGYGTGTKT	MEME-1	chr5	82859483	82859498	-	6.59551	9.34e-05	0.0956	GTTAGTTTGTTTTTCC
GTRTGTGTGYGTGTKT	MEME-1	chr7	105709467	105709482	+	6.57303	9.41e-05	0.0962	gcctctgggcctgtgc
GTRTGTGTGYGTGTKT	MEME-1	chr2	226199218	226199233	-	6.5618	9.45e-05	0.0963	GAGTGTGTGTGCTTTT
GTRTGTGTGYGTGTKT	MEME-1	chr6	138409362	138409377	-	6.53933	9.52e-05	0.0968	ATGCGTGTGTGTATTT
GTRTGTGTGYGTGTKT	MEME-1	chr9	136608734	136608749	+	6.49438	9.66e-05	0.098	gttcttgtgtgtttgt
GTRTGTGTGYGTGTKT	MEME-1	chr5	100999245	100999260	+	6.47191	9.73e-05	0.0985	GTGCGTGTGAAGGTTC
GTRTGTGTGYGTGTKT	MEME-1	chr6	16766286	16766301	-	6.4382	9.84e-05	0.0994	TATTGTGTGAGTGTTT
GTRTGTGTGYGTGTKT	MEME-1	chr10	98049433	98049448	-	6.42697	9.88e-05	0.0996	AAAAATGTGACTGTGA
