#Query ID	Target ID	Optimal offset	p-value	E-value	q-value	Overlap	Query consensus	Target consensus	Orientation
1	1	0	4.29685e-13	9.45306e-12	1.89061e-11	7	ATAAACA	ATAAACA	+
1	2	7	2.69436e-06	5.9276e-05	5.9276e-05	7	ATAAACA	AAAAAAAATAAACAGA	+
1	11	5	0.000250134	0.00550295	0.00275148	7	ATAAACA	CCAAAGTAAACA	-
1	14	5	0.000250134	0.00550295	0.00275148	7	ATAAACA	GCAAAGCAAACA	-
1	13	5	0.000498048	0.0109571	0.00438282	7	ATAAACA	GCTAAGTAAACA	-
1	19	4	0.000723898	0.0159257	0.00530858	7	ATAAACA	AAAAGTAAACA	-
1	20	1	0.00154662	0.0340256	0.00972159	7	ATAAACA	TGTAAACAG	-
1	17	4	0.00257868	0.056731	0.0141828	7	ATAAACA	CAAAGTAAACAAG	-
1	16	2	0.00474908	0.10448	0.0232177	7	ATAAACA	ACGTAAACAAGTT	-
2	2	0	1.31476e-39	2.89246e-38	5.78492e-38	16	AAAAAAAATAAACAGA	AAAAAAAATAAACAGA	+
2	1	-7	5.86222e-07	1.28969e-05	1.28969e-05	7	AAAAAAAATAAACAGA	ATAAACA	+
2	14	-2	6.8348e-06	0.000150366	0.000100244	12	AAAAAAAATAAACAGA	GCAAAGCAAACA	-
2	11	-2	1.99114e-05	0.000438052	0.000219026	12	AAAAAAAATAAACAGA	CCAAAGTAAACA	-
2	19	-3	2.94402e-05	0.000647684	0.000259074	11	AAAAAAAATAAACAGA	AAAAGTAAACA	-
2	17	-3	6.4161e-05	0.00141154	0.000470514	13	AAAAAAAATAAACAGA	CAAAGTAAACAAG	-
2	13	-2	0.000180951	0.00398093	0.00113741	12	AAAAAAAATAAACAGA	GCTAAGTAAACA	-
2	20	-6	0.000357853	0.00787276	0.00196819	9	AAAAAAAATAAACAGA	TGTAAACAG	-
2	16	-5	0.00582151	0.128073	0.0284607	11	AAAAAAAATAAACAGA	ACGTAAACAAGTT	-
3	3	0	0	0	0	22	TTTTGTCTTGCAAAACCTCTTT	TTTTGTCTTGCAAAACCTCTTT	+
4	4	0	0	0	0	30	TGTGGTCAGACTGGTTCTCTGCTCTTGAAC	TGTGGTCAGACTGGTTCTCTGCTCTTGAAC	+
5	5	0	0	0	0	22	CGTGTGTGTGTGTGTGTGTGTG	CGTGTGTGTGTGTGTGTGTGTG	+
6	6	0	0	0	0	22	CATGACCAAGAGTCCAAAAGCA	CATGACCAAGAGTCCAAAAGCA	+
7	7	0	0	0	0	30	AAAATTCTAGAAGATAACATCAGAAAAACC	AAAATTCTAGAAGATAACATCAGAAAAACC	+
7	15	-11	0.000408474	0.00898643	0.00898643	6	AAAATTCTAGAAGATAACATCAGAAAAACC	AGATAA	+
7	21	-9	0.00658883	0.144954	0.0966362	13	AAAATTCTAGAAGATAACATCAGAAAAACC	ACAGATAAGATAA	+
8	8	0	1.77708e-10	3.90958e-09	7.81916e-09	5	CACAG	CACAG	+
9	9	0	2.16359e-20	4.7599e-19	9.51979e-19	9	CCCTCAGGC	CCCTCAGGC	+
10	10	0	3.24361e-13	7.13594e-12	1.42719e-11	6	GAGATG	GAGATG	+
10	15	-1	0.00129549	0.0285007	0.0285007	5	GAGATG	AGATAA	+
10	21	1	0.00258148	0.0567925	0.0378617	6	GAGATG	ACAGATAAGATAA	+
11	11	0	1.45733e-30	3.20613e-29	6.41225e-29	12	TGTTTACTTTGG	TGTTTACTTTGG	+
11	13	0	1.10942e-16	2.44073e-15	2.44073e-15	12	TGTTTACTTTGG	TGTTTACTTAGC	+
11	17	2	2.81637e-12	6.19602e-11	4.13068e-11	11	TGTTTACTTTGG	CTTGTTTACTTTG	+
11	14	0	8.82426e-12	1.94134e-10	9.70668e-11	12	TGTTTACTTTGG	TGTTTGCTTTGC	+
11	19	0	5.50969e-11	1.21213e-09	4.84853e-10	11	TGTTTACTTTGG	TGTTTACTTTT	+
11	20	1	1.12033e-06	2.46474e-05	8.21579e-06	8	TGTTTACTTTGG	CTGTTTACA	+
11	2	2	9.4297e-06	0.000207453	5.92724e-05	12	TGTTTACTTTGG	TCTGTTTATTTTTTTT	-
11	16	4	1.68442e-05	0.000370573	9.26434e-05	9	TGTTTACTTTGG	AACTTGTTTACGT	+
11	1	0	4.99024e-05	0.00109785	0.000243967	7	TGTTTACTTTGG	TGTTTAT	-
12	12	0	1.10179e-08	2.42394e-07	4.84788e-07	5	CACGA	CACGA	+
13	13	0	6.62423e-31	1.45733e-29	2.91466e-29	12	TGTTTACTTAGC	TGTTTACTTAGC	+
13	11	0	7.70306e-17	1.69467e-15	1.69467e-15	12	TGTTTACTTAGC	TGTTTACTTTGG	+
13	17	2	1.55929e-11	3.43043e-10	2.28695e-10	11	TGTTTACTTAGC	CTTGTTTACTTTG	+
13	14	0	2.53799e-10	5.58358e-09	2.79179e-09	12	TGTTTACTTAGC	TGTTTGCTTTGC	+
13	19	0	1.2359e-09	2.71897e-08	1.08759e-08	11	TGTTTACTTAGC	TGTTTACTTTT	+
13	20	1	2.06538e-06	4.54384e-05	1.51461e-05	8	TGTTTACTTAGC	CTGTTTACA	+
13	16	4	1.72257e-05	0.000378965	0.000108276	9	TGTTTACTTAGC	AACTTGTTTACGT	+
13	2	2	9.5236e-05	0.00209519	0.000523798	12	TGTTTACTTAGC	TCTGTTTATTTTTTTT	-
13	1	0	0.000108773	0.002393	0.000531777	7	TGTTTACTTAGC	TGTTTAT	-
14	14	0	2.7601e-33	6.07221e-32	1.21444e-31	12	TGTTTGCTTTGC	TGTTTGCTTTGC	+
14	11	0	1.28763e-12	2.83279e-11	2.83279e-11	12	TGTTTGCTTTGC	TGTTTACTTTGG	+
14	13	0	5.64482e-11	1.24186e-09	8.27907e-10	12	TGTTTGCTTTGC	TGTTTACTTAGC	+
14	19	0	1.65185e-08	3.63407e-07	1.81703e-07	11	TGTTTGCTTTGC	TGTTTACTTTT	+
14	17	2	2.16966e-08	4.77324e-07	1.9093e-07	11	TGTTTGCTTTGC	CTTGTTTACTTTG	+
14	2	2	1.37863e-06	3.03299e-05	1.011e-05	12	TGTTTGCTTTGC	TCTGTTTATTTTTTTT	-
14	1	0	2.91475e-05	0.000641244	0.000183213	7	TGTTTGCTTTGC	TGTTTAT	-
14	20	1	6.35926e-05	0.00139904	0.000349759	8	TGTTTGCTTTGC	CTGTTTACA	+
14	16	4	0.000809631	0.0178119	0.0039582	9	TGTTTGCTTTGC	AACTTGTTTACGT	+
15	15	0	8.66349e-07	1.90597e-05	3.81194e-05	6	AGATAA	AGATAA	+
15	21	2	0.000464407	0.010217	0.010217	6	AGATAA	ACAGATAAGATAA	+
15	7	11	0.00132961	0.0292515	0.019501	6	AGATAA	AAAATTCTAGAAGATAACATCAGAAAAACC	+
15	10	1	0.00530358	0.116679	0.0583394	5	AGATAA	GAGATG	+
16	16	0	3.2927e-31	7.24394e-30	1.44879e-29	13	AACTTGTTTACGT	AACTTGTTTACGT	+
16	17	-2	5.18857e-07	1.14149e-05	1.14149e-05	11	AACTTGTTTACGT	CTTGTTTACTTTG	+
16	20	-3	6.92247e-06	0.000152294	0.00010153	9	AACTTGTTTACGT	CTGTTTACA	+
16	13	-4	3.03305e-05	0.000667272	0.000333636	9	AACTTGTTTACGT	TGTTTACTTAGC	+
16	11	-4	4.32464e-05	0.000951421	0.000380568	9	AACTTGTTTACGT	TGTTTACTTTGG	+
16	19	-4	0.000102565	0.00225644	0.000752146	9	AACTTGTTTACGT	TGTTTACTTTT	+
16	14	-4	0.000945928	0.0208104	0.00594583	9	AACTTGTTTACGT	TGTTTGCTTTGC	+
16	1	-4	0.00125078	0.0275171	0.00687926	7	AACTTGTTTACGT	TGTTTAT	-
16	2	-2	0.0020051	0.0441121	0.0098027	11	AACTTGTTTACGT	TCTGTTTATTTTTTTT	-
17	17	0	8.08993e-35	1.77979e-33	3.55957e-33	13	CTTGTTTACTTTG	CTTGTTTACTTTG	+
17	11	-2	4.25818e-13	9.368e-12	9.368e-12	11	CTTGTTTACTTTG	TGTTTACTTTGG	+
17	13	-2	4.4332e-12	9.75304e-11	6.50203e-11	11	CTTGTTTACTTTG	TGTTTACTTAGC	+
17	19	-2	3.14472e-09	6.91839e-08	3.45919e-08	11	CTTGTTTACTTTG	TGTTTACTTTT	+
17	14	-2	3.76897e-08	8.29174e-07	3.3167e-07	11	CTTGTTTACTTTG	TGTTTGCTTTGC	+
17	16	2	1.58754e-07	3.49258e-06	1.16419e-06	11	CTTGTTTACTTTG	AACTTGTTTACGT	+
17	20	-1	3.92234e-07	8.62914e-06	2.46547e-06	9	CTTGTTTACTTTG	CTGTTTACA	+
17	2	0	2.64666e-05	0.000582265	0.000145566	13	CTTGTTTACTTTG	TCTGTTTATTTTTTTT	-
17	1	-2	0.000374678	0.00824292	0.00183176	7	CTTGTTTACTTTG	TGTTTAT	-
18	18	0	4.63564e-11	1.01984e-09	2.03968e-09	8	ATGACTCA	ATGACTCA	+
19	19	0	2.40128e-30	5.28282e-29	1.05656e-28	11	TGTTTACTTTT	TGTTTACTTTT	+
19	11	0	1.46955e-10	3.23302e-09	3.23302e-09	11	TGTTTACTTTT	TGTTTACTTTGG	+
19	13	0	4.48707e-09	9.87156e-08	6.58104e-08	11	TGTTTACTTTT	TGTTTACTTAGC	+
19	17	2	6.65936e-09	1.46506e-07	7.32529e-08	11	TGTTTACTTTT	CTTGTTTACTTTG	+
19	14	0	1.98881e-07	4.37538e-06	1.75015e-06	11	TGTTTACTTTT	TGTTTGCTTTGC	+
19	20	1	8.81597e-06	0.000193951	6.46504e-05	8	TGTTTACTTTT	CTGTTTACA	+
19	2	2	5.46852e-05	0.00120307	0.000343736	11	TGTTTACTTTT	TCTGTTTATTTTTTTT	-
19	16	4	7.06924e-05	0.00155523	0.000388808	9	TGTTTACTTTT	AACTTGTTTACGT	+
19	1	0	0.000165095	0.00363208	0.00080713	7	TGTTTACTTTT	TGTTTAT	-
20	20	0	1.61558e-24	3.55428e-23	7.10857e-23	9	CTGTTTACA	CTGTTTACA	+
20	17	1	4.79287e-07	1.05443e-05	1.05443e-05	9	CTGTTTACA	CTTGTTTACTTTG	+
20	16	3	2.34513e-06	5.15928e-05	3.13031e-05	9	CTGTTTACA	AACTTGTTTACGT	+
20	19	-1	3.18718e-06	7.0118e-05	3.13031e-05	8	CTGTTTACA	TGTTTACTTTT	+
20	11	-1	3.55717e-06	7.82578e-05	3.13031e-05	8	CTGTTTACA	TGTTTACTTTGG	+
20	13	-1	6.40113e-06	0.000140825	4.69416e-05	8	CTGTTTACA	TGTTTACTTAGC	+
20	14	-1	0.000281937	0.00620261	0.00177217	8	CTGTTTACA	TGTTTGCTTTGC	+
20	2	1	0.000416872	0.00917119	0.0022928	9	CTGTTTACA	TCTGTTTATTTTTTTT	-
20	1	-1	0.000707742	0.0155703	0.00346007	7	CTGTTTACA	TGTTTAT	-
21	21	0	2.67125e-31	5.87675e-30	1.17535e-29	13	ACAGATAAGATAA	ACAGATAAGATAA	+
21	15	-2	8.26284e-05	0.00181783	0.00181783	6	ACAGATAAGATAA	AGATAA	+
22	22	0	7.80582e-09	1.71728e-07	3.43456e-07	7	CATGCAA	CATGCAA	+
