# motif_id	motif_alt_id	sequence_name	start	stop	strand	score	p-value	q-value	matched_sequence
TGACTCA	DREME-3	chr16	377181	377187	-	13.9146	6.49e-05	0.159	TGACTCA
TGACTCA	DREME-3	chr5	1516388	1516394	+	13.9146	6.49e-05	0.159	TGACTCA
TGACTCA	DREME-3	chr4	2331750	2331756	-	13.9146	6.49e-05	0.159	TGACTCA
TGACTCA	DREME-3	chr10	3137669	3137675	-	13.9146	6.49e-05	0.159	TGACTCA
TGACTCA	DREME-3	chr10	3137938	3137944	-	13.9146	6.49e-05	0.159	TGACTCA
TGACTCA	DREME-3	chr7	3283839	3283845	+	13.9146	6.49e-05	0.159	TGACTCA
TGACTCA	DREME-3	chr7	3283883	3283889	-	13.9146	6.49e-05	0.159	TGACTCA
TGACTCA	DREME-3	chr10	3510379	3510385	-	13.9146	6.49e-05	0.159	TGACTCA
TGACTCA	DREME-3	chr20	3792040	3792046	-	13.9146	6.49e-05	0.159	TGACTCA
TGACTCA	DREME-3	chr5	5335566	5335572	+	13.9146	6.49e-05	0.159	TGACTCA
TGACTCA	DREME-3	chr6	7975532	7975538	-	13.9146	6.49e-05	0.159	TGACTCA
TGACTCA	DREME-3	chr11	8357941	8357947	+	13.9146	6.49e-05	0.159	TGACTCA
TGACTCA	DREME-3	chr1	9173105	9173111	-	13.9146	6.49e-05	0.159	TGACTCA
TGACTCA	DREME-3	chr6	9400182	9400188	+	13.9146	6.49e-05	0.159	TGACTCA
TGACTCA	DREME-3	chr11	9587525	9587531	+	13.9146	6.49e-05	0.159	TGACTCA
TGACTCA	DREME-3	chr11	9587536	9587542	-	13.9146	6.49e-05	0.159	TGACTCA
TGACTCA	DREME-3	chr5	9712652	9712658	-	13.9146	6.49e-05	0.159	TGACTCA
TGACTCA	DREME-3	chr6	10317383	10317389	-	13.9146	6.49e-05	0.159	TGACTCA
TGACTCA	DREME-3	chr2	11638340	11638346	-	13.9146	6.49e-05	0.159	TGACTCA
TGACTCA	DREME-3	chr7	12584336	12584342	-	13.9146	6.49e-05	0.159	TGACTCA
TGACTCA	DREME-3	chr12	13036189	13036195	+	13.9146	6.49e-05	0.159	TGACTCA
TGACTCA	DREME-3	chr5	13378019	13378025	+	13.9146	6.49e-05	0.159	TGACTCA
TGACTCA	DREME-3	chr5	13378139	13378145	+	13.9146	6.49e-05	0.159	TGACTCA
TGACTCA	DREME-3	chr3	14307015	14307021	+	13.9146	6.49e-05	0.159	tgactca
TGACTCA	DREME-3	chr5	14570111	14570117	+	13.9146	6.49e-05	0.159	TGACTCA
TGACTCA	DREME-3	chr6	14744155	14744161	+	13.9146	6.49e-05	0.159	TGACTCA
TGACTCA	DREME-3	chr6	14744167	14744173	+	13.9146	6.49e-05	0.159	TGACTCA
TGACTCA	DREME-3	chr16	15583319	15583325	+	13.9146	6.49e-05	0.159	TGACTCA
TGACTCA	DREME-3	chr16	15601129	15601135	+	13.9146	6.49e-05	0.159	TGACTCA
TGACTCA	DREME-3	chr1	17577207	17577213	+	13.9146	6.49e-05	0.159	TGACTCA
TGACTCA	DREME-3	chr1	17886202	17886208	+	13.9146	6.49e-05	0.159	TGACTCA
TGACTCA	DREME-3	chr10	18899443	18899449	+	13.9146	6.49e-05	0.159	TGACTCA
TGACTCA	DREME-3	chr18	21207262	21207268	+	13.9146	6.49e-05	0.159	TGACTCA
TGACTCA	DREME-3	chr10	21480497	21480503	-	13.9146	6.49e-05	0.159	TGACTCA
TGACTCA	DREME-3	chr9	22084472	22084478	-	13.9146	6.49e-05	0.159	TGACTCA
TGACTCA	DREME-3	chr4	24765107	24765113	-	13.9146	6.49e-05	0.159	TGACTCA
TGACTCA	DREME-3	chr10	24907276	24907282	-	13.9146	6.49e-05	0.159	TGACTCA
TGACTCA	DREME-3	chr2	27515945	27515951	+	13.9146	6.49e-05	0.159	TGACTCA
TGACTCA	DREME-3	chr7	27823928	27823934	-	13.9146	6.49e-05	0.159	TGACTCA
TGACTCA	DREME-3	chr2	28498974	28498980	-	13.9146	6.49e-05	0.159	TGACTCA
TGACTCA	DREME-3	chr2	28499018	28499024	+	13.9146	6.49e-05	0.159	TGACTCA
TGACTCA	DREME-3	chr19	28916455	28916461	-	13.9146	6.49e-05	0.159	TGACTCA
TGACTCA	DREME-3	chr10	29947887	29947893	+	13.9146	6.49e-05	0.159	TGACTCA
TGACTCA	DREME-3	chr10	29947950	29947956	+	13.9146	6.49e-05	0.159	TGACTCA
TGACTCA	DREME-3	chr7	30387549	30387555	-	13.9146	6.49e-05	0.159	TGACTCA
TGACTCA	DREME-3	chr19	30808467	30808473	-	13.9146	6.49e-05	0.159	TGACTCA
TGACTCA	DREME-3	chr18	32559191	32559197	+	13.9146	6.49e-05	0.159	TGACTCA
TGACTCA	DREME-3	chr18	32559249	32559255	-	13.9146	6.49e-05	0.159	TGACTCA
TGACTCA	DREME-3	chr9	32701782	32701788	+	13.9146	6.49e-05	0.159	tgactca
TGACTCA	DREME-3	chr20	33113702	33113708	-	13.9146	6.49e-05	0.159	TGACTCA
TGACTCA	DREME-3	chr13	33690419	33690425	+	13.9146	6.49e-05	0.159	TGACTCA
TGACTCA	DREME-3	chr13	33693800	33693806	+	13.9146	6.49e-05	0.159	TGACTCA
TGACTCA	DREME-3	chr5	34585568	34585574	-	13.9146	6.49e-05	0.159	TGACTCA
TGACTCA	DREME-3	chr13	35502987	35502993	+	13.9146	6.49e-05	0.159	TGACTCA
TGACTCA	DREME-3	chr22	35615057	35615063	+	13.9146	6.49e-05	0.159	tgactca
TGACTCA	DREME-3	chr9	36924038	36924044	-	13.9146	6.49e-05	0.159	TGACTCA
TGACTCA	DREME-3	chr9	36924087	36924093	-	13.9146	6.49e-05	0.159	TGACTCA
TGACTCA	DREME-3	chr6	36992445	36992451	-	13.9146	6.49e-05	0.159	TGACTCA
TGACTCA	DREME-3	chr17	37925993	37925999	+	13.9146	6.49e-05	0.159	TGACTCA
TGACTCA	DREME-3	chr15	39420382	39420388	-	13.9146	6.49e-05	0.159	TGACTCA
TGACTCA	DREME-3	chr17	39560189	39560195	+	13.9146	6.49e-05	0.159	tgactca
TGACTCA	DREME-3	chr17	39560231	39560237	+	13.9146	6.49e-05	0.159	tgactca
TGACTCA	DREME-3	chr3	40459532	40459538	+	13.9146	6.49e-05	0.159	TGACTCA
TGACTCA	DREME-3	chr21	41816973	41816979	+	13.9146	6.49e-05	0.159	TGACTCA
TGACTCA	DREME-3	chr19	42278387	42278393	+	13.9146	6.49e-05	0.159	TGACTCA
TGACTCA	DREME-3	chr5	42620771	42620777	-	13.9146	6.49e-05	0.159	TGACTCA
TGACTCA	DREME-3	chr1	42639858	42639864	+	13.9146	6.49e-05	0.159	tgactca
TGACTCA	DREME-3	chr3	42942405	42942411	-	13.9146	6.49e-05	0.159	TGACTCA
TGACTCA	DREME-3	chr2	43861658	43861664	+	13.9146	6.49e-05	0.159	TGACTCA
TGACTCA	DREME-3	chr14	44786086	44786092	-	13.9146	6.49e-05	0.159	TGACTCA
TGACTCA	DREME-3	chr14	44786114	44786120	-	13.9146	6.49e-05	0.159	TGACTCA
TGACTCA	DREME-3	chr14	44786138	44786144	-	13.9146	6.49e-05	0.159	TGACTCA
TGACTCA	DREME-3	chr6	45677900	45677906	-	13.9146	6.49e-05	0.159	TGACTCA
TGACTCA	DREME-3	chr1	45876705	45876711	+	13.9146	6.49e-05	0.159	tgactca
TGACTCA	DREME-3	chr1	45876712	45876718	+	13.9146	6.49e-05	0.159	tgactca
TGACTCA	DREME-3	chr21	46129803	46129809	+	13.9146	6.49e-05	0.159	TGACTCA
TGACTCA	DREME-3	chr3	46152152	46152158	+	13.9146	6.49e-05	0.159	tgactca
TGACTCA	DREME-3	chr2	46391377	46391383	+	13.9146	6.49e-05	0.159	TGACTCA
TGACTCA	DREME-3	chr19	46696286	46696292	-	13.9146	6.49e-05	0.159	TGACTCA
TGACTCA	DREME-3	chr20	46927818	46927824	+	13.9146	6.49e-05	0.159	TGACTCA
TGACTCA	DREME-3	chr6	47011879	47011885	+	13.9146	6.49e-05	0.159	TGACTCA
TGACTCA	DREME-3	chr2	47426116	47426122	+	13.9146	6.49e-05	0.159	TGACTCA
TGACTCA	DREME-3	chr20	49039804	49039810	+	13.9146	6.49e-05	0.159	TGACTCA
TGACTCA	DREME-3	chr20	49360904	49360910	+	13.9146	6.49e-05	0.159	tgactca
TGACTCA	DREME-3	chr20	50366667	50366673	+	13.9146	6.49e-05	0.159	TGACTCA
TGACTCA	DREME-3	chr16	50431211	50431217	-	13.9146	6.49e-05	0.159	TGACTCA
TGACTCA	DREME-3	chr10	52271498	52271504	+	13.9146	6.49e-05	0.159	tgactca
TGACTCA	DREME-3	chr15	52363747	52363753	-	13.9146	6.49e-05	0.159	TGACTCA
TGACTCA	DREME-3	chr17	53510427	53510433	+	13.9146	6.49e-05	0.159	TGACTCA
TGACTCA	DREME-3	chr3	53552818	53552824	+	13.9146	6.49e-05	0.159	TGACTCA
TGACTCA	DREME-3	chr17	57863733	57863739	-	13.9146	6.49e-05	0.159	TGACTCA
TGACTCA	DREME-3	chr17	57922700	57922706	-	13.9146	6.49e-05	0.159	TGACTCA
TGACTCA	DREME-3	chr20	58707439	58707445	-	13.9146	6.49e-05	0.159	TGACTCA
TGACTCA	DREME-3	chr11	60143972	60143978	-	13.9146	6.49e-05	0.159	TGACTCA
TGACTCA	DREME-3	chr14	60719020	60719026	-	13.9146	6.49e-05	0.159	TGACTCA
TGACTCA	DREME-3	chr15	63754179	63754185	+	13.9146	6.49e-05	0.159	tgactca
TGACTCA	DREME-3	chr3	65016584	65016590	-	13.9146	6.49e-05	0.159	TGACTCA
TGACTCA	DREME-3	chr6	67445155	67445161	+	13.9146	6.49e-05	0.159	TGACTCA
TGACTCA	DREME-3	chr13	67694915	67694921	+	13.9146	6.49e-05	0.159	tgactca
TGACTCA	DREME-3	chr5	67845115	67845121	-	13.9146	6.49e-05	0.159	TGACTCA
TGACTCA	DREME-3	chr12	67988688	67988694	+	13.9146	6.49e-05	0.159	TGACTCA
TGACTCA	DREME-3	chr1	68663491	68663497	-	13.9146	6.49e-05	0.159	TGACTCA
TGACTCA	DREME-3	chr14	69043302	69043308	+	13.9146	6.49e-05	0.159	TGACTCA
TGACTCA	DREME-3	chr7	69197322	69197328	-	13.9146	6.49e-05	0.159	TGACTCA
TGACTCA	DREME-3	chr7	69764140	69764146	+	13.9146	6.49e-05	0.159	TGACTCA
TGACTCA	DREME-3	chr11	70634444	70634450	+	13.9146	6.49e-05	0.159	tgactca
TGACTCA	DREME-3	chr15	70800169	70800175	-	13.9146	6.49e-05	0.159	TGACTCA
TGACTCA	DREME-3	chr11	71136584	71136590	+	13.9146	6.49e-05	0.159	tgactca
TGACTCA	DREME-3	chr3	72031819	72031825	+	13.9146	6.49e-05	0.159	tgactca
TGACTCA	DREME-3	chr3	72031894	72031900	+	13.9146	6.49e-05	0.159	tgactca
TGACTCA	DREME-3	chr18	72895523	72895529	-	13.9146	6.49e-05	0.159	TGACTCA
TGACTCA	DREME-3	chr15	74207318	74207324	-	13.9146	6.49e-05	0.159	TGACTCA
TGACTCA	DREME-3	chr9	74340744	74340750	-	13.9146	6.49e-05	0.159	TGACTCA
TGACTCA	DREME-3	chr7	75735585	75735591	-	13.9146	6.49e-05	0.159	TGACTCA
TGACTCA	DREME-3	chr7	75735724	75735730	-	13.9146	6.49e-05	0.159	TGACTCA
TGACTCA	DREME-3	chr12	76371431	76371437	+	13.9146	6.49e-05	0.159	TGACTCA
TGACTCA	DREME-3	chr17	76501627	76501633	-	13.9146	6.49e-05	0.159	TGACTCA
TGACTCA	DREME-3	chr13	76836148	76836154	+	13.9146	6.49e-05	0.159	TGACTCA
TGACTCA	DREME-3	chr14	77513173	77513179	+	13.9146	6.49e-05	0.159	tgactca
TGACTCA	DREME-3	chr5	77995376	77995382	+	13.9146	6.49e-05	0.159	TGACTCA
TGACTCA	DREME-3	chr5	82859501	82859507	+	13.9146	6.49e-05	0.159	TGACTCA
TGACTCA	DREME-3	chr4	84469467	84469473	+	13.9146	6.49e-05	0.159	tgactca
TGACTCA	DREME-3	chr4	84469574	84469580	-	13.9146	6.49e-05	0.159	TGACTCA
TGACTCA	DREME-3	chr4	84469652	84469658	+	13.9146	6.49e-05	0.159	TGACTCA
TGACTCA	DREME-3	chr16	84918297	84918303	-	13.9146	6.49e-05	0.159	TGACTCA
TGACTCA	DREME-3	chr1	85763589	85763595	+	13.9146	6.49e-05	0.159	TGACTCA
TGACTCA	DREME-3	chr15	90461051	90461057	+	13.9146	6.49e-05	0.159	tgactca
TGACTCA	DREME-3	chr15	92170894	92170900	+	13.9146	6.49e-05	0.159	TGACTCA
TGACTCA	DREME-3	chr12	92170918	92170924	-	13.9146	6.49e-05	0.159	TGACTCA
TGACTCA	DREME-3	chr14	96561998	96562004	+	13.9146	6.49e-05	0.159	TGACTCA
TGACTCA	DREME-3	chr15	96613860	96613866	+	13.9146	6.49e-05	0.159	TGACTCA
TGACTCA	DREME-3	chr15	99343570	99343576	+	13.9146	6.49e-05	0.159	TGACTCA
TGACTCA	DREME-3	chr15	99433200	99433206	-	13.9146	6.49e-05	0.159	TGACTCA
TGACTCA	DREME-3	chr9	100476570	100476576	+	13.9146	6.49e-05	0.159	tgactca
TGACTCA	DREME-3	chr7	100995713	100995719	+	13.9146	6.49e-05	0.159	tgactca
TGACTCA	DREME-3	chr5	100999347	100999353	-	13.9146	6.49e-05	0.159	TGACTCA
TGACTCA	DREME-3	chr15	101253345	101253351	+	13.9146	6.49e-05	0.159	TGACTCA
TGACTCA	DREME-3	chr2	101519463	101519469	+	13.9146	6.49e-05	0.159	TGACTCA
TGACTCA	DREME-3	chr10	101767951	101767957	-	13.9146	6.49e-05	0.159	TGACTCA
TGACTCA	DREME-3	chr9	102195868	102195874	+	13.9146	6.49e-05	0.159	TGACTCA
TGACTCA	DREME-3	chr9	102195901	102195907	-	13.9146	6.49e-05	0.159	TGACTCA
TGACTCA	DREME-3	chr8	102380982	102380988	-	13.9146	6.49e-05	0.159	TGACTCA
TGACTCA	DREME-3	chr8	102516721	102516727	+	13.9146	6.49e-05	0.159	TGACTCA
TGACTCA	DREME-3	chr10	106232291	106232297	+	13.9146	6.49e-05	0.159	tgactca
TGACTCA	DREME-3	chr13	106589769	106589775	-	13.9146	6.49e-05	0.159	TGACTCA
TGACTCA	DREME-3	chr13	110651156	110651162	+	13.9146	6.49e-05	0.159	TGACTCA
TGACTCA	DREME-3	chr7	112121751	112121757	-	13.9146	6.49e-05	0.159	TGACTCA
TGACTCA	DREME-3	chr2	114564189	114564195	-	13.9146	6.49e-05	0.159	TGACTCA
TGACTCA	DREME-3	chr12	116310715	116310721	+	13.9146	6.49e-05	0.159	TGACTCA
TGACTCA	DREME-3	chr12	117173888	117173894	-	13.9146	6.49e-05	0.159	TGACTCA
TGACTCA	DREME-3	chr8	117849704	117849710	-	13.9146	6.49e-05	0.159	TGACTCA
TGACTCA	DREME-3	chr8	119862353	119862359	-	13.9146	6.49e-05	0.159	TGACTCA
TGACTCA	DREME-3	chr8	120451298	120451304	-	13.9146	6.49e-05	0.159	TGACTCA
TGACTCA	DREME-3	chr7	122831275	122831281	+	13.9146	6.49e-05	0.159	TGACTCA
TGACTCA	DREME-3	chr12	122933798	122933804	-	13.9146	6.49e-05	0.159	TGACTCA
TGACTCA	DREME-3	chr12	122933993	122933999	-	13.9146	6.49e-05	0.159	TGACTCA
TGACTCA	DREME-3	chrX	122937164	122937170	-	13.9146	6.49e-05	0.159	TGACTCA
TGACTCA	DREME-3	chr11	123015848	123015854	+	13.9146	6.49e-05	0.159	TGACTCA
TGACTCA	DREME-3	chr9	123464422	123464428	+	13.9146	6.49e-05	0.159	TGACTCA
TGACTCA	DREME-3	chr8	125150563	125150569	-	13.9146	6.49e-05	0.159	TGACTCA
TGACTCA	DREME-3	chr6	125523245	125523251	+	13.9146	6.49e-05	0.159	TGACTCA
TGACTCA	DREME-3	chr8	126123192	126123198	+	13.9146	6.49e-05	0.159	TGACTCA
TGACTCA	DREME-3	chr6	128919758	128919764	-	13.9146	6.49e-05	0.159	TGACTCA
TGACTCA	DREME-3	chr6	129017602	129017608	+	13.9146	6.49e-05	0.159	TGACTCA
TGACTCA	DREME-3	chr6	129017628	129017634	-	13.9146	6.49e-05	0.159	TGACTCA
TGACTCA	DREME-3	chr8	129164904	129164910	+	13.9146	6.49e-05	0.159	tgactca
TGACTCA	DREME-3	chrX	132431263	132431269	-	13.9146	6.49e-05	0.159	TGACTCA
TGACTCA	DREME-3	chr5	132576213	132576219	+	13.9146	6.49e-05	0.159	TGACTCA
TGACTCA	DREME-3	chr5	132576232	132576238	+	13.9146	6.49e-05	0.159	TGACTCA
TGACTCA	DREME-3	chr5	132580845	132580851	-	13.9146	6.49e-05	0.159	TGACTCA
TGACTCA	DREME-3	chr5	132580906	132580912	+	13.9146	6.49e-05	0.159	TGACTCA
TGACTCA	DREME-3	chr9	134180385	134180391	-	13.9146	6.49e-05	0.159	TGACTCA
TGACTCA	DREME-3	chr6	138409286	138409292	+	13.9146	6.49e-05	0.159	TGACTCA
TGACTCA	DREME-3	chr3	139021005	139021011	+	13.9146	6.49e-05	0.159	TGACTCA
TGACTCA	DREME-3	chr4	140074536	140074542	-	13.9146	6.49e-05	0.159	TGACTCA
TGACTCA	DREME-3	chr8	142164169	142164175	+	13.9146	6.49e-05	0.159	TGACTCA
TGACTCA	DREME-3	chr5	142625577	142625583	+	13.9146	6.49e-05	0.159	TGACTCA
TGACTCA	DREME-3	chr2	150990183	150990189	-	13.9146	6.49e-05	0.159	TGACTCA
TGACTCA	DREME-3	chr2	150990193	150990199	+	13.9146	6.49e-05	0.159	TGACTCA
TGACTCA	DREME-3	chrX	152064184	152064190	-	13.9146	6.49e-05	0.159	TGACTCA
TGACTCA	DREME-3	chrX	152064310	152064316	+	13.9146	6.49e-05	0.159	TGACTCA
TGACTCA	DREME-3	chr4	159076942	159076948	+	13.9146	6.49e-05	0.159	tgactca
TGACTCA	DREME-3	chr2	161086230	161086236	-	13.9146	6.49e-05	0.159	TGACTCA
TGACTCA	DREME-3	chr6	164129472	164129478	-	13.9146	6.49e-05	0.159	TGACTCA
TGACTCA	DREME-3	chr1	168721278	168721284	+	13.9146	6.49e-05	0.159	TGACTCA
TGACTCA	DREME-3	chr1	169088652	169088658	+	13.9146	6.49e-05	0.159	TGACTCA
TGACTCA	DREME-3	chr2	171095283	171095289	+	13.9146	6.49e-05	0.159	TGACTCA
TGACTCA	DREME-3	chr3	171847763	171847769	+	13.9146	6.49e-05	0.159	TGACTCA
TGACTCA	DREME-3	chr5	172881323	172881329	+	13.9146	6.49e-05	0.159	tgactca
TGACTCA	DREME-3	chr5	173249282	173249288	-	13.9146	6.49e-05	0.159	TGACTCA
TGACTCA	DREME-3	chr2	177750396	177750402	+	13.9146	6.49e-05	0.159	TGACTCA
TGACTCA	DREME-3	chr3	180024473	180024479	+	13.9146	6.49e-05	0.159	TGACTCA
TGACTCA	DREME-3	chr2	182885140	182885146	-	13.9146	6.49e-05	0.159	TGACTCA
TGACTCA	DREME-3	chr3	193876726	193876732	-	13.9146	6.49e-05	0.159	TGACTCA
TGACTCA	DREME-3	chr3	196377901	196377907	-	13.9146	6.49e-05	0.159	TGACTCA
TGACTCA	DREME-3	chr2	197466096	197466102	+	13.9146	6.49e-05	0.159	TGACTCA
TGACTCA	DREME-3	chr2	208693849	208693855	+	13.9146	6.49e-05	0.159	TGACTCA
TGACTCA	DREME-3	chr1	212659175	212659181	+	13.9146	6.49e-05	0.159	TGACTCA
TGACTCA	DREME-3	chr2	220833532	220833538	+	13.9146	6.49e-05	0.159	tgactca
TGACTCA	DREME-3	chr1	230220275	230220281	+	13.9146	6.49e-05	0.159	TGACTCA
TGACTCA	DREME-3	chr1	235110393	235110399	-	13.9146	6.49e-05	0.159	TGACTCA
