MOTIF_INDEX	MOTIF_SOURCE	MOTIF_ID	ALT_ID	CONSENSUS	WIDTH	SITES	E-VALUE	E-VALUE_SOURCE	MOST_SIMILAR_MOTIF_SOURCE	MOST_SIMILAR_MOTIF	URL
1	MEME	AAGCAAATRCAATARAAACAAASATAA	MEME-1	AAGCAAATRCAATARAAACAAASATAA	27	7	4.1e-013	MEME	/Users/filipov4/meme/db/motif_databases/JASPAR/JASPAR2018_CORE_non-redundant.meme	MA1267.1 (AT5G66940)	http://jaspar2018.genereg.net/matrix/MA1267.1
2	MEME	AGTTTAATTAAGTCCCAGCTAT	MEME-2	AGTTTAATTAAGTCCCAGCTAT	22	5	1.2e-004	MEME	/Users/filipov4/meme/db/motif_databases/JASPAR/JASPAR2018_CORE_non-redundant.meme	MA0094.2 (Ubx)	http://jaspar2018.genereg.net/matrix/MA0094.2
3	MEME	GGRBTYTTGSWCRNGAMAWGSDDSMSTVAG	MEME-3	GGRBTYTTGSWCRNGAMAWGSDDSMSTVAG	30	12	8.2e-004	MEME	/Users/filipov4/meme/db/motif_databases/JASPAR/JASPAR2018_CORE_non-redundant.meme	MA0281.1 (CBF1)	http://jaspar2018.genereg.net/matrix/MA0281.1
4	MEME	HRKRAGRKRAMATYRGARRWA	MEME-5	HRKRAGRKRAMATYRGARRWA	21	15	2.6e-002	MEME	/Users/filipov4/meme/db/motif_databases/JASPAR/JASPAR2018_CORE_non-redundant.meme	MA1278.1 (OBP1)	http://jaspar2018.genereg.net/matrix/MA1278.1
