#Query ID	Target ID	Optimal offset	p-value	E-value	q-value	Overlap	Query consensus	Target consensus	Orientation
DCACGC	AHR_HUMAN.H11MO.0.B	0	9.83593e-06	0.0075835	0.015167	6	GCACGC	GCACGCAAC	-
RYAAAYA	ANDR_HUMAN.H11MO.0.A	1	5.96309e-07	0.000459755	0.000909147	7	GCAAACA	AGCAAACAAAAAAGAACA	-
RYAAAYA	FOXJ2_HUMAN.H11MO.0.C	3	7.83166e-06	0.00603821	0.00597015	7	GCAAACA	TAAATAAACA	-
RYAAAYA	FOXM1_HUMAN.H11MO.0.A	5	1.17475e-05	0.0090573	0.00597015	7	GCAAACA	GCAAAGCAAACA	-
RYAAAYA	FOXA1_HUMAN.H11MO.0.A	5	0.000158297	0.122047	0.0510261	7	GCAAACA	CCAAAGTAAACA	-
RYAAAYA	FOXL1_HUMAN.H11MO.0.D	4	0.000184599	0.142326	0.0510261	7	GCAAACA	AAAAGTAAACAAACAAACA	-
RYAAAYA	FOXF2_HUMAN.H11MO.0.D	4	0.000200808	0.154823	0.0510261	7	GCAAACA	AAAAGTAAACA	-
RYAAAYA	FOXA2_HUMAN.H11MO.0.A	5	0.00027467	0.21177	0.0598239	7	GCAAACA	GCTAAGTAAACA	-
RYAAAYA	FOXF1_HUMAN.H11MO.0.D	3	0.000370282	0.285488	0.0705676	7	GCAAACA	AAAATAAACAT	-
RYAAAYA	FOXO4_HUMAN.H11MO.0.C	1	0.000589374	0.454408	0.0976586	7	GCAAACA	AATAAACAA	-
RYAAAYA	FOXP2_HUMAN.H11MO.0.C	1	0.000640542	0.493858	0.0976586	7	GCAAACA	TGTAAACAG	-
RYAAAYA	FOXA3_HUMAN.H11MO.0.B	4	0.000792909	0.611333	0.108015	7	GCAAACA	CAAAGTAAACAAG	-
RYAAAYA	FOXG1_HUMAN.H11MO.0.D	8	0.000910152	0.701727	0.108015	7	GCAAACA	AAAAAAATATAAACAAT	-
RYAAAYA	FOXD3_HUMAN.H11MO.0.D	6	0.000921013	0.710101	0.108015	7	GCAAACA	TGCTAAGTAAACAAA	-
RYAAAYA	FOXO3_HUMAN.H11MO.0.B	1	0.00108087	0.833348	0.117708	7	GCAAACA	TGTAAACAAG	-
RYAAAYA	FOXP1_HUMAN.H11MO.0.A	0	0.00117956	0.909444	0.117892	7	GCAAACA	ATAAACAAA	-
RYAAAYA	FOXC1_HUMAN.H11MO.0.C	5	0.0012372	0.953884	0.117892	7	GCAAACA	CTTAAGTAAACAATG	-
TGACTCAB	FOS_HUMAN.H11MO.0.A	1	1.45013e-08	1.11805e-05	2.18905e-05	8	TGACTCAT	GTGACTCAC	-
TGACTCAB	FOSL1_HUMAN.H11MO.0.A	2	3.62533e-08	2.79513e-05	2.73631e-05	8	TGACTCAT	GGTGACTCATCC	-
TGACTCAB	JUND_HUMAN.H11MO.0.A	2	7.50414e-08	5.78569e-05	2.83371e-05	8	TGACTCAT	GATGACTCATC	-
TGACTCAB	FOSB_HUMAN.H11MO.0.A	1	7.50877e-08	5.78926e-05	2.83371e-05	8	TGACTCAT	ATGACTCAT	-
TGACTCAB	JUN_HUMAN.H11MO.0.A	2	2.64511e-07	0.000203938	7.98585e-05	8	TGACTCAT	GATGACTCATC	-
TGACTCAB	FOSL2_HUMAN.H11MO.0.A	2	3.30639e-07	0.000254923	8.3186e-05	8	TGACTCAT	GATGACTCATCC	-
TGACTCAB	JUNB_HUMAN.H11MO.0.A	2	4.29675e-07	0.000331279	9.26592e-05	8	TGACTCAT	GGTGACTCAGA	-
TGACTCAB	BATF_HUMAN.H11MO.0.A	10	3.60659e-05	0.0278068	0.0068054	8	TGACTCAT	ACTTTCGATATGACTCAT	+
TGACTCAB	BACH2_HUMAN.H11MO.0.A	1	9.27023e-05	0.0714735	0.0155487	8	TGACTCAT	ATGACTCAGCA	-
TGACTCAB	MAFK_HUMAN.H11MO.1.A	3	0.000119659	0.0922572	0.0180631	8	TGACTCAT	TGCTGACTCAGCA	-
TGACTCAB	BACH1_HUMAN.H11MO.0.A	3	0.000137026	0.105647	0.0184847	8	TGACTCAT	GCATGACTCAGCA	-
TGACTCAB	NFE2_HUMAN.H11MO.0.A	3	0.000156124	0.120371	0.0184847	8	TGACTCAT	GCATGACTCAGCA	+
TGACTCAB	NF2L2_HUMAN.H11MO.0.A	1	0.000159187	0.122733	0.0184847	8	TGACTCAT	ATGACTCAGCAGTT	-
TGACTCAB	MAFB_HUMAN.H11MO.0.B	3	0.000471137	0.363247	0.0358323	8	TGACTCAT	TGCTGACTCAG	+
TGACTCAB	MAFG_HUMAN.H11MO.0.A	8	0.000487579	0.375923	0.0358323	8	TGACTCAT	AAAATTGCTGACTCAGCA	+
TGACTCAB	MAFK_HUMAN.H11MO.0.A	8	0.000537587	0.414479	0.0358323	8	TGACTCAT	AAAATTGCTGAGTCAGCA	+
TGACTCAB	MAFF_HUMAN.H11MO.0.B	3	0.000707071	0.545152	0.0391409	8	TGACTCAT	TGCTGAGTCAGCATTTTT	+
CMCAGR	P53_HUMAN.H11MO.1.A	0	0.000317882	0.245087	0.254198	6	CCCAGG	CCCAGGCATGTCC	-
CMCAGR	GLI1_HUMAN.H11MO.0.D	6	0.000329699	0.254198	0.254198	6	CCCAGG	AGACCACCCAGG	-
CMCAGR	COE1_HUMAN.H11MO.0.A	5	0.00104435	0.805195	0.536797	6	CCCAGG	AAGTCCCCAGGGACC	+
TTATCW	GATA4_HUMAN.H11MO.0.A	2	3.82385e-06	0.00294819	0.00588757	6	TTATCT	TCTTATCTGT	-
TTATCW	TAL1_HUMAN.H11MO.0.A	2	1.07067e-05	0.00825489	0.00792739	6	TTATCT	CCTTATCTGCCCCCCCCAG	-
TTATCW	GATA1_HUMAN.H11MO.1.A	3	1.5446e-05	0.0119089	0.00792739	6	TTATCT	TTCTTATCTGT	-
TTATCW	GATA6_HUMAN.H11MO.0.A	5	2.05947e-05	0.0158785	0.00792739	6	TTATCT	TTATCTTATCTGT	-
TTATCW	GATA3_HUMAN.H11MO.0.A	3	3.23493e-05	0.0249413	0.00924855	6	TTATCT	TTCTTATCTTT	-
TTATCW	GATA1_HUMAN.H11MO.0.A	2	3.60404e-05	0.0277871	0.00924855	6	TTATCT	TCTTATCTGTCCCCGCCAG	-
TTATCW	GATA2_HUMAN.H11MO.1.A	3	5.49746e-05	0.0423855	0.0120921	6	TTATCT	TTCTTATCTGT	-
TTATCW	GATA2_HUMAN.H11MO.0.A	2	7.54801e-05	0.0581952	0.0145271	6	TTATCT	CCTTATCTCCACCCCCCAG	-
TTATCW	GATA5_HUMAN.H11MO.0.D	7	0.000243018	0.187367	0.0415749	6	TTATCT	ATCTAAGTTATCTCTTA	-
TTATCW	EVI1_HUMAN.H11MO.0.B	4	0.000348239	0.268492	0.0536183	6	TTATCT	TATCTTATCTTATCTT	-
RGRGAAA	NFKB1_HUMAN.H11MO.0.A	0	4.22711e-05	0.032591	0.0650423	7	AGAGAAA	AGGGAAAT	+
RGRGAAA	ZN274_HUMAN.H11MO.0.A	8	0.00062427	0.481312	0.394481	7	AGAGAAA	CATACTGGAGAGAAACCCTA	+
RGRGAAA	IRF3_HUMAN.H11MO.0.B	9	0.000967076	0.745616	0.394481	7	AGAGAAA	GAAAGGGAAAGGGAAAGTGA	+
RGRGAAA	REL_HUMAN.H11MO.0.B	3	0.0010255	0.790658	0.394481	7	AGAGAAA	TGAAGGGAAATTCCA	+
ACACACMC	ZSCA4_HUMAN.H11MO.0.D	3	0.000399271	0.307838	0.615676	8	ACACACAC	AGTGCACACACT	-
ACACACMC	EGR3_HUMAN.H11MO.0.D	0	0.000954939	0.736258	0.736258	8	ACACACAC	ACACCCACTCT	-
AGGTSAC	ESR2_HUMAN.H11MO.1.A	0	0.000112073	0.0864085	0.0791675	7	AGGTGAC	AGGTCAC	+
AGGTSAC	RXRB_HUMAN.H11MO.0.C	2	0.000175316	0.135169	0.0791675	7	AGGTGAC	TGAGGTCACA	+
AGGTSAC	ERR1_HUMAN.H11MO.0.A	4	0.000175892	0.135613	0.0791675	7	AGGTGAC	CTCAAGGTCACACAG	+
AGGTSAC	NR4A2_HUMAN.H11MO.0.C	2	0.000213522	0.164626	0.0791675	7	AGGTGAC	AAAGGTCAC	+
AGGTSAC	ESR1_HUMAN.H11MO.1.A	2	0.000511368	0.394265	0.105142	7	AGGTGAC	CAAGGTCACC	+
AGGTSAC	NR4A3_HUMAN.H11MO.0.D	3	0.000615296	0.474393	0.105142	7	AGGTGAC	CAAAGGTCAG	+
AGGTSAC	NR1H3_HUMAN.H11MO.1.B	2	0.000652602	0.503156	0.105142	7	AGGTGAC	AAAGGTCAGA	+
AGGTSAC	ESR1_HUMAN.H11MO.0.A	0	0.000696112	0.536702	0.105142	7	AGGTGAC	AGGTCACCCTGACCT	+
AGGTSAC	SMAD2_HUMAN.H11MO.0.A	0	0.000766954	0.591321	0.105142	7	AGGTGAC	AGGTGACAGACA	-
AGGTSAC	RARG_HUMAN.H11MO.1.B	1	0.000778841	0.600486	0.105142	7	AGGTGAC	GAGGTCAG	+
AGGTSAC	RXRG_HUMAN.H11MO.0.B	6	0.000784249	0.604656	0.105142	7	AGGTGAC	GGTCAAAGGTCAC	+
AGGTSAC	RARA_HUMAN.H11MO.2.A	0	0.000850737	0.655919	0.105142	7	AGGTGAC	AGGTCACCGAGAGGTCA	+
AGGTSAC	THA_HUMAN.H11MO.1.D	3	0.00106374	0.820143	0.113723	7	AGGTGAC	TTCAGGTCAG	+
AGGTSAC	RARG_HUMAN.H11MO.0.B	3	0.00108525	0.836728	0.113723	7	AGGTGAC	CCCAGGTCACTCTGACCT	-
AGGTSAC	ESR2_HUMAN.H11MO.0.A	0	0.00115021	0.886812	0.113723	7	AGGTGAC	AGGTCACCCTGACCT	+
