# motif_id	motif_alt_id	sequence_name	start	stop	strand	score	p-value	q-value	matched_sequence
CABGSTGGBDCAYGCMTGTAATCCCAGCWM	MEME-6	chr11	71856149	71856178	+	44.8909	6.74e-18	4.96e-12	catggtggcacatgcctgtaatcccagcta
CABGSTGGBDCAYGCMTGTAATCCCAGCWM	MEME-6	chr20	52522932	52522961	+	43.9727	5.56e-17	1.85e-11	cacggtggctcacgcctgtaatcccagcac
CABGSTGGBDCAYGCMTGTAATCCCAGCWM	MEME-6	chr7	157166282	157166311	-	43.9	7.56e-17	1.85e-11	CATGGTGGCTCACGCATGTAATCCCAGCAC
CABGSTGGBDCAYGCMTGTAATCCCAGCWM	MEME-6	chr12	122916088	122916117	+	43.4909	1.38e-16	2.54e-11	cacggtggctcatgcctgtaatcccagcac
CABGSTGGBDCAYGCMTGTAATCCCAGCWM	MEME-6	chr2	109335334	109335363	-	43.1727	2.35e-16	3.45e-11	CGTGGTGGCTCACGCCTGTAATCCCAGCAC
CABGSTGGBDCAYGCMTGTAATCCCAGCWM	MEME-6	chr13	23557622	23557651	-	42.3455	9.92e-16	1.04e-10	CGCGGTGGCTCACGCCTGTAATCCCAGCAC
CABGSTGGBDCAYGCMTGTAATCCCAGCWM	MEME-6	chr1	224392972	224393001	-	42.3455	9.92e-16	1.04e-10	CGCGGTGGCTCACGCCTGTAATCCCAGCAC
CABGSTGGBDCAYGCMTGTAATCCCAGCWM	MEME-6	chr7	98760503	98760532	+	40.2818	1.61e-14	1.48e-09	cacggtagctcacgcctgtaatcccaacac
CABGSTGGBDCAYGCMTGTAATCCCAGCWM	MEME-6	chr12	92170900	92170929	-	39.9091	2.49e-14	2.03e-09	CATGGTGACTCACACCTGTAATCCCAGCAC
CABGSTGGBDCAYGCMTGTAATCCCAGCWM	MEME-6	chr7	74049683	74049712	-	38.7364	9.22e-14	6.77e-09	TGCGGTGGCTCATGCCTGTAATCCCAGCAC
CABGSTGGBDCAYGCMTGTAATCCCAGCWM	MEME-6	chr7	100995708	100995737	+	38.5818	1.08e-13	7.03e-09	catggtgactcacgcatgtcatctcagcac
CABGSTGGBDCAYGCMTGTAATCCCAGCWM	MEME-6	chr5	177508503	177508532	+	38.5091	1.16e-13	7.03e-09	tgtggtggcacatgcctgtagtcccagcta
CABGSTGGBDCAYGCMTGTAATCCCAGCWM	MEME-6	chr2	70882741	70882770	-	38.4545	1.24e-13	7.03e-09	CGTGGTGGCGGGTGCCTGTAATCCCAGCTA
CABGSTGGBDCAYGCMTGTAATCCCAGCWM	MEME-6	chr15	63789117	63789146	-	38	1.97e-13	1.03e-08	TGTGGTGGTGCACGCCTGTAGTCCCAGCTA
CABGSTGGBDCAYGCMTGTAATCCCAGCWM	MEME-6	chr9	128058951	128058980	-	37.9091	2.16e-13	1.06e-08	CACGGTGGCTCACACCTGTAATCCTAGCAC
CABGSTGGBDCAYGCMTGTAATCCCAGCWM	MEME-6	chr2	65048734	65048763	-	37.5455	3.06e-13	1.41e-08	CATGGTGGCTCACGCCTGTAATCCCAGCGC
CABGSTGGBDCAYGCMTGTAATCCCAGCWM	MEME-6	chr3	150062502	150062531	-	37.2636	4.01e-13	1.73e-08	TGCGGTGGCTCACGCCTGTAATCCCAACAC
CABGSTGGBDCAYGCMTGTAATCCCAGCWM	MEME-6	chr13	23557488	23557517	-	36.4818	8.2e-13	3.35e-08	CGCGGTGGCGGGCGCCTGTAGTCCCAGCTA
CABGSTGGBDCAYGCMTGTAATCCCAGCWM	MEME-6	chr9	83685403	83685432	-	35.5636	1.8e-12	6.97e-08	CACGGTGGCTCACGCCTATAATCCCAGCAC
CABGSTGGBDCAYGCMTGTAATCCCAGCWM	MEME-6	chr19	5857659	5857688	+	35.4818	1.93e-12	7.09e-08	cgcggtggctcacgattgtaatctcagcac
CABGSTGGBDCAYGCMTGTAATCCCAGCWM	MEME-6	chr5	177508370	177508399	+	34.1	5.77e-12	2.02e-07	cgcggtggctcacgcctgtaatcccggcac
CABGSTGGBDCAYGCMTGTAATCCCAGCWM	MEME-6	chr6	119582256	119582285	-	33.9364	6.53e-12	2.18e-07	CGCAGTGGCTCACGCCTGTAATCCCAGCAC
CABGSTGGBDCAYGCMTGTAATCCCAGCWM	MEME-6	chr20	49358408	49358437	-	33.2909	1.05e-11	3.36e-07	CGTGGTGGCACGCATCTGTAGTCCCAGCCA
CABGSTGGBDCAYGCMTGTAATCCCAGCWM	MEME-6	chr17	76742858	76742887	+	32.9545	1.33e-11	4.09e-07	tgtggtggtgcgtgcctgtagtctcagcta
CABGSTGGBDCAYGCMTGTAATCCCAGCWM	MEME-6	chr9	134180461	134180490	+	32.7636	1.52e-11	4.48e-07	cacagtggctcacgcctggaatcccagcac
CABGSTGGBDCAYGCMTGTAATCCCAGCWM	MEME-6	chr14	77512133	77512162	-	32.1818	2.28e-11	6.43e-07	CATGGTGGCGTGCGCCTGTAATCCCAACTA
CABGSTGGBDCAYGCMTGTAATCCCAGCWM	MEME-6	chr16	89910060	89910089	-	32.1	2.4e-11	6.54e-07	CATGGTAGTGCATATATGTAGTCCTAGCTA
CABGSTGGBDCAYGCMTGTAATCCCAGCWM	MEME-6	chr2	239710387	239710416	-	31.9818	2.6e-11	6.83e-07	CGCAGTGGCTCACGCCTGTAATCCCAACAC
CABGSTGGBDCAYGCMTGTAATCCCAGCWM	MEME-6	chr13	74352539	74352568	-	31.4818	3.61e-11	9.16e-07	CGCAGTGGCTCACGCTTGTAATCCCAGCAC
CABGSTGGBDCAYGCMTGTAATCCCAGCWM	MEME-6	chr14	67906978	67907007	+	30.8455	5.43e-11	1.33e-06	catggttgtgcatgtctgtagtctcagcta
CABGSTGGBDCAYGCMTGTAATCCCAGCWM	MEME-6	chr17	57920013	57920042	-	30.4727	6.83e-11	1.62e-06	TGTGGTGGTGGGCGCCTGGAATCCCAACTA
CABGSTGGBDCAYGCMTGTAATCCCAGCWM	MEME-6	chr12	104614001	104614030	+	29.5818	1.17e-10	2.68e-06	tgcggtagatcatgcctgtaatcccagcac
CABGSTGGBDCAYGCMTGTAATCCCAGCWM	MEME-6	chr16	69757816	69757845	+	28.2182	2.55e-10	5.51e-06	tgtggtggctcatgcctgtaatcgtagcac
CABGSTGGBDCAYGCMTGTAATCCCAGCWM	MEME-6	chr5	154080506	154080535	-	28.2182	2.55e-10	5.51e-06	CACAGTGGCTCACAACTGTAATCCCAACAC
CABGSTGGBDCAYGCMTGTAATCCCAGCWM	MEME-6	chr3	9191258	9191287	+	27.9727	2.92e-10	6.13e-06	caacctcagacatgcaagtaatcccagcca
CABGSTGGBDCAYGCMTGTAATCCCAGCWM	MEME-6	chr12	112555317	112555346	+	27.7545	3.29e-10	6.72e-06	cgtggtggcgtgcgcctgtagtcctagcta
CABGSTGGBDCAYGCMTGTAATCCCAGCWM	MEME-6	chr3	40509319	40509348	-	27.6727	3.44e-10	6.83e-06	TGCCGTGGCTCACGCCTGTAATCCCAGTAC
CABGSTGGBDCAYGCMTGTAATCCCAGCWM	MEME-6	chr11	70029650	70029679	-	26.8	5.48e-10	1.06e-05	CAGGCTGGGCCACGGCTCTGGTGCCAGCTG
CABGSTGGBDCAYGCMTGTAATCCCAGCWM	MEME-6	chr4	3781951	3781980	-	26.6909	5.8e-10	1.09e-05	CAGGCTGGTAGTTTTCCGTCATCCCCGCAA
CABGSTGGBDCAYGCMTGTAATCCCAGCWM	MEME-6	chr7	101525198	101525227	+	25.9091	8.69e-10	1.6e-05	cttggtggtgcacgcctgtagtcccatctc
CABGSTGGBDCAYGCMTGTAATCCCAGCWM	MEME-6	chr10	121558280	121558309	-	25.7818	9.27e-10	1.66e-05	CACAGTGGCACATGCCTGCAGTCCCAGCTA
CABGSTGGBDCAYGCMTGTAATCCCAGCWM	MEME-6	chr16	89970660	89970689	+	25.3182	1.17e-09	2.05e-05	cgtggcggcacatgcctgtaatctcagctt
CABGSTGGBDCAYGCMTGTAATCCCAGCWM	MEME-6	chr20	49360663	49360692	-	24.4273	1.82e-09	3.1e-05	TGCAGTGGGTCACACTTGTAATCCCAGCAC
CABGSTGGBDCAYGCMTGTAATCCCAGCWM	MEME-6	chr17	57920148	57920177	-	23.9364	2.3e-09	3.84e-05	CATGGTGGCTCACGTCTGTGAACCCAGAAC
CABGSTGGBDCAYGCMTGTAATCCCAGCWM	MEME-6	chr22	30190816	30190845	-	23.3636	3.02e-09	4.93e-05	CATAGTGGCACGCACCTGTACTCCCAGCTA
CABGSTGGBDCAYGCMTGTAATCCCAGCWM	MEME-6	chr5	133974383	133974412	+	23.1636	3.32e-09	5.3e-05	catagtggtgcacgcctgtagtgacagcta
CABGSTGGBDCAYGCMTGTAATCCCAGCWM	MEME-6	chr17	40295129	40295158	+	22.7364	4.04e-09	6.32e-05	agtggtggctcatgcctgtaaccctagcac
CABGSTGGBDCAYGCMTGTAATCCCAGCWM	MEME-6	chr2	226105367	226105396	-	22.2182	5.13e-09	7.85e-05	TGCGGCTGTTCACGCCTGTAATCCCAGCAC
CABGSTGGBDCAYGCMTGTAATCCCAGCWM	MEME-6	chr12	122933921	122933950	+	21.7909	6.22e-09	9.33e-05	catgatggcacgcacctgtagttccagcta
CABGSTGGBDCAYGCMTGTAATCCCAGCWM	MEME-6	chr7	130858262	130858291	+	21.1091	8.43e-09	0.000124	cgtggtcatgcatgcctgcaattccagcta
CABGSTGGBDCAYGCMTGTAATCCCAGCWM	MEME-6	chr9	114654106	114654135	+	21	8.84e-09	0.000127	cgtggtggcgtgcgtctatagtcccagcta
CABGSTGGBDCAYGCMTGTAATCCCAGCWM	MEME-6	chr16	74642688	74642717	-	20.8545	9.42e-09	0.000133	CGCAGTACCTCACGCCTGTAATCCTAGCAC
CABGSTGGBDCAYGCMTGTAATCCCAGCWM	MEME-6	chr8	145030445	145030474	+	20	1.36e-08	0.000189	cacggtggcctgggcctgtggtcccagctc
CABGSTGGBDCAYGCMTGTAATCCCAGCWM	MEME-6	chr7	75735502	75735531	+	19.2091	1.91e-08	0.000259	tgtggtggtgtgtgcctctggtcccagctg
CABGSTGGBDCAYGCMTGTAATCCCAGCWM	MEME-6	chr11	69329182	69329211	+	18.0636	3.06e-08	0.000409	catgattgcatgtgcctgtaatcccagcta
CABGSTGGBDCAYGCMTGTAATCCCAGCWM	MEME-6	chr3	14307266	14307295	+	16.8455	4.98e-08	0.000654	tgtggtagcagacatctgtaatcccaggga
CABGSTGGBDCAYGCMTGTAATCCCAGCWM	MEME-6	chr12	112574711	112574740	+	15.2455	9.26e-08	0.00119	cgtggatacgcacgtctgaaatcccagcta
CABGSTGGBDCAYGCMTGTAATCCCAGCWM	MEME-6	chr12	32828074	32828103	-	13.9727	1.49e-07	0.00189	GGTGGTGGTGAGAGCCTGTAATCCCAGCCA
CABGSTGGBDCAYGCMTGTAATCCCAGCWM	MEME-6	chr14	67906852	67906881	+	13.3636	1.87e-07	0.00232	gcgcgtggctcacacctgtaatcccggcac
CABGSTGGBDCAYGCMTGTAATCCCAGCWM	MEME-6	chr17	4681561	4681590	+	11.6	3.5e-07	0.00429	catgttgttccgcacctttagtcccagcta
CABGSTGGBDCAYGCMTGTAATCCCAGCWM	MEME-6	chr7	101618945	101618974	+	10.7273	4.74e-07	0.00572	cacagctgctcacgcctgtaaccccagcac
CABGSTGGBDCAYGCMTGTAATCCCAGCWM	MEME-6	chr7	100995856	100995885	+	9.97273	6.14e-07	0.00728	tgtggtgttatgtgcctgtaatctcagata
CABGSTGGBDCAYGCMTGTAATCCCAGCWM	MEME-6	chr5	173249008	173249037	-	9.79091	6.53e-07	0.00762	AGAGGCCAGGCGCACCTGTAATCCTAGCAC
CABGSTGGBDCAYGCMTGTAATCCCAGCWM	MEME-6	chr21	43783503	43783532	-	8.69091	9.42e-07	0.0108	CATGCTAGCTCCCACTTCTCATGCACACAA
CABGSTGGBDCAYGCMTGTAATCCCAGCWM	MEME-6	chr2	175449762	175449791	-	4.09091	4.01e-06	0.0453	CAGGGTAAGCCAAATCCTGAAACCCAGCAA
CABGSTGGBDCAYGCMTGTAATCCCAGCWM	MEME-6	chr20	49039799	49039828	+	3.42727	4.89e-06	0.0536	CACTCTGACTCATGCCTCCTACCCCAGCCA
CABGSTGGBDCAYGCMTGTAATCCCAGCWM	MEME-6	chr11	69706144	69706173	+	3.42727	4.89e-06	0.0536	CAGGAAGGCACGCAGAAGGCATTCCAGCAC
CABGSTGGBDCAYGCMTGTAATCCCAGCWM	MEME-6	chr11	68147796	68147825	+	3.27273	5.12e-06	0.0553	AATGCTGGTGGGTGCCAGGCCTCCACGCTC
CABGSTGGBDCAYGCMTGTAATCCCAGCWM	MEME-6	chr9	130784327	130784356	-	3.14545	5.31e-06	0.0566	CGACGTCACTCACCCAAGGTCTCCCAGCTC
CABGSTGGBDCAYGCMTGTAATCCCAGCWM	MEME-6	chr16	377061	377090	-	2.13636	7.14e-06	0.0741	CATGGTCATTCAATGCTGTCTGGTCAGCCC
CABGSTGGBDCAYGCMTGTAATCCCAGCWM	MEME-6	chr14	27429380	27429409	-	2.12727	7.16e-06	0.0741	TGCACTGGCAGATGCCCGTGGGCTGAGCTC
CABGSTGGBDCAYGCMTGTAATCCCAGCWM	MEME-6	chr19	56037843	56037872	+	1.95455	7.52e-06	0.0768	CGCGCACACACACGGATCCGATGTCCACAC
CABGSTGGBDCAYGCMTGTAATCCCAGCWM	MEME-6	chr22	41107501	41107530	+	1.64545	8.22e-06	0.0828	gcgtgtggcgtgtggctgtggtcccagcta
CABGSTGGBDCAYGCMTGTAATCCCAGCWM	MEME-6	chr7	16844782	16844811	+	1.57273	8.4e-06	0.0834	AGAGATGATTCACAATTCTGATCCTCGCAG
CABGSTGGBDCAYGCMTGTAATCCCAGCWM	MEME-6	chr12	125214872	125214901	+	1.04545	9.76e-06	0.0956	cagtctttttcatttcagtcatgctagctg
CABGSTGGBDCAYGCMTGTAATCCCAGCWM	MEME-6	chr3	125848469	125848498	-	0.481818	1.14e-05	0.111	CACGGTGGGAAACAAGAGTAAACCCAAAAA
CABGSTGGBDCAYGCMTGTAATCCCAGCWM	MEME-6	chr1	23977206	23977235	-	0.181818	1.24e-05	0.119	CACACACACACACACACGTCATGCACGCAA
CABGSTGGBDCAYGCMTGTAATCCCAGCWM	MEME-6	chr12	53365408	53365437	+	-0.409091	1.47e-05	0.138	caggctgactcatttcggtgactttcacaa
CABGSTGGBDCAYGCMTGTAATCCCAGCWM	MEME-6	chr2	219309250	219309279	-	-0.772727	1.62e-05	0.15	TACACTCCCACATGACACTGAACTCAGCTC
CABGSTGGBDCAYGCMTGTAATCCCAGCWM	MEME-6	chr2	190406212	190406241	-	-0.8	1.63e-05	0.15	TTGTCTTATTCATGGTTGTAACCCCAGCAC
CABGSTGGBDCAYGCMTGTAATCCCAGCWM	MEME-6	chr16	84628775	84628804	-	-1.04545	1.74e-05	0.158	TCAGCTGACCCGTCACTGTCGTGCCAGATC
CABGSTGGBDCAYGCMTGTAATCCCAGCWM	MEME-6	chr8	120451200	120451229	+	-1.12727	1.78e-05	0.16	cagggttgcgtgcgatagtaatcaaagcag
CABGSTGGBDCAYGCMTGTAATCCCAGCWM	MEME-6	chr3	50306299	50306328	-	-1.30909	1.87e-05	0.166	CCACGTCACCCTTCCCAGTAATCTCCTCTC
CABGSTGGBDCAYGCMTGTAATCCCAGCWM	MEME-6	chr2	175525489	175525518	-	-1.40909	1.93e-05	0.167	TAGTGCAGGTCACTTCTGCAGCCCCAGCAC
CABGSTGGBDCAYGCMTGTAATCCCAGCWM	MEME-6	chr2	178109681	178109710	-	-1.40909	1.93e-05	0.167	CTGTCTGGGTGATTCCTGTGGTCCCTTCCA
CABGSTGGBDCAYGCMTGTAATCCCAGCWM	MEME-6	chr7	80506171	80506200	+	-1.67273	2.07e-05	0.177	CAGGCAGGGCGCCATCTGTCATGTTAGATG
CABGSTGGBDCAYGCMTGTAATCCCAGCWM	MEME-6	chr20	48759028	48759057	-	-1.82727	2.16e-05	0.182	CGTGGTGGCAGGCGCCTGTAGGTCCCAGCT
CABGSTGGBDCAYGCMTGTAATCCCAGCWM	MEME-6	chr7	157794162	157794191	-	-2.17273	2.36e-05	0.197	CTCCCTGAGGCAGTGCCGGGCTCTCAGCAC
CABGSTGGBDCAYGCMTGTAATCCCAGCWM	MEME-6	chr15	100016499	100016528	+	-2.56364	2.62e-05	0.217	CAGGCTAGCTGATCCTGAGAGTGCCAGCAT
CABGSTGGBDCAYGCMTGTAATCCCAGCWM	MEME-6	chr9	22124649	22124678	+	-2.70909	2.73e-05	0.223	CCATGTCAGGGCCAGAAGTCGTCTCAGCTA
CABGSTGGBDCAYGCMTGTAATCCCAGCWM	MEME-6	chr8	128882707	128882736	-	-2.78182	2.78e-05	0.224	CATGCTGGGGCTTTACATGCATCATCGCAT
CABGSTGGBDCAYGCMTGTAATCCCAGCWM	MEME-6	chr1	9173087	9173116	-	-2.85455	2.83e-05	0.226	GGACGTGACTCACAACAGTCACGACAGCAG
CABGSTGGBDCAYGCMTGTAATCCCAGCWM	MEME-6	chr8	67036310	67036339	-	-2.94545	2.9e-05	0.229	CATGCACAGGCATGCAGGGGATCTCAGAGC
CABGSTGGBDCAYGCMTGTAATCCCAGCWM	MEME-6	chr7	1959524	1959553	+	-3.04545	2.98e-05	0.231	TAAGCTCGCCCGGGGCTGTGTTGTCTGCAG
CABGSTGGBDCAYGCMTGTAATCCCAGCWM	MEME-6	chr12	123560270	123560299	-	-3.05455	2.99e-05	0.231	AGTGGCAGCACCTGATCGTCATCTCTGCTC
CABGSTGGBDCAYGCMTGTAATCCCAGCWM	MEME-6	chr6	474184	474213	+	-3.32727	3.21e-05	0.245	CTGGCTGTTACTTGACTCTGAGTCCAGCAG
CABGSTGGBDCAYGCMTGTAATCCCAGCWM	MEME-6	chr17	55418004	55418033	+	-3.59091	3.43e-05	0.26	CATTCTTATCAGCGCATCTGAGCCCAGCAG
CABGSTGGBDCAYGCMTGTAATCCCAGCWM	MEME-6	chr19	15548411	15548440	+	-4.07273	3.89e-05	0.292	TCTGCTGGGAGCCTTCTCTGAGCCCTGCAA
CABGSTGGBDCAYGCMTGTAATCCCAGCWM	MEME-6	chr10	32250445	32250474	-	-4.17273	3.99e-05	0.296	CACGCTGAGGCACTAATGGCTTTCCTGGAC
CABGSTGGBDCAYGCMTGTAATCCCAGCWM	MEME-6	chr11	48077437	48077466	-	-4.29091	4.11e-05	0.299	CACAGTGTGTGATACTAATCATCCCAGACC
CABGSTGGBDCAYGCMTGTAATCCCAGCWM	MEME-6	chr7	52900758	52900787	+	-4.29091	4.11e-05	0.299	CAGTCTAGCAGAATACAGTCACCTCATCTA
CABGSTGGBDCAYGCMTGTAATCCCAGCWM	MEME-6	chr17	42164298	42164327	+	-4.51818	4.36e-05	0.311	CTGTGTCCGCAATGAATGGAGTGCCAGCTA
CABGSTGGBDCAYGCMTGTAATCCCAGCWM	MEME-6	chr11	118790294	118790323	+	-4.51818	4.36e-05	0.311	CCACCTAGGTGACTTTTCTGAGCTCATCTC
CABGSTGGBDCAYGCMTGTAATCCCAGCWM	MEME-6	chr3	95911812	95911841	+	-4.73636	4.61e-05	0.326	CAGGCTCACTGGTGCTGGTGCTGCACACCA
CABGSTGGBDCAYGCMTGTAATCCCAGCWM	MEME-6	chr3	188665275	188665304	+	-4.81818	4.71e-05	0.329	CACGGTAGCACCTGCTTCTAAGCTTCCAAC
CABGSTGGBDCAYGCMTGTAATCCCAGCWM	MEME-6	chr7	52900667	52900696	-	-4.92727	4.84e-05	0.336	GCTGCTCACGCATCTCAAGAATCTCAGCCA
CABGSTGGBDCAYGCMTGTAATCCCAGCWM	MEME-6	chr1	8889391	8889420	+	-5.02727	4.96e-05	0.339	CGTAGAGGTAGATTCTTGTCTTCCTAAGAC
CABGSTGGBDCAYGCMTGTAATCCCAGCWM	MEME-6	chr20	19747535	19747564	+	-5.04545	4.99e-05	0.339	cctgctgaaggtttgctgtaaaatcaactc
CABGSTGGBDCAYGCMTGTAATCCCAGCWM	MEME-6	chr20	46927712	46927741	+	-5.07273	5.02e-05	0.339	TAAGCTAGGTGGATTTAGGACCCCCAGCAC
CABGSTGGBDCAYGCMTGTAATCCCAGCWM	MEME-6	chr10	121545521	121545550	+	-5.20909	5.2e-05	0.347	TACCTTAGGACTGGGAAGGAATCCTAAGAA
CABGSTGGBDCAYGCMTGTAATCCCAGCWM	MEME-6	chr5	81046830	81046859	+	-5.3	5.32e-05	0.352	CCCACTGTCACGCACCTGTCAACCCATCAC
CABGSTGGBDCAYGCMTGTAATCCCAGCWM	MEME-6	chr12	101345996	101346025	-	-5.49091	5.58e-05	0.366	TTTCCCCAGACACACAAGGACTCTCAGCCC
CABGSTGGBDCAYGCMTGTAATCCCAGCWM	MEME-6	chr7	101618985	101619014	+	-5.57273	5.69e-05	0.37	caaggtgggtggatcacctgaggtcaggag
CABGSTGGBDCAYGCMTGTAATCCCAGCWM	MEME-6	chr11	71211723	71211752	-	-5.63636	5.79e-05	0.373	CAGGCTGGGTGTGGCGTGTGGGCTCCGTCC
CABGSTGGBDCAYGCMTGTAATCCCAGCWM	MEME-6	chr11	129723743	129723772	+	-5.86364	6.12e-05	0.391	TGTGTTCATTGATTCTTCTACCCTCAACCC
CABGSTGGBDCAYGCMTGTAATCCCAGCWM	MEME-6	chr13	26641668	26641697	-	-5.89091	6.16e-05	0.391	CAAACTCCTGGGCTCAAGTGATCCTCCCAC
CABGSTGGBDCAYGCMTGTAATCCCAGCWM	MEME-6	chr15	93160753	93160782	-	-6.10909	6.51e-05	0.408	CCACGGGGGGCCTGCGTGTAGTCTCTGCTC
CABGSTGGBDCAYGCMTGTAATCCCAGCWM	MEME-6	chr1	42255378	42255407	-	-6.13636	6.55e-05	0.408	TGACCTGGGTGTTACGTGTGATCCTGTCTG
CABGSTGGBDCAYGCMTGTAATCCCAGCWM	MEME-6	chr19	39602260	39602289	-	-6.22727	6.7e-05	0.414	CGGGGGAATAGATAGATCTCAGGTCATCTG
CABGSTGGBDCAYGCMTGTAATCCCAGCWM	MEME-6	chr6	474001	474030	+	-6.26364	6.76e-05	0.414	tatcgtgagagtagctgctaatccctgtaa
CABGSTGGBDCAYGCMTGTAATCCCAGCWM	MEME-6	chr5	82859510	82859539	-	-6.4	6.99e-05	0.425	CACCTAAGCACACAAATGCAATGTCTGCAG
CABGSTGGBDCAYGCMTGTAATCCCAGCWM	MEME-6	chr11	69469566	69469595	+	-6.5	7.17e-05	0.431	CGGCCTGGGTGACGTGAGCGGTGCCCATTG
CABGSTGGBDCAYGCMTGTAATCCCAGCWM	MEME-6	chr2	208694009	208694038	+	-6.52727	7.22e-05	0.431	cctcctcctgggctcaagtgatcctcccac
CABGSTGGBDCAYGCMTGTAATCCCAGCWM	MEME-6	chr9	98835929	98835958	-	-6.61818	7.38e-05	0.436	CAGCCTCCCAGTTACTCAGAGGCCCAGCTG
CABGSTGGBDCAYGCMTGTAATCCCAGCWM	MEME-6	chr1	84310948	84310977	-	-6.63636	7.41e-05	0.436	CAGGCTGGTTGTTCAAGGGCCTCTCAGAAG
CABGSTGGBDCAYGCMTGTAATCCCAGCWM	MEME-6	chr4	96338854	96338883	+	-6.71818	7.56e-05	0.44	TGTGGTTGCTGTTGTTTATCATCACCACAT
CABGSTGGBDCAYGCMTGTAATCCCAGCWM	MEME-6	chr22	30129606	30129635	+	-6.73636	7.6e-05	0.44	CACACTGGCACACTGCCAGGGCCCCAGACA
CABGSTGGBDCAYGCMTGTAATCCCAGCWM	MEME-6	chr8	80844798	80844827	-	-6.79091	7.7e-05	0.442	CTGGCTGCCGGGAATGTGGCGTGCCAGCAC
CABGSTGGBDCAYGCMTGTAATCCCAGCWM	MEME-6	chr16	88829918	88829947	-	-6.81818	7.75e-05	0.442	CATGCGGCCTCTGGAATGTGCTGTCCACTC
CABGSTGGBDCAYGCMTGTAATCCCAGCWM	MEME-6	chr15	100026437	100026466	+	-6.88182	7.87e-05	0.445	CAGCCTGGGGGGCGGGTGGCTTGCCAGGGC
CABGSTGGBDCAYGCMTGTAATCCCAGCWM	MEME-6	chr18	11005413	11005442	+	-7.05455	8.21e-05	0.459	CAAGCTCCTTCACTCATGCATTCCCAGTGG
CABGSTGGBDCAYGCMTGTAATCCCAGCWM	MEME-6	chr7	101618808	101618837	-	-7.07273	8.25e-05	0.459	CTGGCTAACAAACACACGGAAAGACAGCCA
CABGSTGGBDCAYGCMTGTAATCCCAGCWM	MEME-6	chr3	63898615	63898644	-	-7.10909	8.32e-05	0.459	TGGGCACCTCCGCGTTCCGCAACCCAGCAA
CABGSTGGBDCAYGCMTGTAATCCCAGCWM	MEME-6	chr16	89910118	89910147	-	-7.13636	8.38e-05	0.459	CAGCCTGGGCCACATATCGAAACCTCATCT
CABGSTGGBDCAYGCMTGTAATCCCAGCWM	MEME-6	chr13	106589951	106589980	+	-7.16364	8.43e-05	0.459	CAGCCTCCCAGATAAAGGTCATTTCAGGAA
CABGSTGGBDCAYGCMTGTAATCCCAGCWM	MEME-6	chr3	46706958	46706987	+	-7.20909	8.52e-05	0.461	TGGGGTGATACATAGTAATCACCTCCAGAA
CABGSTGGBDCAYGCMTGTAATCCCAGCWM	MEME-6	chr14	77511947	77511976	-	-7.26364	8.64e-05	0.461	CCCCCTTGCTCTTGTACCTCATCTATGCAC
CABGSTGGBDCAYGCMTGTAATCCCAGCWM	MEME-6	chr12	46197482	46197511	+	-7.27273	8.66e-05	0.461	taggatgagtaacatatggagtgcctgata
CABGSTGGBDCAYGCMTGTAATCCCAGCWM	MEME-6	chr11	69330055	69330084	-	-7.4	8.93e-05	0.472	CTGGGGTGGAGACACCTGGAAGCTCAGGTA
CABGSTGGBDCAYGCMTGTAATCCCAGCWM	MEME-6	chr20	19949236	19949265	+	-7.44545	9.03e-05	0.474	CAAGGTTGTGGTTCCCATTAATCTTCACTT
CABGSTGGBDCAYGCMTGTAATCCCAGCWM	MEME-6	chr1	169088553	169088582	+	-7.59091	9.35e-05	0.487	AGAGCTCATCCTTGTCCAGAGTCATAACTA
CABGSTGGBDCAYGCMTGTAATCCCAGCWM	MEME-6	chr2	239924518	239924547	+	-7.73636	9.68e-05	0.501	CAGGCTGATGGCTGTTCCTCCACCCTGCCC
CABGSTGGBDCAYGCMTGTAATCCCAGCWM	MEME-6	chr1	45876693	45876722	+	-7.85455	9.96e-05	0.512	cacccagactcatgactcatgactcaactg
