# motif_id	motif_alt_id	sequence_name	start	stop	strand	score	p-value	q-value	matched_sequence
RYAAAYA	DREME-2	chr2	1235420	1235426	+	11.3284	6.4e-05	0.215	gcaaaca
RYAAAYA	DREME-2	chr2	1235516	1235522	+	11.3284	6.4e-05	0.215	gcaaaca
RYAAAYA	DREME-2	chr12	3458968	3458974	+	11.3284	6.4e-05	0.215	GCAAACA
RYAAAYA	DREME-2	chr17	4681756	4681762	+	11.3284	6.4e-05	0.215	gcaaaCA
RYAAAYA	DREME-2	chr17	5787618	5787624	+	11.3284	6.4e-05	0.215	GCAAACA
RYAAAYA	DREME-2	chr17	6280548	6280554	+	11.3284	6.4e-05	0.215	GCAAACA
RYAAAYA	DREME-2	chr6	7201426	7201432	+	11.3284	6.4e-05	0.215	GCAAACA
RYAAAYA	DREME-2	chr10	7330062	7330068	+	11.3284	6.4e-05	0.215	GCAAACA
RYAAAYA	DREME-2	chr17	7381105	7381111	+	11.3284	6.4e-05	0.215	GCAAACA
RYAAAYA	DREME-2	chr6	8083582	8083588	+	11.3284	6.4e-05	0.215	GCAAACA
RYAAAYA	DREME-2	chr3	8542241	8542247	+	11.3284	6.4e-05	0.215	GCAAACA
RYAAAYA	DREME-2	chr12	11585076	11585082	+	11.3284	6.4e-05	0.215	GCAAACA
RYAAAYA	DREME-2	chr12	11585096	11585102	+	11.3284	6.4e-05	0.215	GCAAACA
RYAAAYA	DREME-2	chr6	12336488	12336494	+	11.3284	6.4e-05	0.215	GCAAACA
RYAAAYA	DREME-2	chr1	12538062	12538068	+	11.3284	6.4e-05	0.215	GCAAACA
RYAAAYA	DREME-2	chr3	14307099	14307105	+	11.3284	6.4e-05	0.215	gcaaaca
RYAAAYA	DREME-2	chr5	14768145	14768151	+	11.3284	6.4e-05	0.215	GCAAACA
RYAAAYA	DREME-2	chr6	15908174	15908180	+	11.3284	6.4e-05	0.215	GCAAACA
RYAAAYA	DREME-2	chr12	15942766	15942772	+	11.3284	6.4e-05	0.215	GCAAACA
RYAAAYA	DREME-2	chr1	17736405	17736411	+	11.3284	6.4e-05	0.215	GCAAACA
RYAAAYA	DREME-2	chr1	17738442	17738448	+	11.3284	6.4e-05	0.215	GCAAACA
RYAAAYA	DREME-2	chr1	17738559	17738565	+	11.3284	6.4e-05	0.215	GCAAACA
RYAAAYA	DREME-2	chr19	18557507	18557513	+	11.3284	6.4e-05	0.215	GCAAACA
RYAAAYA	DREME-2	chr19	18557800	18557806	+	11.3284	6.4e-05	0.215	GCAAACA
RYAAAYA	DREME-2	chr8	18858464	18858470	+	11.3284	6.4e-05	0.215	gcaaaca
RYAAAYA	DREME-2	chr2	19338235	19338241	+	11.3284	6.4e-05	0.215	GCAAACA
RYAAAYA	DREME-2	chr9	22124844	22124850	+	11.3284	6.4e-05	0.215	gcaaaca
RYAAAYA	DREME-2	chr14	23082935	23082941	+	11.3284	6.4e-05	0.215	GCAAACA
RYAAAYA	DREME-2	chr19	24065480	24065486	+	11.3284	6.4e-05	0.215	gcaaaca
RYAAAYA	DREME-2	chr8	25105700	25105706	+	11.3284	6.4e-05	0.215	GCAAACA
RYAAAYA	DREME-2	chr10	29192120	29192126	+	11.3284	6.4e-05	0.215	GCAAACA
RYAAAYA	DREME-2	chr10	29947881	29947887	+	11.3284	6.4e-05	0.215	GCAAACA
RYAAAYA	DREME-2	chr12	32339968	32339974	+	11.3284	6.4e-05	0.215	GCAAACA
RYAAAYA	DREME-2	chr12	32340009	32340015	+	11.3284	6.4e-05	0.215	GCAAACA
RYAAAYA	DREME-2	chr3	32625322	32625328	+	11.3284	6.4e-05	0.215	GCAAACA
RYAAAYA	DREME-2	chr10	33562291	33562297	+	11.3284	6.4e-05	0.215	GCAAACA
RYAAAYA	DREME-2	chr19	34709237	34709243	+	11.3284	6.4e-05	0.215	GCAAACA
RYAAAYA	DREME-2	chr13	34729886	34729892	+	11.3284	6.4e-05	0.215	GCAAACA
RYAAAYA	DREME-2	chr19	35135914	35135920	+	11.3284	6.4e-05	0.215	GCAAACA
RYAAAYA	DREME-2	chr21	36260137	36260143	+	11.3284	6.4e-05	0.215	GCAAACA
RYAAAYA	DREME-2	chr21	39008501	39008507	+	11.3284	6.4e-05	0.215	GCAAACA
RYAAAYA	DREME-2	chr21	39008671	39008677	+	11.3284	6.4e-05	0.215	GCAAACA
RYAAAYA	DREME-2	chr15	40391035	40391041	+	11.3284	6.4e-05	0.215	GCAAACA
RYAAAYA	DREME-2	chr7	41188369	41188375	+	11.3284	6.4e-05	0.215	GCAAACA
RYAAAYA	DREME-2	chr21	41754639	41754645	+	11.3284	6.4e-05	0.215	GCAAACA
RYAAAYA	DREME-2	chr21	41754660	41754666	+	11.3284	6.4e-05	0.215	GCAAACA
RYAAAYA	DREME-2	chr15	42222502	42222508	+	11.3284	6.4e-05	0.215	GCAAACA
RYAAAYA	DREME-2	chr21	43203514	43203520	+	11.3284	6.4e-05	0.215	gcaaaca
RYAAAYA	DREME-2	chr21	43475961	43475967	+	11.3284	6.4e-05	0.215	GCAAACA
RYAAAYA	DREME-2	chr21	43475994	43476000	+	11.3284	6.4e-05	0.215	GCAAACA
RYAAAYA	DREME-2	chr21	43476027	43476033	+	11.3284	6.4e-05	0.215	GCAAACA
RYAAAYA	DREME-2	chr21	43783410	43783416	+	11.3284	6.4e-05	0.215	GCAAACA
RYAAAYA	DREME-2	chr4	44159915	44159921	+	11.3284	6.4e-05	0.215	GCAAACA
RYAAAYA	DREME-2	chr14	44249462	44249468	+	11.3284	6.4e-05	0.215	gcaaaca
RYAAAYA	DREME-2	chr1	44856000	44856006	+	11.3284	6.4e-05	0.215	GCAAACA
RYAAAYA	DREME-2	chr22	45501238	45501244	+	11.3284	6.4e-05	0.215	gcaaaca
RYAAAYA	DREME-2	chr20	46018742	46018748	+	11.3284	6.4e-05	0.215	GCAAACA
RYAAAYA	DREME-2	chr2	46391305	46391311	+	11.3284	6.4e-05	0.215	GCAAACA
RYAAAYA	DREME-2	chr20	47377564	47377570	+	11.3284	6.4e-05	0.215	gcaaaca
RYAAAYA	DREME-2	chr6	49858799	49858805	+	11.3284	6.4e-05	0.215	gcaaaca
RYAAAYA	DREME-2	chr20	50351418	50351424	+	11.3284	6.4e-05	0.215	GCAAACA
RYAAAYA	DREME-2	chr19	51574391	51574397	+	11.3284	6.4e-05	0.215	gcaaaca
RYAAAYA	DREME-2	chr20	51961361	51961367	+	11.3284	6.4e-05	0.215	GCAAACA
RYAAAYA	DREME-2	chr20	52130174	52130180	+	11.3284	6.4e-05	0.215	GCAAACA
RYAAAYA	DREME-2	chr8	52683722	52683728	+	11.3284	6.4e-05	0.215	GCAAACA
RYAAAYA	DREME-2	chr8	52683756	52683762	+	11.3284	6.4e-05	0.215	GCAAACA
RYAAAYA	DREME-2	chr13	53383914	53383920	+	11.3284	6.4e-05	0.215	GCAAACA
RYAAAYA	DREME-2	chr1	54481836	54481842	+	11.3284	6.4e-05	0.215	GCAAACA
RYAAAYA	DREME-2	chr19	56037762	56037768	+	11.3284	6.4e-05	0.215	GCAAACA
RYAAAYA	DREME-2	chr3	56413929	56413935	+	11.3284	6.4e-05	0.215	gcaaaca
RYAAAYA	DREME-2	chr20	58628479	58628485	+	11.3284	6.4e-05	0.215	GCAAACA
RYAAAYA	DREME-2	chr17	63527558	63527564	+	11.3284	6.4e-05	0.215	GCAAACA
RYAAAYA	DREME-2	chr3	64142825	64142831	+	11.3284	6.4e-05	0.215	GCAAACA
RYAAAYA	DREME-2	chr3	64142873	64142879	+	11.3284	6.4e-05	0.215	GCAAACA
RYAAAYA	DREME-2	chr12	64994083	64994089	+	11.3284	6.4e-05	0.215	GCAAACA
RYAAAYA	DREME-2	chr3	65565945	65565951	+	11.3284	6.4e-05	0.215	GCAAACA
RYAAAYA	DREME-2	chr13	67695200	67695206	+	11.3284	6.4e-05	0.215	GCAAACA
RYAAAYA	DREME-2	chr7	69197336	69197342	+	11.3284	6.4e-05	0.215	GCAAACA
RYAAAYA	DREME-2	chr11	69706330	69706336	+	11.3284	6.4e-05	0.215	GCAAACA
RYAAAYA	DREME-2	chr15	69846764	69846770	+	11.3284	6.4e-05	0.215	GCAAACA
RYAAAYA	DREME-2	chr16	70779914	70779920	+	11.3284	6.4e-05	0.215	GCAAACA
RYAAAYA	DREME-2	chr11	71192399	71192405	+	11.3284	6.4e-05	0.215	GCAAACA
RYAAAYA	DREME-2	chr18	71510067	71510073	+	11.3284	6.4e-05	0.215	GCAAACA
RYAAAYA	DREME-2	chr3	72359888	72359894	+	11.3284	6.4e-05	0.215	GCAAACA
RYAAAYA	DREME-2	chr16	72882572	72882578	+	11.3284	6.4e-05	0.215	GCAAACA
RYAAAYA	DREME-2	chr11	72983071	72983077	+	11.3284	6.4e-05	0.215	gcaaaca
RYAAAYA	DREME-2	chr15	74207472	74207478	+	11.3284	6.4e-05	0.215	gcaaaca
RYAAAYA	DREME-2	chr1	85422486	85422492	+	11.3284	6.4e-05	0.215	gcaaaca
RYAAAYA	DREME-2	chr2	88895638	88895644	+	11.3284	6.4e-05	0.215	gcaaaca
RYAAAYA	DREME-2	chr16	89970860	89970866	+	11.3284	6.4e-05	0.215	gcaaaCA
RYAAAYA	DREME-2	chr9	90185625	90185631	+	11.3284	6.4e-05	0.215	GCAAACA
RYAAAYA	DREME-2	chr15	93160747	93160753	+	11.3284	6.4e-05	0.215	GCAAACA
RYAAAYA	DREME-2	chr15	93187405	93187411	+	11.3284	6.4e-05	0.215	GCAAACA
RYAAAYA	DREME-2	chr15	93289138	93289144	+	11.3284	6.4e-05	0.215	gcaaaca
RYAAAYA	DREME-2	chr12	93481051	93481057	+	11.3284	6.4e-05	0.215	gcaaaca
RYAAAYA	DREME-2	chr8	93977050	93977056	+	11.3284	6.4e-05	0.215	GCAAACA
RYAAAYA	DREME-2	chr1	94535133	94535139	+	11.3284	6.4e-05	0.215	GCAAACA
RYAAAYA	DREME-2	chr1	94535308	94535314	+	11.3284	6.4e-05	0.215	GCAAACA
RYAAAYA	DREME-2	chr13	97126666	97126672	+	11.3284	6.4e-05	0.215	GCAAACA
RYAAAYA	DREME-2	chr9	97811100	97811106	+	11.3284	6.4e-05	0.215	GCAAACA
RYAAAYA	DREME-2	chr3	103156874	103156880	+	11.3284	6.4e-05	0.215	gcaaaca
RYAAAYA	DREME-2	chr5	104246718	104246724	+	11.3284	6.4e-05	0.215	gcaaaca
RYAAAYA	DREME-2	chr5	104246798	104246804	+	11.3284	6.4e-05	0.215	gcaaaca
RYAAAYA	DREME-2	chr10	105649750	105649756	+	11.3284	6.4e-05	0.215	GCAAACA
RYAAAYA	DREME-2	chr10	105649921	105649927	+	11.3284	6.4e-05	0.215	gcaaaca
RYAAAYA	DREME-2	chr4	108979868	108979874	+	11.3284	6.4e-05	0.215	gcaaaca
RYAAAYA	DREME-2	chr1	110268353	110268359	+	11.3284	6.4e-05	0.215	gcaaaca
RYAAAYA	DREME-2	chr11	112455870	112455876	+	11.3284	6.4e-05	0.215	GCAAACA
RYAAAYA	DREME-2	chr11	112455924	112455930	+	11.3284	6.4e-05	0.215	GCAAACA
RYAAAYA	DREME-2	chr12	113683565	113683571	+	11.3284	6.4e-05	0.215	GCAAACA
RYAAAYA	DREME-2	chr12	113683685	113683691	+	11.3284	6.4e-05	0.215	GCAAACA
RYAAAYA	DREME-2	chr12	117580690	117580696	+	11.3284	6.4e-05	0.215	GCAAACA
RYAAAYA	DREME-2	chr12	117580786	117580792	+	11.3284	6.4e-05	0.215	GCAAACA
RYAAAYA	DREME-2	chr1	118624276	118624282	+	11.3284	6.4e-05	0.215	GCAAACA
RYAAAYA	DREME-2	chr1	119021818	119021824	+	11.3284	6.4e-05	0.215	gcaaaca
RYAAAYA	DREME-2	chr11	121330273	121330279	+	11.3284	6.4e-05	0.215	GCAAACA
RYAAAYA	DREME-2	chr5	124982554	124982560	+	11.3284	6.4e-05	0.215	gcaaaca
RYAAAYA	DREME-2	chr10	127755133	127755139	+	11.3284	6.4e-05	0.215	GCAAACA
RYAAAYA	DREME-2	chr2	128458100	128458106	+	11.3284	6.4e-05	0.215	GCAAACA
RYAAAYA	DREME-2	chr2	129063877	129063883	+	11.3284	6.4e-05	0.215	GCAAACA
RYAAAYA	DREME-2	chr9	130784600	130784606	+	11.3284	6.4e-05	0.215	GCAAACA
RYAAAYA	DREME-2	chr9	134180404	134180410	+	11.3284	6.4e-05	0.215	gcaaaca
RYAAAYA	DREME-2	chr9	134180457	134180463	+	11.3284	6.4e-05	0.215	gcaaaca
RYAAAYA	DREME-2	chr9	134622868	134622874	+	11.3284	6.4e-05	0.215	GCAAACA
RYAAAYA	DREME-2	chr2	149876959	149876965	+	11.3284	6.4e-05	0.215	GCAAACA
RYAAAYA	DREME-2	chr1	151170375	151170381	+	11.3284	6.4e-05	0.215	gcaaaca
RYAAAYA	DREME-2	chr1	153517778	153517784	+	11.3284	6.4e-05	0.215	GCAAACA
RYAAAYA	DREME-2	chr7	157794246	157794252	+	11.3284	6.4e-05	0.215	GCAAACA
RYAAAYA	DREME-2	chr5	159687866	159687872	+	11.3284	6.4e-05	0.215	GCAAACA
RYAAAYA	DREME-2	chr2	161078249	161078255	+	11.3284	6.4e-05	0.215	GCAAACA
RYAAAYA	DREME-2	chr3	161138528	161138534	+	11.3284	6.4e-05	0.215	gcaaaca
RYAAAYA	DREME-2	chr1	168876392	168876398	+	11.3284	6.4e-05	0.215	GCAAACA
RYAAAYA	DREME-2	chr1	169088597	169088603	+	11.3284	6.4e-05	0.215	GCAAACA
RYAAAYA	DREME-2	chr2	171095356	171095362	+	11.3284	6.4e-05	0.215	GCAAACA
RYAAAYA	DREME-2	chr2	175449882	175449888	+	11.3284	6.4e-05	0.215	GCAAACA
RYAAAYA	DREME-2	chr2	177750495	177750501	+	11.3284	6.4e-05	0.215	GCAAACA
RYAAAYA	DREME-2	chr2	177750585	177750591	+	11.3284	6.4e-05	0.215	GCAAACA
RYAAAYA	DREME-2	chr4	183665919	183665925	+	11.3284	6.4e-05	0.215	GCAAACA
RYAAAYA	DREME-2	chr4	183665938	183665944	+	11.3284	6.4e-05	0.215	GCAAACA
RYAAAYA	DREME-2	chr3	192315282	192315288	+	11.3284	6.4e-05	0.215	GCAAACA
RYAAAYA	DREME-2	chr1	202025911	202025917	+	11.3284	6.4e-05	0.215	GCAAACA
RYAAAYA	DREME-2	chr2	205204537	205204543	+	11.3284	6.4e-05	0.215	gcaaaca
RYAAAYA	DREME-2	chr2	205204575	205204581	+	11.3284	6.4e-05	0.215	gcaaaca
RYAAAYA	DREME-2	chr2	208693881	208693887	+	11.3284	6.4e-05	0.215	GCAAACA
RYAAAYA	DREME-2	chr2	217615414	217615420	+	11.3284	6.4e-05	0.215	gcaaaca
RYAAAYA	DREME-2	chr1	233004608	233004614	+	11.3284	6.4e-05	0.215	GCAAACA
RYAAAYA	DREME-2	chr1	235110519	235110525	+	11.3284	6.4e-05	0.215	GCAAACA
RYAAAYA	DREME-2	chr7	373362	373368	-	11.3284	6.4e-05	0.215	GCAAACA
RYAAAYA	DREME-2	chr2	437661	437667	-	11.3284	6.4e-05	0.215	GCAAACA
RYAAAYA	DREME-2	chr19	752909	752915	-	11.3284	6.4e-05	0.215	GCAAACA
RYAAAYA	DREME-2	chr7	967000	967006	-	11.3284	6.4e-05	0.215	GCAAACA
RYAAAYA	DREME-2	chr3	4786253	4786259	-	11.3284	6.4e-05	0.215	GCAAACA
RYAAAYA	DREME-2	chr19	5046574	5046580	-	11.3284	6.4e-05	0.215	GCAAACA
RYAAAYA	DREME-2	chr19	5046628	5046634	-	11.3284	6.4e-05	0.215	GCAAACA
RYAAAYA	DREME-2	chr7	5262303	5262309	-	11.3284	6.4e-05	0.215	GCAAACA
RYAAAYA	DREME-2	chr4	5367510	5367516	-	11.3284	6.4e-05	0.215	GCAAACA
RYAAAYA	DREME-2	chr19	5857567	5857573	-	11.3284	6.4e-05	0.215	GCAAACA
RYAAAYA	DREME-2	chr6	7561472	7561478	-	11.3284	6.4e-05	0.215	GCAAACA
RYAAAYA	DREME-2	chr3	8692864	8692870	-	11.3284	6.4e-05	0.215	GCAAACA
RYAAAYA	DREME-2	chr1	8971100	8971106	-	11.3284	6.4e-05	0.215	GCAAACA
RYAAAYA	DREME-2	chr11	9124939	9124945	-	11.3284	6.4e-05	0.215	GCAAACA
RYAAAYA	DREME-2	chr1	9173131	9173137	-	11.3284	6.4e-05	0.215	GCAAACA
RYAAAYA	DREME-2	chr3	9191195	9191201	-	11.3284	6.4e-05	0.215	GCAAACA
RYAAAYA	DREME-2	chr11	10416108	10416114	-	11.3284	6.4e-05	0.215	GCAAACA
RYAAAYA	DREME-2	chr11	10416260	10416266	-	11.3284	6.4e-05	0.215	GCAAACA
RYAAAYA	DREME-2	chr8	10532409	10532415	-	11.3284	6.4e-05	0.215	GCAAACA
RYAAAYA	DREME-2	chr8	10532429	10532435	-	11.3284	6.4e-05	0.215	GCAAACA
RYAAAYA	DREME-2	chr19	10728560	10728566	-	11.3284	6.4e-05	0.215	GCAAACA
RYAAAYA	DREME-2	chr8	11219143	11219149	-	11.3284	6.4e-05	0.215	GCAAACA
RYAAAYA	DREME-2	chr3	13236318	13236324	-	11.3284	6.4e-05	0.215	GCAAACA
RYAAAYA	DREME-2	chr6	15037100	15037106	-	11.3284	6.4e-05	0.215	GCAAACA
RYAAAYA	DREME-2	chr16	15601086	15601092	-	11.3284	6.4e-05	0.215	GCAAACA
RYAAAYA	DREME-2	chr5	16573363	16573369	-	11.3284	6.4e-05	0.215	GCAAACA
RYAAAYA	DREME-2	chr1	16930720	16930726	-	11.3284	6.4e-05	0.215	GCAAACA
RYAAAYA	DREME-2	chr13	20368576	20368582	-	11.3284	6.4e-05	0.215	GCAAACA
RYAAAYA	DREME-2	chr22	21241752	21241758	-	11.3284	6.4e-05	0.215	GCAAACA
RYAAAYA	DREME-2	chrX	22135853	22135859	-	11.3284	6.4e-05	0.215	GCAAACA
RYAAAYA	DREME-2	chrX	22135877	22135883	-	11.3284	6.4e-05	0.215	GCAAACA
RYAAAYA	DREME-2	chr6	24779860	24779866	-	11.3284	6.4e-05	0.215	GCAAACA
RYAAAYA	DREME-2	chr13	25691161	25691167	-	11.3284	6.4e-05	0.215	GCAAACA
RYAAAYA	DREME-2	chr17	26200477	26200483	-	11.3284	6.4e-05	0.215	GCAAACA
RYAAAYA	DREME-2	chr6	26257536	26257542	-	11.3284	6.4e-05	0.215	GCAAACA
RYAAAYA	DREME-2	chr22	26339068	26339074	-	11.3284	6.4e-05	0.215	GCAAACA
RYAAAYA	DREME-2	chr10	28552071	28552077	-	11.3284	6.4e-05	0.215	GCAAACA
RYAAAYA	DREME-2	chr10	29311473	29311479	-	11.3284	6.4e-05	0.215	GCAAACA
RYAAAYA	DREME-2	chr19	30162100	30162106	-	11.3284	6.4e-05	0.215	GCAAACA
RYAAAYA	DREME-2	chr20	31779088	31779094	-	11.3284	6.4e-05	0.215	GCAAACA
RYAAAYA	DREME-2	chr22	31976177	31976183	-	11.3284	6.4e-05	0.215	GCAAACA
RYAAAYA	DREME-2	chr12	32339908	32339914	-	11.3284	6.4e-05	0.215	GCAAACA
RYAAAYA	DREME-2	chr13	33690421	33690427	-	11.3284	6.4e-05	0.215	GCAAACA
RYAAAYA	DREME-2	chr6	33955968	33955974	-	11.3284	6.4e-05	0.215	GCAAACA
RYAAAYA	DREME-2	chr6	34522545	34522551	-	11.3284	6.4e-05	0.215	GCAAACA
RYAAAYA	DREME-2	chr14	37325217	37325223	-	11.3284	6.4e-05	0.215	GCAAACA
RYAAAYA	DREME-2	chr6	37511785	37511791	-	11.3284	6.4e-05	0.215	GCAAACA
RYAAAYA	DREME-2	chr17	38182233	38182239	-	11.3284	6.4e-05	0.215	GCAAACA
RYAAAYA	DREME-2	chr19	39684656	39684662	-	11.3284	6.4e-05	0.215	GCAAACA
RYAAAYA	DREME-2	chr19	41427138	41427144	-	11.3284	6.4e-05	0.215	GCAAACA
RYAAAYA	DREME-2	chr2	43861862	43861868	-	11.3284	6.4e-05	0.215	GCAAACA
RYAAAYA	DREME-2	chr21	46130011	46130017	-	11.3284	6.4e-05	0.215	GCAAACA
RYAAAYA	DREME-2	chr21	46193290	46193296	-	11.3284	6.4e-05	0.215	GCAAACA
RYAAAYA	DREME-2	chr12	46197305	46197311	-	11.3284	6.4e-05	0.215	GCAAACA
RYAAAYA	DREME-2	chr7	46926275	46926281	-	11.3284	6.4e-05	0.215	GCAAACA
RYAAAYA	DREME-2	chr7	46926301	46926307	-	11.3284	6.4e-05	0.215	GCAAACA
RYAAAYA	DREME-2	chr7	47552218	47552224	-	11.3284	6.4e-05	0.215	GCAAACA
RYAAAYA	DREME-2	chr10	48548625	48548631	-	11.3284	6.4e-05	0.215	GCAAACA
RYAAAYA	DREME-2	chr1	49209730	49209736	-	11.3284	6.4e-05	0.215	GCAAACA
RYAAAYA	DREME-2	chr20	49262019	49262025	-	11.3284	6.4e-05	0.215	GCAAACA
RYAAAYA	DREME-2	chr20	49358280	49358286	-	11.3284	6.4e-05	0.215	GCAAACA
RYAAAYA	DREME-2	chr19	49378753	49378759	-	11.3284	6.4e-05	0.215	GCAAACA
RYAAAYA	DREME-2	chr22	50466060	50466066	-	11.3284	6.4e-05	0.215	GCAAACA
RYAAAYA	DREME-2	chr12	52597060	52597066	-	11.3284	6.4e-05	0.215	GCAAACA
RYAAAYA	DREME-2	chr13	53383940	53383946	-	11.3284	6.4e-05	0.215	GCAAACA
RYAAAYA	DREME-2	chr3	53600589	53600595	-	11.3284	6.4e-05	0.215	GCAAACA
RYAAAYA	DREME-2	chr16	54206094	54206100	-	11.3284	6.4e-05	0.215	GCAAACA
RYAAAYA	DREME-2	chr12	54372773	54372779	-	11.3284	6.4e-05	0.215	GCAAACA
RYAAAYA	DREME-2	chr16	54963602	54963608	-	11.3284	6.4e-05	0.215	GCAAACA
RYAAAYA	DREME-2	chr16	54963664	54963670	-	11.3284	6.4e-05	0.215	GCAAACA
RYAAAYA	DREME-2	chr17	55418108	55418114	-	11.3284	6.4e-05	0.215	GCAAACA
RYAAAYA	DREME-2	chr19	56037757	56037763	-	11.3284	6.4e-05	0.215	GCAAACA
RYAAAYA	DREME-2	chr2	56070541	56070547	-	11.3284	6.4e-05	0.215	GCAAACA
RYAAAYA	DREME-2	chr17	57863944	57863950	-	11.3284	6.4e-05	0.215	GCAAACA
RYAAAYA	DREME-2	chr17	57922553	57922559	-	11.3284	6.4e-05	0.215	GCAAACA
RYAAAYA	DREME-2	chr8	58991437	58991443	-	11.3284	6.4e-05	0.215	GCAAACA
RYAAAYA	DREME-2	chr11	60144053	60144059	-	11.3284	6.4e-05	0.215	GCAAACA
RYAAAYA	DREME-2	chr15	60188951	60188957	-	11.3284	6.4e-05	0.215	GCAAACA
RYAAAYA	DREME-2	chr11	60709694	60709700	-	11.3284	6.4e-05	0.215	GCAAACA
RYAAAYA	DREME-2	chr17	61656851	61656857	-	11.3284	6.4e-05	0.215	GCAAACA
RYAAAYA	DREME-2	chr20	61745932	61745938	-	11.3284	6.4e-05	0.215	GCAAACA
RYAAAYA	DREME-2	chr3	64487098	64487104	-	11.3284	6.4e-05	0.215	GCAAACA
RYAAAYA	DREME-2	chr11	68147691	68147697	-	11.3284	6.4e-05	0.215	GCAAACA
RYAAAYA	DREME-2	chr11	68147733	68147739	-	11.3284	6.4e-05	0.215	GCAAACA
RYAAAYA	DREME-2	chr1	68663548	68663554	-	11.3284	6.4e-05	0.215	GCAAACA
RYAAAYA	DREME-2	chr11	69469760	69469766	-	11.3284	6.4e-05	0.215	GCAAACA
RYAAAYA	DREME-2	chr15	70384312	70384318	-	11.3284	6.4e-05	0.215	GCAAACA
RYAAAYA	DREME-2	chr3	72677225	72677231	-	11.3284	6.4e-05	0.215	GCAAACA
RYAAAYA	DREME-2	chr3	72677400	72677406	-	11.3284	6.4e-05	0.215	GCAAACA
RYAAAYA	DREME-2	chr8	74332127	74332133	-	11.3284	6.4e-05	0.215	GCAAACA
RYAAAYA	DREME-2	chr18	74805404	74805410	-	11.3284	6.4e-05	0.215	GCAAACA
RYAAAYA	DREME-2	chr15	75431438	75431444	-	11.3284	6.4e-05	0.215	GCAAACA
RYAAAYA	DREME-2	chr5	76722029	76722035	-	11.3284	6.4e-05	0.215	GCAAACA
RYAAAYA	DREME-2	chr14	77385093	77385099	-	11.3284	6.4e-05	0.215	GCAAACA
RYAAAYA	DREME-2	chr16	77469695	77469701	-	11.3284	6.4e-05	0.215	GCAAACA
RYAAAYA	DREME-2	chr16	78087062	78087068	-	11.3284	6.4e-05	0.215	GCAAACA
RYAAAYA	DREME-2	chr17	80255979	80255985	-	11.3284	6.4e-05	0.215	GCAAACA
RYAAAYA	DREME-2	chr11	80431464	80431470	-	11.3284	6.4e-05	0.215	GCAAACA
RYAAAYA	DREME-2	chr11	80431646	80431652	-	11.3284	6.4e-05	0.215	GCAAACA
RYAAAYA	DREME-2	chr9	83718504	83718510	-	11.3284	6.4e-05	0.215	GCAAACA
RYAAAYA	DREME-2	chr1	84092714	84092720	-	11.3284	6.4e-05	0.215	GCAAACA
RYAAAYA	DREME-2	chr16	84628811	84628817	-	11.3284	6.4e-05	0.215	GCAAACA
RYAAAYA	DREME-2	chr16	84918184	84918190	-	11.3284	6.4e-05	0.215	GCAAACA
RYAAAYA	DREME-2	chr2	85224284	85224290	-	11.3284	6.4e-05	0.215	GCAAACA
RYAAAYA	DREME-2	chr16	85548361	85548367	-	11.3284	6.4e-05	0.215	GCAAACA
RYAAAYA	DREME-2	chr16	85548397	85548403	-	11.3284	6.4e-05	0.215	GCAAACA
RYAAAYA	DREME-2	chr2	85648905	85648911	-	11.3284	6.4e-05	0.215	GCAAACA
RYAAAYA	DREME-2	chr2	86190781	86190787	-	11.3284	6.4e-05	0.215	GCAAACA
RYAAAYA	DREME-2	chr16	89497266	89497272	-	11.3284	6.4e-05	0.215	GCAAACA
RYAAAYA	DREME-2	chr16	89904154	89904160	-	11.3284	6.4e-05	0.215	GCAAACA
RYAAAYA	DREME-2	chr9	90185835	90185841	-	11.3284	6.4e-05	0.215	GCAAACA
RYAAAYA	DREME-2	chr15	92170781	92170787	-	11.3284	6.4e-05	0.215	GCAAACA
RYAAAYA	DREME-2	chr1	94510971	94510977	-	11.3284	6.4e-05	0.215	GCAAACA
RYAAAYA	DREME-2	chr15	96613845	96613851	-	11.3284	6.4e-05	0.215	GCAAACA
RYAAAYA	DREME-2	chr2	97554342	97554348	-	11.3284	6.4e-05	0.215	GCAAACA
RYAAAYA	DREME-2	chr9	97856164	97856170	-	11.3284	6.4e-05	0.215	GCAAACA
RYAAAYA	DREME-2	chr14	99240375	99240381	-	11.3284	6.4e-05	0.215	GCAAACA
RYAAAYA	DREME-2	chr13	100629859	100629865	-	11.3284	6.4e-05	0.215	GCAAACA
RYAAAYA	DREME-2	chr15	101389741	101389747	-	11.3284	6.4e-05	0.215	GCAAACA
RYAAAYA	DREME-2	chr7	101526155	101526161	-	11.3284	6.4e-05	0.215	GCAAACA
RYAAAYA	DREME-2	chr5	101842271	101842277	-	11.3284	6.4e-05	0.215	GCAAACA
RYAAAYA	DREME-2	chr8	102619595	102619601	-	11.3284	6.4e-05	0.215	GCAAACA
RYAAAYA	DREME-2	chr14	102948219	102948225	-	11.3284	6.4e-05	0.215	GCAAACA
RYAAAYA	DREME-2	chr7	105712520	105712526	-	11.3284	6.4e-05	0.215	GCAAACA
RYAAAYA	DREME-2	chr10	106232281	106232287	-	11.3284	6.4e-05	0.215	GCAAACA
RYAAAYA	DREME-2	chr4	108979922	108979928	-	11.3284	6.4e-05	0.215	GCAAACA
RYAAAYA	DREME-2	chr13	109571644	109571650	-	11.3284	6.4e-05	0.215	GCAAACA
RYAAAYA	DREME-2	chr13	110651035	110651041	-	11.3284	6.4e-05	0.215	GCAAACA
RYAAAYA	DREME-2	chr2	111526273	111526279	-	11.3284	6.4e-05	0.215	GCAAACA
RYAAAYA	DREME-2	chr12	117174137	117174143	-	11.3284	6.4e-05	0.215	GCAAACA
RYAAAYA	DREME-2	chr12	117580685	117580691	-	11.3284	6.4e-05	0.215	GCAAACA
RYAAAYA	DREME-2	chr11	120151486	120151492	-	11.3284	6.4e-05	0.215	GCAAACA
RYAAAYA	DREME-2	chr8	122788550	122788556	-	11.3284	6.4e-05	0.215	GCAAACA
RYAAAYA	DREME-2	chr7	122831313	122831319	-	11.3284	6.4e-05	0.215	GCAAACA
RYAAAYA	DREME-2	chr3	124556709	124556715	-	11.3284	6.4e-05	0.215	GCAAACA
RYAAAYA	DREME-2	chr12	124716577	124716583	-	11.3284	6.4e-05	0.215	GCAAACA
RYAAAYA	DREME-2	chr12	124716702	124716708	-	11.3284	6.4e-05	0.215	GCAAACA
RYAAAYA	DREME-2	chr8	125192697	125192703	-	11.3284	6.4e-05	0.215	GCAAACA
RYAAAYA	DREME-2	chr8	126123210	126123216	-	11.3284	6.4e-05	0.215	GCAAACA
RYAAAYA	DREME-2	chr8	128882820	128882826	-	11.3284	6.4e-05	0.215	GCAAACA
RYAAAYA	DREME-2	chr9	130769114	130769120	-	11.3284	6.4e-05	0.215	GCAAACA
RYAAAYA	DREME-2	chr12	130824661	130824667	-	11.3284	6.4e-05	0.215	GCAAACA
RYAAAYA	DREME-2	chr5	132581089	132581095	-	11.3284	6.4e-05	0.215	GCAAACA
RYAAAYA	DREME-2	chr5	137566610	137566616	-	11.3284	6.4e-05	0.215	GCAAACA
RYAAAYA	DREME-2	chr8	142164082	142164088	-	11.3284	6.4e-05	0.215	GCAAACA
RYAAAYA	DREME-2	chr5	142974501	142974507	-	11.3284	6.4e-05	0.215	GCAAACA
RYAAAYA	DREME-2	chrX	143455824	143455830	-	11.3284	6.4e-05	0.215	GCAAACA
RYAAAYA	DREME-2	chr1	145382847	145382853	-	11.3284	6.4e-05	0.215	GCAAACA
RYAAAYA	DREME-2	chrX	152029655	152029661	-	11.3284	6.4e-05	0.215	GCAAACA
RYAAAYA	DREME-2	chr7	155115798	155115804	-	11.3284	6.4e-05	0.215	GCAAACA
RYAAAYA	DREME-2	chr3	156530216	156530222	-	11.3284	6.4e-05	0.215	GCAAACA
RYAAAYA	DREME-2	chr1	180126906	180126912	-	11.3284	6.4e-05	0.215	GCAAACA
RYAAAYA	DREME-2	chr4	186558474	186558480	-	11.3284	6.4e-05	0.215	GCAAACA
RYAAAYA	DREME-2	chr3	189022420	189022426	-	11.3284	6.4e-05	0.215	GCAAACA
RYAAAYA	DREME-2	chr3	193429970	193429976	-	11.3284	6.4e-05	0.215	GCAAACA
RYAAAYA	DREME-2	chr2	224506185	224506191	-	11.3284	6.4e-05	0.215	GCAAACA
RYAAAYA	DREME-2	chr2	226199232	226199238	-	11.3284	6.4e-05	0.215	GCAAACA
RYAAAYA	DREME-2	chr2	226199254	226199260	-	11.3284	6.4e-05	0.215	GCAAACA
RYAAAYA	DREME-2	chr1	226320459	226320465	-	11.3284	6.4e-05	0.215	GCAAACA
RYAAAYA	DREME-2	chr1	230220310	230220316	-	11.3284	6.4e-05	0.215	GCAAACA
RYAAAYA	DREME-2	chr2	235372562	235372568	-	11.3284	6.4e-05	0.215	GCAAACA
RYAAAYA	DREME-2	chr1	244532791	244532797	-	11.3284	6.4e-05	0.215	GCAAACA
RYAAAYA	DREME-2	chr1	244532833	244532839	-	11.3284	6.4e-05	0.215	GCAAACA
