********************************************************************************
MEME - Motif discovery tool
********************************************************************************
MEME version 4.12.0 (Release date: Tue Jun 27 16:22:50 2017 -0700)

For further information on how to interpret these results or to get
a copy of the MEME software please access http://meme-suite.org .

This file may be used as input to the MAST algorithm for searching
sequence databases for matches to groups of motifs.  MAST is available
for interactive use and downloading at http://meme-suite.org .
********************************************************************************


********************************************************************************
REFERENCE
********************************************************************************
If you use this program in your research, please cite:

Timothy L. Bailey and Charles Elkan,
"Fitting a mixture model by expectation maximization to discover
motifs in biopolymers", Proceedings of the Second International
Conference on Intelligent Systems for Molecular Biology, pp. 28-36,
AAAI Press, Menlo Park, California, 1994.
********************************************************************************


********************************************************************************
TRAINING SET
********************************************************************************
DATAFILE= results/AHRpeaks_not-in-DHSs.bed-199.fa/hocomoco/seqs-centered
ALPHABET= ACGT
Sequence name            Weight Length  Sequence name            Weight Length  
-------------            ------ ------  -------------            ------ ------  
chr11:102323700-10232414 1.0000    100  chr6:473950-474699       1.0000    100  
chr5:14187700-14188249   1.0000    100  chr14:51331750-51332699  1.0000    100  
chr3:133718450-133718949 1.0000    100  chr3:42538300-42538749   1.0000    100  
chr3:197391550-197391999 1.0000    100  chr3:100314500-100315199 1.0000    100  
chr5:42620500-42620999   1.0000    100  chr6:164129450-164129999 1.0000    100  
chr4:131057400-131058299 1.0000    100  chr9:136608600-136609099 1.0000    100  
chr13:111252450-11125309 1.0000    100  chr3:30367300-30367849   1.0000    100  
chr5:53039550-53040149   1.0000    100  chr2:223843200-223843749 1.0000    100  
chr4:24861800-24862399   1.0000    100  chrX:143455700-143456199 1.0000    100  
chr14:34682250-34682949  1.0000    100  chr9:77463250-77463649   1.0000    100  
chr16:78330900-78331399  1.0000    100  chrX:142490150-142490549 1.0000    100  
chr1:523900-524399       1.0000    100  chr9:22124600-22125049   1.0000    100  
chr13:100629600-10063024 1.0000    100  chr21:23055400-23055999  1.0000    100  
chr9:93712750-93713449   1.0000    100  chr13:76836050-76836549  1.0000    100  
chr5:38533650-38534099   1.0000    100  chr2:138011550-138012149 1.0000    100  
chr12:124723400-12472389 1.0000    100  chr7:117565150-117565649 1.0000    100  
chr6:171042750-171043199 1.0000    100  chr2:142015050-142015599 1.0000    100  
chr11:86289250-86289799  1.0000    100  chr18:71509800-71510299  1.0000    100  
chr19:24065200-24065649  1.0000    100  chr15:40377300-40377849  1.0000    100  
chr17:78725650-78726099  1.0000    100  chr19:28916200-28916699  1.0000    100  
chr15:75054300-75054749  1.0000    100  chr6:67444900-67445299   1.0000    100  
chr2:5504450-5505199     1.0000    100  chr2:43826650-43827199   1.0000    100  
chr1:153650950-153651299 1.0000    100  chr6:16832050-16832599   1.0000    100  
chr12:77073250-77074049  1.0000    100  chr10:9391250-9391649    1.0000    100  
chr6:99195700-99196049   1.0000    100  chr6:26257300-26257949   1.0000    100  
chr14:63545150-63545699  1.0000    100  chr6:10317300-10318049   1.0000    100  
chr12:114182450-11418309 1.0000    100  chr17:78690100-78690649  1.0000    100  
chr18:32629450-32630099  1.0000    100  chr6:44826100-44826549   1.0000    100  
chr3:65973950-65974299   1.0000    100  chr7:128073600-128073849 1.0000    100  
chr12:115912450-11591299 1.0000    100  chr6:16992350-16992899   1.0000    100  
chr15:45402150-45402499  1.0000    100  
********************************************************************************

********************************************************************************
COMMAND LINE SUMMARY
********************************************************************************
This information can also be useful in the event you wish to report a
problem with the MEME software.

command: meme results/AHRpeaks_not-in-DHSs.bed-199.fa/hocomoco/seqs-centered -oc results/AHRpeaks_not-in-DHSs.bed-199.fa/hocomoco/meme_out -mod zoops -nmotifs 7 -minw 5 -maxw 30 -bfile results/AHRpeaks_not-in-DHSs.bed-199.fa/hocomoco/background -dna -revcomp -nostatus 

model:  mod=         zoops    nmotifs=         7    evt=           inf
object function=  E-value of product of p-values
width:  minw=            5    maxw=           30
width:  wg=             11    ws=              1    endgaps=       yes
nsites: minsites=        2    maxsites=       61    wnsites=       0.8
theta:  spmap=         uni    spfuzz=        0.5
global: substring=     yes    branching=      no    wbranch=        no
em:     prior=   dirichlet    b=            0.01    maxiter=        50
        distance=    1e-05
data:   n=            6100    N=              61    shuffle=        -1
strands: + -
sample: seed=            0    ctfrac=         -1    maxwords=       -1
Letter frequencies in dataset:
A 0.284 C 0.216 G 0.216 T 0.284 
Background letter frequencies (from results/AHRpeaks_not-in-DHSs.bed-199.fa/hocomoco/background):
A 0.286 C 0.214 G 0.214 T 0.286 
********************************************************************************


********************************************************************************
MOTIF AAGCAAATRCAATARAAACAAASATAA MEME-1	width =  27  sites =   7  llr = 181  E-value = 2.2e-013
********************************************************************************
--------------------------------------------------------------------------------
	Motif AAGCAAATRCAATARAAACAAASATAA MEME-1 Description
--------------------------------------------------------------------------------
Simplified        A  971:a99141aa194a99:aaa1a3aa
pos.-specific     C  :3:9:::::9:::11:::9:::3::::
probability       G  ::71:11:4:::::3:111:::6::::
matrix            T  1:1::::91:::9:1:::::::::7::

         bits    2.2                            
                 2.0                            
                 1.8     *     **   *   *** * **
                 1.6    **    ***   *  **** * **
Relative         1.3    ****  *** * ******* * **
Entropy          1.1 ** ***** ***** ******* * **
(37.3 bits)      0.9 ******** ***** ************
                 0.7 ******** ***** ************
                 0.4 ************** ************
                 0.2 ***************************
                 0.0 ---------------------------

Multilevel           AAGCAAATACAATAAAAACAAAGATAA
consensus             C      G     G       C A  
sequence                                        
                                                
--------------------------------------------------------------------------------

--------------------------------------------------------------------------------
	Motif AAGCAAATRCAATARAAACAAASATAA MEME-1 sites sorted by position p-value
--------------------------------------------------------------------------------
Sequence name            Strand  Start   P-value                       Site          
-------------            ------  ----- ---------            ---------------------------
chr17:78690100-78690649      -     64  3.68e-16 AAGAACCCAA AAGCAAATGCAATAAAAACAAAGATAA ATAGCTGGGA
chr5:53039550-53040149       +     19  3.68e-16 aagagcccaa aagcaaatgcaataaaaacaaagataa atagctggga
chr3:100314500-100315199     -     26  3.68e-16 AAGAACCCAA AAGCAAATGCAATAAAAACAAAGATAA ATAGCTGGGA
chr7:117565150-117565649     +     74  1.03e-14 aagaacccaa aagcaaattcaatagaaacaaagataa           
chr9:136608600-136609099     -     19  5.27e-11 AAAAACAAAC ACACAAGAACAAAACAAACAAACAAAA AACTAGAAAA
chr14:63545150-63545699      +     59  5.71e-11 caaaaaatac tagcaaataaaatctaggcaaacataa aaagaaaaat
chrX:143455700-143456199     -     32  6.42e-11 GATTACTCAG ACTGAGATACAATAGAAAGAAAAAAAA GAAGATAAAT
--------------------------------------------------------------------------------

--------------------------------------------------------------------------------
	Motif AAGCAAATRCAATARAAACAAASATAA MEME-1 block diagrams
--------------------------------------------------------------------------------
SEQUENCE NAME            POSITION P-VALUE  MOTIF DIAGRAM
-------------            ----------------  -------------
chr17:78690100-78690649           3.7e-16  63_[-1]_10
chr5:53039550-53040149            3.7e-16  18_[+1]_55
chr3:100314500-100315199          3.7e-16  25_[-1]_48
chr7:117565150-117565649            1e-14  73_[+1]
chr9:136608600-136609099          5.3e-11  18_[-1]_55
chr14:63545150-63545699           5.7e-11  58_[+1]_15
chrX:143455700-143456199          6.4e-11  31_[-1]_42
--------------------------------------------------------------------------------

--------------------------------------------------------------------------------
	Motif AAGCAAATRCAATARAAACAAASATAA MEME-1 in BLOCKS format
--------------------------------------------------------------------------------
BL   MOTIF AAGCAAATRCAATARAAACAAASATAA width=27 seqs=7
chr17:78690100-78690649  (   64) AAGCAAATGCAATAAAAACAAAGATAA  1 
chr5:53039550-53040149   (   19) AAGCAAATGCAATAAAAACAAAGATAA  1 
chr3:100314500-100315199 (   26) AAGCAAATGCAATAAAAACAAAGATAA  1 
chr7:117565150-117565649 (   74) AAGCAAATTCAATAGAAACAAAGATAA  1 
chr9:136608600-136609099 (   19) ACACAAGAACAAAACAAACAAACAAAA  1 
chr14:63545150-63545699  (   59) TAGCAAATAAAATCTAGGCAAACATAA  1 
chrX:143455700-143456199 (   32) ACTGAGATACAATAGAAAGAAAAAAAA  1 
//

--------------------------------------------------------------------------------

--------------------------------------------------------------------------------
	Motif AAGCAAATRCAATARAAACAAASATAA MEME-1 position-specific scoring matrix
--------------------------------------------------------------------------------
log-odds matrix: alength= 4 w= 27 n= 4514 bayes= 9.17422 E= 2.2e-013 
   158   -945   -945   -100 
   132     42   -945   -945 
  -100   -945    174   -100 
  -945    200    -58   -945 
   180   -945   -945   -945 
   158   -945    -58   -945 
   158   -945    -58   -945 
  -100   -945   -945    158 
    58   -945    100   -100 
  -100    200   -945   -945 
   180   -945   -945   -945 
   180   -945   -945   -945 
  -100   -945   -945    158 
   158    -58   -945   -945 
    58    -58     42   -100 
   180   -945   -945   -945 
   158   -945    -58   -945 
   158   -945    -58   -945 
  -945    200    -58   -945 
   180   -945   -945   -945 
   180   -945   -945   -945 
   180   -945   -945   -945 
  -100     42    142   -945 
   180   -945   -945   -945 
     0   -945   -945    132 
   180   -945   -945   -945 
   180   -945   -945   -945 
--------------------------------------------------------------------------------

--------------------------------------------------------------------------------
	Motif AAGCAAATRCAATARAAACAAASATAA MEME-1 position-specific probability matrix
--------------------------------------------------------------------------------
letter-probability matrix: alength= 4 w= 27 nsites= 7 E= 2.2e-013 
 0.857143  0.000000  0.000000  0.142857 
 0.714286  0.285714  0.000000  0.000000 
 0.142857  0.000000  0.714286  0.142857 
 0.000000  0.857143  0.142857  0.000000 
 1.000000  0.000000  0.000000  0.000000 
 0.857143  0.000000  0.142857  0.000000 
 0.857143  0.000000  0.142857  0.000000 
 0.142857  0.000000  0.000000  0.857143 
 0.428571  0.000000  0.428571  0.142857 
 0.142857  0.857143  0.000000  0.000000 
 1.000000  0.000000  0.000000  0.000000 
 1.000000  0.000000  0.000000  0.000000 
 0.142857  0.000000  0.000000  0.857143 
 0.857143  0.142857  0.000000  0.000000 
 0.428571  0.142857  0.285714  0.142857 
 1.000000  0.000000  0.000000  0.000000 
 0.857143  0.000000  0.142857  0.000000 
 0.857143  0.000000  0.142857  0.000000 
 0.000000  0.857143  0.142857  0.000000 
 1.000000  0.000000  0.000000  0.000000 
 1.000000  0.000000  0.000000  0.000000 
 1.000000  0.000000  0.000000  0.000000 
 0.142857  0.285714  0.571429  0.000000 
 1.000000  0.000000  0.000000  0.000000 
 0.285714  0.000000  0.000000  0.714286 
 1.000000  0.000000  0.000000  0.000000 
 1.000000  0.000000  0.000000  0.000000 
--------------------------------------------------------------------------------

--------------------------------------------------------------------------------
	Motif AAGCAAATRCAATARAAACAAASATAA MEME-1 regular expression
--------------------------------------------------------------------------------
A[AC]GCAAAT[AG]CAATA[AG]AAACAAA[GC]A[TA]AA
--------------------------------------------------------------------------------




Time  1.99 secs.

********************************************************************************


********************************************************************************
MOTIF AGTTTAATTAAGTCCCAGCTAT MEME-2	width =  22  sites =   5  llr = 122  E-value = 1.4e-004
********************************************************************************
--------------------------------------------------------------------------------
	Motif AGTTTAATTAAGTCCCAGCTAT MEME-2 Description
--------------------------------------------------------------------------------
Simplified        A  82:22aa::86:::::a:::a:
pos.-specific     C  ::::::::2:2::8aa::8:::
probability       G  28::2::::22a:2:::a2:::
matrix            T  ::a86::a8:::a::::::a:a

         bits    2.2            *  ** *    
                 2.0            *  ** *    
                 1.8   *  ***   ** **** ***
                 1.6   *  ***   ***********
Relative         1.3  **  ***   ***********
Entropy          1.1 **** ***** ***********
(35.3 bits)      0.9 **** ***** ***********
                 0.7 **** *****************
                 0.4 **********************
                 0.2 **********************
                 0.0 ----------------------

Multilevel           AGTTTAATTAAGTCCCAGCTAT
consensus            GA AA   CGC  G    G   
sequence                 G     G           
                                           
--------------------------------------------------------------------------------

--------------------------------------------------------------------------------
	Motif AGTTTAATTAAGTCCCAGCTAT MEME-2 sites sorted by position p-value
--------------------------------------------------------------------------------
Sequence name            Strand  Start   P-value                     Site       
-------------            ------  ----- ---------            ----------------------
chr3:100314500-100315199     +      4  1.44e-13        ttt agtttaattaagtcccagctat ttatctttgt
chr5:53039550-53040149       -     46  4.67e-13 AAAACTCCTT AGTTTAATTAGGTCCCAGCTAT TTATCTTTGT
chr17:78690100-78690649      +     42  9.35e-13 aaaggccttt agttaaattaagtcccagctat ttatctttgt
chr4:131057400-131058299     -     12  9.35e-13 AAAGCTCTTT GGTTTAATTAAGTCCCAGCTAT TTATCTTTGT
chr6:16832050-16832599       +     57  2.55e-10 cagATGCAAA AATAGAATCGCGTGCCAGGTAT GGTGATATGT
--------------------------------------------------------------------------------

--------------------------------------------------------------------------------
	Motif AGTTTAATTAAGTCCCAGCTAT MEME-2 block diagrams
--------------------------------------------------------------------------------
SEQUENCE NAME            POSITION P-VALUE  MOTIF DIAGRAM
-------------            ----------------  -------------
chr3:100314500-100315199          1.4e-13  3_[+2]_75
chr5:53039550-53040149            4.7e-13  45_[-2]_33
chr17:78690100-78690649           9.3e-13  41_[+2]_37
chr4:131057400-131058299          9.3e-13  11_[-2]_67
chr6:16832050-16832599            2.6e-10  56_[+2]_22
--------------------------------------------------------------------------------

--------------------------------------------------------------------------------
	Motif AGTTTAATTAAGTCCCAGCTAT MEME-2 in BLOCKS format
--------------------------------------------------------------------------------
BL   MOTIF AGTTTAATTAAGTCCCAGCTAT width=22 seqs=5
chr3:100314500-100315199 (    4) AGTTTAATTAAGTCCCAGCTAT  1 
chr5:53039550-53040149   (   46) AGTTTAATTAGGTCCCAGCTAT  1 
chr17:78690100-78690649  (   42) AGTTAAATTAAGTCCCAGCTAT  1 
chr4:131057400-131058299 (   12) GGTTTAATTAAGTCCCAGCTAT  1 
chr6:16832050-16832599   (   57) AATAGAATCGCGTGCCAGGTAT  1 
//

--------------------------------------------------------------------------------

--------------------------------------------------------------------------------
	Motif AGTTTAATTAAGTCCCAGCTAT MEME-2 position-specific scoring matrix
--------------------------------------------------------------------------------
log-odds matrix: alength= 4 w= 22 n= 4819 bayes= 9.34478 E= 1.4e-004 
   148   -897    -10   -897 
   -51   -897    190   -897 
  -897   -897   -897    180 
   -51   -897   -897    148 
   -51   -897    -10    107 
   180   -897   -897   -897 
   180   -897   -897   -897 
  -897   -897   -897    180 
  -897    -10   -897    148 
   148   -897    -10   -897 
   107    -10    -10   -897 
  -897   -897    222   -897 
  -897   -897   -897    180 
  -897    190    -10   -897 
  -897    222   -897   -897 
  -897    222   -897   -897 
   180   -897   -897   -897 
  -897   -897    222   -897 
  -897    190    -10   -897 
  -897   -897   -897    180 
   180   -897   -897   -897 
  -897   -897   -897    180 
--------------------------------------------------------------------------------

--------------------------------------------------------------------------------
	Motif AGTTTAATTAAGTCCCAGCTAT MEME-2 position-specific probability matrix
--------------------------------------------------------------------------------
letter-probability matrix: alength= 4 w= 22 nsites= 5 E= 1.4e-004 
 0.800000  0.000000  0.200000  0.000000 
 0.200000  0.000000  0.800000  0.000000 
 0.000000  0.000000  0.000000  1.000000 
 0.200000  0.000000  0.000000  0.800000 
 0.200000  0.000000  0.200000  0.600000 
 1.000000  0.000000  0.000000  0.000000 
 1.000000  0.000000  0.000000  0.000000 
 0.000000  0.000000  0.000000  1.000000 
 0.000000  0.200000  0.000000  0.800000 
 0.800000  0.000000  0.200000  0.000000 
 0.600000  0.200000  0.200000  0.000000 
 0.000000  0.000000  1.000000  0.000000 
 0.000000  0.000000  0.000000  1.000000 
 0.000000  0.800000  0.200000  0.000000 
 0.000000  1.000000  0.000000  0.000000 
 0.000000  1.000000  0.000000  0.000000 
 1.000000  0.000000  0.000000  0.000000 
 0.000000  0.000000  1.000000  0.000000 
 0.000000  0.800000  0.200000  0.000000 
 0.000000  0.000000  0.000000  1.000000 
 1.000000  0.000000  0.000000  0.000000 
 0.000000  0.000000  0.000000  1.000000 
--------------------------------------------------------------------------------

--------------------------------------------------------------------------------
	Motif AGTTTAATTAAGTCCCAGCTAT MEME-2 regular expression
--------------------------------------------------------------------------------
[AG][GA]T[TA][TAG]AAT[TC][AG][ACG]GT[CG]CCAG[CG]TAT
--------------------------------------------------------------------------------




Time  3.92 secs.

********************************************************************************


********************************************************************************
MOTIF TTGRGTTCTTGGTCATGAAATYCTTGCCTA MEME-3	width =  30  sites =   3  llr = 120  E-value = 1.7e-003
********************************************************************************
--------------------------------------------------------------------------------
	Motif TTGRGTTCTTGGTCATGAAATYCTTGCCTA MEME-3 Description
--------------------------------------------------------------------------------
Simplified        A  :::3::::::::::a::aaa:::::::::a
pos.-specific     C  :::::::a:::::a:::::::7a:::aa::
probability       G  ::a7a:::::aa::::a::::::::a::::
matrix            T  aa:::aa:aa::a::a::::a3:aa:::a:

         bits    2.2   * *  *  ** *  *     *  ***  
                 2.0   * *  *  ** *  *     *  ***  
                 1.8 *** ***************** ********
                 1.6 *** ***************** ********
Relative         1.3 *** ***************** ********
Entropy          1.1 ******************************
(57.5 bits)      0.9 ******************************
                 0.7 ******************************
                 0.4 ******************************
                 0.2 ******************************
                 0.0 ------------------------------

Multilevel           TTGGGTTCTTGGTCATGAAATCCTTGCCTA
consensus               A                 T        
sequence                                           
                                                   
--------------------------------------------------------------------------------

--------------------------------------------------------------------------------
	Motif TTGRGTTCTTGGTCATGAAATYCTTGCCTA MEME-3 sites sorted by position p-value
--------------------------------------------------------------------------------
Sequence name            Strand  Start   P-value                         Site           
-------------            ------  ----- ---------            ------------------------------
chr7:117565150-117565649     -     44  1.13e-18 GAATTTGCTT TTGGGTTCTTGGTCATGAAATCCTTGCCTA GGGCAATGCC
chr2:43826650-43827199       -     61  4.16e-18 GTATTTGCTT TTGAGTTCTTGGTCATGAAATCCTTGCCTA AGCCAACGTC
chr3:100314500-100315199     +     53  4.16e-18 gcatttgctt ttgggttcttggtcatgaaattcttgccta agccaacgtc
--------------------------------------------------------------------------------

--------------------------------------------------------------------------------
	Motif TTGRGTTCTTGGTCATGAAATYCTTGCCTA MEME-3 block diagrams
--------------------------------------------------------------------------------
SEQUENCE NAME            POSITION P-VALUE  MOTIF DIAGRAM
-------------            ----------------  -------------
chr7:117565150-117565649          1.1e-18  43_[-3]_27
chr2:43826650-43827199            4.2e-18  60_[-3]_10
chr3:100314500-100315199          4.2e-18  52_[+3]_18
--------------------------------------------------------------------------------

--------------------------------------------------------------------------------
	Motif TTGRGTTCTTGGTCATGAAATYCTTGCCTA MEME-3 in BLOCKS format
--------------------------------------------------------------------------------
BL   MOTIF TTGRGTTCTTGGTCATGAAATYCTTGCCTA width=30 seqs=3
chr7:117565150-117565649 (   44) TTGGGTTCTTGGTCATGAAATCCTTGCCTA  1 
chr2:43826650-43827199   (   61) TTGAGTTCTTGGTCATGAAATCCTTGCCTA  1 
chr3:100314500-100315199 (   53) TTGGGTTCTTGGTCATGAAATTCTTGCCTA  1 
//

--------------------------------------------------------------------------------

--------------------------------------------------------------------------------
	Motif TTGRGTTCTTGGTCATGAAATYCTTGCCTA MEME-3 position-specific scoring matrix
--------------------------------------------------------------------------------
log-odds matrix: alength= 4 w= 30 n= 4331 bayes= 10.1532 E= 1.7e-003 
  -823   -823   -823    180 
  -823   -823   -823    180 
  -823   -823    222   -823 
    22   -823    164   -823 
  -823   -823    222   -823 
  -823   -823   -823    180 
  -823   -823   -823    180 
  -823    222   -823   -823 
  -823   -823   -823    180 
  -823   -823   -823    180 
  -823   -823    222   -823 
  -823   -823    222   -823 
  -823   -823   -823    180 
  -823    222   -823   -823 
   180   -823   -823   -823 
  -823   -823   -823    180 
  -823   -823    222   -823 
   180   -823   -823   -823 
   180   -823   -823   -823 
   180   -823   -823   -823 
  -823   -823   -823    180 
  -823    164   -823     22 
  -823    222   -823   -823 
  -823   -823   -823    180 
  -823   -823   -823    180 
  -823   -823    222   -823 
  -823    222   -823   -823 
  -823    222   -823   -823 
  -823   -823   -823    180 
   180   -823   -823   -823 
--------------------------------------------------------------------------------

--------------------------------------------------------------------------------
	Motif TTGRGTTCTTGGTCATGAAATYCTTGCCTA MEME-3 position-specific probability matrix
--------------------------------------------------------------------------------
letter-probability matrix: alength= 4 w= 30 nsites= 3 E= 1.7e-003 
 0.000000  0.000000  0.000000  1.000000 
 0.000000  0.000000  0.000000  1.000000 
 0.000000  0.000000  1.000000  0.000000 
 0.333333  0.000000  0.666667  0.000000 
 0.000000  0.000000  1.000000  0.000000 
 0.000000  0.000000  0.000000  1.000000 
 0.000000  0.000000  0.000000  1.000000 
 0.000000  1.000000  0.000000  0.000000 
 0.000000  0.000000  0.000000  1.000000 
 0.000000  0.000000  0.000000  1.000000 
 0.000000  0.000000  1.000000  0.000000 
 0.000000  0.000000  1.000000  0.000000 
 0.000000  0.000000  0.000000  1.000000 
 0.000000  1.000000  0.000000  0.000000 
 1.000000  0.000000  0.000000  0.000000 
 0.000000  0.000000  0.000000  1.000000 
 0.000000  0.000000  1.000000  0.000000 
 1.000000  0.000000  0.000000  0.000000 
 1.000000  0.000000  0.000000  0.000000 
 1.000000  0.000000  0.000000  0.000000 
 0.000000  0.000000  0.000000  1.000000 
 0.000000  0.666667  0.000000  0.333333 
 0.000000  1.000000  0.000000  0.000000 
 0.000000  0.000000  0.000000  1.000000 
 0.000000  0.000000  0.000000  1.000000 
 0.000000  0.000000  1.000000  0.000000 
 0.000000  1.000000  0.000000  0.000000 
 0.000000  1.000000  0.000000  0.000000 
 0.000000  0.000000  0.000000  1.000000 
 1.000000  0.000000  0.000000  0.000000 
--------------------------------------------------------------------------------

--------------------------------------------------------------------------------
	Motif TTGRGTTCTTGGTCATGAAATYCTTGCCTA MEME-3 regular expression
--------------------------------------------------------------------------------
TTG[GA]GTTCTTGGTCATGAAAT[CT]CTTGCCTA
--------------------------------------------------------------------------------




Time  5.82 secs.

********************************************************************************


********************************************************************************
MOTIF YTTGCRYGRCAAARGKAASAG MEME-4	width =  21  sites =   6  llr = 123  E-value = 1.7e-002
********************************************************************************
--------------------------------------------------------------------------------
	Motif YTTGCRYGRCAAARGKAASAG MEME-4 Description
--------------------------------------------------------------------------------
Simplified        A  :::::7::5:8785::aa:a:
pos.-specific     C  32::a:3:28:2::22::7:2
probability       G  :::a:3:a32222585::3:8
matrix            T  78a:::7::::::::3:::::

         bits    2.2    **  *             
                 2.0    **  *             
                 1.8   ***  *        ** * 
                 1.6   ***  * *    * ** **
Relative         1.3  ****  * ** * * *****
Entropy          1.1 ******** ** *** *****
(29.6 bits)      0.9 ******** ** *** *****
                 0.7 ******** ************
                 0.4 *********************
                 0.2 *********************
                 0.0 ---------------------

Multilevel           TTTGCATGACAAAAGGAACAG
consensus            C    GC G    G T  G  
sequence                                  
                                          
--------------------------------------------------------------------------------

--------------------------------------------------------------------------------
	Motif YTTGCRYGRCAAARGKAASAG MEME-4 sites sorted by position p-value
--------------------------------------------------------------------------------
Sequence name            Strand  Start   P-value                    Site       
-------------            ------  ----- ---------            ---------------------
chr4:131057400-131058299     +     42  8.70e-13 ccaaagagct tttgcatgacaaaaggaacag tcagcagagt
chr5:53039550-53040149       +     75  2.26e-12 actaaggagt tttgcacggcaaagggaacag tcagc     
chr17:78690100-78690649      -     13  5.15e-12 CTAAAGGCCT TTTGCACGGCAAAAGGAACAG TCAGCAGAGT
chr2:223843200-223843749     +     33  2.16e-10 ccatcaagtc tttgcatgagaaaggtaagag ggaagttaat
chr6:473950-474699           -     50  1.34e-09 TGCAACAAGG CTTGCGTGCCACAGCTAACAG CTTCGGCATC
chr9:136608600-136609099     -     66  8.39e-09 TGCACTCCAG CCTGCGTGACGGGAGCAAGAC TCCACTTCAA
--------------------------------------------------------------------------------

--------------------------------------------------------------------------------
	Motif YTTGCRYGRCAAARGKAASAG MEME-4 block diagrams
--------------------------------------------------------------------------------
SEQUENCE NAME            POSITION P-VALUE  MOTIF DIAGRAM
-------------            ----------------  -------------
chr4:131057400-131058299          8.7e-13  41_[+4]_38
chr5:53039550-53040149            2.3e-12  74_[+4]_5
chr17:78690100-78690649           5.2e-12  12_[-4]_67
chr2:223843200-223843749          2.2e-10  32_[+4]_47
chr6:473950-474699                1.3e-09  49_[-4]_30
chr9:136608600-136609099          8.4e-09  65_[-4]_14
--------------------------------------------------------------------------------

--------------------------------------------------------------------------------
	Motif YTTGCRYGRCAAARGKAASAG MEME-4 in BLOCKS format
--------------------------------------------------------------------------------
BL   MOTIF YTTGCRYGRCAAARGKAASAG width=21 seqs=6
chr4:131057400-131058299 (   42) TTTGCATGACAAAAGGAACAG  1 
chr5:53039550-53040149   (   75) TTTGCACGGCAAAGGGAACAG  1 
chr17:78690100-78690649  (   13) TTTGCACGGCAAAAGGAACAG  1 
chr2:223843200-223843749 (   33) TTTGCATGAGAAAGGTAAGAG  1 
chr6:473950-474699       (   50) CTTGCGTGCCACAGCTAACAG  1 
chr9:136608600-136609099 (   66) CCTGCGTGACGGGAGCAAGAC  1 
//

--------------------------------------------------------------------------------

--------------------------------------------------------------------------------
	Motif YTTGCRYGRCAAARGKAASAG MEME-4 position-specific scoring matrix
--------------------------------------------------------------------------------
log-odds matrix: alength= 4 w= 21 n= 4880 bayes= 9.32442 E= 1.7e-002 
  -923     64   -923    122 
  -923    -36   -923    154 
  -923   -923   -923    180 
  -923   -923    222   -923 
  -923    222   -923   -923 
   122   -923     64   -923 
  -923     64   -923    122 
  -923   -923    222   -923 
    81    -36     64   -923 
  -923    196    -36   -923 
   154   -923    -36   -923 
   122    -36    -36   -923 
   154   -923    -36   -923 
    81   -923    122   -923 
  -923    -36    196   -923 
  -923    -36    122     22 
   180   -923   -923   -923 
   180   -923   -923   -923 
  -923    164     64   -923 
   180   -923   -923   -923 
  -923    -36    196   -923 
--------------------------------------------------------------------------------

--------------------------------------------------------------------------------
	Motif YTTGCRYGRCAAARGKAASAG MEME-4 position-specific probability matrix
--------------------------------------------------------------------------------
letter-probability matrix: alength= 4 w= 21 nsites= 6 E= 1.7e-002 
 0.000000  0.333333  0.000000  0.666667 
 0.000000  0.166667  0.000000  0.833333 
 0.000000  0.000000  0.000000  1.000000 
 0.000000  0.000000  1.000000  0.000000 
 0.000000  1.000000  0.000000  0.000000 
 0.666667  0.000000  0.333333  0.000000 
 0.000000  0.333333  0.000000  0.666667 
 0.000000  0.000000  1.000000  0.000000 
 0.500000  0.166667  0.333333  0.000000 
 0.000000  0.833333  0.166667  0.000000 
 0.833333  0.000000  0.166667  0.000000 
 0.666667  0.166667  0.166667  0.000000 
 0.833333  0.000000  0.166667  0.000000 
 0.500000  0.000000  0.500000  0.000000 
 0.000000  0.166667  0.833333  0.000000 
 0.000000  0.166667  0.500000  0.333333 
 1.000000  0.000000  0.000000  0.000000 
 1.000000  0.000000  0.000000  0.000000 
 0.000000  0.666667  0.333333  0.000000 
 1.000000  0.000000  0.000000  0.000000 
 0.000000  0.166667  0.833333  0.000000 
--------------------------------------------------------------------------------

--------------------------------------------------------------------------------
	Motif YTTGCRYGRCAAARGKAASAG MEME-4 regular expression
--------------------------------------------------------------------------------
[TC]TTGC[AG][TC]G[AG]CAAA[AG]G[GT]AA[CG]AG
--------------------------------------------------------------------------------




Time  7.74 secs.

********************************************************************************


********************************************************************************
MOTIF SWSGCACGHACACAG MEME-5	width =  15  sites =   8  llr = 118  E-value = 1.2e+000
********************************************************************************
--------------------------------------------------------------------------------
	Motif SWSGCACGHACACAG MEME-5 Description
--------------------------------------------------------------------------------
Simplified        A  :6:3:a1:39:9:a:
pos.-specific     C  5:5:a:8:5:a18:3
probability       G  5:56::1a:1::::8
matrix            T  :4:1::::3:::3::

         bits    2.2     *  *  *    
                 2.0     *  *  *    
                 1.8     ** *  *  * 
                 1.6     ** *  *  * 
Relative         1.3 * * ** * ******
Entropy          1.1 * * **** ******
(21.3 bits)      0.9 *** **** ******
                 0.7 ******** ******
                 0.4 ***************
                 0.2 ***************
                 0.0 ---------------

Multilevel           CACGCACGCACACAG
consensus            GTGA    A   T C
sequence                     T      
                                    
--------------------------------------------------------------------------------

--------------------------------------------------------------------------------
	Motif SWSGCACGHACACAG MEME-5 sites sorted by position p-value
--------------------------------------------------------------------------------
Sequence name            Strand  Start   P-value                 Site    
-------------            ------  ----- ---------            ---------------
chr6:171042750-171043199     -     57  1.54e-09 AGAAAAGACT GAGGCACGCACACAG ACAGACACAC
chr1:523900-524399           +     80  1.54e-09 AGAAAAGATT GAGGcacgcacacag acagac    
chr3:197391550-197391999     -     53  1.08e-08 CCCAGGCACG GACGCACGCACACAC TCCACACGTG
chr6:26257300-26257949       -     23  4.62e-08 GAATGTCACG CACACACGCACACAC GGATGTTCAA
chr19:24065200-24065649      +     10  2.44e-07  gagtactca gacacaggtacacag tgttagagca
chr5:38533650-38534099       +     52  4.02e-07 GCATGTCCTG CTGGCACGAACCTAG CCTGGTGGCA
chr14:63545150-63545699      +     21  4.76e-07 agacacatat ctctcacgaacatag ttgcaaaact
chr13:111252450-11125309     +      6  6.16e-07      gcagg ctggcaagtgcacag tctgcagggc
--------------------------------------------------------------------------------

--------------------------------------------------------------------------------
	Motif SWSGCACGHACACAG MEME-5 block diagrams
--------------------------------------------------------------------------------
SEQUENCE NAME            POSITION P-VALUE  MOTIF DIAGRAM
-------------            ----------------  -------------
chr6:171042750-171043199          1.5e-09  56_[-5]_29
chr1:523900-524399                1.5e-09  79_[+5]_6
chr3:197391550-197391999          1.1e-08  52_[-5]_33
chr6:26257300-26257949            4.6e-08  22_[-5]_63
chr19:24065200-24065649           2.4e-07  9_[+5]_76
chr5:38533650-38534099              4e-07  51_[+5]_34
chr14:63545150-63545699           4.8e-07  20_[+5]_65
chr13:111252450-11125309          6.2e-07  5_[+5]_80
--------------------------------------------------------------------------------

--------------------------------------------------------------------------------
	Motif SWSGCACGHACACAG MEME-5 in BLOCKS format
--------------------------------------------------------------------------------
BL   MOTIF SWSGCACGHACACAG width=15 seqs=8
chr6:171042750-171043199 (   57) GAGGCACGCACACAG  1 
chr1:523900-524399       (   80) GAGGCACGCACACAG  1 
chr3:197391550-197391999 (   53) GACGCACGCACACAC  1 
chr6:26257300-26257949   (   23) CACACACGCACACAC  1 
chr19:24065200-24065649  (   10) GACACAGGTACACAG  1 
chr5:38533650-38534099   (   52) CTGGCACGAACCTAG  1 
chr14:63545150-63545699  (   21) CTCTCACGAACATAG  1 
chr13:111252450-11125309 (    6) CTGGCAAGTGCACAG  1 
//

--------------------------------------------------------------------------------

--------------------------------------------------------------------------------
	Motif SWSGCACGHACACAG MEME-5 position-specific scoring matrix
--------------------------------------------------------------------------------
log-odds matrix: alength= 4 w= 15 n= 5246 bayes= 10.678 E= 1.2e+000 
  -965    122    122   -965 
   113   -965   -965     39 
  -965    122    122   -965 
   -19   -965    154   -119 
  -965    222   -965   -965 
   181   -965   -965   -965 
  -119    181    -78   -965 
  -965   -965    222   -965 
   -19    122   -965    -19 
   161   -965    -78   -965 
  -965    222   -965   -965 
   161    -78   -965   -965 
  -965    181   -965    -19 
   181   -965   -965   -965 
  -965     22    181   -965 
--------------------------------------------------------------------------------

--------------------------------------------------------------------------------
	Motif SWSGCACGHACACAG MEME-5 position-specific probability matrix
--------------------------------------------------------------------------------
letter-probability matrix: alength= 4 w= 15 nsites= 8 E= 1.2e+000 
 0.000000  0.500000  0.500000  0.000000 
 0.625000  0.000000  0.000000  0.375000 
 0.000000  0.500000  0.500000  0.000000 
 0.250000  0.000000  0.625000  0.125000 
 0.000000  1.000000  0.000000  0.000000 
 1.000000  0.000000  0.000000  0.000000 
 0.125000  0.750000  0.125000  0.000000 
 0.000000  0.000000  1.000000  0.000000 
 0.250000  0.500000  0.000000  0.250000 
 0.875000  0.000000  0.125000  0.000000 
 0.000000  1.000000  0.000000  0.000000 
 0.875000  0.125000  0.000000  0.000000 
 0.000000  0.750000  0.000000  0.250000 
 1.000000  0.000000  0.000000  0.000000 
 0.000000  0.250000  0.750000  0.000000 
--------------------------------------------------------------------------------

--------------------------------------------------------------------------------
	Motif SWSGCACGHACACAG MEME-5 regular expression
--------------------------------------------------------------------------------
[CG][AT][CG][GA]CACG[CAT]ACA[CT]A[GC]
--------------------------------------------------------------------------------




Time  9.59 secs.

********************************************************************************


********************************************************************************
MOTIF HRKRAGRTRAMAWBRGARAAA MEME-6	width =  21  sites =  18  llr = 227  E-value = 4.9e-003
********************************************************************************
--------------------------------------------------------------------------------
	Motif HRKRAGRTRAMAWBRGARAAA MEME-6 Description
--------------------------------------------------------------------------------
Simplified        A  24149:6:78573:6294777
pos.-specific     C  31::1::1::31:3:1::::2
probability       G  :554:a43322:234616211
matrix            T  4:41:::6:::254:1::131

         bits    2.2      *               
                 2.0      *               
                 1.8      *               
                 1.6     **          *    
Relative         1.3     **          *    
Entropy          1.1     *** **    * **   
(18.2 bits)      0.9     *** **    * **   
                 0.7  ********* *  * **** 
                 0.4 *********************
                 0.2 *********************
                 0.0 ---------------------

Multilevel           TGGAAGATAAAATTAGAGAAA
consensus            CATG  GGGGC ACG  AGT 
sequence             A           GG       
                                          
--------------------------------------------------------------------------------

--------------------------------------------------------------------------------
	Motif HRKRAGRTRAMAWBRGARAAA MEME-6 sites sorted by position p-value
--------------------------------------------------------------------------------
Sequence name            Strand  Start   P-value                    Site       
-------------            ------  ----- ---------            ---------------------
chr2:43826650-43827199       +     26  2.29e-09 ctaaaaactc tagaagataacattggaaaaa ccctgacgtt
chr7:117565150-117565649     +      5  2.29e-09       attc cagaagataacattggaaaaa ctcttctagg
chr9:77463250-77463649       +     70  6.19e-09 actgaaacaa tggaaggtaaaatggcagaaa aggtgggact
chr4:24861800-24862399       +     65  2.81e-08 acaaaaattc tataagatagcatcagaaaaa cccttctaga
chr6:171042750-171043199     -     75  1.45e-07      GGGAT TGGGAGAGAAATTCAGAAAAG ACTGAGGCAC
chr1:523900-524399           +     56  1.45e-07 AGACGGGGAT TGGGAGAGAAATTCAGAAAAG ATTGAGGcac
chr14:51331750-51332699      -      5  2.60e-07 TCATATGTAG CGTGAGATGAGATCATAGATA TGAA      
chr11:102323700-10232414     +     75  2.90e-07 CGTGACCCAG CCTAAGGGGGAAGTGGAGAAA AACAG     
chr13:76836050-76836549      +     62  3.61e-07 ATGAACACAG AAAGAGATAACATCAGAGGAA GATAAAATCT
chr9:93712750-93713449       +     26  4.44e-07 TTCAATTATC TGTGAGGCAAGAAGGCAGAAA ACATTGAGTG
chr3:133718450-133718949     +      4  1.25e-06        TCC AGGTAGGTGAGAAGAGAAAAC CAAGTCAGAA
chr1:153650950-153651299     -     30  1.48e-06 CTCCGGCTAT CCGGAGGGAACCGTGGAGGAC CCGAGCCAAG
chr2:142015050-142015599     +     27  1.88e-06 CAGTTTAGGA TATTAGGTGAAATGGTAAATA TTGATTCTGC
chr10:9391250-9391649        +     25  2.96e-06 ttaatcgtgg tggaaggtgaaaggaaagtga gtacatttac
chr18:32629450-32630099      -     79  3.17e-06          T CGTAAGACAAATATAGAGGTC ATAGTAGGGT
chr3:30367300-30367849       +     35  4.16e-06 cagcgagcaa aatgagataaaaataaagatt ttcttgataa
chr13:100629600-10063024     -     16  4.74e-06 CCTCTTAAGG AAGAAGGTGGAAACGGGGGTA GTGGGAAAGA
chr16:78330900-78331399      -      1  2.50e-05 CTGCATGCTC CGTGCGAGAGCCGTAAAATAA           
--------------------------------------------------------------------------------

--------------------------------------------------------------------------------
	Motif HRKRAGRTRAMAWBRGARAAA MEME-6 block diagrams
--------------------------------------------------------------------------------
SEQUENCE NAME            POSITION P-VALUE  MOTIF DIAGRAM
-------------            ----------------  -------------
chr2:43826650-43827199            2.3e-09  25_[+6]_54
chr7:117565150-117565649          2.3e-09  4_[+6]_75
chr9:77463250-77463649            6.2e-09  69_[+6]_10
chr4:24861800-24862399            2.8e-08  64_[+6]_15
chr6:171042750-171043199          1.4e-07  74_[-6]_5
chr1:523900-524399                1.4e-07  55_[+6]_24
chr14:51331750-51332699           2.6e-07  4_[-6]_75
chr11:102323700-10232414          2.9e-07  74_[+6]_5
chr13:76836050-76836549           3.6e-07  61_[+6]_18
chr9:93712750-93713449            4.4e-07  25_[+6]_54
chr3:133718450-133718949          1.2e-06  3_[+6]_76
chr1:153650950-153651299          1.5e-06  29_[-6]_50
chr2:142015050-142015599          1.9e-06  26_[+6]_53
chr10:9391250-9391649               3e-06  24_[+6]_55
chr18:32629450-32630099           3.2e-06  78_[-6]_1
chr3:30367300-30367849            4.2e-06  34_[+6]_45
chr13:100629600-10063024          4.7e-06  15_[-6]_64
chr16:78330900-78331399           2.5e-05  [-6]_79
--------------------------------------------------------------------------------

--------------------------------------------------------------------------------
	Motif HRKRAGRTRAMAWBRGARAAA MEME-6 in BLOCKS format
--------------------------------------------------------------------------------
BL   MOTIF HRKRAGRTRAMAWBRGARAAA width=21 seqs=18
chr2:43826650-43827199   (   26) TAGAAGATAACATTGGAAAAA  1 
chr7:117565150-117565649 (    5) CAGAAGATAACATTGGAAAAA  1 
chr9:77463250-77463649   (   70) TGGAAGGTAAAATGGCAGAAA  1 
chr4:24861800-24862399   (   65) TATAAGATAGCATCAGAAAAA  1 
chr6:171042750-171043199 (   75) TGGGAGAGAAATTCAGAAAAG  1 
chr1:523900-524399       (   56) TGGGAGAGAAATTCAGAAAAG  1 
chr14:51331750-51332699  (    5) CGTGAGATGAGATCATAGATA  1 
chr11:102323700-10232414 (   75) CCTAAGGGGGAAGTGGAGAAA  1 
chr13:76836050-76836549  (   62) AAAGAGATAACATCAGAGGAA  1 
chr9:93712750-93713449   (   26) TGTGAGGCAAGAAGGCAGAAA  1 
chr3:133718450-133718949 (    4) AGGTAGGTGAGAAGAGAAAAC  1 
chr1:153650950-153651299 (   30) CCGGAGGGAACCGTGGAGGAC  1 
chr2:142015050-142015599 (   27) TATTAGGTGAAATGGTAAATA  1 
chr10:9391250-9391649    (   25) TGGAAGGTGAAAGGAAAGTGA  1 
chr18:32629450-32630099  (   79) CGTAAGACAAATATAGAGGTC  1 
chr3:30367300-30367849   (   35) AATGAGATAAAAATAAAGATT  1 
chr13:100629600-10063024 (   16) AAGAAGGTGGAAACGGGGGTA  1 
chr16:78330900-78331399  (    1) CGTGCGAGAGCCGTAAAATAA  1 
//

--------------------------------------------------------------------------------

--------------------------------------------------------------------------------
	Motif HRKRAGRTRAMAWBRGARAAA MEME-6 position-specific scoring matrix
--------------------------------------------------------------------------------
log-odds matrix: alength= 4 w= 21 n= 4880 bayes= 8.21218 E= 4.9e-003 
   -36     64  -1081     64 
    44    -95    122  -1081 
  -236  -1081    122     64 
    64  -1081    105   -136 
   172   -194  -1081  -1081 
 -1081  -1081    222  -1081 
    96  -1081    105  -1081 
 -1081    -95     38    110 
   122  -1081     64  -1081 
   144  -1081      5  -1081 
    81     64    -36  -1081 
   134    -95  -1081    -78 
    -4  -1081      5     81 
 -1081     64     38     44 
    96  -1081    105  -1081 
   -78    -95    151   -136 
   172  -1081   -194  -1081 
    64  -1081    138  -1081 
   122  -1081      5   -136 
   122  -1081   -194     -4 
   122    -36    -95   -236 
--------------------------------------------------------------------------------

--------------------------------------------------------------------------------
	Motif HRKRAGRTRAMAWBRGARAAA MEME-6 position-specific probability matrix
--------------------------------------------------------------------------------
letter-probability matrix: alength= 4 w= 21 nsites= 18 E= 4.9e-003 
 0.222222  0.333333  0.000000  0.444444 
 0.388889  0.111111  0.500000  0.000000 
 0.055556  0.000000  0.500000  0.444444 
 0.444444  0.000000  0.444444  0.111111 
 0.944444  0.055556  0.000000  0.000000 
 0.000000  0.000000  1.000000  0.000000 
 0.555556  0.000000  0.444444  0.000000 
 0.000000  0.111111  0.277778  0.611111 
 0.666667  0.000000  0.333333  0.000000 
 0.777778  0.000000  0.222222  0.000000 
 0.500000  0.333333  0.166667  0.000000 
 0.722222  0.111111  0.000000  0.166667 
 0.277778  0.000000  0.222222  0.500000 
 0.000000  0.333333  0.277778  0.388889 
 0.555556  0.000000  0.444444  0.000000 
 0.166667  0.111111  0.611111  0.111111 
 0.944444  0.000000  0.055556  0.000000 
 0.444444  0.000000  0.555556  0.000000 
 0.666667  0.000000  0.222222  0.111111 
 0.666667  0.000000  0.055556  0.277778 
 0.666667  0.166667  0.111111  0.055556 
--------------------------------------------------------------------------------

--------------------------------------------------------------------------------
	Motif HRKRAGRTRAMAWBRGARAAA MEME-6 regular expression
--------------------------------------------------------------------------------
[TCA][GA][GT][AG]AG[AG][TG][AG][AG][AC]A[TAG][TCG][AG]GA[GA][AG][AT]A
--------------------------------------------------------------------------------




Time 11.52 secs.

********************************************************************************


********************************************************************************
MOTIF GGGWGGGRR MEME-7	width =   9  sites =  18  llr = 164  E-value = 3.6e+001
********************************************************************************
--------------------------------------------------------------------------------
	Motif GGGWGGGRR MEME-7 Description
--------------------------------------------------------------------------------
Simplified        A  :::41:134
pos.-specific     C  ::1:1::::
probability       G  aa9:6a866
matrix            T  :::63:12:

         bits    2.2 **   *   
                 2.0 ***  *   
                 1.8 ***  *   
                 1.6 ***  *   
Relative         1.3 ***  **  
Entropy          1.1 ***  ** *
(13.1 bits)      0.9 **** ** *
                 0.7 *********
                 0.4 *********
                 0.2 *********
                 0.0 ---------

Multilevel           GGGTGGGGG
consensus               AT  AA
sequence                      
                              
--------------------------------------------------------------------------------

--------------------------------------------------------------------------------
	Motif GGGWGGGRR MEME-7 sites sorted by position p-value
--------------------------------------------------------------------------------
Sequence name            Strand  Start   P-value              Site 
-------------            ------  ----- ---------            ---------
chr14:34682250-34682949      +     51  2.52e-06 CTTTTTTGTG GGGAGGGGG CGAATCTGAT
chr15:45402150-45402499      +     89  4.20e-06 AGTCCAGGTA GGGTGGGGA GAG       
chr15:75054300-75054749      +     70  7.56e-06 cttacaggtt gggtgggag gtttaatgag
chr5:14187700-14188249       +     19  7.56e-06 TGAGACTTAT GGGAGGGGA GGAAGGAATT
chr1:153650950-153651299     +      2  1.09e-05          T GGGAGGGAG GGTTCGGAGC
chr18:71509800-71510299      -      8  1.09e-05 TTAAACATTA GGGAGGGAG AGATTTG   
chr2:223843200-223843749     +     89  1.26e-05 actgtgaaga gggatgggg tct       
chr6:171042750-171043199     +     41  1.43e-05 atctgtgtgt gggtgggtg tgtctgtctg
chr19:28916200-28916699      +     11  2.72e-05 AACGCGAGAG GGGTTGGAG ATTTATCTGA
chr11:102323700-10232414     +     15  2.72e-05 GGAACTTGAG GGGATGGGA TTCACTCTAA
chr3:65973950-65974299       +      4  3.11e-05        GGA GGGTGGAGG TCTCTCCTCA
chr6:164129450-164129999     +     34  3.11e-05 CACGGAAGGA GGGATGGAG ACCTCACCCT
chr12:115912450-11591299     -     42  5.19e-05 TTGAACTTAA GGGAAGGGG TTAGGTGAGG
chr10:9391250-9391649        +     58  6.01e-05 acatttacat gggtggaga aggagcaaga
chr3:133718450-133718949     +     38  7.88e-05 GTCAGAAAAA GGGTTGGTA CCTGAGAGAA
chr13:111252450-11125309     +     39  8.97e-05 gcaggggcca ggctgggga caagggagcc
chr3:197391550-197391999     +     84  1.02e-04 tgggtgtgGC GGGTGGTGA GGCTGGCA  
chr1:523900-524399           -     27  1.16e-04 CTCTTTCCTC GGGTCGGTG TTTCCCTCCT
--------------------------------------------------------------------------------

--------------------------------------------------------------------------------
	Motif GGGWGGGRR MEME-7 block diagrams
--------------------------------------------------------------------------------
SEQUENCE NAME            POSITION P-VALUE  MOTIF DIAGRAM
-------------            ----------------  -------------
chr14:34682250-34682949           2.5e-06  50_[+7]_41
chr15:45402150-45402499           4.2e-06  88_[+7]_3
chr15:75054300-75054749           7.6e-06  69_[+7]_22
chr5:14187700-14188249            7.6e-06  18_[+7]_73
chr1:153650950-153651299          1.1e-05  1_[+7]_90
chr18:71509800-71510299           1.1e-05  7_[-7]_84
chr2:223843200-223843749          1.3e-05  88_[+7]_3
chr6:171042750-171043199          1.4e-05  40_[+7]_51
chr19:28916200-28916699           2.7e-05  10_[+7]_81
chr11:102323700-10232414          2.7e-05  14_[+7]_77
chr3:65973950-65974299            3.1e-05  3_[+7]_88
chr6:164129450-164129999          3.1e-05  33_[+7]_58
chr12:115912450-11591299          5.2e-05  41_[-7]_50
chr10:9391250-9391649               6e-05  57_[+7]_34
chr3:133718450-133718949          7.9e-05  37_[+7]_54
chr13:111252450-11125309            9e-05  38_[+7]_53
chr3:197391550-197391999           0.0001  83_[+7]_8
chr1:523900-524399                0.00012  26_[-7]_65
--------------------------------------------------------------------------------

--------------------------------------------------------------------------------
	Motif GGGWGGGRR MEME-7 in BLOCKS format
--------------------------------------------------------------------------------
BL   MOTIF GGGWGGGRR width=9 seqs=18
chr14:34682250-34682949  (   51) GGGAGGGGG  1 
chr15:45402150-45402499  (   89) GGGTGGGGA  1 
chr15:75054300-75054749  (   70) GGGTGGGAG  1 
chr5:14187700-14188249   (   19) GGGAGGGGA  1 
chr1:153650950-153651299 (    2) GGGAGGGAG  1 
chr18:71509800-71510299  (    8) GGGAGGGAG  1 
chr2:223843200-223843749 (   89) GGGATGGGG  1 
chr6:171042750-171043199 (   41) GGGTGGGTG  1 
chr19:28916200-28916699  (   11) GGGTTGGAG  1 
chr11:102323700-10232414 (   15) GGGATGGGA  1 
chr3:65973950-65974299   (    4) GGGTGGAGG  1 
chr6:164129450-164129999 (   34) GGGATGGAG  1 
chr12:115912450-11591299 (   42) GGGAAGGGG  1 
chr10:9391250-9391649    (   58) GGGTGGAGA  1 
chr3:133718450-133718949 (   38) GGGTTGGTA  1 
chr13:111252450-11125309 (   39) GGCTGGGGA  1 
chr3:197391550-197391999 (   84) GGGTGGTGA  1 
chr1:523900-524399       (   27) GGGTCGGTG  1 
//

--------------------------------------------------------------------------------

--------------------------------------------------------------------------------
	Motif GGGWGGGRR MEME-7 position-specific scoring matrix
--------------------------------------------------------------------------------
log-odds matrix: alength= 4 w= 9 n= 5612 bayes= 9.1298 E= 3.6e+001 
 -1081  -1081    222  -1081 
 -1081  -1081    222  -1081 
 -1081   -194    214  -1081 
    64  -1081  -1081     96 
  -236   -194    151     -4 
 -1081  -1081    222  -1081 
  -136  -1081    196   -236 
    -4  -1081    138    -78 
    44  -1081    151  -1081 
--------------------------------------------------------------------------------

--------------------------------------------------------------------------------
	Motif GGGWGGGRR MEME-7 position-specific probability matrix
--------------------------------------------------------------------------------
letter-probability matrix: alength= 4 w= 9 nsites= 18 E= 3.6e+001 
 0.000000  0.000000  1.000000  0.000000 
 0.000000  0.000000  1.000000  0.000000 
 0.000000  0.055556  0.944444  0.000000 
 0.444444  0.000000  0.000000  0.555556 
 0.055556  0.055556  0.611111  0.277778 
 0.000000  0.000000  1.000000  0.000000 
 0.111111  0.000000  0.833333  0.055556 
 0.277778  0.000000  0.555556  0.166667 
 0.388889  0.000000  0.611111  0.000000 
--------------------------------------------------------------------------------

--------------------------------------------------------------------------------
	Motif GGGWGGGRR MEME-7 regular expression
--------------------------------------------------------------------------------
GGG[TA][GT]GG[GA][GA]
--------------------------------------------------------------------------------




Time 13.19 secs.

********************************************************************************


********************************************************************************
SUMMARY OF MOTIFS
********************************************************************************

--------------------------------------------------------------------------------
	Combined block diagrams: non-overlapping sites with p-value < 0.0001
--------------------------------------------------------------------------------
SEQUENCE NAME            COMBINED P-VALUE  MOTIF DIAGRAM
-------------            ----------------  -------------
chr11:102323700-10232414         1.37e-04  14_[+7(2.72e-05)]_51_[+6(2.90e-07)]_\
    5
chr6:473950-474699               7.03e-04  49_[-4(1.34e-09)]_30
chr5:14187700-14188249           4.80e-02  18_[+7(7.56e-06)]_73
chr14:51331750-51332699          9.84e-04  4_[-6(2.60e-07)]_75
chr3:133718450-133718949         2.28e-06  3_[+6(1.25e-06)]_15_[-5(4.29e-05)]_\
    46
chr3:42538300-42538749           8.37e-01  100
chr3:197391550-197391999         7.66e-04  7_[-5(2.29e-07)]_30_[-5(1.08e-08)]_\
    33
chr3:100314500-100315199         5.15e-33  3_[+2(1.44e-13)]_[-1(3.68e-16)]_\
    [+3(4.16e-18)]_18
chr5:42620500-42620999           3.42e-01  100
chr6:164129450-164129999         6.10e-04  10_[-4(5.45e-06)]_2_[+7(3.11e-05)]_\
    58
chr4:131057400-131058299         9.45e-15  11_[-2(9.35e-13)]_8_[+4(8.70e-13)]_\
    38
chr9:136608600-136609099         1.56e-11  18_[-1(5.27e-11)]_20_[-4(8.39e-09)]_\
    14
chr13:111252450-11125309         4.28e-04  5_[+5(6.16e-07)]_[+4(2.68e-05)]_59
chr3:30367300-30367849           9.96e-04  34_[+6(4.16e-06)]_45
chr5:53039550-53040149           4.98e-27  18_[+1(3.68e-16)]_[-2(4.67e-13)]_7_\
    [+4(2.26e-12)]_5
chr2:223843200-223843749         1.13e-08  32_[+4(2.16e-10)]_35_[+7(1.26e-05)]_\
    3
chr4:24861800-24862399           5.31e-04  64_[+6(2.81e-08)]_15
chrX:143455700-143456199         5.75e-06  31_[-1(6.42e-11)]_42
chr14:34682250-34682949          4.31e-03  50_[+7(2.52e-06)]_41
chr9:77463250-77463649           1.87e-04  69_[+6(6.19e-09)]_10
chr16:78330900-78331399          6.96e-02  [-6(2.50e-05)]_79
chrX:142490150-142490549         9.35e-01  100
chr1:523900-524399               2.88e-09  55_[+6(1.45e-07)]_3_[+5(1.54e-09)]_\
    6
chr9:22124600-22125049           6.27e-01  100
chr13:100629600-10063024         9.25e-02  15_[-6(4.74e-06)]_64
chr21:23055400-23055999          6.36e-01  100
chr9:93712750-93713449           5.11e-05  25_[+6(4.44e-07)]_54
chr13:76836050-76836549          5.10e-04  61_[+6(3.61e-07)]_18
chr5:38533650-38534099           1.78e-03  51_[+5(4.02e-07)]_34
chr2:138011550-138012149         3.66e-01  100
chr12:124723400-12472389         6.46e-01  100
chr7:117565150-117565649         4.07e-27  4_[+6(2.29e-09)]_18_[-3(1.13e-18)]_\
    [+1(1.03e-14)]
chr6:171042750-171043199         3.72e-09  4_[-5(3.30e-06)]_19_[-5(1.03e-05)]_\
    3_[-5(1.54e-09)]_3_[-6(1.45e-07)]_5
chr2:142015050-142015599         1.41e-01  26_[+6(1.88e-06)]_53
chr11:86289250-86289799          3.55e-01  100
chr18:71509800-71510299          4.68e-04  7_[-7(1.09e-05)]_53_[-3(2.69e-06)]_\
    1
chr19:24065200-24065649          2.94e-02  9_[+5(2.44e-07)]_76
chr15:40377300-40377849          1.28e-02  22_[-4(5.67e-05)]_57
chr17:78725650-78726099          6.99e-02  100
chr19:28916200-28916699          2.75e-02  10_[+7(2.72e-05)]_81
chr15:75054300-75054749          3.21e-02  69_[+7(7.56e-06)]_22
chr6:67444900-67445299           2.88e-01  100
chr2:5504450-5505199             7.87e-01  100
chr2:43826650-43827199           1.09e-17  25_[+6(2.29e-09)]_14_[-3(4.16e-18)]_\
    10
chr1:153650950-153651299         5.00e-04  1_[+7(1.09e-05)]_19_[-6(1.48e-06)]_\
    50
chr6:16832050-16832599           1.47e-06  56_[+2(2.55e-10)]_22
chr12:77073250-77074049          2.38e-01  100
chr10:9391250-9391649            5.70e-04  24_[+6(2.96e-06)]_12_[+7(6.01e-05)]_\
    7_[+6(9.86e-05)]_6
chr6:99195700-99196049           3.49e-01  100
chr6:26257300-26257949           6.34e-03  22_[-5(4.62e-08)]_63
chr14:63545150-63545699          3.66e-09  20_[+5(4.76e-07)]_23_[+1(5.71e-11)]_\
    15
chr6:10317300-10318049           4.07e-01  100
chr12:114182450-11418309         2.28e-01  100
chr17:78690100-78690649          2.69e-26  12_[-4(5.15e-12)]_8_[+2(9.35e-13)]_\
    [-1(3.68e-16)]_10
chr18:32629450-32630099          1.63e-01  78_[-6(3.17e-06)]_1
chr6:44826100-44826549           7.26e-01  100
chr3:65973950-65974299           4.95e-02  3_[+7(3.11e-05)]_88
chr7:128073600-128073849         7.04e-02  100
chr12:115912450-11591299         6.75e-03  21_[+3(5.10e-05)]_49
chr6:16992350-16992899           7.78e-01  100
chr15:45402150-45402499          1.42e-01  88_[+7(4.20e-06)]_3
--------------------------------------------------------------------------------

********************************************************************************


********************************************************************************
Stopped because requested number of motifs (7) found.
********************************************************************************

CPU: Sudins-iMac.local

********************************************************************************
