#Query ID	Target ID	Optimal offset	p-value	E-value	q-value	Overlap	Query consensus	Target consensus	Orientation
RCTCACTGCAACCTCYRCCTCCYGGGYTCA	MA1232.1	-2	5.67855e-05	0.0797268	0.158429	20	GCTCACTGCAACCTCCGCCTCCTGGGTTCA	CCACCACCGCCTCCACCGCC	-
RCTCACTGCAACCTCYRCCTCCYGGGYTCA	MA1233.1	-3	0.000121932	0.171192	0.159322	20	GCTCACTGCAACCTCCGCCTCCTGGGTTCA	CACCGCCGCCGCCACCGCCA	+
RCTCACTGCAACCTCYRCCTCCYGGGYTCA	MA1248.1	-2	0.000181776	0.255214	0.159322	20	GCTCACTGCAACCTCCGCCTCCTGGGTTCA	CCACCACCACCTCCACCGAC	+
RCTCACTGCAACCTCYRCCTCCYGGGYTCA	MA1260.1	-1	0.000231221	0.324635	0.159322	21	GCTCACTGCAACCTCCGCCTCCTGGGTTCA	TCCACCGACACCACCACCACC	-
RCTCACTGCAACCTCYRCCTCCYGGGYTCA	MA1239.1	-3	0.000285528	0.400882	0.159322	19	GCTCACTGCAACCTCCGCCTCCTGGGTTCA	CGCCGCCGCCGCCGCCGCC	+
RCTCACTGCAACCTCYRCCTCCYGGGYTCA	MA1265.1	-2	0.000416051	0.584136	0.178968	20	GCTCACTGCAACCTCCGCCTCCTGGGTTCA	CCACCGACAAAACCACCACC	+
RCTCACTGCAACCTCYRCCTCCYGGGYTCA	MA1255.1	-7	0.000449032	0.630441	0.178968	15	GCTCACTGCAACCTCCGCCTCCTGGGTTCA	TCCACCGCCACCGCC	-
RCTCACTGCAACCTCYRCCTCCYGGGYTCA	MA1250.1	-8	0.000657171	0.922668	0.215083	15	GCTCACTGCAACCTCCGCCTCCTGGGTTCA	CCACCTCCACCGCCA	+
RCTCACTGCAACCTCYRCCTCCYGGGYTCA	MA1242.1	-11	0.000693829	0.974137	0.215083	11	GCTCACTGCAACCTCCGCCTCCTGGGTTCA	CCGCCACCGCC	+
RBSTGYGTGHSWGHGTVTKWGT	MA0538.1	-2	7.72464e-07	0.00108454	0.00216908	15	GTGTGCGTGTCTGTGTGTGTGT	GTGTGTGTGTGCGTG	+
RBSTGYGTGHSWGHGTVTKWGT	MA0006.1	-3	0.000139343	0.195637	0.195637	6	GTGTGCGTGTCTGTGTGTGTGT	TGCGTG	+
RBSTGYGTGHSWGHGTVTKWGT	MA0939.1	-2	0.000639596	0.897993	0.598662	8	GTGTGCGTGTCTGTGTGTGTGT	TTGCGTGT	-
AAAWAAAAWAAAYAAA	MA1267.1	1	7.32038e-07	0.00102778	0.00112345	16	AAAAAAAAAAAATAAA	AAAAAAAAAAAAGTAAAAAAAAAAAAAAA	-
AAAWAAAAWAAAYAAA	MA1274.1	0	8.15408e-07	0.00114483	0.00112345	16	AAAAAAAAAAAATAAA	AAAAAAAAAAAAAAAAGTAAA	-
AAAWAAAAWAAAYAAA	MA1268.1	2	1.31284e-06	0.00184323	0.00120587	16	AAAAAAAAAAAATAAA	AAAAAAAAAAAAAAGAAAAAGTGAAAA	-
AAAWAAAAWAAAYAAA	MA1273.1	0	2.74228e-06	0.00385017	0.00188913	16	AAAAAAAAAAAATAAA	AAAAAAAAAAGGCAAAAAA	+
AAAWAAAAWAAAYAAA	MA1277.1	0	4.39408e-06	0.00616929	0.00242162	16	AAAAAAAAAAAATAAA	AAAAAGAAAAAGTAAAAAAAA	+
AAAWAAAAWAAAYAAA	MA1281.1	4	1.12993e-05	0.0158643	0.00518932	16	AAAAAAAAAAAATAAA	AAAAAAGTAAAAAAAAAAAAA	+
AAAWAAAAWAAAYAAA	MA1279.1	3	2.17779e-05	0.0305762	0.0085729	16	AAAAAAAAAAAATAAA	AAAAAAAAGAAAAAGTGAAAA	+
AAAWAAAAWAAAYAAA	MA0757.1	-2	2.5686e-05	0.0360631	0.0088474	14	AAAAAAAAAAAATAAA	AAAAAATCAATAAT	+
AAAWAAAAWAAAYAAA	MA0846.1	-4	3.72105e-05	0.0522436	0.0113929	12	AAAAAAAAAAAATAAA	TAAGTAAACAAA	+
AAAWAAAAWAAAYAAA	MA0851.1	-2	7.63159e-05	0.107148	0.0200186	14	AAAAAAAAAAAATAAA	AAAAAGTAAACAAACAC	+
AAAWAAAAWAAAYAAA	MA1272.1	4	7.99128e-05	0.112198	0.0200186	16	AAAAAAAAAAAATAAA	AAAAAAGTAAAAAAAAAAAAA	-
AAAWAAAAWAAAYAAA	MA0929.1	-4	0.000109578	0.153848	0.0251624	12	AAAAAAAAAAAATAAA	ATTGTAAACAAA	+
AAAWAAAAWAAAYAAA	MA0593.1	-5	0.000127708	0.179302	0.0261574	11	AAAAAAAAAAAATAAA	AAGTAAACAAA	+
AAAWAAAAWAAAYAAA	MA1125.1	0	0.00014161	0.198821	0.0261574	12	AAAAAAAAAAAATAAA	TTTAAAAAAAAA	+
AAAWAAAAWAAAYAAA	MA1159.1	-3	0.000142389	0.199914	0.0261574	13	AAAAAAAAAAAATAAA	AAAAAAAGACAAAAA	+
AAAWAAAAWAAAYAAA	MA1292.1	-1	0.00017681	0.248242	0.0289513	15	AAAAAAAAAAAATAAA	AAAAAATTAGGTAAA	+
AAAWAAAAWAAAYAAA	MA0756.1	-2	0.000178611	0.25077	0.0289513	14	AAAAAAAAAAAATAAA	AAAAAATCGATAAT	+
AAAWAAAAWAAAYAAA	MA0317.1	-7	0.000208427	0.292631	0.0319073	8	AAAAAAAAAAAATAAA	ATAAACAA	+
AAAWAAAAWAAAYAAA	MA0041.1	-5	0.000323294	0.453905	0.0468871	11	AAAAAAAAAAAATAAA	AAACAAACATTC	-
AAAWAAAAWAAAYAAA	MA1278.1	3	0.000395347	0.555068	0.0544701	16	AAAAAAAAAAAATAAA	AAAAAGTAAAAAAAAAAAAAA	-
AAAWAAAAWAAAYAAA	MA1270.1	3	0.000691995	0.971561	0.0908015	16	AAAAAAAAAAAATAAA	AAAAAAAGCAAAAAGTAAA	-
TCCCAGCTAYTHGGGAGGCTGAGGCRGGAG	MA0814.1	-15	0.000506031	0.710468	0.821563	11	TCCCAGCTACTAGGGAGGCTGAGGCAGGAG	AGCCTCAGGCA	+
TCCCAGCTAYTHGGGAGGCTGAGGCRGGAG	MA0812.1	-15	0.000643168	0.903008	0.821563	11	TCCCAGCTACTAGGGAGGCTGAGGCAGGAG	AGCCTCAGGCA	+
