#Query ID	Target ID	Optimal offset	p-value	E-value	q-value	Overlap	Query consensus	Target consensus	Orientation
DCACGC	AHR_HUMAN.H11MO.0.B	0	3.23199e-06	0.00249186	0.00498372	6	GCACGC	GCACGCAAC	-
TRTTTR	FOXJ2_HUMAN.H11MO.0.C	0	4.18954e-06	0.00323013	0.00640431	6	TGTTTG	TGTTTATTTA	+
TRTTTR	ANDR_HUMAN.H11MO.0.A	10	1.84843e-05	0.0142514	0.0141279	6	TGTTTG	TGTTCTTTTTTGTTTGCT	+
TRTTTR	FOXM1_HUMAN.H11MO.0.A	0	3.1023e-05	0.0239188	0.0158077	6	TGTTTG	TGTTTGCTTTGC	+
TRTTTR	FOXL1_HUMAN.H11MO.0.D	4	0.000139631	0.107655	0.0533614	6	TGTTTG	TGTTTGTTTGTTTACTTTT	+
TRTTTR	FOXA1_HUMAN.H11MO.0.A	0	0.00031158	0.240229	0.0793826	6	TGTTTG	TGTTTACTTTGG	+
TRTTTR	FOXA2_HUMAN.H11MO.0.A	0	0.00031158	0.240229	0.0793826	6	TGTTTG	TGTTTACTTAGC	+
TRTTTR	FOXF1_HUMAN.H11MO.0.D	1	0.000447911	0.345339	0.0978137	6	TGTTTG	ATGTTTATTTT	+
TRTTTR	FOXF2_HUMAN.H11MO.0.D	0	0.000524835	0.404648	0.100286	6	TGTTTG	TGTTTACTTTT	+
TRTTTR	FOXA3_HUMAN.H11MO.0.B	2	0.000943078	0.727113	0.160181	6	TGTTTG	CTTGTTTACTTTG	+
TGACTCA	JUND_HUMAN.H11MO.0.A	2	1.66753e-07	0.000128566	0.000100487	7	TGACTCA	GATGACTCATC	-
TGACTCA	JUN_HUMAN.H11MO.0.A	2	1.66753e-07	0.000128566	0.000100487	7	TGACTCA	GATGACTCATC	-
TGACTCA	FOSL1_HUMAN.H11MO.0.A	2	2.00103e-07	0.000154279	0.000100487	7	TGACTCA	GGTGACTCATCC	-
TGACTCA	FOS_HUMAN.H11MO.0.A	1	6.74914e-07	0.000520359	0.000254195	7	TGACTCA	GTGACTCAC	-
TGACTCA	JUNB_HUMAN.H11MO.0.A	2	1.12486e-06	0.000867264	0.000338927	7	TGACTCA	GGTGACTCAGA	-
TGACTCA	FOSL2_HUMAN.H11MO.0.A	2	1.34983e-06	0.00104072	0.000338927	7	TGACTCA	GATGACTCATCC	-
TGACTCA	FOSB_HUMAN.H11MO.0.A	1	8.6597e-06	0.00667663	0.00186373	7	TGACTCA	ATGACTCAT	-
TGACTCA	NFE2_HUMAN.H11MO.0.A	3	1.15133e-05	0.00887677	0.00192724	7	TGACTCA	GCATGACTCAGCA	+
TGACTCA	MAFK_HUMAN.H11MO.1.A	3	1.15133e-05	0.00887677	0.00192724	7	TGACTCA	TGCTGACTCAGCA	-
TGACTCA	NF2L2_HUMAN.H11MO.0.A	1	1.31581e-05	0.0101449	0.00197668	7	TGACTCA	ATGACTCAGCAGTT	-
TGACTCA	BACH2_HUMAN.H11MO.0.A	1	1.44328e-05	0.0111277	0.00197668	7	TGACTCA	ATGACTCAGCA	-
TGACTCA	BACH1_HUMAN.H11MO.0.A	3	4.27355e-05	0.0329491	0.0053652	7	TGACTCA	GCATGACTCAGCA	-
TGACTCA	MAFB_HUMAN.H11MO.0.B	3	0.000143093	0.110325	0.0165826	7	TGACTCA	TGCTGACTCAG	+
TGACTCA	BATF_HUMAN.H11MO.0.A	10	0.000206519	0.159227	0.0222235	7	TGACTCA	ACTTTCGATATGACTCAT	+
TGACTCA	MAFG_HUMAN.H11MO.0.A	8	0.00023841	0.183814	0.0239448	7	TGACTCA	AAAATTGCTGACTCAGCA	+
TGACTCA	BATF_HUMAN.H11MO.1.A	2	0.000379067	0.292261	0.0356923	7	TGACTCA	GATGACTCAAT	+
TGACTCA	MAFK_HUMAN.H11MO.0.A	3	0.000420696	0.324357	0.0372819	7	TGACTCA	TGCTGACTCAGCAATTTT	-
TGACTCA	MAFF_HUMAN.H11MO.0.B	8	0.000642489	0.495359	0.0524282	7	TGACTCA	AAAAATGCTGACTCAGCA	-
TGACTCA	MAF_HUMAN.H11MO.0.A	8	0.000696011	0.536625	0.0524282	7	TGACTCA	GAATCTGCTGACTCAGCAA	+
CACMCAC	ZSCA4_HUMAN.H11MO.0.D	4	9.08297e-06	0.00700297	0.0140059	7	CACACAC	AGTGCACACACT	-
CACMCAC	GLI2_HUMAN.H11MO.0.D	4	0.000251721	0.194077	0.194077	7	CACACAC	AGACCACCCAC	-
CACMCAC	KLF8_HUMAN.H11MO.0.C	0	0.000680275	0.524492	0.337141	7	CACACAC	CACCCCCTG	-
CACMCAC	EGR3_HUMAN.H11MO.0.D	1	0.000911078	0.702441	0.337141	7	CACACAC	ACACCCACTCT	-
CACMCAC	GLI1_HUMAN.H11MO.0.D	4	0.00109319	0.842853	0.337141	7	CACACAC	AGACCACCCAGG	-
TTATCW	GATA4_HUMAN.H11MO.0.A	2	9.51641e-06	0.00733715	0.0118155	6	TTATCT	TCTTATCTGT	-
TTATCW	GATA1_HUMAN.H11MO.1.A	3	2.57675e-05	0.0198667	0.0118155	6	TTATCT	TTCTTATCTGT	-
TTATCW	TAL1_HUMAN.H11MO.0.A	2	2.66457e-05	0.0205438	0.0118155	6	TTATCT	CCTTATCTGCCCCCCCCAG	-
TTATCW	GATA6_HUMAN.H11MO.0.A	5	3.43565e-05	0.0264888	0.0118155	6	TTATCT	TTATCTTATCTGT	-
TTATCW	GATA2_HUMAN.H11MO.1.A	3	4.60434e-05	0.0354995	0.0118155	6	TTATCT	TTCTTATCTGT	-
TTATCW	GATA3_HUMAN.H11MO.0.A	3	4.60434e-05	0.0354995	0.0118155	6	TTATCT	TTCTTATCTTT	-
TTATCW	GATA1_HUMAN.H11MO.0.A	2	6.01231e-05	0.0463549	0.0132245	6	TTATCT	TCTTATCTGTCCCCGCCAG	-
TTATCW	GATA2_HUMAN.H11MO.0.A	2	0.000107431	0.0828296	0.0206765	6	TTATCT	CCTTATCTCCACCCCCCAG	-
TTATCW	GATA5_HUMAN.H11MO.0.D	7	0.000288035	0.222075	0.0492763	6	TTATCT	ATCTAAGTTATCTCTTA	-
TTATCW	EVI1_HUMAN.H11MO.0.B	4	0.000396111	0.305402	0.0609891	6	TTATCT	TATCTTATCTTATCTT	-
CCGCCYC	SP2_HUMAN.H11MO.1.B	3	8.28981e-05	0.0639144	0.0718345	7	CCGCCTC	GCCCCGCCCCCT	-
CCGCCYC	E2F7_HUMAN.H11MO.0.B	6	9.67137e-05	0.0745663	0.0718345	7	CCGCCTC	CCTTTCCCGCCCC	-
CCGCCYC	ZN770_HUMAN.H11MO.0.C	7	0.000188625	0.14543	0.0718345	7	CCGCCTC	GATCCTCCCGCCTCAGCCTCCC	-
CCGCCYC	SP4_HUMAN.H11MO.0.A	7	0.000223476	0.1723	0.0718345	7	CCGCCTC	CCCGGCCCCGCCCCCTTCCC	-
CCGCCYC	TFDP1_HUMAN.H11MO.0.C	5	0.000273025	0.210503	0.0718345	7	CCGCCTC	TTTTCCCGCCCCCC	-
CCGCCYC	SP2_HUMAN.H11MO.0.A	9	0.00032963	0.254145	0.0718345	7	CCGCCTC	CCCCCGGCCCCGCCCCCCCCCC	-
CCGCCYC	E2F4_HUMAN.H11MO.0.A	5	0.000330553	0.254857	0.0718345	7	CCGCCTC	ATTTCCCGCCCCC	-
CCGCCYC	KLF12_HUMAN.H11MO.0.C	3	0.000408173	0.314702	0.0776148	7	CCGCCTC	GCCCCGCCCCT	-
CCGCCYC	SP1_HUMAN.H11MO.1.A	5	0.000536854	0.413915	0.0907411	7	CCGCCTC	CGGCCCCGCCCCCC	-
CCGCCYC	SP4_HUMAN.H11MO.1.A	5	0.000671023	0.517359	0.102077	7	CCGCCTC	CGGCCCCGCCCCCTCC	-
CCGCCYC	SP3_HUMAN.H11MO.0.B	8	0.000820683	0.632747	0.105164	7	CCGCCTC	CCCCGGCCCCGCCCCCCCCC	-
CCGCCYC	E2F6_HUMAN.H11MO.0.A	6	0.000829584	0.639609	0.105164	7	CCGCCTC	CCCTTCCCGCCCC	-
CCGCCYC	SP1_HUMAN.H11MO.0.A	13	0.00107342	0.827607	0.125608	7	CCGCCTC	CCCCCCCCCGGCCCCGCCCCCC	-
CCGCCYC	E2F1_HUMAN.H11MO.0.A	5	0.00125632	0.968621	0.13094	7	CCGCCTC	CTTTCCCGCCCCCC	-
CCGCCYC	ZN219_HUMAN.H11MO.0.D	1	0.00129114	0.995472	0.13094	7	CCGCCTC	TCCGCCCCCCTC	-
