prim_db	prim_id	prim_alt	prim_cons	sec_db	sec_id	sec_alt	sec_cons	trim_left	trim_right	red_db	red_id	red_alt	E-value	gap	orient	count	total	adj_p-value	p-value
dreme.xml	DCACGC	DREME-1	DCACGC	JASPAR2018_CORE_non-redundant	MA0660.1	MEF2B	RCTAWAAATAGC	0	0	.	.	.	6.63e-04	95	2	5	21	4.15e-11	3.74e-10
dreme.xml	DCACGC	DREME-1	DCACGC	JASPAR2018_CORE_non-redundant	MA0660.1	MEF2B	RCTAWAAATAGC	0	0	.	.	.	6.63e-04	95	6	5	21	1.30e-09	1.17e-08
dreme.xml	DCACGC	DREME-1	DCACGC	JASPAR2018_CORE_non-redundant	MA0660.1	MEF2B	RCTAWAAATAGC	0	0	.	.	.	6.63e-04	95	7	5	21	1.30e-09	1.17e-08
dreme.xml	DCACGC	DREME-1	DCACGC	JASPAR2018_CORE_non-redundant	MA0660.1	MEF2B	RCTAWAAATAGC	0	0	.	.	.	6.63e-04	95	8	5	21	3.96e-08	3.56e-07
dreme.xml	DCACGC	DREME-1	DCACGC	JASPAR2018_CORE_non-redundant	MA0053.1	MNB1A	AAAGC	0	0	.	.	.	7.87e-04	13	3	18	1532	4.69e-11	4.22e-10
dreme.xml	DCACGC	DREME-1	DCACGC	JASPAR2018_CORE_non-redundant	MA0053.1	MNB1A	AAAGC	0	0	.	.	.	7.87e-04	13	5	19	1532	2.91e-07	2.62e-06
dreme.xml	DCACGC	DREME-1	DCACGC	JASPAR2018_CORE_non-redundant	MA0053.1	MNB1A	AAAGC	0	0	.	.	.	7.87e-04	13	7	18	1532	1.08e-06	9.73e-06
dreme.xml	DCACGC	DREME-1	DCACGC	JASPAR2018_CORE_non-redundant	MA0064.1	PBF	AAAGY	0	0	JASPAR2018_CORE_non-redundant	MA0053.1	MNB1A	1.69e-03	13	3	14	888	1.01e-10	9.07e-10
dreme.xml	DCACGC	DREME-1	DCACGC	JASPAR2018_CORE_non-redundant	MA0064.1	PBF	AAAGY	0	0	JASPAR2018_CORE_non-redundant	MA0053.1	MNB1A	1.69e-03	13	5	15	888	8.15e-08	7.34e-07
dreme.xml	DCACGC	DREME-1	DCACGC	JASPAR2018_CORE_non-redundant	MA0064.1	PBF	AAAGY	0	0	JASPAR2018_CORE_non-redundant	MA0053.1	MNB1A	1.69e-03	13	7	14	888	4.13e-07	3.72e-06
dreme.xml	DCACGC	DREME-1	DCACGC	JASPAR2018_CORE_non-redundant	MA0773.1	MEF2D	DCTAWAAATAGM	0	0	.	.	.	2.61e-03	95	2	5	27	1.63e-10	1.47e-09
dreme.xml	DCACGC	DREME-1	DCACGC	JASPAR2018_CORE_non-redundant	MA0773.1	MEF2D	DCTAWAAATAGM	0	0	.	.	.	2.61e-03	95	6	5	27	5.06e-09	4.55e-08
dreme.xml	DCACGC	DREME-1	DCACGC	JASPAR2018_CORE_non-redundant	MA0773.1	MEF2D	DCTAWAAATAGM	0	0	.	.	.	2.61e-03	95	7	5	27	5.06e-09	4.55e-08
dreme.xml	DCACGC	DREME-1	DCACGC	JASPAR2018_CORE_non-redundant	MA0773.1	MEF2D	DCTAWAAATAGM	0	0	.	.	.	2.61e-03	95	8	5	27	1.51e-07	1.36e-06
dreme.xml	DCACGC	DREME-1	DCACGC	JASPAR2018_CORE_non-redundant	MA0914.1	ISL2	GCAMTTAR	0	0	.	.	.	1.06e-02	11	2	9	308	6.47e-10	5.83e-09
dreme.xml	DCACGC	DREME-1	DCACGC	JASPAR2018_CORE_non-redundant	MA0914.1	ISL2	GCAMTTAR	0	0	.	.	.	1.06e-02	11	6	10	308	2.15e-08	1.94e-07
dreme.xml	DCACGC	DREME-1	DCACGC	JASPAR2018_CORE_non-redundant	MA0914.1	ISL2	GCAMTTAR	0	0	.	.	.	1.06e-02	11	7	9	308	2.08e-07	1.87e-06
dreme.xml	DCACGC	DREME-1	DCACGC	JASPAR2018_CORE_non-redundant	MA0021.1	Dof3	AAAGYV	0	0	.	.	.	1.65e-02	12	3	14	1058	9.89e-10	8.90e-09
dreme.xml	DCACGC	DREME-1	DCACGC	JASPAR2018_CORE_non-redundant	MA0021.1	Dof3	AAAGYV	0	0	.	.	.	1.65e-02	12	5	16	1058	1.61e-07	1.45e-06
dreme.xml	DCACGC	DREME-1	DCACGC	JASPAR2018_CORE_non-redundant	MA0021.1	Dof3	AAAGYV	0	0	.	.	.	1.65e-02	12	7	16	1058	1.61e-07	1.45e-06
dreme.xml	DCACGC	DREME-1	DCACGC	meme.xml	GTATGTGTGTGTGTSY	MEME-2	GTATGTGTGTGTGTSY	0	0	.	.	.	1.81e-02	0	8	13	213	1.17e-09	1.05e-08
dreme.xml	DCACGC	DREME-1	DCACGC	meme.xml	GTATGTGTGTGTGTSY	MEME-2	GTATGTGTGTGTGTSY	0	0	.	.	.	1.81e-02	0	5	9	213	1.55e-08	1.39e-07
dreme.xml	DCACGC	DREME-1	DCACGC	meme.xml	GTATGTGTGTGTGTSY	MEME-2	GTATGTGTGTGTGTSY	0	0	.	.	.	1.81e-02	0	3	6	213	3.90e-07	3.51e-06
dreme.xml	DCACGC	DREME-1	DCACGC	meme.xml	GTATGTGTGTGTGTSY	MEME-2	GTATGTGTGTGTGTSY	0	0	.	.	.	1.81e-02	2	5	7	213	1.95e-06	1.76e-05
dreme.xml	DCACGC	DREME-1	DCACGC	meme.xml	GTATGTGTGTGTGTSY	MEME-2	GTATGTGTGTGTGTSY	0	0	.	.	.	1.81e-02	0	7	7	213	1.95e-06	1.76e-05
dreme.xml	DCACGC	DREME-1	DCACGC	JASPAR2018_CORE_non-redundant	MA0052.3	MEF2A	KCTAWAAATAGM	0	0	.	.	.	5.96e-02	95	2	5	49	3.73e-09	3.36e-08
dreme.xml	DCACGC	DREME-1	DCACGC	JASPAR2018_CORE_non-redundant	MA0052.3	MEF2A	KCTAWAAATAGM	0	0	.	.	.	5.96e-02	95	6	5	49	1.12e-07	1.01e-06
dreme.xml	DCACGC	DREME-1	DCACGC	JASPAR2018_CORE_non-redundant	MA0052.3	MEF2A	KCTAWAAATAGM	0	0	.	.	.	5.96e-02	95	7	5	49	1.12e-07	1.01e-06
dreme.xml	DCACGC	DREME-1	DCACGC	JASPAR2018_CORE_non-redundant	MA0052.3	MEF2A	KCTAWAAATAGM	0	0	.	.	.	5.96e-02	95	8	5	49	3.14e-06	2.82e-05
dreme.xml	DCACGC	DREME-1	DCACGC	JASPAR2018_CORE_non-redundant	MA0122.2	NKX3-2	RCCACTTAA	1	1	.	.	.	1.08e-01	11	2	8	289	6.51e-09	5.86e-08
dreme.xml	DCACGC	DREME-1	DCACGC	JASPAR2018_CORE_non-redundant	MA0122.2	NKX3-2	RCCACTTAA	1	1	.	.	.	1.08e-01	11	6	8	289	1.08e-06	9.75e-06
dreme.xml	DCACGC	DREME-1	DCACGC	JASPAR2018_CORE_non-redundant	MA0122.2	NKX3-2	RCCACTTAA	1	1	.	.	.	1.08e-01	11	7	8	289	1.08e-06	9.75e-06
dreme.xml	DCACGC	DREME-1	DCACGC	JASPAR2018_CORE_non-redundant	MA0859.1	Rarg	RAGGTCAAAAGGTCAW	0	1	.	.	.	2.15e-01	44	2	3	6	1.37e-08	1.24e-07
dreme.xml	DCACGC	DREME-1	DCACGC	JASPAR2018_CORE_non-redundant	MA0859.1	Rarg	RAGGTCAAAAGGTCAW	0	1	.	.	.	2.15e-01	44	6	3	6	1.10e-07	9.86e-07
dreme.xml	DCACGC	DREME-1	DCACGC	JASPAR2018_CORE_non-redundant	MA0859.1	Rarg	RAGGTCAAAAGGTCAW	0	1	.	.	.	2.15e-01	44	7	3	6	1.10e-07	9.86e-07
dreme.xml	DCACGC	DREME-1	DCACGC	JASPAR2018_CORE_non-redundant	MA0859.1	Rarg	RAGGTCAAAAGGTCAW	0	1	.	.	.	2.15e-01	44	8	3	6	8.69e-07	7.82e-06
dreme.xml	DCACGC	DREME-1	DCACGC	JASPAR2018_CORE_non-redundant	MA0915.1	dve	HTAATCCV	1	1	.	.	.	2.68e-01	3	2	5	68	1.61e-08	1.45e-07
dreme.xml	DCACGC	DREME-1	DCACGC	JASPAR2018_CORE_non-redundant	MA0915.1	dve	HTAATCCV	1	1	.	.	.	2.68e-01	3	6	5	68	4.71e-07	4.24e-06
dreme.xml	DCACGC	DREME-1	DCACGC	JASPAR2018_CORE_non-redundant	MA0915.1	dve	HTAATCCV	1	1	.	.	.	2.68e-01	3	7	5	68	4.71e-07	4.24e-06
dreme.xml	DCACGC	DREME-1	DCACGC	JASPAR2018_CORE_non-redundant	MA0778.1	NFKB2	AGGGGAWTCCCCY	1	1	.	.	.	3.59e-01	78	2	4	28	2.24e-08	2.01e-07
dreme.xml	DCACGC	DREME-1	DCACGC	JASPAR2018_CORE_non-redundant	MA0778.1	NFKB2	AGGGGAWTCCCCY	1	1	.	.	.	3.59e-01	78	6	4	28	3.46e-07	3.11e-06
dreme.xml	DCACGC	DREME-1	DCACGC	JASPAR2018_CORE_non-redundant	MA0778.1	NFKB2	AGGGGAWTCCCCY	1	1	.	.	.	3.59e-01	78	7	4	28	3.46e-07	3.11e-06
dreme.xml	DCACGC	DREME-1	DCACGC	JASPAR2018_CORE_non-redundant	MA0945.1	ARR1	DNMRDATCTH	3	1	.	.	.	1.37e+00	141	8	15	444	8.21e-08	7.39e-07
dreme.xml	DCACGC	DREME-1	DCACGC	JASPAR2018_CORE_non-redundant	MA0945.1	ARR1	DNMRDATCTH	3	1	.	.	.	1.37e+00	141	7	9	444	3.41e-06	3.07e-05
dreme.xml	DCACGC	DREME-1	DCACGC	JASPAR2018_CORE_non-redundant	MA0190.1	Gsc	TAATCC	0	0	.	.	.	1.53e+00	3	2	6	178	9.19e-08	8.27e-07
dreme.xml	DCACGC	DREME-1	DCACGC	JASPAR2018_CORE_non-redundant	MA0891.1	GSC2	NYTAATCCBH	2	2	.	.	.	1.53e+00	3	2	6	178	9.19e-08	8.27e-07
dreme.xml	DCACGC	DREME-1	DCACGC	JASPAR2018_CORE_non-redundant	MA0095.2	YY1	CAARATGGCBGC	0	0	.	.	.	1.78e+00	72	2	5	96	1.12e-07	1.00e-06
dreme.xml	DCACGC	DREME-1	DCACGC	JASPAR2018_CORE_non-redundant	MA0095.2	YY1	CAARATGGCBGC	0	0	.	.	.	1.78e+00	72	6	6	96	1.69e-07	1.52e-06
dreme.xml	DCACGC	DREME-1	DCACGC	JASPAR2018_CORE_non-redundant	MA0095.2	YY1	CAARATGGCBGC	0	0	.	.	.	1.78e+00	72	8	7	96	7.55e-07	6.79e-06
dreme.xml	DCACGC	DREME-1	DCACGC	JASPAR2018_CORE_non-redundant	MA0095.2	YY1	CAARATGGCBGC	0	0	.	.	.	1.78e+00	72	7	5	96	3.12e-06	2.80e-05
dreme.xml	DCACGC	DREME-1	DCACGC	JASPAR2018_CORE_non-redundant	MA0212.1	bcd	TAATCC	0	0	.	.	.	1.97e+00	3	2	6	186	1.19e-07	1.07e-06
dreme.xml	DCACGC	DREME-1	DCACGC	JASPAR2018_CORE_non-redundant	MA0201.1	Ptx1	TTAATCC	0	0	.	.	.	2.65e+00	2	2	5	107	1.61e-07	1.45e-06
dreme.xml	DCACGC	DREME-1	DCACGC	JASPAR2018_CORE_non-redundant	MA0201.1	Ptx1	TTAATCC	0	0	.	.	.	2.65e+00	2	7	6	107	2.61e-07	2.35e-06
dreme.xml	DCACGC	DREME-1	DCACGC	JASPAR2018_CORE_non-redundant	MA0944.1	ARF8	NHTGTCGGN	2	1	.	.	.	4.00e+00	71	5	9	318	2.41e-07	2.17e-06
dreme.xml	DCACGC	DREME-1	DCACGC	JASPAR2018_CORE_non-redundant	MA0437.1	YPR196W	ATTTYYCCG	0	0	.	.	.	4.53e+00	81	2	5	118	2.79e-07	2.51e-06
dreme.xml	DCACGC	DREME-1	DCACGC	JASPAR2018_CORE_non-redundant	MA0712.1	OTX2	YTAATCCB	1	1	.	.	.	4.81e+00	3	2	6	217	2.89e-07	2.60e-06
dreme.xml	DCACGC	DREME-1	DCACGC	JASPAR2018_CORE_non-redundant	MA0414.1	XBP1	YTCGARV	0	1	.	.	.	5.19e+00	55	3	4	55	3.12e-07	2.81e-06
dreme.xml	DCACGC	DREME-1	DCACGC	dreme.xml	CACMCAC	DREME-4	CACMCAC	0	0	.	.	.	5.28e+00	1	6	7	172	3.20e-07	2.88e-06
dreme.xml	DCACGC	DREME-1	DCACGC	dreme.xml	CACMCAC	DREME-4	CACMCAC	0	0	.	.	.	5.28e+00	1	2	5	172	1.63e-06	1.47e-05
dreme.xml	DCACGC	DREME-1	DCACGC	dreme.xml	CACMCAC	DREME-4	CACMCAC	0	0	.	.	.	5.28e+00	3	6	6	172	3.92e-06	3.53e-05
dreme.xml	DCACGC	DREME-1	DCACGC	JASPAR2018_CORE_non-redundant	MA0234.1	oc	TAATCC	0	0	.	.	.	6.38e+00	3	2	6	228	3.84e-07	3.46e-06
dreme.xml	DCACGC	DREME-1	DCACGC	JASPAR2018_CORE_non-redundant	MA0711.1	OTX1	HTAATCCS	1	1	.	.	.	6.38e+00	3	2	6	228	3.84e-07	3.46e-06
dreme.xml	DCACGC	DREME-1	DCACGC	JASPAR2018_CORE_non-redundant	MA0908.1	HOXD11	RTCGTAAAAH	0	1	.	.	.	7.01e+00	129	0	5	129	4.31e-07	3.88e-06
dreme.xml	DCACGC	DREME-1	DCACGC	JASPAR2018_CORE_non-redundant	MA0087.1	Sox5	ATTGTTD	0	1	.	.	.	7.37e+00	0	7	7	182	4.44e-07	4.00e-06
dreme.xml	DCACGC	DREME-1	DCACGC	JASPAR2018_CORE_non-redundant	MA0087.1	Sox5	ATTGTTD	0	1	.	.	.	7.37e+00	0	2	5	182	2.07e-06	1.86e-05
dreme.xml	DCACGC	DREME-1	DCACGC	JASPAR2018_CORE_non-redundant	MA0082.1	squamosa	MCAWAWATRGWAAN	0	1	.	.	.	9.09e+00	96	2	6	233	5.76e-07	5.18e-06
dreme.xml	DCACGC	DREME-1	DCACGC	JASPAR2018_CORE_non-redundant	MA0082.1	squamosa	MCAWAWATRGWAAN	0	1	.	.	.	9.09e+00	96	6	7	233	3.01e-06	2.71e-05
dreme.xml	DCACGC	DREME-1	DCACGC	JASPAR2018_CORE_non-redundant	MA0497.1	MEF2C	DDDCYAAAAATAGMW	3	0	.	.	.	9.92e+00	96	2	6	238	6.24e-07	5.61e-06
dreme.xml	DCACGC	DREME-1	DCACGC	JASPAR2018_CORE_non-redundant	MA0497.1	MEF2C	DDDCYAAAAATAGMW	3	0	.	.	.	9.92e+00	96	6	7	238	3.30e-06	2.97e-05
##
# Detailed descriptions of columns in this file:
#
# prim_db:	The name of the database (file name) that contains the primary motif.
# prim_id:	A name for the primary motif that is unique in the motif database file.
# prim_alt:	An alternate name of the primary motif that may be provided
#		in the motif database file.
# prim_cons:	A consensus sequence computed from the primary motif (see doc/motif-consensus.html).
# sec_db:	The name of the database (file name) that contains the secondary motif.
# sec_id:	A name for the motif that is unique in the motif database file.
# sec_alt:	An alternate name of the secondary motif that may be provided
#		in the motif database file.
# sec_cons:	A consensus sequence computed from the secondary motif (see doc/motif-consensus.html).
# trim_left:	Number of positions trimmed from left of secondary motif
# trim_right:	Number of positions trimmed from right of secondary motif
# If the next three fields are not blank, the motif is redundant with a more significant ('parent') motif.
# red_db:	The database (file name) that contains the parent motif.
# red_id:	A name for the parent motif that is unique in the motif database file.
# red_alt:	An alternate name of the parent motif that may be provided
#		in the motif database file.
# E-value:	The expected number motifs that would have least one
#		spacing as enriched as the best spacing for this secondary.
#		The E-value is the best spacing p-value multiplied by the number of motifs in the
#		input database(s).
# gap:		The distance between the edge of the primary and the (trimmed) secondary motif.
# orient:	The (combination) of quadrants for which occurrences
#		of this spacing are combined.
# count:	The number of occurrences of the secondary motif with the
#		given spacing and orientation to the primary motif.
# total:	The total number of occurrences of the secondary motif within the
#		margins around the best primary motif occurrence.
# adj_p-value:	The p-value of the gap and orientation, adjusted for
#		nine combinations of quadrants times the number of gaps tested
#		(as controlled by the -range switch).
# p-value:	The p-value of the gap and orientation adjusted only for the number of gaps tested.
