prim_db	prim_id	prim_alt	prim_cons	sec_db	sec_id	sec_alt	sec_cons	trim_left	trim_right	red_db	red_id	red_alt	E-value	gap	orient	count	total	adj_p-value	p-value
meme.xml	SYCTTTAGTTHAATTAVGTCCCAGCTATTT	MEME-3	SYCTTTAGTTHAATTAVGTCCCAGCTATTT	HOCOMOCOv11_full_HUMAN_mono_meme_format	HXA13_HUMAN.H11MO.0.C	.	GDTTTTATTGG	2	0	.	.	.	5.40e-02	8	2	3	5	6.05e-09	5.44e-08
meme.xml	SYCTTTAGTTHAATTAVGTCCCAGCTATTT	MEME-3	SYCTTTAGTTHAATTAVGTCCCAGCTATTT	HOCOMOCOv11_full_HUMAN_mono_meme_format	HXA13_HUMAN.H11MO.0.C	.	GDTTTTATTGG	2	0	.	.	.	5.40e-02	8	6	3	5	4.83e-08	4.34e-07
meme.xml	SYCTTTAGTTHAATTAVGTCCCAGCTATTT	MEME-3	SYCTTTAGTTHAATTAVGTCCCAGCTATTT	HOCOMOCOv11_full_HUMAN_mono_meme_format	HXA13_HUMAN.H11MO.0.C	.	GDTTTTATTGG	2	0	.	.	.	5.40e-02	8	7	3	5	4.83e-08	4.34e-07
meme.xml	SYCTTTAGTTHAATTAVGTCCCAGCTATTT	MEME-3	SYCTTTAGTTHAATTAVGTCCCAGCTATTT	HOCOMOCOv11_full_HUMAN_mono_meme_format	HXA13_HUMAN.H11MO.0.C	.	GDTTTTATTGG	2	0	.	.	.	5.40e-02	8	8	3	5	3.84e-07	3.46e-06
meme.xml	SYCTTTAGTTHAATTAVGTCCCAGCTATTT	MEME-3	SYCTTTAGTTHAATTAVGTCCCAGCTATTT	HOCOMOCOv11_full_HUMAN_mono_meme_format	HXD10_HUMAN.H11MO.0.D	.	TGCTTTAATT	0	0	.	.	.	5.48e-02	5	2	3	5	6.18e-09	5.56e-08
meme.xml	SYCTTTAGTTHAATTAVGTCCCAGCTATTT	MEME-3	SYCTTTAGTTHAATTAVGTCCCAGCTATTT	HOCOMOCOv11_full_HUMAN_mono_meme_format	HXD10_HUMAN.H11MO.0.D	.	TGCTTTAATT	0	0	.	.	.	5.48e-02	5	6	3	5	4.93e-08	4.44e-07
meme.xml	SYCTTTAGTTHAATTAVGTCCCAGCTATTT	MEME-3	SYCTTTAGTTHAATTAVGTCCCAGCTATTT	HOCOMOCOv11_full_HUMAN_mono_meme_format	HXD10_HUMAN.H11MO.0.D	.	TGCTTTAATT	0	0	.	.	.	5.48e-02	5	7	3	5	4.93e-08	4.44e-07
meme.xml	SYCTTTAGTTHAATTAVGTCCCAGCTATTT	MEME-3	SYCTTTAGTTHAATTAVGTCCCAGCTATTT	HOCOMOCOv11_full_HUMAN_mono_meme_format	HXD10_HUMAN.H11MO.0.D	.	TGCTTTAATT	0	0	.	.	.	5.48e-02	5	8	3	5	3.92e-07	3.53e-06
meme.xml	SYCTTTAGTTHAATTAVGTCCCAGCTATTT	MEME-3	SYCTTTAGTTHAATTAVGTCCCAGCTATTT	HOCOMOCOv11_full_HUMAN_mono_meme_format	SOX10_HUMAN.H11MO.1.A	.	BBYCTTTGTTYYY	1	2	.	.	.	1.09e-01	0	2	3	6	1.23e-08	1.11e-07
meme.xml	SYCTTTAGTTHAATTAVGTCCCAGCTATTT	MEME-3	SYCTTTAGTTHAATTAVGTCCCAGCTATTT	HOCOMOCOv11_full_HUMAN_mono_meme_format	SOX10_HUMAN.H11MO.1.A	.	BBYCTTTGTTYYY	1	2	.	.	.	1.09e-01	0	6	3	6	9.83e-08	8.85e-07
meme.xml	SYCTTTAGTTHAATTAVGTCCCAGCTATTT	MEME-3	SYCTTTAGTTHAATTAVGTCCCAGCTATTT	HOCOMOCOv11_full_HUMAN_mono_meme_format	SOX10_HUMAN.H11MO.1.A	.	BBYCTTTGTTYYY	1	2	.	.	.	1.09e-01	0	7	3	6	9.83e-08	8.85e-07
meme.xml	SYCTTTAGTTHAATTAVGTCCCAGCTATTT	MEME-3	SYCTTTAGTTHAATTAVGTCCCAGCTATTT	HOCOMOCOv11_full_HUMAN_mono_meme_format	SOX10_HUMAN.H11MO.1.A	.	BBYCTTTGTTYYY	1	2	.	.	.	1.09e-01	0	8	3	6	7.80e-07	7.02e-06
meme.xml	SYCTTTAGTTHAATTAVGTCCCAGCTATTT	MEME-3	SYCTTTAGTTHAATTAVGTCCCAGCTATTT	HOCOMOCOv11_full_HUMAN_mono_meme_format	SOX2_HUMAN.H11MO.0.A	.	BBCCTTTGTYYYB	1	2	.	.	.	1.91e-01	0	2	3	7	2.16e-08	1.94e-07
meme.xml	SYCTTTAGTTHAATTAVGTCCCAGCTATTT	MEME-3	SYCTTTAGTTHAATTAVGTCCCAGCTATTT	HOCOMOCOv11_full_HUMAN_mono_meme_format	SOX2_HUMAN.H11MO.0.A	.	BBCCTTTGTYYYB	1	2	.	.	.	1.91e-01	0	6	3	7	1.72e-07	1.54e-06
meme.xml	SYCTTTAGTTHAATTAVGTCCCAGCTATTT	MEME-3	SYCTTTAGTTHAATTAVGTCCCAGCTATTT	HOCOMOCOv11_full_HUMAN_mono_meme_format	SOX2_HUMAN.H11MO.0.A	.	BBCCTTTGTYYYB	1	2	.	.	.	1.91e-01	0	7	3	7	1.72e-07	1.54e-06
meme.xml	SYCTTTAGTTHAATTAVGTCCCAGCTATTT	MEME-3	SYCTTTAGTTHAATTAVGTCCCAGCTATTT	HOCOMOCOv11_full_HUMAN_mono_meme_format	SOX2_HUMAN.H11MO.0.A	.	BBCCTTTGTYYYB	1	2	.	.	.	1.91e-01	0	8	3	7	1.36e-06	1.22e-05
meme.xml	SYCTTTAGTTHAATTAVGTCCCAGCTATTT	MEME-3	SYCTTTAGTTHAATTAVGTCCCAGCTATTT	HOCOMOCOv11_full_HUMAN_mono_meme_format	SOX15_HUMAN.H11MO.0.D	.	CWTTGTT	0	0	.	.	.	2.93e-01	2	2	3	8	3.23e-08	2.91e-07
meme.xml	SYCTTTAGTTHAATTAVGTCCCAGCTATTT	MEME-3	SYCTTTAGTTHAATTAVGTCCCAGCTATTT	HOCOMOCOv11_full_HUMAN_mono_meme_format	SOX15_HUMAN.H11MO.0.D	.	CWTTGTT	0	0	.	.	.	2.93e-01	2	6	3	8	2.57e-07	2.31e-06
meme.xml	SYCTTTAGTTHAATTAVGTCCCAGCTATTT	MEME-3	SYCTTTAGTTHAATTAVGTCCCAGCTATTT	HOCOMOCOv11_full_HUMAN_mono_meme_format	SOX15_HUMAN.H11MO.0.D	.	CWTTGTT	0	0	.	.	.	2.93e-01	2	7	3	8	2.57e-07	2.31e-06
meme.xml	SYCTTTAGTTHAATTAVGTCCCAGCTATTT	MEME-3	SYCTTTAGTTHAATTAVGTCCCAGCTATTT	HOCOMOCOv11_full_HUMAN_mono_meme_format	SOX15_HUMAN.H11MO.0.D	.	CWTTGTT	0	0	.	.	.	2.93e-01	2	8	3	8	2.03e-06	1.83e-05
meme.xml	SYCTTTAGTTHAATTAVGTCCCAGCTATTT	MEME-3	SYCTTTAGTTHAATTAVGTCCCAGCTATTT	HOCOMOCOv11_full_HUMAN_mono_meme_format	SOX4_HUMAN.H11MO.0.B	.	BYCTTTGTYYYB	0	1	.	.	.	3.10e-01	0	2	3	8	3.52e-08	3.17e-07
meme.xml	SYCTTTAGTTHAATTAVGTCCCAGCTATTT	MEME-3	SYCTTTAGTTHAATTAVGTCCCAGCTATTT	HOCOMOCOv11_full_HUMAN_mono_meme_format	SOX4_HUMAN.H11MO.0.B	.	BYCTTTGTYYYB	0	1	.	.	.	3.10e-01	0	6	3	8	2.80e-07	2.52e-06
meme.xml	SYCTTTAGTTHAATTAVGTCCCAGCTATTT	MEME-3	SYCTTTAGTTHAATTAVGTCCCAGCTATTT	HOCOMOCOv11_full_HUMAN_mono_meme_format	SOX4_HUMAN.H11MO.0.B	.	BYCTTTGTYYYB	0	1	.	.	.	3.10e-01	0	7	3	8	2.80e-07	2.52e-06
meme.xml	SYCTTTAGTTHAATTAVGTCCCAGCTATTT	MEME-3	SYCTTTAGTTHAATTAVGTCCCAGCTATTT	HOCOMOCOv11_full_HUMAN_mono_meme_format	SOX4_HUMAN.H11MO.0.B	.	BYCTTTGTYYYB	0	1	.	.	.	3.10e-01	0	8	3	8	2.21e-06	1.99e-05
meme.xml	SYCTTTAGTTHAATTAVGTCCCAGCTATTT	MEME-3	SYCTTTAGTTHAATTAVGTCCCAGCTATTT	HOCOMOCOv11_full_HUMAN_mono_meme_format	SRY_HUMAN.H11MO.0.B	.	YWTTGTTTH	1	0	.	.	.	4.45e-01	3	2	3	9	4.95e-08	4.45e-07
meme.xml	SYCTTTAGTTHAATTAVGTCCCAGCTATTT	MEME-3	SYCTTTAGTTHAATTAVGTCCCAGCTATTT	HOCOMOCOv11_full_HUMAN_mono_meme_format	SRY_HUMAN.H11MO.0.B	.	YWTTGTTTH	1	0	.	.	.	4.45e-01	3	6	3	9	3.93e-07	3.53e-06
meme.xml	SYCTTTAGTTHAATTAVGTCCCAGCTATTT	MEME-3	SYCTTTAGTTHAATTAVGTCCCAGCTATTT	HOCOMOCOv11_full_HUMAN_mono_meme_format	SRY_HUMAN.H11MO.0.B	.	YWTTGTTTH	1	0	.	.	.	4.45e-01	3	7	3	9	3.93e-07	3.53e-06
meme.xml	SYCTTTAGTTHAATTAVGTCCCAGCTATTT	MEME-3	SYCTTTAGTTHAATTAVGTCCCAGCTATTT	HOCOMOCOv11_full_HUMAN_mono_meme_format	SRY_HUMAN.H11MO.0.B	.	YWTTGTTTH	1	0	.	.	.	4.45e-01	3	8	3	9	3.09e-06	2.78e-05
meme.xml	SYCTTTAGTTHAATTAVGTCCCAGCTATTT	MEME-3	SYCTTTAGTTHAATTAVGTCCCAGCTATTT	HOCOMOCOv11_full_HUMAN_mono_meme_format	SOX9_HUMAN.H11MO.1.B	.	YCWTTGKYY	0	0	.	.	.	4.51e-01	1	2	3	9	5.05e-08	4.55e-07
meme.xml	SYCTTTAGTTHAATTAVGTCCCAGCTATTT	MEME-3	SYCTTTAGTTHAATTAVGTCCCAGCTATTT	HOCOMOCOv11_full_HUMAN_mono_meme_format	SOX9_HUMAN.H11MO.1.B	.	YCWTTGKYY	0	0	.	.	.	4.51e-01	1	6	3	9	4.01e-07	3.61e-06
meme.xml	SYCTTTAGTTHAATTAVGTCCCAGCTATTT	MEME-3	SYCTTTAGTTHAATTAVGTCCCAGCTATTT	HOCOMOCOv11_full_HUMAN_mono_meme_format	SOX9_HUMAN.H11MO.1.B	.	YCWTTGKYY	0	0	.	.	.	4.51e-01	1	7	3	9	4.01e-07	3.61e-06
meme.xml	SYCTTTAGTTHAATTAVGTCCCAGCTATTT	MEME-3	SYCTTTAGTTHAATTAVGTCCCAGCTATTT	HOCOMOCOv11_full_HUMAN_mono_meme_format	SOX9_HUMAN.H11MO.1.B	.	YCWTTGKYY	0	0	.	.	.	4.51e-01	1	8	3	9	3.16e-06	2.84e-05
meme.xml	SYCTTTAGTTHAATTAVGTCCCAGCTATTT	MEME-3	SYCTTTAGTTHAATTAVGTCCCAGCTATTT	HOCOMOCOv11_full_HUMAN_mono_meme_format	SOX13_HUMAN.H11MO.0.D	.	YATTGTTY	1	1	.	.	.	1.47e+00	3	2	3	13	1.61e-07	1.45e-06
meme.xml	SYCTTTAGTTHAATTAVGTCCCAGCTATTT	MEME-3	SYCTTTAGTTHAATTAVGTCCCAGCTATTT	HOCOMOCOv11_full_HUMAN_mono_meme_format	SOX13_HUMAN.H11MO.0.D	.	YATTGTTY	1	1	.	.	.	1.47e+00	3	6	3	13	1.27e-06	1.14e-05
meme.xml	SYCTTTAGTTHAATTAVGTCCCAGCTATTT	MEME-3	SYCTTTAGTTHAATTAVGTCCCAGCTATTT	HOCOMOCOv11_full_HUMAN_mono_meme_format	SOX13_HUMAN.H11MO.0.D	.	YATTGTTY	1	1	.	.	.	1.47e+00	3	7	3	13	1.27e-06	1.14e-05
meme.xml	SYCTTTAGTTHAATTAVGTCCCAGCTATTT	MEME-3	SYCTTTAGTTHAATTAVGTCCCAGCTATTT	HOCOMOCOv11_full_HUMAN_mono_meme_format	GLI3_HUMAN.H11MO.0.B	.	BTGGGTGGTCY	1	1	.	.	.	3.07e+00	38	0	2	2	3.44e-07	3.10e-06
meme.xml	SYCTTTAGTTHAATTAVGTCCCAGCTATTT	MEME-3	SYCTTTAGTTHAATTAVGTCCCAGCTATTT	HOCOMOCOv11_full_HUMAN_mono_meme_format	GLI3_HUMAN.H11MO.0.B	.	BTGGGTGGTCY	1	1	.	.	.	3.07e+00	38	4	2	2	1.38e-06	1.24e-05
meme.xml	SYCTTTAGTTHAATTAVGTCCCAGCTATTT	MEME-3	SYCTTTAGTTHAATTAVGTCCCAGCTATTT	HOCOMOCOv11_full_HUMAN_mono_meme_format	GLI3_HUMAN.H11MO.0.B	.	BTGGGTGGTCY	1	1	.	.	.	3.07e+00	38	5	2	2	1.38e-06	1.24e-05
meme.xml	SYCTTTAGTTHAATTAVGTCCCAGCTATTT	MEME-3	SYCTTTAGTTHAATTAVGTCCCAGCTATTT	HOCOMOCOv11_full_HUMAN_mono_meme_format	GLI1_HUMAN.H11MO.0.D	.	YSTGGGTGGTCY	1	0	HOCOMOCOv11_full_HUMAN_mono_meme_format	GLI3_HUMAN.H11MO.0.B	.	3.12e+00	37	0	2	2	3.54e-07	3.19e-06
meme.xml	SYCTTTAGTTHAATTAVGTCCCAGCTATTT	MEME-3	SYCTTTAGTTHAATTAVGTCCCAGCTATTT	HOCOMOCOv11_full_HUMAN_mono_meme_format	GLI1_HUMAN.H11MO.0.D	.	YSTGGGTGGTCY	1	0	HOCOMOCOv11_full_HUMAN_mono_meme_format	GLI3_HUMAN.H11MO.0.B	.	3.12e+00	37	4	2	2	1.42e-06	1.28e-05
meme.xml	SYCTTTAGTTHAATTAVGTCCCAGCTATTT	MEME-3	SYCTTTAGTTHAATTAVGTCCCAGCTATTT	HOCOMOCOv11_full_HUMAN_mono_meme_format	GLI1_HUMAN.H11MO.0.D	.	YSTGGGTGGTCY	1	0	HOCOMOCOv11_full_HUMAN_mono_meme_format	GLI3_HUMAN.H11MO.0.B	.	3.12e+00	37	5	2	2	1.42e-06	1.28e-05
meme.xml	SYCTTTAGTTHAATTAVGTCCCAGCTATTT	MEME-3	SYCTTTAGTTHAATTAVGTCCCAGCTATTT	HOCOMOCOv11_full_HUMAN_mono_meme_format	FOXB1_HUMAN.H11MO.0.D	.	RTMAATRTTTACATAAB	1	1	HOCOMOCOv11_full_HUMAN_mono_meme_format	GLI3_HUMAN.H11MO.0.B	.	9.57e+00	27	0	2	3	1.12e-06	1.01e-05
meme.xml	SYCTTTAGTTHAATTAVGTCCCAGCTATTT	MEME-3	SYCTTTAGTTHAATTAVGTCCCAGCTATTT	HOCOMOCOv11_full_HUMAN_mono_meme_format	FOXB1_HUMAN.H11MO.0.D	.	RTMAATRTTTACATAAB	1	1	HOCOMOCOv11_full_HUMAN_mono_meme_format	GLI3_HUMAN.H11MO.0.B	.	9.57e+00	27	4	2	3	4.49e-06	4.04e-05
meme.xml	SYCTTTAGTTHAATTAVGTCCCAGCTATTT	MEME-3	SYCTTTAGTTHAATTAVGTCCCAGCTATTT	HOCOMOCOv11_full_HUMAN_mono_meme_format	FOXB1_HUMAN.H11MO.0.D	.	RTMAATRTTTACATAAB	1	1	HOCOMOCOv11_full_HUMAN_mono_meme_format	GLI3_HUMAN.H11MO.0.B	.	9.57e+00	27	5	2	3	4.49e-06	4.04e-05
meme.xml	SYCTTTAGTTHAATTAVGTCCCAGCTATTT	MEME-3	SYCTTTAGTTHAATTAVGTCCCAGCTATTT	HOCOMOCOv11_full_HUMAN_mono_meme_format	FOXC2_HUMAN.H11MO.0.D	.	GTTTGTTTWSHYAGR	0	0	HOCOMOCOv11_full_HUMAN_mono_meme_format	GLI3_HUMAN.H11MO.0.B	.	9.57e+00	26	0	2	3	1.12e-06	1.01e-05
meme.xml	SYCTTTAGTTHAATTAVGTCCCAGCTATTT	MEME-3	SYCTTTAGTTHAATTAVGTCCCAGCTATTT	HOCOMOCOv11_full_HUMAN_mono_meme_format	FOXC2_HUMAN.H11MO.0.D	.	GTTTGTTTWSHYAGR	0	0	HOCOMOCOv11_full_HUMAN_mono_meme_format	GLI3_HUMAN.H11MO.0.B	.	9.57e+00	26	4	2	3	4.49e-06	4.04e-05
meme.xml	SYCTTTAGTTHAATTAVGTCCCAGCTATTT	MEME-3	SYCTTTAGTTHAATTAVGTCCCAGCTATTT	HOCOMOCOv11_full_HUMAN_mono_meme_format	FOXC2_HUMAN.H11MO.0.D	.	GTTTGTTTWSHYAGR	0	0	HOCOMOCOv11_full_HUMAN_mono_meme_format	GLI3_HUMAN.H11MO.0.B	.	9.57e+00	26	5	2	3	4.49e-06	4.04e-05
meme.xml	SYCTTTAGTTHAATTAVGTCCCAGCTATTT	MEME-3	SYCTTTAGTTHAATTAVGTCCCAGCTATTT	HOCOMOCOv11_full_HUMAN_mono_meme_format	FOXD1_HUMAN.H11MO.0.D	.	CWWTGTTTACHTWVR	0	0	HOCOMOCOv11_full_HUMAN_mono_meme_format	GLI3_HUMAN.H11MO.0.B	.	9.57e+00	26	0	2	3	1.12e-06	1.01e-05
meme.xml	SYCTTTAGTTHAATTAVGTCCCAGCTATTT	MEME-3	SYCTTTAGTTHAATTAVGTCCCAGCTATTT	HOCOMOCOv11_full_HUMAN_mono_meme_format	FOXD1_HUMAN.H11MO.0.D	.	CWWTGTTTACHTWVR	0	0	HOCOMOCOv11_full_HUMAN_mono_meme_format	GLI3_HUMAN.H11MO.0.B	.	9.57e+00	26	4	2	3	4.49e-06	4.04e-05
meme.xml	SYCTTTAGTTHAATTAVGTCCCAGCTATTT	MEME-3	SYCTTTAGTTHAATTAVGTCCCAGCTATTT	HOCOMOCOv11_full_HUMAN_mono_meme_format	FOXD1_HUMAN.H11MO.0.D	.	CWWTGTTTACHTWVR	0	0	HOCOMOCOv11_full_HUMAN_mono_meme_format	GLI3_HUMAN.H11MO.0.B	.	9.57e+00	26	5	2	3	4.49e-06	4.04e-05
meme.xml	SYCTTTAGTTHAATTAVGTCCCAGCTATTT	MEME-3	SYCTTTAGTTHAATTAVGTCCCAGCTATTT	HOCOMOCOv11_full_HUMAN_mono_meme_format	ZSC31_HUMAN.H11MO.0.C	.	RGCAGCAGGGCARTTAKR	0	0	HOCOMOCOv11_full_HUMAN_mono_meme_format	GLI3_HUMAN.H11MO.0.B	.	9.78e+00	22	1	2	3	1.18e-06	1.06e-05
meme.xml	SYCTTTAGTTHAATTAVGTCCCAGCTATTT	MEME-3	SYCTTTAGTTHAATTAVGTCCCAGCTATTT	HOCOMOCOv11_full_HUMAN_mono_meme_format	ZSC31_HUMAN.H11MO.0.C	.	RGCAGCAGGGCARTTAKR	0	0	HOCOMOCOv11_full_HUMAN_mono_meme_format	GLI3_HUMAN.H11MO.0.B	.	9.78e+00	22	4	2	3	4.70e-06	4.23e-05
meme.xml	SYCTTTAGTTHAATTAVGTCCCAGCTATTT	MEME-3	SYCTTTAGTTHAATTAVGTCCCAGCTATTT	HOCOMOCOv11_full_HUMAN_mono_meme_format	ZSC31_HUMAN.H11MO.0.C	.	RGCAGCAGGGCARTTAKR	0	0	HOCOMOCOv11_full_HUMAN_mono_meme_format	GLI3_HUMAN.H11MO.0.B	.	9.78e+00	22	6	2	3	4.70e-06	4.23e-05
meme.xml	SYCTTTAGTTHAATTAVGTCCCAGCTATTT	MEME-3	SYCTTTAGTTHAATTAVGTCCCAGCTATTT	HOCOMOCOv11_full_HUMAN_mono_meme_format	TF65_HUMAN.H11MO.0.A	.	HWGGGRATTTCCMV	1	1	.	.	.	3.14e+00	69	2	2	2	3.59e-07	3.23e-06
meme.xml	SYCTTTAGTTHAATTAVGTCCCAGCTATTT	MEME-3	SYCTTTAGTTHAATTAVGTCCCAGCTATTT	HOCOMOCOv11_full_HUMAN_mono_meme_format	TF65_HUMAN.H11MO.0.A	.	HWGGGRATTTCCMV	1	1	.	.	.	3.14e+00	69	6	2	2	1.44e-06	1.29e-05
meme.xml	SYCTTTAGTTHAATTAVGTCCCAGCTATTT	MEME-3	SYCTTTAGTTHAATTAVGTCCCAGCTATTT	HOCOMOCOv11_full_HUMAN_mono_meme_format	TF65_HUMAN.H11MO.0.A	.	HWGGGRATTTCCMV	1	1	.	.	.	3.14e+00	69	7	2	2	1.44e-06	1.29e-05
meme.xml	SYCTTTAGTTHAATTAVGTCCCAGCTATTT	MEME-3	SYCTTTAGTTHAATTAVGTCCCAGCTATTT	HOCOMOCOv11_full_HUMAN_mono_meme_format	SPI1_HUMAN.H11MO.0.A	.	RRAAAGAGGAAGTGRVD	1	2	.	.	.	3.18e+00	10	1	2	2	3.70e-07	3.33e-06
meme.xml	SYCTTTAGTTHAATTAVGTCCCAGCTATTT	MEME-3	SYCTTTAGTTHAATTAVGTCCCAGCTATTT	HOCOMOCOv11_full_HUMAN_mono_meme_format	SPI1_HUMAN.H11MO.0.A	.	RRAAAGAGGAAGTGRVD	1	2	.	.	.	3.18e+00	10	4	2	2	1.48e-06	1.33e-05
meme.xml	SYCTTTAGTTHAATTAVGTCCCAGCTATTT	MEME-3	SYCTTTAGTTHAATTAVGTCCCAGCTATTT	HOCOMOCOv11_full_HUMAN_mono_meme_format	SPI1_HUMAN.H11MO.0.A	.	RRAAAGAGGAAGTGRVD	1	2	.	.	.	3.18e+00	10	6	2	2	1.48e-06	1.33e-05
meme.xml	SYCTTTAGTTHAATTAVGTCCCAGCTATTT	MEME-3	SYCTTTAGTTHAATTAVGTCCCAGCTATTT	HOCOMOCOv11_full_HUMAN_mono_meme_format	ZN394_HUMAN.H11MO.1.D	.	GAAWGGAAW	0	0	HOCOMOCOv11_full_HUMAN_mono_meme_format	SPI1_HUMAN.H11MO.0.A	.	9.17e+00	12	1	2	3	1.03e-06	9.29e-06
meme.xml	SYCTTTAGTTHAATTAVGTCCCAGCTATTT	MEME-3	SYCTTTAGTTHAATTAVGTCCCAGCTATTT	HOCOMOCOv11_full_HUMAN_mono_meme_format	ZN394_HUMAN.H11MO.1.D	.	GAAWGGAAW	0	0	HOCOMOCOv11_full_HUMAN_mono_meme_format	SPI1_HUMAN.H11MO.0.A	.	9.17e+00	12	4	2	3	4.12e-06	3.71e-05
meme.xml	SYCTTTAGTTHAATTAVGTCCCAGCTATTT	MEME-3	SYCTTTAGTTHAATTAVGTCCCAGCTATTT	HOCOMOCOv11_full_HUMAN_mono_meme_format	ZN394_HUMAN.H11MO.1.D	.	GAAWGGAAW	0	0	HOCOMOCOv11_full_HUMAN_mono_meme_format	SPI1_HUMAN.H11MO.0.A	.	9.17e+00	12	6	2	3	4.12e-06	3.71e-05
meme.xml	SYCTTTAGTTHAATTAVGTCCCAGCTATTT	MEME-3	SYCTTTAGTTHAATTAVGTCCCAGCTATTT	HOCOMOCOv11_full_HUMAN_mono_meme_format	ZN708_HUMAN.H11MO.1.D	.	AGGYACAGC	0	0	HOCOMOCOv11_full_HUMAN_mono_meme_format	SPI1_HUMAN.H11MO.0.A	.	9.17e+00	15	1	2	3	1.03e-06	9.29e-06
meme.xml	SYCTTTAGTTHAATTAVGTCCCAGCTATTT	MEME-3	SYCTTTAGTTHAATTAVGTCCCAGCTATTT	HOCOMOCOv11_full_HUMAN_mono_meme_format	ZN708_HUMAN.H11MO.1.D	.	AGGYACAGC	0	0	HOCOMOCOv11_full_HUMAN_mono_meme_format	SPI1_HUMAN.H11MO.0.A	.	9.17e+00	15	4	2	3	4.12e-06	3.71e-05
meme.xml	SYCTTTAGTTHAATTAVGTCCCAGCTATTT	MEME-3	SYCTTTAGTTHAATTAVGTCCCAGCTATTT	HOCOMOCOv11_full_HUMAN_mono_meme_format	ZN708_HUMAN.H11MO.1.D	.	AGGYACAGC	0	0	HOCOMOCOv11_full_HUMAN_mono_meme_format	SPI1_HUMAN.H11MO.0.A	.	9.17e+00	15	6	2	3	4.12e-06	3.71e-05
meme.xml	SYCTTTAGTTHAATTAVGTCCCAGCTATTT	MEME-3	SYCTTTAGTTHAATTAVGTCCCAGCTATTT	HOCOMOCOv11_full_HUMAN_mono_meme_format	TBX20_HUMAN.H11MO.0.D	.	DRGTGHTGACAGSH	1	1	HOCOMOCOv11_full_HUMAN_mono_meme_format	SPI1_HUMAN.H11MO.0.A	.	9.36e+00	19	0	2	3	1.08e-06	9.69e-06
meme.xml	SYCTTTAGTTHAATTAVGTCCCAGCTATTT	MEME-3	SYCTTTAGTTHAATTAVGTCCCAGCTATTT	HOCOMOCOv11_full_HUMAN_mono_meme_format	TBX20_HUMAN.H11MO.0.D	.	DRGTGHTGACAGSH	1	1	HOCOMOCOv11_full_HUMAN_mono_meme_format	SPI1_HUMAN.H11MO.0.A	.	9.36e+00	19	4	2	3	4.30e-06	3.87e-05
meme.xml	SYCTTTAGTTHAATTAVGTCCCAGCTATTT	MEME-3	SYCTTTAGTTHAATTAVGTCCCAGCTATTT	HOCOMOCOv11_full_HUMAN_mono_meme_format	TBX20_HUMAN.H11MO.0.D	.	DRGTGHTGACAGSH	1	1	HOCOMOCOv11_full_HUMAN_mono_meme_format	SPI1_HUMAN.H11MO.0.A	.	9.36e+00	19	5	2	3	4.30e-06	3.87e-05
meme.xml	SYCTTTAGTTHAATTAVGTCCCAGCTATTT	MEME-3	SYCTTTAGTTHAATTAVGTCCCAGCTATTT	HOCOMOCOv11_full_HUMAN_mono_meme_format	SOX2_HUMAN.H11MO.1.A	.	BCCWTTGTYATGYWRA	1	0	HOCOMOCOv11_full_HUMAN_mono_meme_format	SPI1_HUMAN.H11MO.0.A	.	9.57e+00	2	0	2	3	1.12e-06	1.01e-05
meme.xml	SYCTTTAGTTHAATTAVGTCCCAGCTATTT	MEME-3	SYCTTTAGTTHAATTAVGTCCCAGCTATTT	HOCOMOCOv11_full_HUMAN_mono_meme_format	SOX2_HUMAN.H11MO.1.A	.	BCCWTTGTYATGYWRA	1	0	HOCOMOCOv11_full_HUMAN_mono_meme_format	SPI1_HUMAN.H11MO.0.A	.	9.57e+00	2	4	2	3	4.49e-06	4.04e-05
meme.xml	SYCTTTAGTTHAATTAVGTCCCAGCTATTT	MEME-3	SYCTTTAGTTHAATTAVGTCCCAGCTATTT	HOCOMOCOv11_full_HUMAN_mono_meme_format	SOX2_HUMAN.H11MO.1.A	.	BCCWTTGTYATGYWRA	1	0	HOCOMOCOv11_full_HUMAN_mono_meme_format	SPI1_HUMAN.H11MO.0.A	.	9.57e+00	2	5	2	3	4.49e-06	4.04e-05
meme.xml	SYCTTTAGTTHAATTAVGTCCCAGCTATTT	MEME-3	SYCTTTAGTTHAATTAVGTCCCAGCTATTT	HOCOMOCOv11_full_HUMAN_mono_meme_format	MAFG_HUMAN.H11MO.0.A	.	RWWWNTGCTGASTCAGCA	1	0	HOCOMOCOv11_full_HUMAN_mono_meme_format	SPI1_HUMAN.H11MO.0.A	.	9.71e+00	16	0	2	3	1.16e-06	1.04e-05
meme.xml	SYCTTTAGTTHAATTAVGTCCCAGCTATTT	MEME-3	SYCTTTAGTTHAATTAVGTCCCAGCTATTT	HOCOMOCOv11_full_HUMAN_mono_meme_format	MAFG_HUMAN.H11MO.0.A	.	RWWWNTGCTGASTCAGCA	1	0	HOCOMOCOv11_full_HUMAN_mono_meme_format	SPI1_HUMAN.H11MO.0.A	.	9.71e+00	16	4	2	3	4.63e-06	4.17e-05
meme.xml	SYCTTTAGTTHAATTAVGTCCCAGCTATTT	MEME-3	SYCTTTAGTTHAATTAVGTCCCAGCTATTT	HOCOMOCOv11_full_HUMAN_mono_meme_format	MAFG_HUMAN.H11MO.0.A	.	RWWWNTGCTGASTCAGCA	1	0	HOCOMOCOv11_full_HUMAN_mono_meme_format	SPI1_HUMAN.H11MO.0.A	.	9.71e+00	16	5	2	3	4.63e-06	4.17e-05
meme.xml	SYCTTTAGTTHAATTAVGTCCCAGCTATTT	MEME-3	SYCTTTAGTTHAATTAVGTCCCAGCTATTT	HOCOMOCOv11_full_HUMAN_mono_meme_format	MAFK_HUMAN.H11MO.0.A	.	RAWWHTGCTGASTCAGCA	1	0	HOCOMOCOv11_full_HUMAN_mono_meme_format	SPI1_HUMAN.H11MO.0.A	.	9.71e+00	16	0	2	3	1.16e-06	1.04e-05
meme.xml	SYCTTTAGTTHAATTAVGTCCCAGCTATTT	MEME-3	SYCTTTAGTTHAATTAVGTCCCAGCTATTT	HOCOMOCOv11_full_HUMAN_mono_meme_format	MAFK_HUMAN.H11MO.0.A	.	RAWWHTGCTGASTCAGCA	1	0	HOCOMOCOv11_full_HUMAN_mono_meme_format	SPI1_HUMAN.H11MO.0.A	.	9.71e+00	16	4	2	3	4.63e-06	4.17e-05
meme.xml	SYCTTTAGTTHAATTAVGTCCCAGCTATTT	MEME-3	SYCTTTAGTTHAATTAVGTCCCAGCTATTT	HOCOMOCOv11_full_HUMAN_mono_meme_format	MAFK_HUMAN.H11MO.0.A	.	RAWWHTGCTGASTCAGCA	1	0	HOCOMOCOv11_full_HUMAN_mono_meme_format	SPI1_HUMAN.H11MO.0.A	.	9.71e+00	16	5	2	3	4.63e-06	4.17e-05
meme.xml	SYCTTTAGTTHAATTAVGTCCCAGCTATTT	MEME-3	SYCTTTAGTTHAATTAVGTCCCAGCTATTT	HOCOMOCOv11_full_HUMAN_mono_meme_format	MNX1_HUMAN.H11MO.0.D	.	MBATTTDHWTHWCYHYTHH	0	3	.	.	.	3.23e+00	69	3	2	2	3.81e-07	3.43e-06
meme.xml	SYCTTTAGTTHAATTAVGTCCCAGCTATTT	MEME-3	SYCTTTAGTTHAATTAVGTCCCAGCTATTT	HOCOMOCOv11_full_HUMAN_mono_meme_format	MNX1_HUMAN.H11MO.0.D	.	MBATTTDHWTHWCYHYTHH	0	3	.	.	.	3.23e+00	69	5	2	2	1.52e-06	1.37e-05
meme.xml	SYCTTTAGTTHAATTAVGTCCCAGCTATTT	MEME-3	SYCTTTAGTTHAATTAVGTCCCAGCTATTT	HOCOMOCOv11_full_HUMAN_mono_meme_format	MNX1_HUMAN.H11MO.0.D	.	MBATTTDHWTHWCYHYTHH	0	3	.	.	.	3.23e+00	69	7	2	2	1.52e-06	1.37e-05
meme.xml	SYCTTTAGTTHAATTAVGTCCCAGCTATTT	MEME-3	SYCTTTAGTTHAATTAVGTCCCAGCTATTT	HOCOMOCOv11_full_HUMAN_mono_meme_format	PO2F1_HUMAN.H11MO.0.C	.	AWKBRWATGSAAWYAW	0	0	.	.	.	3.23e+00	9	3	2	2	3.81e-07	3.43e-06
meme.xml	SYCTTTAGTTHAATTAVGTCCCAGCTATTT	MEME-3	SYCTTTAGTTHAATTAVGTCCCAGCTATTT	HOCOMOCOv11_full_HUMAN_mono_meme_format	PO2F1_HUMAN.H11MO.0.C	.	AWKBRWATGSAAWYAW	0	0	.	.	.	3.23e+00	9	5	2	2	1.52e-06	1.37e-05
meme.xml	SYCTTTAGTTHAATTAVGTCCCAGCTATTT	MEME-3	SYCTTTAGTTHAATTAVGTCCCAGCTATTT	HOCOMOCOv11_full_HUMAN_mono_meme_format	PO2F1_HUMAN.H11MO.0.C	.	AWKBRWATGSAAWYAW	0	0	.	.	.	3.23e+00	9	7	2	2	1.52e-06	1.37e-05
meme.xml	SYCTTTAGTTHAATTAVGTCCCAGCTATTT	MEME-3	SYCTTTAGTTHAATTAVGTCCCAGCTATTT	meme.xml	AGATAAYAKYRRAWAAAMYCT	MEME-4	AGATAAYAKYRRAWAAAMYCT	0	0	.	.	.	3.35e+00	69	3	2	2	4.11e-07	3.70e-06
meme.xml	SYCTTTAGTTHAATTAVGTCCCAGCTATTT	MEME-3	SYCTTTAGTTHAATTAVGTCCCAGCTATTT	meme.xml	AGATAAYAKYRRAWAAAMYCT	MEME-4	AGATAAYAKYRRAWAAAMYCT	0	0	.	.	.	3.35e+00	69	5	2	2	1.64e-06	1.48e-05
meme.xml	SYCTTTAGTTHAATTAVGTCCCAGCTATTT	MEME-3	SYCTTTAGTTHAATTAVGTCCCAGCTATTT	meme.xml	AGATAAYAKYRRAWAAAMYCT	MEME-4	AGATAAYAKYRRAWAAAMYCT	0	0	.	.	.	3.35e+00	69	7	2	2	1.64e-06	1.48e-05
meme.xml	SYCTTTAGTTHAATTAVGTCCCAGCTATTT	MEME-3	SYCTTTAGTTHAATTAVGTCCCAGCTATTT	HOCOMOCOv11_full_HUMAN_mono_meme_format	ZN214_HUMAN.H11MO.0.C	.	WCMWTYYTRWGSMHYTTGATGA	1	0	.	.	.	3.35e+00	5	2	2	2	4.11e-07	3.70e-06
meme.xml	SYCTTTAGTTHAATTAVGTCCCAGCTATTT	MEME-3	SYCTTTAGTTHAATTAVGTCCCAGCTATTT	HOCOMOCOv11_full_HUMAN_mono_meme_format	ZN214_HUMAN.H11MO.0.C	.	WCMWTYYTRWGSMHYTTGATGA	1	0	.	.	.	3.35e+00	5	6	2	2	1.64e-06	1.48e-05
meme.xml	SYCTTTAGTTHAATTAVGTCCCAGCTATTT	MEME-3	SYCTTTAGTTHAATTAVGTCCCAGCTATTT	HOCOMOCOv11_full_HUMAN_mono_meme_format	ZN214_HUMAN.H11MO.0.C	.	WCMWTYYTRWGSMHYTTGATGA	1	0	.	.	.	3.35e+00	5	7	2	2	1.64e-06	1.48e-05
meme.xml	SYCTTTAGTTHAATTAVGTCCCAGCTATTT	MEME-3	SYCTTTAGTTHAATTAVGTCCCAGCTATTT	meme.xml	CCCAAAAGCAAATGCAATAAAAACAAAGAT	MEME-1	CCCAAAAGCAAATGCAATAAAAACAAAGAT	0	0	.	.	.	3.60e+00	0	3	2	2	4.74e-07	4.27e-06
meme.xml	SYCTTTAGTTHAATTAVGTCCCAGCTATTT	MEME-3	SYCTTTAGTTHAATTAVGTCCCAGCTATTT	meme.xml	CCCAAAAGCAAATGCAATAAAAACAAAGAT	MEME-1	CCCAAAAGCAAATGCAATAAAAACAAAGAT	0	0	.	.	.	3.60e+00	0	5	2	2	1.90e-06	1.71e-05
meme.xml	SYCTTTAGTTHAATTAVGTCCCAGCTATTT	MEME-3	SYCTTTAGTTHAATTAVGTCCCAGCTATTT	meme.xml	CCCAAAAGCAAATGCAATAAAAACAAAGAT	MEME-1	CCCAAAAGCAAATGCAATAAAAACAAAGAT	0	0	.	.	.	3.60e+00	0	7	2	2	1.90e-06	1.71e-05
meme.xml	SYCTTTAGTTHAATTAVGTCCCAGCTATTT	MEME-3	SYCTTTAGTTHAATTAVGTCCCAGCTATTT	HOCOMOCOv11_full_HUMAN_mono_meme_format	HSF2_HUMAN.H11MO.0.A	.	VGAABRTTCTAGAA	1	0	.	.	.	5.39e+00	84	7	3	10	6.22e-07	5.60e-06
meme.xml	SYCTTTAGTTHAATTAVGTCCCAGCTATTT	MEME-3	SYCTTTAGTTHAATTAVGTCCCAGCTATTT	HOCOMOCOv11_full_HUMAN_mono_meme_format	GATA1_HUMAN.H11MO.1.A	.	DSAGATAAGVV	2	2	.	.	.	9.04e+00	83	3	2	3	1.00e-06	9.03e-06
meme.xml	SYCTTTAGTTHAATTAVGTCCCAGCTATTT	MEME-3	SYCTTTAGTTHAATTAVGTCCCAGCTATTT	HOCOMOCOv11_full_HUMAN_mono_meme_format	GATA1_HUMAN.H11MO.1.A	.	DSAGATAAGVV	2	2	.	.	.	9.04e+00	83	5	2	3	4.01e-06	3.61e-05
meme.xml	SYCTTTAGTTHAATTAVGTCCCAGCTATTT	MEME-3	SYCTTTAGTTHAATTAVGTCCCAGCTATTT	HOCOMOCOv11_full_HUMAN_mono_meme_format	GATA1_HUMAN.H11MO.1.A	.	DSAGATAAGVV	2	2	.	.	.	9.04e+00	83	7	2	3	4.01e-06	3.61e-05
meme.xml	SYCTTTAGTTHAATTAVGTCCCAGCTATTT	MEME-3	SYCTTTAGTTHAATTAVGTCCCAGCTATTT	HOCOMOCOv11_full_HUMAN_mono_meme_format	GATA4_HUMAN.H11MO.0.A	.	DSAGATAAGA	2	0	.	.	.	9.10e+00	82	3	2	3	1.02e-06	9.16e-06
meme.xml	SYCTTTAGTTHAATTAVGTCCCAGCTATTT	MEME-3	SYCTTTAGTTHAATTAVGTCCCAGCTATTT	HOCOMOCOv11_full_HUMAN_mono_meme_format	GATA4_HUMAN.H11MO.0.A	.	DSAGATAAGA	2	0	.	.	.	9.10e+00	82	5	2	3	4.07e-06	3.66e-05
meme.xml	SYCTTTAGTTHAATTAVGTCCCAGCTATTT	MEME-3	SYCTTTAGTTHAATTAVGTCCCAGCTATTT	HOCOMOCOv11_full_HUMAN_mono_meme_format	GATA4_HUMAN.H11MO.0.A	.	DSAGATAAGA	2	0	.	.	.	9.10e+00	82	7	2	3	4.07e-06	3.66e-05
meme.xml	SYCTTTAGTTHAATTAVGTCCCAGCTATTT	MEME-3	SYCTTTAGTTHAATTAVGTCCCAGCTATTT	HOCOMOCOv11_full_HUMAN_mono_meme_format	HXC12_HUMAN.H11MO.0.D	.	DTTTTAYKACYT	1	2	.	.	.	9.17e+00	8	2	2	3	1.03e-06	9.29e-06
meme.xml	SYCTTTAGTTHAATTAVGTCCCAGCTATTT	MEME-3	SYCTTTAGTTHAATTAVGTCCCAGCTATTT	HOCOMOCOv11_full_HUMAN_mono_meme_format	HXC12_HUMAN.H11MO.0.D	.	DTTTTAYKACYT	1	2	.	.	.	9.17e+00	8	6	2	3	4.12e-06	3.71e-05
meme.xml	SYCTTTAGTTHAATTAVGTCCCAGCTATTT	MEME-3	SYCTTTAGTTHAATTAVGTCCCAGCTATTT	HOCOMOCOv11_full_HUMAN_mono_meme_format	HXC12_HUMAN.H11MO.0.D	.	DTTTTAYKACYT	1	2	.	.	.	9.17e+00	8	7	2	3	4.12e-06	3.71e-05
meme.xml	SYCTTTAGTTHAATTAVGTCCCAGCTATTT	MEME-3	SYCTTTAGTTHAATTAVGTCCCAGCTATTT	HOCOMOCOv11_full_HUMAN_mono_meme_format	PDX1_HUMAN.H11MO.0.A	.	TGATTGATK	0	0	.	.	.	9.17e+00	131	3	2	3	1.03e-06	9.29e-06
meme.xml	SYCTTTAGTTHAATTAVGTCCCAGCTATTT	MEME-3	SYCTTTAGTTHAATTAVGTCCCAGCTATTT	HOCOMOCOv11_full_HUMAN_mono_meme_format	PDX1_HUMAN.H11MO.0.A	.	TGATTGATK	0	0	.	.	.	9.17e+00	131	5	2	3	4.12e-06	3.71e-05
meme.xml	SYCTTTAGTTHAATTAVGTCCCAGCTATTT	MEME-3	SYCTTTAGTTHAATTAVGTCCCAGCTATTT	HOCOMOCOv11_full_HUMAN_mono_meme_format	PDX1_HUMAN.H11MO.0.A	.	TGATTGATK	0	0	.	.	.	9.17e+00	131	7	2	3	4.12e-06	3.71e-05
meme.xml	SYCTTTAGTTHAATTAVGTCCCAGCTATTT	MEME-3	SYCTTTAGTTHAATTAVGTCCCAGCTATTT	HOCOMOCOv11_full_HUMAN_mono_meme_format	GATA6_HUMAN.H11MO.0.A	.	DVAGATAAGAWAA	2	1	.	.	.	9.23e+00	80	3	2	3	1.05e-06	9.42e-06
meme.xml	SYCTTTAGTTHAATTAVGTCCCAGCTATTT	MEME-3	SYCTTTAGTTHAATTAVGTCCCAGCTATTT	HOCOMOCOv11_full_HUMAN_mono_meme_format	GATA6_HUMAN.H11MO.0.A	.	DVAGATAAGAWAA	2	1	.	.	.	9.23e+00	80	5	2	3	4.18e-06	3.76e-05
meme.xml	SYCTTTAGTTHAATTAVGTCCCAGCTATTT	MEME-3	SYCTTTAGTTHAATTAVGTCCCAGCTATTT	HOCOMOCOv11_full_HUMAN_mono_meme_format	GATA6_HUMAN.H11MO.0.A	.	DVAGATAAGAWAA	2	1	.	.	.	9.23e+00	80	7	2	3	4.18e-06	3.76e-05
meme.xml	SYCTTTAGTTHAATTAVGTCCCAGCTATTT	MEME-3	SYCTTTAGTTHAATTAVGTCCCAGCTATTT	HOCOMOCOv11_full_HUMAN_mono_meme_format	NKX31_HUMAN.H11MO.0.C	.	NTWAAGTGBTTD	1	1	.	.	.	9.23e+00	121	2	2	3	1.05e-06	9.42e-06
meme.xml	SYCTTTAGTTHAATTAVGTCCCAGCTATTT	MEME-3	SYCTTTAGTTHAATTAVGTCCCAGCTATTT	HOCOMOCOv11_full_HUMAN_mono_meme_format	NKX31_HUMAN.H11MO.0.C	.	NTWAAGTGBTTD	1	1	.	.	.	9.23e+00	121	6	2	3	4.18e-06	3.76e-05
meme.xml	SYCTTTAGTTHAATTAVGTCCCAGCTATTT	MEME-3	SYCTTTAGTTHAATTAVGTCCCAGCTATTT	HOCOMOCOv11_full_HUMAN_mono_meme_format	NKX31_HUMAN.H11MO.0.C	.	NTWAAGTGBTTD	1	1	.	.	.	9.23e+00	121	7	2	3	4.18e-06	3.76e-05
meme.xml	SYCTTTAGTTHAATTAVGTCCCAGCTATTT	MEME-3	SYCTTTAGTTHAATTAVGTCCCAGCTATTT	HOCOMOCOv11_full_HUMAN_mono_meme_format	ALX1_HUMAN.H11MO.0.B	.	RTAATTRVATTA	1	0	.	.	.	9.30e+00	10	2	2	3	1.06e-06	9.55e-06
meme.xml	SYCTTTAGTTHAATTAVGTCCCAGCTATTT	MEME-3	SYCTTTAGTTHAATTAVGTCCCAGCTATTT	HOCOMOCOv11_full_HUMAN_mono_meme_format	ALX1_HUMAN.H11MO.0.B	.	RTAATTRVATTA	1	0	.	.	.	9.30e+00	10	6	2	3	4.24e-06	3.82e-05
meme.xml	SYCTTTAGTTHAATTAVGTCCCAGCTATTT	MEME-3	SYCTTTAGTTHAATTAVGTCCCAGCTATTT	HOCOMOCOv11_full_HUMAN_mono_meme_format	ALX1_HUMAN.H11MO.0.B	.	RTAATTRVATTA	1	0	.	.	.	9.30e+00	10	7	2	3	4.24e-06	3.82e-05
meme.xml	SYCTTTAGTTHAATTAVGTCCCAGCTATTT	MEME-3	SYCTTTAGTTHAATTAVGTCCCAGCTATTT	HOCOMOCOv11_full_HUMAN_mono_meme_format	FOXA3_HUMAN.H11MO.0.B	.	CHTGTTTACWTWG	2	0	.	.	.	9.30e+00	27	0	2	3	1.06e-06	9.55e-06
meme.xml	SYCTTTAGTTHAATTAVGTCCCAGCTATTT	MEME-3	SYCTTTAGTTHAATTAVGTCCCAGCTATTT	HOCOMOCOv11_full_HUMAN_mono_meme_format	FOXA3_HUMAN.H11MO.0.B	.	CHTGTTTACWTWG	2	0	.	.	.	9.30e+00	27	4	2	3	4.24e-06	3.82e-05
meme.xml	SYCTTTAGTTHAATTAVGTCCCAGCTATTT	MEME-3	SYCTTTAGTTHAATTAVGTCCCAGCTATTT	HOCOMOCOv11_full_HUMAN_mono_meme_format	FOXA3_HUMAN.H11MO.0.B	.	CHTGTTTACWTWG	2	0	.	.	.	9.30e+00	27	5	2	3	4.24e-06	3.82e-05
meme.xml	SYCTTTAGTTHAATTAVGTCCCAGCTATTT	MEME-3	SYCTTTAGTTHAATTAVGTCCCAGCTATTT	HOCOMOCOv11_full_HUMAN_mono_meme_format	PROP1_HUMAN.H11MO.0.D	.	TAATTRRATTA	0	0	.	.	.	9.30e+00	10	2	2	3	1.06e-06	9.55e-06
meme.xml	SYCTTTAGTTHAATTAVGTCCCAGCTATTT	MEME-3	SYCTTTAGTTHAATTAVGTCCCAGCTATTT	HOCOMOCOv11_full_HUMAN_mono_meme_format	PROP1_HUMAN.H11MO.0.D	.	TAATTRRATTA	0	0	.	.	.	9.30e+00	10	6	2	3	4.24e-06	3.82e-05
meme.xml	SYCTTTAGTTHAATTAVGTCCCAGCTATTT	MEME-3	SYCTTTAGTTHAATTAVGTCCCAGCTATTT	HOCOMOCOv11_full_HUMAN_mono_meme_format	PROP1_HUMAN.H11MO.0.D	.	TAATTRRATTA	0	0	.	.	.	9.30e+00	10	7	2	3	4.24e-06	3.82e-05
meme.xml	SYCTTTAGTTHAATTAVGTCCCAGCTATTT	MEME-3	SYCTTTAGTTHAATTAVGTCCCAGCTATTT	HOCOMOCOv11_full_HUMAN_mono_meme_format	ZEP1_HUMAN.H11MO.0.D	.	TGGGAAATCCCB	0	1	.	.	.	9.30e+00	70	3	2	3	1.06e-06	9.55e-06
meme.xml	SYCTTTAGTTHAATTAVGTCCCAGCTATTT	MEME-3	SYCTTTAGTTHAATTAVGTCCCAGCTATTT	HOCOMOCOv11_full_HUMAN_mono_meme_format	ZEP1_HUMAN.H11MO.0.D	.	TGGGAAATCCCB	0	1	.	.	.	9.30e+00	70	5	2	3	4.24e-06	3.82e-05
meme.xml	SYCTTTAGTTHAATTAVGTCCCAGCTATTT	MEME-3	SYCTTTAGTTHAATTAVGTCCCAGCTATTT	HOCOMOCOv11_full_HUMAN_mono_meme_format	ZEP1_HUMAN.H11MO.0.D	.	TGGGAAATCCCB	0	1	.	.	.	9.30e+00	70	7	2	3	4.24e-06	3.82e-05
meme.xml	SYCTTTAGTTHAATTAVGTCCCAGCTATTT	MEME-3	SYCTTTAGTTHAATTAVGTCCCAGCTATTT	HOCOMOCOv11_full_HUMAN_mono_meme_format	CDX2_HUMAN.H11MO.0.A	.	TTTTATTGCWBT	0	0	.	.	.	9.36e+00	8	2	2	3	1.08e-06	9.69e-06
meme.xml	SYCTTTAGTTHAATTAVGTCCCAGCTATTT	MEME-3	SYCTTTAGTTHAATTAVGTCCCAGCTATTT	HOCOMOCOv11_full_HUMAN_mono_meme_format	CDX2_HUMAN.H11MO.0.A	.	TTTTATTGCWBT	0	0	.	.	.	9.36e+00	8	6	2	3	4.30e-06	3.87e-05
meme.xml	SYCTTTAGTTHAATTAVGTCCCAGCTATTT	MEME-3	SYCTTTAGTTHAATTAVGTCCCAGCTATTT	HOCOMOCOv11_full_HUMAN_mono_meme_format	CDX2_HUMAN.H11MO.0.A	.	TTTTATTGCWBT	0	0	.	.	.	9.36e+00	8	7	2	3	4.30e-06	3.87e-05
meme.xml	SYCTTTAGTTHAATTAVGTCCCAGCTATTT	MEME-3	SYCTTTAGTTHAATTAVGTCCCAGCTATTT	HOCOMOCOv11_full_HUMAN_mono_meme_format	ZN257_HUMAN.H11MO.0.C	.	GMYCTTGCCTCW	0	0	.	.	.	9.36e+00	44	2	2	3	1.08e-06	9.69e-06
meme.xml	SYCTTTAGTTHAATTAVGTCCCAGCTATTT	MEME-3	SYCTTTAGTTHAATTAVGTCCCAGCTATTT	HOCOMOCOv11_full_HUMAN_mono_meme_format	ZN257_HUMAN.H11MO.0.C	.	GMYCTTGCCTCW	0	0	.	.	.	9.36e+00	44	6	2	3	4.30e-06	3.87e-05
meme.xml	SYCTTTAGTTHAATTAVGTCCCAGCTATTT	MEME-3	SYCTTTAGTTHAATTAVGTCCCAGCTATTT	HOCOMOCOv11_full_HUMAN_mono_meme_format	ZN257_HUMAN.H11MO.0.C	.	GMYCTTGCCTCW	0	0	.	.	.	9.36e+00	44	7	2	3	4.30e-06	3.87e-05
meme.xml	SYCTTTAGTTHAATTAVGTCCCAGCTATTT	MEME-3	SYCTTTAGTTHAATTAVGTCCCAGCTATTT	HOCOMOCOv11_full_HUMAN_mono_meme_format	GATA5_HUMAN.H11MO.0.D	.	WVANWGATAAYTYRRHK	0	2	.	.	.	9.57e+00	79	3	2	3	1.12e-06	1.01e-05
meme.xml	SYCTTTAGTTHAATTAVGTCCCAGCTATTT	MEME-3	SYCTTTAGTTHAATTAVGTCCCAGCTATTT	HOCOMOCOv11_full_HUMAN_mono_meme_format	GATA5_HUMAN.H11MO.0.D	.	WVANWGATAAYTYRRHK	0	2	.	.	.	9.57e+00	79	5	2	3	4.49e-06	4.04e-05
meme.xml	SYCTTTAGTTHAATTAVGTCCCAGCTATTT	MEME-3	SYCTTTAGTTHAATTAVGTCCCAGCTATTT	HOCOMOCOv11_full_HUMAN_mono_meme_format	GATA5_HUMAN.H11MO.0.D	.	WVANWGATAAYTYRRHK	0	2	.	.	.	9.57e+00	79	7	2	3	4.49e-06	4.04e-05
meme.xml	SYCTTTAGTTHAATTAVGTCCCAGCTATTT	MEME-3	SYCTTTAGTTHAATTAVGTCCCAGCTATTT	HOCOMOCOv11_full_HUMAN_mono_meme_format	CPEB1_HUMAN.H11MO.0.D	.	TTTTTATTYTTTTTTTT	0	0	.	.	.	9.71e+00	7	2	2	3	1.16e-06	1.04e-05
meme.xml	SYCTTTAGTTHAATTAVGTCCCAGCTATTT	MEME-3	SYCTTTAGTTHAATTAVGTCCCAGCTATTT	HOCOMOCOv11_full_HUMAN_mono_meme_format	CPEB1_HUMAN.H11MO.0.D	.	TTTTTATTYTTTTTTTT	0	0	.	.	.	9.71e+00	7	6	2	3	4.63e-06	4.17e-05
meme.xml	SYCTTTAGTTHAATTAVGTCCCAGCTATTT	MEME-3	SYCTTTAGTTHAATTAVGTCCCAGCTATTT	HOCOMOCOv11_full_HUMAN_mono_meme_format	CPEB1_HUMAN.H11MO.0.D	.	TTTTTATTYTTTTTTTT	0	0	.	.	.	9.71e+00	7	7	2	3	4.63e-06	4.17e-05
meme.xml	SYCTTTAGTTHAATTAVGTCCCAGCTATTT	MEME-3	SYCTTTAGTTHAATTAVGTCCCAGCTATTT	HOCOMOCOv11_full_HUMAN_mono_meme_format	STAT2_HUMAN.H11MO.0.A	.	RRGRAAAHGAAACTGAAAV	1	1	.	.	.	9.71e+00	100	3	2	3	1.16e-06	1.04e-05
meme.xml	SYCTTTAGTTHAATTAVGTCCCAGCTATTT	MEME-3	SYCTTTAGTTHAATTAVGTCCCAGCTATTT	HOCOMOCOv11_full_HUMAN_mono_meme_format	STAT2_HUMAN.H11MO.0.A	.	RRGRAAAHGAAACTGAAAV	1	1	.	.	.	9.71e+00	100	5	2	3	4.63e-06	4.17e-05
meme.xml	SYCTTTAGTTHAATTAVGTCCCAGCTATTT	MEME-3	SYCTTTAGTTHAATTAVGTCCCAGCTATTT	HOCOMOCOv11_full_HUMAN_mono_meme_format	STAT2_HUMAN.H11MO.0.A	.	RRGRAAAHGAAACTGAAAV	1	1	.	.	.	9.71e+00	100	7	2	3	4.63e-06	4.17e-05
##
# Detailed descriptions of columns in this file:
#
# prim_db:	The name of the database (file name) that contains the primary motif.
# prim_id:	A name for the primary motif that is unique in the motif database file.
# prim_alt:	An alternate name of the primary motif that may be provided
#		in the motif database file.
# prim_cons:	A consensus sequence computed from the primary motif (see doc/motif-consensus.html).
# sec_db:	The name of the database (file name) that contains the secondary motif.
# sec_id:	A name for the motif that is unique in the motif database file.
# sec_alt:	An alternate name of the secondary motif that may be provided
#		in the motif database file.
# sec_cons:	A consensus sequence computed from the secondary motif (see doc/motif-consensus.html).
# trim_left:	Number of positions trimmed from left of secondary motif
# trim_right:	Number of positions trimmed from right of secondary motif
# If the next three fields are not blank, the motif is redundant with a more significant ('parent') motif.
# red_db:	The database (file name) that contains the parent motif.
# red_id:	A name for the parent motif that is unique in the motif database file.
# red_alt:	An alternate name of the parent motif that may be provided
#		in the motif database file.
# E-value:	The expected number motifs that would have least one
#		spacing as enriched as the best spacing for this secondary.
#		The E-value is the best spacing p-value multiplied by the number of motifs in the
#		input database(s).
# gap:		The distance between the edge of the primary and the (trimmed) secondary motif.
# orient:	The (combination) of quadrants for which occurrences
#		of this spacing are combined.
# count:	The number of occurrences of the secondary motif with the
#		given spacing and orientation to the primary motif.
# total:	The total number of occurrences of the secondary motif within the
#		margins around the best primary motif occurrence.
# adj_p-value:	The p-value of the gap and orientation, adjusted for
#		nine combinations of quadrants times the number of gaps tested
#		(as controlled by the -range switch).
# p-value:	The p-value of the gap and orientation adjusted only for the number of gaps tested.
