# motif_id	motif_alt_id	sequence_name	start	stop	strand	score	p-value	q-value	matched_sequence
RGRGAAA	DREME-6	chr1	524158	524164	+	12.1974	7.33e-05	0.279	AGAGAAA
RGRGAAA	DREME-6	chr7	1960014	1960020	+	12.1974	7.33e-05	0.279	AGAGAAA
RGRGAAA	DREME-6	chr6	2432636	2432642	+	12.1974	7.33e-05	0.279	agagaaa
RGRGAAA	DREME-6	chr6	2432806	2432812	+	12.1974	7.33e-05	0.279	AGAGAAA
RGRGAAA	DREME-6	chr7	2900320	2900326	+	12.1974	7.33e-05	0.279	agagaaa
RGRGAAA	DREME-6	chr10	3137902	3137908	+	12.1974	7.33e-05	0.279	agagaaa
RGRGAAA	DREME-6	chr7	3283870	3283876	-	12.1974	7.33e-05	0.279	AGAGAAA
RGRGAAA	DREME-6	chr10	3510770	3510776	+	12.1974	7.33e-05	0.279	AGAGAAA
RGRGAAA	DREME-6	chr17	4090862	4090868	-	12.1974	7.33e-05	0.279	AGAGAAA
RGRGAAA	DREME-6	chr17	4681516	4681522	-	12.1974	7.33e-05	0.279	AGAGAAA
RGRGAAA	DREME-6	chr3	4928767	4928773	-	12.1974	7.33e-05	0.279	AGAGAAA
RGRGAAA	DREME-6	chr7	5262212	5262218	-	12.1974	7.33e-05	0.279	AGAGAAA
RGRGAAA	DREME-6	chr5	5335998	5336004	-	12.1974	7.33e-05	0.279	AGAGAAA
RGRGAAA	DREME-6	chr7	5457416	5457422	+	12.1974	7.33e-05	0.279	AGAGAAA
RGRGAAA	DREME-6	chr19	5857785	5857791	+	12.1974	7.33e-05	0.279	agagaaa
RGRGAAA	DREME-6	chr4	6918501	6918507	-	12.1974	7.33e-05	0.279	AGAGAAA
RGRGAAA	DREME-6	chr10	7329832	7329838	-	12.1974	7.33e-05	0.279	AGAGAAA
RGRGAAA	DREME-6	chr6	7418447	7418453	+	12.1974	7.33e-05	0.279	agagaaa
RGRGAAA	DREME-6	chr6	8084238	8084244	-	12.1974	7.33e-05	0.279	AGAGAAA
RGRGAAA	DREME-6	chr17	8090309	8090315	-	12.1974	7.33e-05	0.279	AGAGAAA
RGRGAAA	DREME-6	chr3	8498936	8498942	-	12.1974	7.33e-05	0.279	AGAGAAA
RGRGAAA	DREME-6	chr3	8542695	8542701	-	12.1974	7.33e-05	0.279	AGAGAAA
RGRGAAA	DREME-6	chr6	9405119	9405125	-	12.1974	7.33e-05	0.279	AGAGAAA
RGRGAAA	DREME-6	chr11	10416673	10416679	+	12.1974	7.33e-05	0.279	agagaaa
RGRGAAA	DREME-6	chr18	11006029	11006035	-	12.1974	7.33e-05	0.279	AGAGAAA
RGRGAAA	DREME-6	chr7	12584348	12584354	+	12.1974	7.33e-05	0.279	agagaaa
RGRGAAA	DREME-6	chr12	13036650	13036656	-	12.1974	7.33e-05	0.279	AGAGAAA
RGRGAAA	DREME-6	chr3	13236854	13236860	+	12.1974	7.33e-05	0.279	agagaaa
RGRGAAA	DREME-6	chr5	13378165	13378171	-	12.1974	7.33e-05	0.279	AGAGAAA
RGRGAAA	DREME-6	chr5	13378296	13378302	+	12.1974	7.33e-05	0.279	AGAGAAA
RGRGAAA	DREME-6	chrX	13687553	13687559	-	12.1974	7.33e-05	0.279	AGAGAAA
RGRGAAA	DREME-6	chr6	13873339	13873345	+	12.1974	7.33e-05	0.279	agagaaa
RGRGAAA	DREME-6	chr2	14664656	14664662	+	12.1974	7.33e-05	0.279	agagaaa
RGRGAAA	DREME-6	chr6	14744087	14744093	+	12.1974	7.33e-05	0.279	agagaaa
RGRGAAA	DREME-6	chrX	15220703	15220709	+	12.1974	7.33e-05	0.279	agagaaa
RGRGAAA	DREME-6	chrX	15221056	15221062	-	12.1974	7.33e-05	0.279	AGAGAAA
RGRGAAA	DREME-6	chr17	15254341	15254347	+	12.1974	7.33e-05	0.279	AGAGAAA
RGRGAAA	DREME-6	chr12	15370040	15370046	+	12.1974	7.33e-05	0.279	agagaaa
RGRGAAA	DREME-6	chr6	15447764	15447770	-	12.1974	7.33e-05	0.279	AGAGAAA
RGRGAAA	DREME-6	chr19	15548472	15548478	+	12.1974	7.33e-05	0.279	agagaaa
RGRGAAA	DREME-6	chr16	15583314	15583320	-	12.1974	7.33e-05	0.279	AGAGAAA
RGRGAAA	DREME-6	chr21	16243368	16243374	-	12.1974	7.33e-05	0.279	AGAGAAA
RGRGAAA	DREME-6	chr21	16243440	16243446	+	12.1974	7.33e-05	0.279	AGAGAAA
RGRGAAA	DREME-6	chr21	16572817	16572823	-	12.1974	7.33e-05	0.279	AGAGAAA
RGRGAAA	DREME-6	chrX	16680423	16680429	+	12.1974	7.33e-05	0.279	AGAGAAA
RGRGAAA	DREME-6	chrX	16680517	16680523	-	12.1974	7.33e-05	0.279	AGAGAAA
RGRGAAA	DREME-6	chrX	16680545	16680551	-	12.1974	7.33e-05	0.279	AGAGAAA
RGRGAAA	DREME-6	chr5	16815908	16815914	+	12.1974	7.33e-05	0.279	AGAGAAA
RGRGAAA	DREME-6	chr5	16816073	16816079	-	12.1974	7.33e-05	0.279	AGAGAAA
RGRGAAA	DREME-6	chr1	16931202	16931208	+	12.1974	7.33e-05	0.279	AGAGAAA
RGRGAAA	DREME-6	chr6	16992428	16992434	+	12.1974	7.33e-05	0.279	AGAGAAA
RGRGAAA	DREME-6	chr6	17012688	17012694	-	12.1974	7.33e-05	0.279	AGAGAAA
RGRGAAA	DREME-6	chr11	17043077	17043083	-	12.1974	7.33e-05	0.279	AGAGAAA
RGRGAAA	DREME-6	chr1	17545512	17545518	+	12.1974	7.33e-05	0.279	agagaaa
RGRGAAA	DREME-6	chr10	18899674	18899680	+	12.1974	7.33e-05	0.279	AGAGAAA
RGRGAAA	DREME-6	chr2	19338337	19338343	-	12.1974	7.33e-05	0.279	AGAGAAA
RGRGAAA	DREME-6	chr20	19894567	19894573	-	12.1974	7.33e-05	0.279	AGAGAAA
RGRGAAA	DREME-6	chr13	20368851	20368857	+	12.1974	7.33e-05	0.279	agagaaa
RGRGAAA	DREME-6	chr18	20682007	20682013	-	12.1974	7.33e-05	0.279	AGAGAAA
RGRGAAA	DREME-6	chr22	21241589	21241595	-	12.1974	7.33e-05	0.279	AGAGAAA
RGRGAAA	DREME-6	chr14	21851937	21851943	+	12.1974	7.33e-05	0.279	AGAGAAA
RGRGAAA	DREME-6	chr14	21852306	21852312	+	12.1974	7.33e-05	0.279	AGAGAAA
RGRGAAA	DREME-6	chr6	21884538	21884544	-	12.1974	7.33e-05	0.279	AGAGAAA
RGRGAAA	DREME-6	chr9	22084405	22084411	-	12.1974	7.33e-05	0.279	AGAGAAA
RGRGAAA	DREME-6	chr9	22084550	22084556	+	12.1974	7.33e-05	0.279	AGAGAAA
RGRGAAA	DREME-6	chr9	22107262	22107268	+	12.1974	7.33e-05	0.279	agagaaa
RGRGAAA	DREME-6	chr9	22124633	22124639	-	12.1974	7.33e-05	0.279	AGAGAAA
RGRGAAA	DREME-6	chr9	22124997	22125003	-	12.1974	7.33e-05	0.279	AGAGAAA
RGRGAAA	DREME-6	chr9	22125021	22125027	-	12.1974	7.33e-05	0.279	AGAGAAA
RGRGAAA	DREME-6	chrX	22135989	22135995	+	12.1974	7.33e-05	0.279	AGAGAAA
RGRGAAA	DREME-6	chr3	23062015	23062021	-	12.1974	7.33e-05	0.279	AGAGAAA
RGRGAAA	DREME-6	chr13	23557404	23557410	+	12.1974	7.33e-05	0.279	AGAGAAA
RGRGAAA	DREME-6	chr1	24702128	24702134	+	12.1974	7.33e-05	0.279	AGAGAAA
RGRGAAA	DREME-6	chr10	24832005	24832011	-	12.1974	7.33e-05	0.279	AGAGAAA
RGRGAAA	DREME-6	chr6	26055511	26055517	+	12.1974	7.33e-05	0.279	AGAGAAA
RGRGAAA	DREME-6	chr2	26235180	26235186	-	12.1974	7.33e-05	0.279	AGAGAAA
RGRGAAA	DREME-6	chr4	26291396	26291402	-	12.1974	7.33e-05	0.279	AGAGAAA
RGRGAAA	DREME-6	chr13	26301853	26301859	+	12.1974	7.33e-05	0.279	AGAGAAA
RGRGAAA	DREME-6	chr11	27423386	27423392	+	12.1974	7.33e-05	0.279	AGAGAAA
RGRGAAA	DREME-6	chr3	27575012	27575018	-	12.1974	7.33e-05	0.279	AGAGAAA
RGRGAAA	DREME-6	chr3	27575818	27575824	-	12.1974	7.33e-05	0.279	AGAGAAA
RGRGAAA	DREME-6	chr3	27575883	27575889	+	12.1974	7.33e-05	0.279	AGAGAAA
RGRGAAA	DREME-6	chr2	28499151	28499157	-	12.1974	7.33e-05	0.279	AGAGAAA
RGRGAAA	DREME-6	chr10	28552119	28552125	-	12.1974	7.33e-05	0.279	AGAGAAA
RGRGAAA	DREME-6	chr19	28916384	28916390	+	12.1974	7.33e-05	0.279	AGAGAAA
RGRGAAA	DREME-6	chr8	29097957	29097963	+	12.1974	7.33e-05	0.279	agagaaa
RGRGAAA	DREME-6	chr8	29098487	29098493	+	12.1974	7.33e-05	0.279	agagaaa
RGRGAAA	DREME-6	chr10	29311460	29311466	-	12.1974	7.33e-05	0.279	AGAGAAA
RGRGAAA	DREME-6	chr10	29311480	29311486	-	12.1974	7.33e-05	0.279	AGAGAAA
RGRGAAA	DREME-6	chrX	30167187	30167193	+	12.1974	7.33e-05	0.279	agagaaa
RGRGAAA	DREME-6	chr7	30387895	30387901	-	12.1974	7.33e-05	0.279	AGAGAAA
RGRGAAA	DREME-6	chr2	30441068	30441074	+	12.1974	7.33e-05	0.279	AGAGAAA
RGRGAAA	DREME-6	chr3	31199093	31199099	+	12.1974	7.33e-05	0.279	agagaaa
RGRGAAA	DREME-6	chr22	31976105	31976111	+	12.1974	7.33e-05	0.279	agagaaa
RGRGAAA	DREME-6	chr10	32250821	32250827	+	12.1974	7.33e-05	0.279	agagaaa
RGRGAAA	DREME-6	chr18	32630042	32630048	+	12.1974	7.33e-05	0.279	AGAGAAA
RGRGAAA	DREME-6	chr15	32992936	32992942	+	12.1974	7.33e-05	0.279	agagaaa
RGRGAAA	DREME-6	chr15	33094232	33094238	-	12.1974	7.33e-05	0.279	AGAGAAA
RGRGAAA	DREME-6	chr15	33094395	33094401	-	12.1974	7.33e-05	0.279	AGAGAAA
RGRGAAA	DREME-6	chr15	33094618	33094624	-	12.1974	7.33e-05	0.279	AGAGAAA
RGRGAAA	DREME-6	chr10	33562805	33562811	-	12.1974	7.33e-05	0.279	AGAGAAA
RGRGAAA	DREME-6	chr13	33694070	33694076	+	12.1974	7.33e-05	0.279	AGAGAAA
RGRGAAA	DREME-6	chr13	33694323	33694329	+	12.1974	7.33e-05	0.279	AGAGAAA
RGRGAAA	DREME-6	chr14	34635361	34635367	+	12.1974	7.33e-05	0.279	AGAGAAA
RGRGAAA	DREME-6	chr11	34675466	34675472	-	12.1974	7.33e-05	0.279	AGAGAAA
RGRGAAA	DREME-6	chr13	34729940	34729946	+	12.1974	7.33e-05	0.279	AGAGAAA
RGRGAAA	DREME-6	chr13	34730014	34730020	+	12.1974	7.33e-05	0.279	AGAGAAA
RGRGAAA	DREME-6	chr13	34730201	34730207	-	12.1974	7.33e-05	0.279	AGAGAAA
RGRGAAA	DREME-6	chr14	34837219	34837225	+	12.1974	7.33e-05	0.279	AGAGAAA
RGRGAAA	DREME-6	chr14	34837739	34837745	+	12.1974	7.33e-05	0.279	agagaaa
RGRGAAA	DREME-6	chr11	35412544	35412550	-	12.1974	7.33e-05	0.279	AGAGAAA
RGRGAAA	DREME-6	chr13	35503141	35503147	-	12.1974	7.33e-05	0.279	AGAGAAA
RGRGAAA	DREME-6	chr22	36000956	36000962	+	12.1974	7.33e-05	0.279	AGAGAAA
RGRGAAA	DREME-6	chr19	36426934	36426940	-	12.1974	7.33e-05	0.279	AGAGAAA
RGRGAAA	DREME-6	chr17	36442300	36442306	+	12.1974	7.33e-05	0.279	AGAGAAA
RGRGAAA	DREME-6	chr17	36442944	36442950	+	12.1974	7.33e-05	0.279	AGAGAAA
RGRGAAA	DREME-6	chr17	36443129	36443135	-	12.1974	7.33e-05	0.279	AGAGAAA
RGRGAAA	DREME-6	chr22	36861624	36861630	-	12.1974	7.33e-05	0.279	AGAGAAA
RGRGAAA	DREME-6	chr6	36992530	36992536	-	12.1974	7.33e-05	0.279	AGAGAAA
RGRGAAA	DREME-6	chr8	37456605	37456611	-	12.1974	7.33e-05	0.279	AGAGAAA
RGRGAAA	DREME-6	chr22	37908656	37908662	+	12.1974	7.33e-05	0.279	AGAGAAA
RGRGAAA	DREME-6	chr17	37925982	37925988	-	12.1974	7.33e-05	0.279	AGAGAAA
RGRGAAA	DREME-6	chr21	38219420	38219426	-	12.1974	7.33e-05	0.279	AGAGAAA
RGRGAAA	DREME-6	chr19	38432325	38432331	-	12.1974	7.33e-05	0.279	AGAGAAA
RGRGAAA	DREME-6	chr17	38708267	38708273	-	12.1974	7.33e-05	0.279	AGAGAAA
RGRGAAA	DREME-6	chr5	38831095	38831101	-	12.1974	7.33e-05	0.279	AGAGAAA
RGRGAAA	DREME-6	chr2	39348266	39348272	+	12.1974	7.33e-05	0.279	agagaaa
RGRGAAA	DREME-6	chrX	39473502	39473508	+	12.1974	7.33e-05	0.279	AGAGAAA
RGRGAAA	DREME-6	chrX	39473627	39473633	+	12.1974	7.33e-05	0.279	AGAGAAA
RGRGAAA	DREME-6	chrX	39473981	39473987	+	12.1974	7.33e-05	0.279	AGAGAAA
RGRGAAA	DREME-6	chr19	39602112	39602118	+	12.1974	7.33e-05	0.279	agagaaa
RGRGAAA	DREME-6	chr17	40295286	40295292	+	12.1974	7.33e-05	0.279	AGAGAAA
RGRGAAA	DREME-6	chr15	40377606	40377612	+	12.1974	7.33e-05	0.279	agagaaa
RGRGAAA	DREME-6	chr21	40693738	40693744	-	12.1974	7.33e-05	0.279	AGAGAAA
RGRGAAA	DREME-6	chr21	41178932	41178938	+	12.1974	7.33e-05	0.279	agagaaa
RGRGAAA	DREME-6	chr21	41179808	41179814	-	12.1974	7.33e-05	0.279	AGAGAAA
RGRGAAA	DREME-6	chr7	41188274	41188280	-	12.1974	7.33e-05	0.279	AGAGAAA
RGRGAAA	DREME-6	chr21	41754398	41754404	+	12.1974	7.33e-05	0.279	AGAGAAA
RGRGAAA	DREME-6	chr21	41817005	41817011	-	12.1974	7.33e-05	0.279	AGAGAAA
RGRGAAA	DREME-6	chr15	42222720	42222726	+	12.1974	7.33e-05	0.279	AGAGAAA
RGRGAAA	DREME-6	chr21	42622870	42622876	+	12.1974	7.33e-05	0.279	AGAGAAA
RGRGAAA	DREME-6	chr22	43130418	43130424	-	12.1974	7.33e-05	0.279	AGAGAAA
RGRGAAA	DREME-6	chr2	43862019	43862025	-	12.1974	7.33e-05	0.279	AGAGAAA
RGRGAAA	DREME-6	chr4	44159866	44159872	+	12.1974	7.33e-05	0.279	AGAGAAA
RGRGAAA	DREME-6	chr14	44249270	44249276	+	12.1974	7.33e-05	0.279	agagaaa
RGRGAAA	DREME-6	chr14	44249409	44249415	+	12.1974	7.33e-05	0.279	agagaaa
RGRGAAA	DREME-6	chr14	44249829	44249835	+	12.1974	7.33e-05	0.279	agagaaa
RGRGAAA	DREME-6	chrX	44810014	44810020	-	12.1974	7.33e-05	0.279	AGAGAAA
RGRGAAA	DREME-6	chr1	44855861	44855867	+	12.1974	7.33e-05	0.279	agagaaa
RGRGAAA	DREME-6	chr12	44919918	44919924	+	12.1974	7.33e-05	0.279	agagaaa
RGRGAAA	DREME-6	chr22	45501247	45501253	+	12.1974	7.33e-05	0.279	agagaaa
RGRGAAA	DREME-6	chr17	45579414	45579420	+	12.1974	7.33e-05	0.279	AGAGAAA
RGRGAAA	DREME-6	chr17	45579599	45579605	-	12.1974	7.33e-05	0.279	AGAGAAA
RGRGAAA	DREME-6	chr17	45580243	45580249	-	12.1974	7.33e-05	0.279	AGAGAAA
RGRGAAA	DREME-6	chr22	46084966	46084972	-	12.1974	7.33e-05	0.279	AGAGAAA
RGRGAAA	DREME-6	chr21	46131826	46131832	+	12.1974	7.33e-05	0.279	AGAGAAA
RGRGAAA	DREME-6	chr21	46194100	46194106	-	12.1974	7.33e-05	0.279	AGAGAAA
RGRGAAA	DREME-6	chr12	46553926	46553932	-	12.1974	7.33e-05	0.279	AGAGAAA
RGRGAAA	DREME-6	chrX	46652223	46652229	-	12.1974	7.33e-05	0.279	AGAGAAA
RGRGAAA	DREME-6	chr21	46891179	46891185	-	12.1974	7.33e-05	0.279	AGAGAAA
RGRGAAA	DREME-6	chr19	47324045	47324051	-	12.1974	7.33e-05	0.279	AGAGAAA
RGRGAAA	DREME-6	chr20	47377619	47377625	+	12.1974	7.33e-05	0.279	agagaaa
RGRGAAA	DREME-6	chr7	47552238	47552244	+	12.1974	7.33e-05	0.279	AGAGAAA
RGRGAAA	DREME-6	chr6	47666236	47666242	-	12.1974	7.33e-05	0.279	AGAGAAA
RGRGAAA	DREME-6	chr8	48454815	48454821	+	12.1974	7.33e-05	0.279	AGAGAAA
RGRGAAA	DREME-6	chr20	48782908	48782914	-	12.1974	7.33e-05	0.279	AGAGAAA
RGRGAAA	DREME-6	chr20	48782930	48782936	-	12.1974	7.33e-05	0.279	AGAGAAA
RGRGAAA	DREME-6	chr4	48957178	48957184	-	12.1974	7.33e-05	0.279	AGAGAAA
RGRGAAA	DREME-6	chr20	49262848	49262854	+	12.1974	7.33e-05	0.279	agagaaa
RGRGAAA	DREME-6	chr20	49286932	49286938	+	12.1974	7.33e-05	0.279	agagaaa
RGRGAAA	DREME-6	chr14	49946651	49946657	+	12.1974	7.33e-05	0.279	AGAGAAA
RGRGAAA	DREME-6	chr15	50508307	50508313	+	12.1974	7.33e-05	0.279	agagaaa
RGRGAAA	DREME-6	chr10	50747441	50747447	+	12.1974	7.33e-05	0.279	AGAGAAA
RGRGAAA	DREME-6	chr15	51070342	51070348	-	12.1974	7.33e-05	0.279	AGAGAAA
RGRGAAA	DREME-6	chr15	51147226	51147232	+	12.1974	7.33e-05	0.279	AGAGAAA
RGRGAAA	DREME-6	chr14	51377165	51377171	-	12.1974	7.33e-05	0.279	AGAGAAA
RGRGAAA	DREME-6	chr14	51377179	51377185	-	12.1974	7.33e-05	0.279	AGAGAAA
RGRGAAA	DREME-6	chr14	51377893	51377899	+	12.1974	7.33e-05	0.279	AGAGAAA
RGRGAAA	DREME-6	chr20	51952766	51952772	+	12.1974	7.33e-05	0.279	AGAGAAA
RGRGAAA	DREME-6	chr20	51961122	51961128	+	12.1974	7.33e-05	0.279	AGAGAAA
RGRGAAA	DREME-6	chr20	51962312	51962318	-	12.1974	7.33e-05	0.279	AGAGAAA
RGRGAAA	DREME-6	chr20	51962623	51962629	+	12.1974	7.33e-05	0.279	AGAGAAA
RGRGAAA	DREME-6	chr20	51963262	51963268	+	12.1974	7.33e-05	0.279	AGAGAAA
RGRGAAA	DREME-6	chr10	52272055	52272061	+	12.1974	7.33e-05	0.279	AGAGAAA
RGRGAAA	DREME-6	chr15	52274256	52274262	+	12.1974	7.33e-05	0.279	AGAGAAA
RGRGAAA	DREME-6	chr20	52482539	52482545	+	12.1974	7.33e-05	0.279	AGAGAAA
RGRGAAA	DREME-6	chr20	52483040	52483046	-	12.1974	7.33e-05	0.279	AGAGAAA
RGRGAAA	DREME-6	chr20	52483248	52483254	-	12.1974	7.33e-05	0.279	AGAGAAA
RGRGAAA	DREME-6	chr20	52523026	52523032	-	12.1974	7.33e-05	0.279	AGAGAAA
RGRGAAA	DREME-6	chr8	52684192	52684198	+	12.1974	7.33e-05	0.279	agagaaa
RGRGAAA	DREME-6	chr13	53383749	53383755	-	12.1974	7.33e-05	0.279	AGAGAAA
RGRGAAA	DREME-6	chr3	53553028	53553034	-	12.1974	7.33e-05	0.279	AGAGAAA
RGRGAAA	DREME-6	chr1	53573738	53573744	-	12.1974	7.33e-05	0.279	AGAGAAA
RGRGAAA	DREME-6	chr16	54206099	54206105	-	12.1974	7.33e-05	0.279	AGAGAAA
RGRGAAA	DREME-6	chr12	54373218	54373224	-	12.1974	7.33e-05	0.279	AGAGAAA
RGRGAAA	DREME-6	chr7	55008630	55008636	+	12.1974	7.33e-05	0.279	agagaaa
RGRGAAA	DREME-6	chr18	55756301	55756307	+	12.1974	7.33e-05	0.279	AGAGAAA
RGRGAAA	DREME-6	chr4	56264743	56264749	-	12.1974	7.33e-05	0.279	AGAGAAA
RGRGAAA	DREME-6	chr14	56648541	56648547	-	12.1974	7.33e-05	0.279	AGAGAAA
RGRGAAA	DREME-6	chr1	57036718	57036724	+	12.1974	7.33e-05	0.279	AGAGAAA
RGRGAAA	DREME-6	chr20	57431174	57431180	-	12.1974	7.33e-05	0.279	AGAGAAA
RGRGAAA	DREME-6	chr17	57864307	57864313	-	12.1974	7.33e-05	0.279	AGAGAAA
RGRGAAA	DREME-6	chr17	57922949	57922955	+	12.1974	7.33e-05	0.279	AGAGAAA
RGRGAAA	DREME-6	chr11	60144080	60144086	+	12.1974	7.33e-05	0.279	AGAGAAA
RGRGAAA	DREME-6	chr11	60144361	60144367	-	12.1974	7.33e-05	0.279	AGAGAAA
RGRGAAA	DREME-6	chr17	60501826	60501832	+	12.1974	7.33e-05	0.279	AGAGAAA
RGRGAAA	DREME-6	chr17	60828379	60828385	+	12.1974	7.33e-05	0.279	AGAGAAA
RGRGAAA	DREME-6	chr17	60868502	60868508	+	12.1974	7.33e-05	0.279	AGAGAAA
RGRGAAA	DREME-6	chr3	60945295	60945301	+	12.1974	7.33e-05	0.279	agagaaa
RGRGAAA	DREME-6	chr3	60945936	60945942	-	12.1974	7.33e-05	0.279	AGAGAAA
RGRGAAA	DREME-6	chr15	62042725	62042731	+	12.1974	7.33e-05	0.279	AGAGAAA
RGRGAAA	DREME-6	chr15	63752809	63752815	+	12.1974	7.33e-05	0.279	agagaaa
RGRGAAA	DREME-6	chr15	63752897	63752903	-	12.1974	7.33e-05	0.279	AGAGAAA
RGRGAAA	DREME-6	chr15	63753006	63753012	+	12.1974	7.33e-05	0.279	AGAGAaa
RGRGAAA	DREME-6	chr15	63765385	63765391	+	12.1974	7.33e-05	0.279	AGAGAAA
RGRGAAA	DREME-6	chr3	64143247	64143253	+	12.1974	7.33e-05	0.279	AGAGAAA
RGRGAAA	DREME-6	chr11	64644657	64644663	-	12.1974	7.33e-05	0.279	AGAGAAA
RGRGAAA	DREME-6	chr3	65016792	65016798	+	12.1974	7.33e-05	0.279	agagaaa
RGRGAAA	DREME-6	chr11	65150203	65150209	-	12.1974	7.33e-05	0.279	AGAGAAA
RGRGAAA	DREME-6	chr17	65387350	65387356	+	12.1974	7.33e-05	0.279	AGAGAAA
RGRGAAA	DREME-6	chr3	65566464	65566470	-	12.1974	7.33e-05	0.279	AGAGAAA
RGRGAAA	DREME-6	chr2	65616078	65616084	+	12.1974	7.33e-05	0.279	AGAGAAA
RGRGAAA	DREME-6	chr11	67348909	67348915	+	12.1974	7.33e-05	0.279	agagaaa
RGRGAAA	DREME-6	chr15	67442700	67442706	-	12.1974	7.33e-05	0.279	AGAGAAA
RGRGAAA	DREME-6	chr6	67445109	67445115	-	12.1974	7.33e-05	0.279	AGAGAAA
RGRGAAA	DREME-6	chr6	67445260	67445266	-	12.1974	7.33e-05	0.279	AGAGAAA
RGRGAAA	DREME-6	chr12	67988504	67988510	-	12.1974	7.33e-05	0.279	AGAGAAA
RGRGAAA	DREME-6	chr1	68663205	68663211	+	12.1974	7.33e-05	0.279	AGAGAAA
RGRGAAA	DREME-6	chr1	68663526	68663532	+	12.1974	7.33e-05	0.279	AGAGAAA
RGRGAAA	DREME-6	chr7	69197503	69197509	-	12.1974	7.33e-05	0.279	AGAGAAA
RGRGAAA	DREME-6	chr7	69197643	69197649	-	12.1974	7.33e-05	0.279	AGAGAAA
RGRGAAA	DREME-6	chr7	69764432	69764438	-	12.1974	7.33e-05	0.279	AGAGAAA
RGRGAAA	DREME-6	chr15	69846506	69846512	+	12.1974	7.33e-05	0.279	agagaaa
RGRGAAA	DREME-6	chr15	69847038	69847044	+	12.1974	7.33e-05	0.279	AGAGAAA
RGRGAAA	DREME-6	chr15	69849564	69849570	-	12.1974	7.33e-05	0.279	AGAGAAA
RGRGAAA	DREME-6	chrX	70296156	70296162	-	12.1974	7.33e-05	0.279	AGAGAAA
RGRGAAA	DREME-6	chr15	70384011	70384017	+	12.1974	7.33e-05	0.279	AGAGAAA
RGRGAAA	DREME-6	chr17	70396281	70396287	+	12.1974	7.33e-05	0.279	agagaaa
RGRGAAA	DREME-6	chr17	70657498	70657504	-	12.1974	7.33e-05	0.279	AGAGAAA
RGRGAAA	DREME-6	chr1	70819308	70819314	+	12.1974	7.33e-05	0.279	AGAGAAA
RGRGAAA	DREME-6	chr11	70824433	70824439	+	12.1974	7.33e-05	0.279	AGAGAAA
RGRGAAA	DREME-6	chr2	71347405	71347411	+	12.1974	7.33e-05	0.279	AGAGAAA
RGRGAAA	DREME-6	chr2	71975210	71975216	+	12.1974	7.33e-05	0.279	AGAGAAA
RGRGAAA	DREME-6	chr16	72883198	72883204	+	12.1974	7.33e-05	0.279	AGAGAAA
RGRGAAA	DREME-6	chr10	74004247	74004253	-	12.1974	7.33e-05	0.279	AGAGAAA
RGRGAAA	DREME-6	chr10	74091598	74091604	-	12.1974	7.33e-05	0.279	AGAGAAA
RGRGAAA	DREME-6	chr13	74167556	74167562	-	12.1974	7.33e-05	0.279	AGAGAAA
RGRGAAA	DREME-6	chr13	74167693	74167699	-	12.1974	7.33e-05	0.279	AGAGAAA
RGRGAAA	DREME-6	chr6	74290265	74290271	-	12.1974	7.33e-05	0.279	AGAGAAA
RGRGAAA	DREME-6	chr9	74340851	74340857	+	12.1974	7.33e-05	0.279	AGAGAAA
RGRGAAA	DREME-6	chr18	74767129	74767135	+	12.1974	7.33e-05	0.279	AGAGAAA
RGRGAAA	DREME-6	chr15	74935328	74935334	+	12.1974	7.33e-05	0.279	AGAGAAA
RGRGAAA	DREME-6	chr15	75017744	75017750	+	12.1974	7.33e-05	0.279	AGAGAAA
RGRGAAA	DREME-6	chr15	75017995	75018001	+	12.1974	7.33e-05	0.279	AGAGAAA
RGRGAAA	DREME-6	chr4	75579974	75579980	+	12.1974	7.33e-05	0.279	agagaaa
RGRGAAA	DREME-6	chr6	75994878	75994884	-	12.1974	7.33e-05	0.279	AGAGAAA
RGRGAAA	DREME-6	chr6	75995121	75995127	-	12.1974	7.33e-05	0.279	AGAGAAA
RGRGAAA	DREME-6	chr6	75995171	75995177	-	12.1974	7.33e-05	0.279	AGAGAAA
RGRGAAA	DREME-6	chr6	75995222	75995228	-	12.1974	7.33e-05	0.279	AGAGAAA
RGRGAAA	DREME-6	chr14	76032575	76032581	-	12.1974	7.33e-05	0.279	AGAGAAA
RGRGAAA	DREME-6	chr14	76032585	76032591	-	12.1974	7.33e-05	0.279	AGAGAAA
RGRGAAA	DREME-6	chr16	76171831	76171837	+	12.1974	7.33e-05	0.279	agagaaa
RGRGAAA	DREME-6	chr4	78077550	78077556	-	12.1974	7.33e-05	0.279	AGAGAAA
RGRGAAA	DREME-6	chr16	78087194	78087200	-	12.1974	7.33e-05	0.279	AGAGAAA
RGRGAAA	DREME-6	chr17	78098503	78098509	+	12.1974	7.33e-05	0.279	AGAGAAA
RGRGAAA	DREME-6	chr11	78509099	78509105	-	12.1974	7.33e-05	0.279	AGAGAAA
RGRGAAA	DREME-6	chr11	78509128	78509134	-	12.1974	7.33e-05	0.279	AGAGAAA
RGRGAAA	DREME-6	chr3	78662746	78662752	+	12.1974	7.33e-05	0.279	AGAGAAA
RGRGAAA	DREME-6	chr17	78734604	78734610	+	12.1974	7.33e-05	0.279	AGAGAAA
RGRGAAA	DREME-6	chr17	78766151	78766157	-	12.1974	7.33e-05	0.279	AGAGAAA
RGRGAAA	DREME-6	chr17	78830321	78830327	+	12.1974	7.33e-05	0.279	AGAGAAA
RGRGAAA	DREME-6	chr11	80411711	80411717	-	12.1974	7.33e-05	0.279	AGAGAAA
RGRGAAA	DREME-6	chr5	80468317	80468323	+	12.1974	7.33e-05	0.279	AGAGAAA
RGRGAAA	DREME-6	chr7	80506201	80506207	-	12.1974	7.33e-05	0.279	AGAGAAA
RGRGAAA	DREME-6	chr16	80649764	80649770	-	12.1974	7.33e-05	0.279	AGAGAAA
RGRGAAA	DREME-6	chr10	80944416	80944422	-	12.1974	7.33e-05	0.279	AGAGAAA
RGRGAAA	DREME-6	chr15	81041787	81041793	-	12.1974	7.33e-05	0.279	AGAGAAA
RGRGAAA	DREME-6	chr15	81041799	81041805	-	12.1974	7.33e-05	0.279	AGAGAAA
RGRGAAA	DREME-6	chr14	81902129	81902135	+	12.1974	7.33e-05	0.279	AGAGAAA
RGRGAAA	DREME-6	chr12	83079920	83079926	-	12.1974	7.33e-05	0.279	AGAGAAA
RGRGAAA	DREME-6	chr12	83080063	83080069	-	12.1974	7.33e-05	0.279	AGAGAAA
RGRGAAA	DREME-6	chr10	83363251	83363257	-	12.1974	7.33e-05	0.279	AGAGAAA
RGRGAAA	DREME-6	chr4	83446763	83446769	-	12.1974	7.33e-05	0.279	AGAGAAA
RGRGAAA	DREME-6	chr9	83718320	83718326	+	12.1974	7.33e-05	0.279	AGAGAAA
RGRGAAA	DREME-6	chr9	83718846	83718852	+	12.1974	7.33e-05	0.279	agagaaa
RGRGAAA	DREME-6	chr9	84027816	84027822	+	12.1974	7.33e-05	0.279	AGAGAAA
RGRGAAA	DREME-6	chr9	84028754	84028760	-	12.1974	7.33e-05	0.279	AGAGAAA
RGRGAAA	DREME-6	chr1	84093293	84093299	+	12.1974	7.33e-05	0.279	AGAGAAA
RGRGAAA	DREME-6	chr16	84130210	84130216	+	12.1974	7.33e-05	0.279	AGAGAAA
RGRGAAA	DREME-6	chr16	84130657	84130663	+	12.1974	7.33e-05	0.279	agagaaa
RGRGAAA	DREME-6	chr16	84130861	84130867	+	12.1974	7.33e-05	0.279	agagAAA
RGRGAAA	DREME-6	chr9	84203174	84203180	+	12.1974	7.33e-05	0.279	AGAGAAA
RGRGAAA	DREME-6	chr1	84311255	84311261	-	12.1974	7.33e-05	0.279	AGAGAAA
RGRGAAA	DREME-6	chr4	84469930	84469936	-	12.1974	7.33e-05	0.279	AGAGAAA
RGRGAAA	DREME-6	chr16	85456217	85456223	+	12.1974	7.33e-05	0.279	AGAGAAA
RGRGAAA	DREME-6	chr2	86190856	86190862	-	12.1974	7.33e-05	0.279	AGAGAAA
RGRGAAA	DREME-6	chr1	87258869	87258875	+	12.1974	7.33e-05	0.279	AGAGAAA
RGRGAAA	DREME-6	chr16	87274427	87274433	+	12.1974	7.33e-05	0.279	AGAGAAA
RGRGAAA	DREME-6	chr16	87822692	87822698	+	12.1974	7.33e-05	0.279	agagaaa
RGRGAAA	DREME-6	chr16	87840696	87840702	-	12.1974	7.33e-05	0.279	AGAGAAA
RGRGAAA	DREME-6	chr14	88934617	88934623	+	12.1974	7.33e-05	0.279	AGAGAAA
RGRGAAA	DREME-6	chr7	88975379	88975385	+	12.1974	7.33e-05	0.279	AGAGAAA
RGRGAAA	DREME-6	chr7	88975569	88975575	+	12.1974	7.33e-05	0.279	agagaaa
RGRGAAA	DREME-6	chr9	90185712	90185718	+	12.1974	7.33e-05	0.279	AGAGAAA
RGRGAAA	DREME-6	chr15	90236951	90236957	+	12.1974	7.33e-05	0.279	agagaaa
RGRGAAA	DREME-6	chr15	90460339	90460345	+	12.1974	7.33e-05	0.279	agagaaa
RGRGAAA	DREME-6	chr6	91521429	91521435	+	12.1974	7.33e-05	0.279	AGAGAAA
RGRGAAA	DREME-6	chr6	91521799	91521805	-	12.1974	7.33e-05	0.279	AGAGAAA
RGRGAAA	DREME-6	chr15	92170844	92170850	+	12.1974	7.33e-05	0.279	AGAGAAA
RGRGAAA	DREME-6	chr12	93480791	93480797	+	12.1974	7.33e-05	0.279	agagaaa
RGRGAAA	DREME-6	chr12	93480925	93480931	+	12.1974	7.33e-05	0.279	agagaaa
RGRGAAA	DREME-6	chr8	93977223	93977229	-	12.1974	7.33e-05	0.279	AGAGAAA
RGRGAAA	DREME-6	chr1	94511141	94511147	+	12.1974	7.33e-05	0.279	AGAGAAA
RGRGAAA	DREME-6	chr14	95522563	95522569	+	12.1974	7.33e-05	0.279	agagaaa
RGRGAAA	DREME-6	chr14	95707771	95707777	+	12.1974	7.33e-05	0.279	AGAGAAA
RGRGAAA	DREME-6	chr14	95731831	95731837	-	12.1974	7.33e-05	0.279	AGAGAAA
RGRGAAA	DREME-6	chr14	95731863	95731869	-	12.1974	7.33e-05	0.279	AGAGAAA
RGRGAAA	DREME-6	chr14	95732203	95732209	-	12.1974	7.33e-05	0.279	AGAGAAA
RGRGAAA	DREME-6	chr14	95740622	95740628	-	12.1974	7.33e-05	0.279	AGAGAAA
RGRGAAA	DREME-6	chr3	95912153	95912159	-	12.1974	7.33e-05	0.279	AGAGAAA
RGRGAAA	DREME-6	chr14	96013622	96013628	+	12.1974	7.33e-05	0.279	AGAGAAA
RGRGAAA	DREME-6	chr8	96222453	96222459	-	12.1974	7.33e-05	0.279	AGAGAAA
RGRGAAA	DREME-6	chr8	96222876	96222882	-	12.1974	7.33e-05	0.279	AGAGAAA
RGRGAAA	DREME-6	chr6	96645074	96645080	+	12.1974	7.33e-05	0.279	AGAGAAA
RGRGAAA	DREME-6	chr13	96891113	96891119	+	12.1974	7.33e-05	0.279	AGAGAAA
RGRGAAA	DREME-6	chr13	97126937	97126943	+	12.1974	7.33e-05	0.279	AGAGAAA
RGRGAAA	DREME-6	chr9	97395226	97395232	-	12.1974	7.33e-05	0.279	AGAGAAA
RGRGAAA	DREME-6	chr1	97437866	97437872	-	12.1974	7.33e-05	0.279	AGAGAAA
RGRGAAA	DREME-6	chr9	97685188	97685194	-	12.1974	7.33e-05	0.279	AGAGAAA
RGRGAAA	DREME-6	chr13	97786572	97786578	-	12.1974	7.33e-05	0.279	AGAGAAA
RGRGAAA	DREME-6	chr9	97856312	97856318	-	12.1974	7.33e-05	0.279	AGAGAAA
RGRGAAA	DREME-6	chr9	97856358	97856364	-	12.1974	7.33e-05	0.279	AGAGAAA
RGRGAAA	DREME-6	chr5	98937550	98937556	+	12.1974	7.33e-05	0.279	agagaaa
RGRGAAA	DREME-6	chr5	98937779	98937785	+	12.1974	7.33e-05	0.279	agagaaa
RGRGAAA	DREME-6	chr5	98938280	98938286	-	12.1974	7.33e-05	0.279	AGAGAAA
RGRGAAA	DREME-6	chr13	98945443	98945449	-	12.1974	7.33e-05	0.279	AGAGAAA
RGRGAAA	DREME-6	chr13	98945988	98945994	+	12.1974	7.33e-05	0.279	AGAGAAA
RGRGAAA	DREME-6	chr13	98953511	98953517	-	12.1974	7.33e-05	0.279	AGAGAAA
RGRGAAA	DREME-6	chr13	98953536	98953542	-	12.1974	7.33e-05	0.279	AGAGAAA
RGRGAAA	DREME-6	chr2	99100183	99100189	-	12.1974	7.33e-05	0.279	AGAGAAA
RGRGAAA	DREME-6	chr14	99240359	99240365	+	12.1974	7.33e-05	0.279	AGAGAAA
RGRGAAA	DREME-6	chr14	99240391	99240397	+	12.1974	7.33e-05	0.279	AGAGAAA
RGRGAAA	DREME-6	chr14	99240589	99240595	-	12.1974	7.33e-05	0.279	AGAGAAA
RGRGAAA	DREME-6	chr15	99396776	99396782	+	12.1974	7.33e-05	0.279	AGAGAAA
RGRGAAA	DREME-6	chr15	99397187	99397193	-	12.1974	7.33e-05	0.279	AGAGAAA
RGRGAAA	DREME-6	chr15	99397201	99397207	-	12.1974	7.33e-05	0.279	AGAGAAA
RGRGAAA	DREME-6	chr15	99398409	99398415	-	12.1974	7.33e-05	0.279	AGAGAAA
RGRGAAA	DREME-6	chr15	99443528	99443534	-	12.1974	7.33e-05	0.279	AGAGAAA
RGRGAAA	DREME-6	chr7	99936055	99936061	+	12.1974	7.33e-05	0.279	agagaaa
RGRGAAA	DREME-6	chr7	99936136	99936142	+	12.1974	7.33e-05	0.279	AGAGAAA
RGRGAAA	DREME-6	chr7	99936149	99936155	+	12.1974	7.33e-05	0.279	AGAGAAA
RGRGAAA	DREME-6	chr15	100026510	100026516	+	12.1974	7.33e-05	0.279	agagaaa
RGRGAAA	DREME-6	chr12	100309531	100309537	+	12.1974	7.33e-05	0.279	agagaaa
RGRGAAA	DREME-6	chr13	100629856	100629862	-	12.1974	7.33e-05	0.279	AGAGAAA
RGRGAAA	DREME-6	chr8	100941948	100941954	-	12.1974	7.33e-05	0.279	AGAGAAA
RGRGAAA	DREME-6	chr5	100999171	100999177	-	12.1974	7.33e-05	0.279	AGAGAAA
RGRGAAA	DREME-6	chr7	101616051	101616057	+	12.1974	7.33e-05	0.279	AGAGAAA
RGRGAAA	DREME-6	chr7	101652745	101652751	-	12.1974	7.33e-05	0.279	AGAGAAA
RGRGAAA	DREME-6	chr2	101734769	101734775	+	12.1974	7.33e-05	0.279	agagaaa
RGRGAAA	DREME-6	chr8	101758354	101758360	+	12.1974	7.33e-05	0.279	agagaaa
RGRGAAA	DREME-6	chr3	101892848	101892854	+	12.1974	7.33e-05	0.279	agagaaa
RGRGAAA	DREME-6	chr8	102380978	102380984	+	12.1974	7.33e-05	0.279	AGAGAAA
RGRGAAA	DREME-6	chr8	102449020	102449026	+	12.1974	7.33e-05	0.279	AGAGAAA
RGRGAAA	DREME-6	chr8	102702596	102702602	-	12.1974	7.33e-05	0.279	AGAGAAA
RGRGAAA	DREME-6	chr5	104246727	104246733	-	12.1974	7.33e-05	0.279	AGAGAAA
RGRGAAA	DREME-6	chrX	104395133	104395139	-	12.1974	7.33e-05	0.279	AGAGAAA
RGRGAAA	DREME-6	chrX	104413185	104413191	+	12.1974	7.33e-05	0.279	agagaaa
RGRGAAA	DREME-6	chr7	105332140	105332146	+	12.1974	7.33e-05	0.279	agagaaa
RGRGAAA	DREME-6	chr10	105649857	105649863	+	12.1974	7.33e-05	0.279	agagaaa
RGRGAAA	DREME-6	chr10	105649863	105649869	+	12.1974	7.33e-05	0.279	agagaaa
RGRGAAA	DREME-6	chrX	106604294	106604300	-	12.1974	7.33e-05	0.279	AGAGAAA
RGRGAAA	DREME-6	chr12	106695543	106695549	-	12.1974	7.33e-05	0.279	AGAGAAA
RGRGAAA	DREME-6	chr2	106778257	106778263	+	12.1974	7.33e-05	0.279	AGAGAAA
RGRGAAA	DREME-6	chrX	106869888	106869894	-	12.1974	7.33e-05	0.279	AGAGAAA
RGRGAAA	DREME-6	chrX	106920592	106920598	-	12.1974	7.33e-05	0.279	AGAGAAA
RGRGAAA	DREME-6	chr6	107199754	107199760	-	12.1974	7.33e-05	0.279	AGAGAAA
RGRGAAA	DREME-6	chr7	107834437	107834443	+	12.1974	7.33e-05	0.279	AGAGAAA
RGRGAAA	DREME-6	chr13	109572267	109572273	-	12.1974	7.33e-05	0.279	AGAGAAA
RGRGAAA	DREME-6	chr13	110651062	110651068	+	12.1974	7.33e-05	0.279	AGAGAAA
RGRGAAA	DREME-6	chr13	110651265	110651271	+	12.1974	7.33e-05	0.279	AGAGAAA
RGRGAAA	DREME-6	chr13	111152739	111152745	+	12.1974	7.33e-05	0.279	AGAGAAA
RGRGAAA	DREME-6	chr13	111252830	111252836	-	12.1974	7.33e-05	0.279	AGAGAAA
RGRGAAA	DREME-6	chr1	111288995	111289001	-	12.1974	7.33e-05	0.279	AGAGAAA
RGRGAAA	DREME-6	chr1	111289151	111289157	+	12.1974	7.33e-05	0.279	AGAGAAA
RGRGAAA	DREME-6	chr2	111499406	111499412	+	12.1974	7.33e-05	0.279	AGAGAAA
RGRGAAA	DREME-6	chr2	111526119	111526125	-	12.1974	7.33e-05	0.279	AGAGAAA
RGRGAAA	DREME-6	chr10	111942113	111942119	-	12.1974	7.33e-05	0.279	AGAGAAA
RGRGAAA	DREME-6	chr1	112056037	112056043	-	12.1974	7.33e-05	0.279	AGAGAAA
RGRGAAA	DREME-6	chr7	112122185	112122191	-	12.1974	7.33e-05	0.279	AGAGAAA
RGRGAAA	DREME-6	chr9	112318691	112318697	-	12.1974	7.33e-05	0.279	AGAGAAA
RGRGAAA	DREME-6	chr4	113034008	113034014	+	12.1974	7.33e-05	0.279	agagaaa
RGRGAAA	DREME-6	chr12	114182623	114182629	+	12.1974	7.33e-05	0.279	agagaaa
RGRGAAA	DREME-6	chr12	115912555	115912561	-	12.1974	7.33e-05	0.279	AGAGAAA
RGRGAAA	DREME-6	chr12	116310334	116310340	-	12.1974	7.33e-05	0.279	AGAGAAA
RGRGAAA	DREME-6	chr12	116310854	116310860	+	12.1974	7.33e-05	0.279	AGAGAAA
RGRGAAA	DREME-6	chr3	116737944	116737950	-	12.1974	7.33e-05	0.279	AGAGAAA
RGRGAAA	DREME-6	chr12	116827839	116827845	+	12.1974	7.33e-05	0.279	AGAGAAA
RGRGAAA	DREME-6	chr8	116999891	116999897	-	12.1974	7.33e-05	0.279	AGAGAAA
RGRGAAA	DREME-6	chr8	116999931	116999937	-	12.1974	7.33e-05	0.279	AGAGAAA
RGRGAAA	DREME-6	chr8	117000093	117000099	-	12.1974	7.33e-05	0.279	AGAGAAA
RGRGAAA	DREME-6	chr8	117000532	117000538	+	12.1974	7.33e-05	0.279	AGAGAAA
RGRGAAA	DREME-6	chr8	117849843	117849849	+	12.1974	7.33e-05	0.279	agagaaa
RGRGAAA	DREME-6	chr8	117850041	117850047	+	12.1974	7.33e-05	0.279	agagaaa
RGRGAAA	DREME-6	chr1	118624638	118624644	+	12.1974	7.33e-05	0.279	AGAGAAA
RGRGAAA	DREME-6	chr8	119862940	119862946	-	12.1974	7.33e-05	0.279	AGAGAAA
RGRGAAA	DREME-6	chr8	119891535	119891541	+	12.1974	7.33e-05	0.279	AGAGAAA
RGRGAAA	DREME-6	chr8	119891569	119891575	+	12.1974	7.33e-05	0.279	AGAGAAA
RGRGAAA	DREME-6	chr6	120004407	120004413	-	12.1974	7.33e-05	0.279	AGAGAAA
RGRGAAA	DREME-6	chr6	120004456	120004462	+	12.1974	7.33e-05	0.279	AGAGAAA
RGRGAAA	DREME-6	chr11	120151306	120151312	+	12.1974	7.33e-05	0.279	agagaaa
RGRGAAA	DREME-6	chr11	120151333	120151339	+	12.1974	7.33e-05	0.279	agagaaa
RGRGAAA	DREME-6	chr11	120151703	120151709	-	12.1974	7.33e-05	0.279	AGAGAAA
RGRGAAA	DREME-6	chr8	120451168	120451174	+	12.1974	7.33e-05	0.279	agagaaa
RGRGAAA	DREME-6	chr12	121198345	121198351	+	12.1974	7.33e-05	0.279	AGAGAAA
RGRGAAA	DREME-6	chr10	121545931	121545937	-	12.1974	7.33e-05	0.279	AGAGAAA
RGRGAAA	DREME-6	chr10	121558611	121558617	-	12.1974	7.33e-05	0.279	AGAGAAA
RGRGAAA	DREME-6	chr11	123015864	123015870	-	12.1974	7.33e-05	0.279	AGAGAAA
RGRGAAA	DREME-6	chr12	123356548	123356554	-	12.1974	7.33e-05	0.279	AGAGAAA
RGRGAAA	DREME-6	chr5	123935227	123935233	+	12.1974	7.33e-05	0.279	AGAGAAA
RGRGAAA	DREME-6	chr5	123935234	123935240	-	12.1974	7.33e-05	0.279	AGAGAAA
RGRGAAA	DREME-6	chr12	125214980	125214986	-	12.1974	7.33e-05	0.279	AGAGAAA
RGRGAAA	DREME-6	chr12	125401119	125401125	+	12.1974	7.33e-05	0.279	AGAGAAA
RGRGAAA	DREME-6	chr12	125401234	125401240	+	12.1974	7.33e-05	0.279	AGAGAAA
RGRGAAA	DREME-6	chr12	125401392	125401398	-	12.1974	7.33e-05	0.279	AGAGAAA
RGRGAAA	DREME-6	chr8	127509635	127509641	+	12.1974	7.33e-05	0.279	AGAGAAA
RGRGAAA	DREME-6	chr8	127510070	127510076	+	12.1974	7.33e-05	0.279	AGAGAAA
RGRGAAA	DREME-6	chr9	128274759	128274765	-	12.1974	7.33e-05	0.279	AGAGAAA
RGRGAAA	DREME-6	chr2	129063890	129063896	-	12.1974	7.33e-05	0.279	AGAGAAA
RGRGAAA	DREME-6	chr11	129716379	129716385	+	12.1974	7.33e-05	0.279	agagaaa
RGRGAAA	DREME-6	chr7	130858499	130858505	+	12.1974	7.33e-05	0.279	AGAGAAA
RGRGAAA	DREME-6	chr3	131448155	131448161	-	12.1974	7.33e-05	0.279	AGAGAAA
RGRGAAA	DREME-6	chr11	131566426	131566432	-	12.1974	7.33e-05	0.279	AGAGAAA
RGRGAAA	DREME-6	chr5	132581255	132581261	-	12.1974	7.33e-05	0.279	AGAGAAA
RGRGAAA	DREME-6	chr3	133705315	133705321	+	12.1974	7.33e-05	0.279	AGAGAAA
RGRGAAA	DREME-6	chr3	133718664	133718670	+	12.1974	7.33e-05	0.279	AGAGAAA
RGRGAAA	DREME-6	chr2	134035287	134035293	+	12.1974	7.33e-05	0.279	agagaaa
RGRGAAA	DREME-6	chr9	134273956	134273962	-	12.1974	7.33e-05	0.279	AGAGAAA
RGRGAAA	DREME-6	chr5	134977093	134977099	-	12.1974	7.33e-05	0.279	AGAGAAA
RGRGAAA	DREME-6	chr5	134977887	134977893	-	12.1974	7.33e-05	0.279	AGAGAAA
RGRGAAA	DREME-6	chr5	137567034	137567040	-	12.1974	7.33e-05	0.279	AGAGAAA
RGRGAAA	DREME-6	chr5	138061307	138061313	-	12.1974	7.33e-05	0.279	AGAGAAA
RGRGAAA	DREME-6	chr6	139139127	139139133	+	12.1974	7.33e-05	0.279	AGAGAAA
RGRGAAA	DREME-6	chr6	139866726	139866732	+	12.1974	7.33e-05	0.279	AGAGAAA
RGRGAAA	DREME-6	chr6	139867030	139867036	+	12.1974	7.33e-05	0.279	AGAGAAA
RGRGAAA	DREME-6	chrX	140222626	140222632	+	12.1974	7.33e-05	0.279	AGAGAAA
RGRGAAA	DREME-6	chr2	142197111	142197117	-	12.1974	7.33e-05	0.279	AGAGAAA
RGRGAAA	DREME-6	chrX	142490392	142490398	+	12.1974	7.33e-05	0.279	AGAGAAA
RGRGAAA	DREME-6	chr5	142625769	142625775	+	12.1974	7.33e-05	0.279	AGAGAAA
RGRGAAA	DREME-6	chr5	145913164	145913170	+	12.1974	7.33e-05	0.279	agagaaa
RGRGAAA	DREME-6	chr1	147806605	147806611	-	12.1974	7.33e-05	0.279	AGAGAAA
RGRGAAA	DREME-6	chr5	150367182	150367188	+	12.1974	7.33e-05	0.279	agagaaa
RGRGAAA	DREME-6	chr7	150701050	150701056	-	12.1974	7.33e-05	0.279	AGAGAAA
RGRGAAA	DREME-6	chr6	150944166	150944172	-	12.1974	7.33e-05	0.279	AGAGAAA
RGRGAAA	DREME-6	chr7	151594916	151594922	+	12.1974	7.33e-05	0.279	AGAGAAA
RGRGAAA	DREME-6	chr7	151595109	151595115	+	12.1974	7.33e-05	0.279	AGAGAAA
RGRGAAA	DREME-6	chr1	153651267	153651273	-	12.1974	7.33e-05	0.279	AGAGAAA
RGRGAAA	DREME-6	chr4	154715046	154715052	-	12.1974	7.33e-05	0.279	AGAGAAA
RGRGAAA	DREME-6	chr4	154715529	154715535	-	12.1974	7.33e-05	0.279	AGAGAAA
RGRGAAA	DREME-6	chr3	156535232	156535238	+	12.1974	7.33e-05	0.279	AGAGAAA
RGRGAAA	DREME-6	chr6	158461175	158461181	-	12.1974	7.33e-05	0.279	AGAGAAA
RGRGAAA	DREME-6	chr3	158490065	158490071	+	12.1974	7.33e-05	0.279	AGAGAAA
RGRGAAA	DREME-6	chr5	159935843	159935849	+	12.1974	7.33e-05	0.279	AGAGAAA
RGRGAAA	DREME-6	chr3	163567438	163567444	+	12.1974	7.33e-05	0.279	agagaaa
RGRGAAA	DREME-6	chr5	166025439	166025445	+	12.1974	7.33e-05	0.279	AGAGAAA
RGRGAAA	DREME-6	chr5	166025946	166025952	+	12.1974	7.33e-05	0.279	AGAGAAA
RGRGAAA	DREME-6	chr1	169498223	169498229	-	12.1974	7.33e-05	0.279	AGAGAAA
RGRGAAA	DREME-6	chr1	169498648	169498654	-	12.1974	7.33e-05	0.279	AGAGAAA
RGRGAAA	DREME-6	chr6	171043008	171043014	-	12.1974	7.33e-05	0.279	AGAGAAA
RGRGAAA	DREME-6	chr2	171095392	171095398	-	12.1974	7.33e-05	0.279	AGAGAAA
RGRGAAA	DREME-6	chr2	171095660	171095666	-	12.1974	7.33e-05	0.279	AGAGAAA
RGRGAAA	DREME-6	chr3	171847804	171847810	+	12.1974	7.33e-05	0.279	agagAAA
RGRGAAA	DREME-6	chr2	172903375	172903381	+	12.1974	7.33e-05	0.279	AGAGAAA
RGRGAAA	DREME-6	chr2	172903398	172903404	+	12.1974	7.33e-05	0.279	AGAGAAA
RGRGAAA	DREME-6	chr5	173018541	173018547	-	12.1974	7.33e-05	0.279	AGAGAAA
RGRGAAA	DREME-6	chr5	173315049	173315055	+	12.1974	7.33e-05	0.279	AGAGAAA
RGRGAAA	DREME-6	chr5	173909526	173909532	+	12.1974	7.33e-05	0.279	AGAGAAA
RGRGAAA	DREME-6	chr3	175991598	175991604	-	12.1974	7.33e-05	0.279	AGAGAAA
RGRGAAA	DREME-6	chr3	175991759	175991765	-	12.1974	7.33e-05	0.279	AGAGAAA
RGRGAAA	DREME-6	chr3	176121544	176121550	+	12.1974	7.33e-05	0.279	agagaaa
RGRGAAA	DREME-6	chr5	177505056	177505062	-	12.1974	7.33e-05	0.279	AGAGAAA
RGRGAAA	DREME-6	chr2	177750326	177750332	-	12.1974	7.33e-05	0.279	AGAGAAA
RGRGAAA	DREME-6	chr2	182885341	182885347	-	12.1974	7.33e-05	0.279	AGAGAAA
RGRGAAA	DREME-6	chr2	182885459	182885465	+	12.1974	7.33e-05	0.279	AGAGAAA
RGRGAAA	DREME-6	chr2	182885615	182885621	-	12.1974	7.33e-05	0.279	AGAGAAA
RGRGAAA	DREME-6	chr2	182886034	182886040	-	12.1974	7.33e-05	0.279	AGAGAAA
RGRGAAA	DREME-6	chr2	184673985	184673991	-	12.1974	7.33e-05	0.279	AGAGAAA
RGRGAAA	DREME-6	chr2	184674386	184674392	-	12.1974	7.33e-05	0.279	AGAGAAA
RGRGAAA	DREME-6	chr3	187635285	187635291	-	12.1974	7.33e-05	0.279	AGAGAAA
RGRGAAA	DREME-6	chr3	187871072	187871078	-	12.1974	7.33e-05	0.279	AGAGAAA
RGRGAAA	DREME-6	chr3	187871374	187871380	-	12.1974	7.33e-05	0.279	AGAGAAA
RGRGAAA	DREME-6	chr1	188458521	188458527	-	12.1974	7.33e-05	0.279	AGAGAAA
RGRGAAA	DREME-6	chr3	192646956	192646962	+	12.1974	7.33e-05	0.279	agagaaa
RGRGAAA	DREME-6	chr3	193603803	193603809	+	12.1974	7.33e-05	0.279	agagaaa
RGRGAAA	DREME-6	chr2	197451729	197451735	-	12.1974	7.33e-05	0.279	AGAGAAA
RGRGAAA	DREME-6	chr2	197466540	197466546	-	12.1974	7.33e-05	0.279	AGAGAAA
RGRGAAA	DREME-6	chr1	198904266	198904272	-	12.1974	7.33e-05	0.279	AGAGAAA
RGRGAAA	DREME-6	chr1	198904320	198904326	+	12.1974	7.33e-05	0.279	agagaaa
RGRGAAA	DREME-6	chr1	198904326	198904332	+	12.1974	7.33e-05	0.279	agagaaa
RGRGAAA	DREME-6	chr1	198904380	198904386	+	12.1974	7.33e-05	0.279	agagaaa
RGRGAAA	DREME-6	chr1	198904733	198904739	+	12.1974	7.33e-05	0.279	AGAGAAA
RGRGAAA	DREME-6	chr2	205204767	205204773	+	12.1974	7.33e-05	0.279	agagaaa
RGRGAAA	DREME-6	chr1	207193445	207193451	-	12.1974	7.33e-05	0.279	AGAGAAA
RGRGAAA	DREME-6	chr2	217615814	217615820	+	12.1974	7.33e-05	0.279	agagaaa
RGRGAAA	DREME-6	chr1	217730430	217730436	-	12.1974	7.33e-05	0.279	AGAGAAA
RGRGAAA	DREME-6	chr2	220434085	220434091	+	12.1974	7.33e-05	0.279	AGAGAAA
RGRGAAA	DREME-6	chr2	226105465	226105471	-	12.1974	7.33e-05	0.279	AGAGAAA
RGRGAAA	DREME-6	chr2	226336137	226336143	-	12.1974	7.33e-05	0.279	AGAGAAA
RGRGAAA	DREME-6	chr2	226983816	226983822	-	12.1974	7.33e-05	0.279	AGAGAAA
RGRGAAA	DREME-6	chr1	228081833	228081839	-	12.1974	7.33e-05	0.279	AGAGAAA
RGRGAAA	DREME-6	chr2	230962728	230962734	-	12.1974	7.33e-05	0.279	AGAGAAA
RGRGAAA	DREME-6	chr2	235372696	235372702	-	12.1974	7.33e-05	0.279	AGAGAAA
RGRGAAA	DREME-6	chr2	236954121	236954127	-	12.1974	7.33e-05	0.279	AGAGAAA
RGRGAAA	DREME-6	chr2	237655030	237655036	+	12.1974	7.33e-05	0.279	AGAGAAA
RGRGAAA	DREME-6	chr2	239924611	239924617	-	12.1974	7.33e-05	0.279	AGAGAAA
RGRGAAA	DREME-6	chr1	244532754	244532760	-	12.1974	7.33e-05	0.279	AGAGAAA
RGRGAAA	DREME-6	chr1	244532859	244532865	+	12.1974	7.33e-05	0.279	agagaaa
RGRGAAA	DREME-6	chr1	244533206	244533212	+	12.1974	7.33e-05	0.279	agagaaa
