#Query ID	Target ID	Optimal offset	p-value	E-value	q-value	Overlap	Query consensus	Target consensus	Orientation
GCTCACTGCAACCTCCRCCTCCYRGGYTCA	MA1232.1	-2	5.04455e-05	0.0708255	0.11308	20	GCTCACTGCAACCTCCGCCTCCTGGGTTCA	CCACCACCGCCTCCACCGCC	-
GCTCACTGCAACCTCCRCCTCCYRGGYTCA	MA1233.1	-3	8.59137e-05	0.120623	0.11308	20	GCTCACTGCAACCTCCGCCTCCTGGGTTCA	CACCGCCGCCGCCACCGCCA	+
GCTCACTGCAACCTCCRCCTCCYRGGYTCA	MA1248.1	-2	0.000121593	0.170717	0.11308	20	GCTCACTGCAACCTCCGCCTCCTGGGTTCA	CCACCACCACCTCCACCGAC	+
GCTCACTGCAACCTCCRCCTCCYRGGYTCA	MA1260.1	-1	0.000246184	0.345642	0.156156	21	GCTCACTGCAACCTCCGCCTCCTGGGTTCA	TCCACCGACACCACCACCACC	-
GCTCACTGCAACCTCCRCCTCCYRGGYTCA	MA1239.1	-3	0.000279855	0.392916	0.156156	19	GCTCACTGCAACCTCCGCCTCCTGGGTTCA	CGCCGCCGCCGCCGCCGCC	+
GCTCACTGCAACCTCCRCCTCCYRGGYTCA	MA1255.1	-7	0.000425152	0.596913	0.168374	15	GCTCACTGCAACCTCCGCCTCCTGGGTTCA	TCCACCGCCACCGCC	-
GCTCACTGCAACCTCCRCCTCCYRGGYTCA	MA1265.1	-2	0.000459615	0.645299	0.168374	20	GCTCACTGCAACCTCCGCCTCCTGGGTTCA	CCACCGACAAAACCACCACC	+
GCTCACTGCAACCTCCRCCTCCYRGGYTCA	MA1250.1	-8	0.000482803	0.677855	0.168374	15	GCTCACTGCAACCTCCGCCTCCTGGGTTCA	CCACCTCCACCGCCA	+
GCTCACTGCAACCTCCRCCTCCYRGGYTCA	MA0443.1	-13	0.000644555	0.904955	0.183501	10	GCTCACTGCAACCTCCGCCTCCTGGGTTCA	TCCGCCCCCT	-
GCTCACTGCAACCTCCRCCTCCYRGGYTCA	MA1242.1	-11	0.000657722	0.923442	0.183501	11	GCTCACTGCAACCTCCGCCTCCTGGGTTCA	CCGCCACCGCC	+
RNGTGYGTGHSWGHGTRTGWGT	MA0538.1	-2	3.31149e-07	0.000464933	0.000929867	15	GTGTGCGTGTGTGTGTGTGTGT	GTGTGTGTGTGCGTG	+
RNGTGYGTGHSWGHGTRTGWGT	MA0006.1	-3	0.000199071	0.279496	0.279496	6	GTGTGCGTGTGTGTGTGTGTGT	TGCGTG	+
WHWWTBTGTTTDYTTWTHTTTT	MA1267.1	4	1.71426e-07	0.000240682	0.000282636	22	TTTTTCTGTTTTTTTTTCTTTT	TTTTTTTTTTTTTTTACTTTTTTTTTTTT	+
WHWWTBTGTTTDYTTWTHTTTT	MA1279.1	-1	2.04913e-07	0.000287698	0.000282636	21	TTTTTCTGTTTTTTTTTCTTTT	TTTTCACTTTTTCTTTTTTTT	-
WHWWTBTGTTTDYTTWTHTTTT	MA1268.1	-1	3.3312e-07	0.0004677	0.000306313	21	TTTTTCTGTTTTTTTTTCTTTT	TTTTCACTTTTTCTTTTTTTTTTTTTT	+
WHWWTBTGTTTDYTTWTHTTTT	MA0593.1	-4	8.87898e-07	0.00124661	0.000556487	11	TTTTTCTGTTTTTTTTTCTTTT	TTTGTTTACTT	-
WHWWTBTGTTTDYTTWTHTTTT	MA1274.1	-1	1.00865e-06	0.00141614	0.000556487	21	TTTTTCTGTTTTTTTTTCTTTT	TTTACTTTTTTTTTTTTTTTT	+
WHWWTBTGTTTDYTTWTHTTTT	MA1281.1	-3	1.41103e-06	0.00198109	0.000648742	19	TTTTTCTGTTTTTTTTTCTTTT	TTTTTTTTTTTTTACTTTTTT	-
WHWWTBTGTTTDYTTWTHTTTT	MA1272.1	-3	4.03278e-06	0.00566203	0.00158925	19	TTTTTCTGTTTTTTTTTCTTTT	TTTTTTTTTTTTTACTTTTTT	+
WHWWTBTGTTTDYTTWTHTTTT	MA1278.1	-2	5.50505e-06	0.00772909	0.00189827	20	TTTTTCTGTTTTTTTTTCTTTT	TTTTTTTTTTTTTTACTTTTT	+
WHWWTBTGTTTDYTTWTHTTTT	MA0481.2	-3	1.14836e-05	0.016123	0.00351984	12	TTTTTCTGTTTTTTTTTCTTTT	TTCTGTTTACTT	-
WHWWTBTGTTTDYTTWTHTTTT	MA1277.1	-3	1.68848e-05	0.0237063	0.00465783	19	TTTTTCTGTTTTTTTTTCTTTT	TTTTTTTTACTTTTTCTTTTT	-
WHWWTBTGTTTDYTTWTHTTTT	MA0851.1	-5	2.45942e-05	0.0345303	0.00616775	17	TTTTTCTGTTTTTTTTTCTTTT	GTGTTTGTTTACTTTTT	-
WHWWTBTGTTTDYTTWTHTTTT	MA0846.1	-4	5.1756e-05	0.0726654	0.0118978	12	TTTTTCTGTTTTTTTTTCTTTT	TTTGTTTACTTA	-
WHWWTBTGTTTDYTTWTHTTTT	MA1104.1	-9	0.000142752	0.200424	0.0292368	13	TTTTTCTGTTTTTTTTTCTTTT	TTTCTTATCTTTT	-
WHWWTBTGTTTDYTTWTHTTTT	MA0757.1	-8	0.000148379	0.208324	0.0292368	14	TTTTTCTGTTTTTTTTTCTTTT	ATTATTGATTTTTT	-
WHWWTBTGTTTDYTTWTHTTTT	MA1273.1	-1	0.000271924	0.381781	0.0500083	19	TTTTTCTGTTTTTTTTTCTTTT	TTTTTTGCCTTTTTTTTTT	-
WHWWTBTGTTTDYTTWTHTTTT	MA0546.1	-6	0.000320144	0.449482	0.0551966	10	TTTTTCTGTTTTTTTTTCTTTT	TGTTTACTTT	-
WHWWTBTGTTTDYTTWTHTTTT	MA1159.1	-2	0.000381268	0.535301	0.0618683	15	TTTTTCTGTTTTTTTTTCTTTT	TTTTTGTCTTTTTTT	-
WHWWTBTGTTTDYTTWTHTTTT	MA0013.1	-4	0.000533962	0.749683	0.0792472	11	TTTTTCTGTTTTTTTTTCTTTT	TTTGTTTACTA	-
WHWWTBTGTTTDYTTWTHTTTT	MA1158.1	-2	0.000582807	0.818261	0.0792472	20	TTTTTCTGTTTTTTTTTCTTTT	TTTTTTTTTGTCGTTTTCTG	-
WHWWTBTGTTTDYTTWTHTTTT	MA1156.1	-6	0.000582807	0.818261	0.0792472	16	TTTTTCTGTTTTTTTTTCTTTT	TTTTTTTTTGTCGTTTTCTG	+
WHWWTBTGTTTDYTTWTHTTTT	MA1125.1	-8	0.000622536	0.87404	0.0792472	12	TTTTTCTGTTTTTTTTTCTTTT	TTTTTTTTTAAA	-
WHWWTBTGTTTDYTTWTHTTTT	MA0029.1	-6	0.000632004	0.887334	0.0792472	14	TTTTTCTGTTTTTTTTTCTTTT	TATTATCTTATCTT	-
WHWWTBTGTTTDYTTWTHTTTT	MA1160.1	-6	0.000694894	0.975631	0.0833445	16	TTTTTCTGTTTTTTTTTCTTTT	TTTTTTTTTGTCGTTTTGTG	+
HTCARTAAATATTTG	MA1183.1	-3	0.000367295	0.515682	0.315403	11	CTCAATAAATATTTG	AAAAAATATCT	-
HTCARTAAATATTTG	MA1190.1	-3	0.000428727	0.601933	0.315403	11	CTCAATAAATATTTG	AAAAAATATCT	-
HTCARTAAATATTTG	MA0972.1	-6	0.000461626	0.648123	0.315403	8	CTCAATAAATATTTG	AAATATCT	+
HTCARTAAATATTTG	MA0932.1	-6	0.000698076	0.980098	0.315403	8	CTCAATAAATATTTG	AATTAATT	+
CMSSTSWCCCWSCCYC	MA0258.2	-1	0.000169111	0.237431	0.179348	15	CCCCTCACCCAGCCCC	AGGTCACCCTGACCT	+
CMSSTSWCCCWSCCYC	MA0039.3	-2	0.000174901	0.245561	0.179348	11	CCCCTCACCCAGCCCC	CCACACCCTGC	+
CMSSTSWCCCWSCCYC	MA1114.1	3	0.000202154	0.283824	0.179348	14	CCCCTCACCCAGCCCC	CCGCCTGTCACTCACCC	-
CMSSTSWCCCWSCCYC	MA0528.1	5	0.000255661	0.358948	0.179348	16	CCCCTCACCCAGCCCC	TCCTCCTCCCCCTCCTCCTCC	-
CMSSTSWCCCWSCCYC	MA0073.1	3	0.000329092	0.462046	0.184689	16	CCCCTCACCCAGCCCC	CCCCAAACCACCCCCCCCCA	+
CMSSTSWCCCWSCCYC	MA0576.1	-4	0.000567822	0.797222	0.265554	12	CCCCTCACCCAGCCCC	CCACCTACCCCCC	-
