# motif_id	motif_alt_id	sequence_name	start	stop	strand	score	p-value	q-value	matched_sequence
CCCAAAAGCAAATKCAATARAAACAAAGAT	MEME-2	chr17	78690364	78690393	-	54.5299	7.95e-18	5.46e-14	CCCAAAAGCAAATGCAATAAAAACAAAGAT
CCCAAAAGCAAATKCAATARAAACAAAGAT	MEME-2	chr5	53039762	53039791	+	54.5299	7.95e-18	5.46e-14	cccaaaagcaaatgcaataaaaacaaagat
CCCAAAAGCAAATKCAATARAAACAAAGAT	MEME-2	chr7	117565417	117565446	+	52.5597	3.44e-17	1.58e-13	cccaaaagcaaattcaatagaaacaaagat
CCCAAAAGCAAATKCAATARAAACAAAGAT	MEME-2	chr2	43826934	43826963	+	33.7761	7.42e-13	2.55e-09	ctcaaaagcaaatacaataaaaacagagat
CCCAAAAGCAAATKCAATARAAACAAAGAT	MEME-2	chr4	24862127	24862156	+	26.6343	1.56e-11	4.29e-08	tacaaaagcatatgcaacaaaaacaaagat
CCCAAAAGCAAATKCAATARAAACAAAGAT	MEME-2	chr4	131057740	131057769	+	-8.64179	2.14e-06	0.00472	ctcaaaccaacaagaaaaaaaaacaaacat
CCCAAAAGCAAATKCAATARAAACAAAGAT	MEME-2	chr4	131057583	131057612	+	-8.80597	2.4e-06	0.00472	cccaaaagcaaattaaaacaaagataaata
CCCAAAAGCAAATKCAATARAAACAAAGAT	MEME-2	chr3	30367523	30367552	+	-16.0224	1.44e-05	0.0247	cagcgagcaaaatgagataaaaataaagat
CCCAAAAGCAAATKCAATARAAACAAAGAT	MEME-2	chr12	124723517	124723546	-	-20.5672	3.33e-05	0.0508	CCCAAACGCAAAGAGCTTAGAGATTAAAAA
CCCAAAAGCAAATKCAATARAAACAAAGAT	MEME-2	chr4	131057578	131057607	+	-22.8284	7.38e-05	0.0967	aagaacccaaaagcaaattaaaacaaagat
CCCAAAAGCAAATKCAATARAAACAAAGAT	MEME-2	chr2	138011646	138011675	-	-22.9328	7.75e-05	0.0967	TTTCAAAACAACTTCAAGAGATTCACAGAC
