prim_db	prim_id	prim_alt	prim_cons	sec_db	sec_id	sec_alt	sec_cons	trim_left	trim_right	red_db	red_id	red_alt	E-value	gap	orient	count	total	adj_p-value	p-value
dreme.xml	CCTCRGG	DREME-7	CCTCAGG	HOCOMOCOv11_full_HUMAN_mono_meme_format	MXI1_HUMAN.H11MO.1.A	.	SCCACGTGSYB	0	1	.	.	.	3.71e+00	9	8	7	89	4.16e-07	3.74e-06
dreme.xml	CCTCRGG	DREME-7	CCTCAGG	HOCOMOCOv11_full_HUMAN_mono_meme_format	MXI1_HUMAN.H11MO.1.A	.	SCCACGTGSYB	0	1	.	.	.	3.71e+00	9	6	5	89	2.02e-06	1.82e-05
dreme.xml	CCTCRGG	DREME-7	CCTCAGG	HOCOMOCOv11_full_HUMAN_mono_meme_format	MXI1_HUMAN.H11MO.1.A	.	SCCACGTGSYB	0	1	.	.	.	3.71e+00	9	7	5	89	2.02e-06	1.82e-05
dreme.xml	CCTCRGG	DREME-7	CCTCAGG	HOCOMOCOv11_full_HUMAN_mono_meme_format	MXI1_HUMAN.H11MO.1.A	.	SCCACGTGSYB	0	1	.	.	.	3.71e+00	9	2	4	89	2.38e-06	2.14e-05
dreme.xml	CCTCRGG	DREME-7	CCTCAGG	HOCOMOCOv11_full_HUMAN_mono_meme_format	MXI1_HUMAN.H11MO.0.A	.	VCACGTGGSNGSBGS	1	4	.	.	.	8.58e+00	7	8	7	101	9.63e-07	8.67e-06
dreme.xml	CCTCRGG	DREME-7	CCTCAGG	HOCOMOCOv11_full_HUMAN_mono_meme_format	MXI1_HUMAN.H11MO.0.A	.	VCACGTGGSNGSBGS	1	4	.	.	.	8.58e+00	7	5	5	101	3.72e-06	3.35e-05
##
# Detailed descriptions of columns in this file:
#
# prim_db:	The name of the database (file name) that contains the primary motif.
# prim_id:	A name for the primary motif that is unique in the motif database file.
# prim_alt:	An alternate name of the primary motif that may be provided
#		in the motif database file.
# prim_cons:	A consensus sequence computed from the primary motif (see doc/motif-consensus.html).
# sec_db:	The name of the database (file name) that contains the secondary motif.
# sec_id:	A name for the motif that is unique in the motif database file.
# sec_alt:	An alternate name of the secondary motif that may be provided
#		in the motif database file.
# sec_cons:	A consensus sequence computed from the secondary motif (see doc/motif-consensus.html).
# trim_left:	Number of positions trimmed from left of secondary motif
# trim_right:	Number of positions trimmed from right of secondary motif
# If the next three fields are not blank, the motif is redundant with a more significant ('parent') motif.
# red_db:	The database (file name) that contains the parent motif.
# red_id:	A name for the parent motif that is unique in the motif database file.
# red_alt:	An alternate name of the parent motif that may be provided
#		in the motif database file.
# E-value:	The expected number motifs that would have least one
#		spacing as enriched as the best spacing for this secondary.
#		The E-value is the best spacing p-value multiplied by the number of motifs in the
#		input database(s).
# gap:		The distance between the edge of the primary and the (trimmed) secondary motif.
# orient:	The (combination) of quadrants for which occurrences
#		of this spacing are combined.
# count:	The number of occurrences of the secondary motif with the
#		given spacing and orientation to the primary motif.
# total:	The total number of occurrences of the secondary motif within the
#		margins around the best primary motif occurrence.
# adj_p-value:	The p-value of the gap and orientation, adjusted for
#		nine combinations of quadrants times the number of gaps tested
#		(as controlled by the -range switch).
# p-value:	The p-value of the gap and orientation adjusted only for the number of gaps tested.
