# motif_id	motif_alt_id	sequence_name	start	stop	strand	score	p-value	q-value	matched_sequence
MARAGTVAAANWMAATHWMAAAAAAAAAAA	MEME-3	chr11	69329253	69329282	+	33.4176	2.84e-13	7.92e-08	cagagtgagattccatctcaaaaaaaaaaa
MARAGTVAAANWMAATHWMAAAAAAAAAAA	MEME-3	chr12	48297864	48297893	+	32.5714	9.61e-13	1.34e-07	aaaagtaaaaaaaaaaaaaaaaaaaaaaaa
MARAGTVAAANWMAATHWMAAAAAAAAAAA	MEME-3	chr12	32827903	32827932	-	31.7363	2.93e-12	2.72e-07	CACAGTGACACTCCACCTCAAAAAAAAAAA
MARAGTVAAANWMAATHWMAAAAAAAAAAA	MEME-3	chr8	131045311	131045340	+	31.2198	5.6e-12	3.9e-07	aagagcgaaactccgtctcaaaaaaaaaaa
MARAGTVAAANWMAATHWMAAAAAAAAAAA	MEME-3	chr2	204408627	204408656	+	30.7692	9.66e-12	4.92e-07	cacagcaagactccatctcaaaaaaaaaaa
MARAGTVAAANWMAATHWMAAAAAAAAAAA	MEME-3	chr8	17663652	17663681	-	30.6923	1.06e-11	4.92e-07	AAGAGCGAAACTCTGTCTCAAAAAAAAAAA
MARAGTVAAANWMAATHWMAAAAAAAAAAA	MEME-3	chr10	127258042	127258071	+	30.0659	2.18e-11	8.67e-07	cagagcaagactctgtctcaaaaaaaaaaa
MARAGTVAAANWMAATHWMAAAAAAAAAAA	MEME-3	chr12	93480738	93480767	+	29.1319	6.02e-11	2.1e-06	aagagcgaaattctatctcaaaaaaaataa
MARAGTVAAANWMAATHWMAAAAAAAAAAA	MEME-3	chrX	143455780	143455809	-	28.6484	9.94e-11	3.08e-06	CAGACTGAGATACAATAGAAAGAAAAAAAA
MARAGTVAAANWMAATHWMAAAAAAAAAAA	MEME-3	chr6	56593179	56593208	+	28.4286	1.24e-10	3.46e-06	cagagccagactctgtctcaaaaaaaataa
MARAGTVAAANWMAATHWMAAAAAAAAAAA	MEME-3	chr12	48297859	48297888	+	27.9231	2.05e-10	5.18e-06	Caaagaaaagtaaaaaaaaaaaaaaaaaaa
MARAGTVAAANWMAATHWMAAAAAAAAAAA	MEME-3	chr17	76742931	76742960	+	27.2198	3.99e-10	9.27e-06	cagagtcagactctgtctcaaaaataataa
MARAGTVAAANWMAATHWMAAAAAAAAAAA	MEME-3	chr2	208693879	208693908	-	26.5165	7.57e-10	1.62e-05	CAGAGTGAGACCCTATCTCCAAAAAAATAA
MARAGTVAAANWMAATHWMAAAAAAAAAAA	MEME-3	chr11	71856216	71856245	+	26.2637	9.47e-10	1.83e-05	taaagcaagactctgtctcaaaaaaaaaaa
MARAGTVAAANWMAATHWMAAAAAAAAAAA	MEME-3	chr7	131312449	131312478	-	26.2198	9.84e-10	1.83e-05	CAGGGACAAAGTAAATAAATAAAAAGAAAC
MARAGTVAAANWMAATHWMAAAAAAAAAAA	MEME-3	chr12	48297865	48297894	+	24.8571	3.1e-09	5.39e-05	aaagtaaaaaaaaaaaaaaaaaaaaaaaaa
MARAGTVAAANWMAATHWMAAAAAAAAAAA	MEME-3	chr19	46696104	46696133	+	24.4945	4.14e-09	6.78e-05	cagagcaagactctgtctcaaaagaacaaa
MARAGTVAAANWMAATHWMAAAAAAAAAAA	MEME-3	chr3	100314574	100314603	-	24.1978	5.22e-09	8.08e-05	CAAAAGCAAATGCAATAAAAACAAAGATAA
MARAGTVAAANWMAATHWMAAAAAAAAAAA	MEME-3	chr3	73729961	73729990	-	23.5385	8.65e-09	0.000127	TAAAATAAAACAAAATAAAACAAAATAAAA
MARAGTVAAANWMAATHWMAAAAAAAAAAA	MEME-3	chr5	154080508	154080537	-	23.1538	1.15e-08	0.00016	AAAAAACAAACAAACAAACAAAAAACAAAA
MARAGTVAAANWMAATHWMAAAAAAAAAAA	MEME-3	chr5	154080506	154080535	-	22.989	1.3e-08	0.000172	AAAACAAACAAACAAACAAAAAACAAAAGA
MARAGTVAAANWMAATHWMAAAAAAAAAAA	MEME-3	chr7	101618822	101618851	-	22.8571	1.43e-08	0.000177	CGAGGTAAAAGACCAACCAAAATAAACAAA
MARAGTVAAANWMAATHWMAAAAAAAAAAA	MEME-3	chr3	148179836	148179865	+	22.7802	1.51e-08	0.000177	caaaagcaaatgcaacaaaaacaaagataa
MARAGTVAAANWMAATHWMAAAAAAAAAAA	MEME-3	chr1	169498209	169498238	-	22.7582	1.54e-08	0.000177	CAAACCAACAGAAAACCACAACAACAAAAA
MARAGTVAAANWMAATHWMAAAAAAAAAAA	MEME-3	chr12	48297866	48297895	+	22.7143	1.58e-08	0.000177	aagtaaaaaaaaaaaaaaaaaaaaaaaaaT
MARAGTVAAANWMAATHWMAAAAAAAAAAA	MEME-3	chr7	75735573	75735602	+	22.5055	1.84e-08	0.000197	cagagtgagactctgtctcCACAATAAATA
MARAGTVAAANWMAATHWMAAAAAAAAAAA	MEME-3	chr17	60501740	60501769	-	22.3297	2.08e-08	0.000215	CAAAGTAAAACTATATATAAAAAAACCCTC
MARAGTVAAANWMAATHWMAAAAAAAAAAA	MEME-3	chr10	32250264	32250293	+	22.1648	2.34e-08	0.000225	aaaacacacacacacataaaaaaaagaaga
MARAGTVAAANWMAATHWMAAAAAAAAAAA	MEME-3	chr20	48758856	48758885	-	22.1648	2.34e-08	0.000225	CAGAGCGAGACTCCGTCTCAAAATAGCAGG
MARAGTVAAANWMAATHWMAAAAAAAAAAA	MEME-3	chr5	154080502	154080531	-	21.9121	2.79e-08	0.000259	CAAACAAACAAACAAAAAACAAAAGAAAAC
MARAGTVAAANWMAATHWMAAAAAAAAAAA	MEME-3	chrX	44809811	44809840	-	21.2967	4.23e-08	0.00038	AAATGACAAATACAGCTGCAACAAAGCAAA
MARAGTVAAANWMAATHWMAAAAAAAAAAA	MEME-3	chr20	50419437	50419466	+	20.6484	6.47e-08	0.000554	CATAGTCAGAGATAATATCAAAACAGCAAG
MARAGTVAAANWMAATHWMAAAAAAAAAAA	MEME-3	chr6	16766210	16766239	+	20.6264	6.56e-08	0.000554	AAAAGTAAAACAAACTCAAAAGTGAAAAAC
MARAGTVAAANWMAATHWMAAAAAAAAAAA	MEME-3	chr3	139021111	139021140	-	20.4396	7.39e-08	0.000601	AACAGTAACAAACAAAACACAAAACCAAAA
MARAGTVAAANWMAATHWMAAAAAAAAAAA	MEME-3	chr17	4681632	4681661	+	20.4066	7.55e-08	0.000601	cagagtgagatcctgtctcaaaaagcaaaC
MARAGTVAAANWMAATHWMAAAAAAAAAAA	MEME-3	chr12	64994111	64994140	-	20	9.76e-08	0.000755	AAATGAGAAAGAAAAAAAACAAAATCCAAA
MARAGTVAAANWMAATHWMAAAAAAAAAAA	MEME-3	chr3	192315268	192315297	+	19.8901	1.04e-07	0.000771	CAGACTGAAATACAACTTACAGCAGAAAAA
MARAGTVAAANWMAATHWMAAAAAAAAAAA	MEME-3	chr7	30387451	30387480	+	19.8791	1.05e-07	0.000771	CACTTAAAAATGTTaaaaaaaaaaaaaaaa
MARAGTVAAANWMAATHWMAAAAAAAAAAA	MEME-3	chr7	100995748	100995777	+	19.8242	1.09e-07	0.000774	catggtgaaaccccgtctctactaaaaaaa
MARAGTVAAANWMAATHWMAAAAAAAAAAA	MEME-3	chrX	30922382	30922411	-	19.7912	1.11e-07	0.000774	AAAAGTCAGAATCTATATTAACCTAAAAGC
MARAGTVAAANWMAATHWMAAAAAAAAAAA	MEME-3	chr3	65565934	65565963	+	19.7363	1.15e-07	0.000781	AGAAGTGAAGGACAATAAAAAAAAATATGT
MARAGTVAAANWMAATHWMAAAAAAAAAAA	MEME-3	chr18	45659583	45659612	+	19.6703	1.2e-07	0.000794	CAAGTTAAAAATCAAACAAAAATTAACAAG
MARAGTVAAANWMAATHWMAAAAAAAAAAA	MEME-3	chr14	101874759	101874788	+	19.3077	1.49e-07	0.000967	AACAAAAAAAATCAGATAAGAAAAATAAAC
MARAGTVAAANWMAATHWMAAAAAAAAAAA	MEME-3	chr8	18858411	18858440	-	19.2527	1.54e-07	0.000977	CAGAGCAAGATCTTATCTAAAAAAAAAAGT
MARAGTVAAANWMAATHWMAAAAAAAAAAA	MEME-3	chr19	46696124	46696153	+	19.022	1.77e-07	0.0011	aaagaacaaaaacaaaacacaaaacaaaga
MARAGTVAAANWMAATHWMAAAAAAAAAAA	MEME-3	chr3	73729959	73729988	-	18.8791	1.93e-07	0.00117	AAATAAAACAAAATAAAACAAAATAAAATA
MARAGTVAAANWMAATHWMAAAAAAAAAAA	MEME-3	chr5	154080513	154080542	-	18.7692	2.06e-07	0.00122	AAGACAAAAAACAAACAAACAAACAAAAAA
MARAGTVAAANWMAATHWMAAAAAAAAAAA	MEME-3	chr21	35816665	35816694	+	18.7033	2.14e-07	0.00122	gagagccagaccctatctcaaaaaaaaaaa
MARAGTVAAANWMAATHWMAAAAAAAAAAA	MEME-3	chr5	133974454	133974483	+	18.6923	2.15e-07	0.00122	ctgagcaagactctatctcaaaacaaacaa
MARAGTVAAANWMAATHWMAAAAAAAAAAA	MEME-3	chr12	93480750	93480779	+	18.011	3.18e-07	0.00175	ctatctcaaaaaaaataaataaataaaagg
MARAGTVAAANWMAATHWMAAAAAAAAAAA	MEME-3	chr9	136608667	136608696	-	18	3.2e-07	0.00175	AACACACAAGAACAAAACAAACAAACAAAA
MARAGTVAAANWMAATHWMAAAAAAAAAAA	MEME-3	chr3	60944997	60945026	-	17.9341	3.32e-07	0.00178	AGTGTTGACATTAAAAAAAAAAAAAAAAAG
MARAGTVAAANWMAATHWMAAAAAAAAAAA	MEME-3	chr14	34837196	34837225	+	17.8791	3.43e-07	0.0018	aaaagaaaaccaaagtacagagaaaaataa
MARAGTVAAANWMAATHWMAAAAAAAAAAA	MEME-3	chr12	48297872	48297901	+	17.6813	3.83e-07	0.00198	aaaaaaaaaaaaaaaaaaaaaaaTTACTTA
MARAGTVAAANWMAATHWMAAAAAAAAAAA	MEME-3	chr5	154080519	154080548	-	17.2747	4.79e-07	0.00243	TAAATTAAGACAAAAAACAAACAAACAAAC
MARAGTVAAANWMAATHWMAAAAAAAAAAA	MEME-3	chr15	99343462	99343491	+	17.1538	5.12e-07	0.00248	AAAGAACAACCTTTGATTAAAAAAAAATAA
MARAGTVAAANWMAATHWMAAAAAAAAAAA	MEME-3	chr9	136608675	136608704	-	17.1538	5.12e-07	0.00248	AAAAAACAAACACACAAGAACAAAACAAAC
MARAGTVAAANWMAATHWMAAAAAAAAAAA	MEME-3	chr12	48297857	48297886	+	17.1319	5.18e-07	0.00248	TTCaaagaaaagtaaaaaaaaaaaaaaaaa
MARAGTVAAANWMAATHWMAAAAAAAAAAA	MEME-3	chr11	9590325	9590354	-	17.0989	5.27e-07	0.00248	AAAACAAAAGTGCCAAAATAACAAAACAAA
MARAGTVAAANWMAATHWMAAAAAAAAAAA	MEME-3	chr8	10532331	10532360	-	17.0769	5.33e-07	0.00248	AAAACCAAACGAAAACAAAACAAAAGCAAA
MARAGTVAAANWMAATHWMAAAAAAAAAAA	MEME-3	chr12	48297867	48297896	+	17	5.56e-07	0.00254	agtaaaaaaaaaaaaaaaaaaaaaaaaaTT
MARAGTVAAANWMAATHWMAAAAAAAAAAA	MEME-3	chr9	136608661	136608690	-	16.9231	5.79e-07	0.0026	CAAGAACAAAACAAACAAACAAAAAACTAG
MARAGTVAAANWMAATHWMAAAAAAAAAAA	MEME-3	chr12	48297862	48297891	+	16.8571	6e-07	0.00264	agaaaagtaaaaaaaaaaaaaaaaaaaaaa
MARAGTVAAANWMAATHWMAAAAAAAAAAA	MEME-3	chr19	46696131	46696160	+	16.8352	6.07e-07	0.00264	aaaaacaaaacacaaaacaaagaaaaaaca
MARAGTVAAANWMAATHWMAAAAAAAAAAA	MEME-3	chr19	46696122	46696151	+	16.6593	6.67e-07	0.00282	caaaagaacaaaaacaaaacacaaaacaaa
MARAGTVAAANWMAATHWMAAAAAAAAAAA	MEME-3	chr5	154080514	154080543	-	16.6593	6.67e-07	0.00282	TAAGACAAAAAACAAACAAACAAACAAAAA
MARAGTVAAANWMAATHWMAAAAAAAAAAA	MEME-3	chr11	9590320	9590349	-	16.5934	6.91e-07	0.00287	AAAAGTGCCAAAATAACAAAACAAAACAAA
MARAGTVAAANWMAATHWMAAAAAAAAAAA	MEME-3	chr10	32250268	32250297	+	16.5275	7.15e-07	0.00293	cacacacacacataaaaaaaagaagaatag
MARAGTVAAANWMAATHWMAAAAAAAAAAA	MEME-3	chr19	46696128	46696157	+	16.4725	7.36e-07	0.00295	aacaaaaacaaaacacaaaacaaagaaaaa
MARAGTVAAANWMAATHWMAAAAAAAAAAA	MEME-3	chr4	44159798	44159827	+	16.4615	7.4e-07	0.00295	CAAGCAGAGAAGAAAAAGCAAACACAAAAA
MARAGTVAAANWMAATHWMAAAAAAAAAAA	MEME-3	chr12	48297854	48297883	+	16.3626	7.8e-07	0.00305	TAGTTCaaagaaaagtaaaaaaaaaaaaaa
MARAGTVAAANWMAATHWMAAAAAAAAAAA	MEME-3	chr19	46696163	46696192	-	16.3407	7.89e-07	0.00305	CAGTGTGACACGCAACTTTAAAATTTATGA
MARAGTVAAANWMAATHWMAAAAAAAAAAA	MEME-3	chr11	9590318	9590347	-	16.2198	8.4e-07	0.00321	AAGTGCCAAAATAACAAAACAAAACAAAAG
MARAGTVAAANWMAATHWMAAAAAAAAAAA	MEME-3	chr12	48297860	48297889	+	16.1538	8.69e-07	0.00327	aaagaaaagtaaaaaaaaaaaaaaaaaaaa
MARAGTVAAANWMAATHWMAAAAAAAAAAA	MEME-3	chr5	177508408	177508437	+	15.9011	9.9e-07	0.00368	catggtgaaaccccgtctccactaaacata
MARAGTVAAANWMAATHWMAAAAAAAAAAA	MEME-3	chr1	49209852	49209881	+	15.8571	1.01e-06	0.00368	AGCTCTGACCTTCAGTCAACAGAAAAAAAA
MARAGTVAAANWMAATHWMAAAAAAAAAAA	MEME-3	chr9	136608695	136608724	-	15.8462	1.02e-06	0.00368	GGGAGCAAGACTCCACTTCAAAAAAACAAA
MARAGTVAAANWMAATHWMAAAAAAAAAAA	MEME-3	chr3	148179830	148179859	+	15.7912	1.05e-06	0.00374	agaacccaaaagcaaatgcaacaaaaacaa
MARAGTVAAANWMAATHWMAAAAAAAAAAA	MEME-3	chr5	154080515	154080544	-	15.6703	1.11e-06	0.00393	TTAAGACAAAAAACAAACAAACAAACAAAA
MARAGTVAAANWMAATHWMAAAAAAAAAAA	MEME-3	chr13	100629606	100629635	-	15.3077	1.34e-06	0.00465	AGAAACAAGTGACCAAAAAAAAAAAAAAAA
MARAGTVAAANWMAATHWMAAAAAAAAAAA	MEME-3	chr6	16766227	16766256	+	15.2418	1.38e-06	0.00474	AAAAGTGAAAAACACTCACACAATAGACTC
MARAGTVAAANWMAATHWMAAAAAAAAAAA	MEME-3	chr5	154080507	154080536	-	15.2198	1.39e-06	0.00474	AAAAACAAACAAACAAACAAAAAACAAAAG
MARAGTVAAANWMAATHWMAAAAAAAAAAA	MEME-3	chr12	48297877	48297906	+	15.1538	1.44e-06	0.00484	aaaaaaaaaaaaaaaaaaTTACTTAAAAGA
MARAGTVAAANWMAATHWMAAAAAAAAAAA	MEME-3	chr17	4681657	4681686	+	14.967	1.58e-06	0.00524	caaaCACACACACACACGAAAGCAAGAAGC
MARAGTVAAANWMAATHWMAAAAAAAAAAA	MEME-3	chr15	63753925	63753954	+	14.9121	1.62e-06	0.00532	ataagggaaatgcaaactaaaataaaaatt
MARAGTVAAANWMAATHWMAAAAAAAAAAA	MEME-3	chr8	48454204	48454233	-	14.7473	1.76e-06	0.0057	TAGACAAAGATTAAAAAAAAAAAAAAAGAA
MARAGTVAAANWMAATHWMAAAAAAAAAAA	MEME-3	chr7	100995769	100995798	+	14.6374	1.85e-06	0.00594	ctaaaaaaaaaaaaaaaaaaaaaagaaatt
MARAGTVAAANWMAATHWMAAAAAAAAAAA	MEME-3	chr13	100629602	100629631	-	14.6044	1.88e-06	0.00596	ACAAGTGACCAAAAAAAAAAAAAAAAAAGC
MARAGTVAAANWMAATHWMAAAAAAAAAAA	MEME-3	chr9	136608677	136608706	-	14.4835	2e-06	0.00625	CAAAAAAACAAACACACAAGAACAAAACAA
MARAGTVAAANWMAATHWMAAAAAAAAAAA	MEME-3	chr11	71856054	71856083	+	14.4176	2.06e-06	0.00638	catggtgaaaccctatctctacaaaaactg
MARAGTVAAANWMAATHWMAAAAAAAAAAA	MEME-3	chr19	46696130	46696159	+	14.1758	2.31e-06	0.00707	caaaaacaaaacacaaaacaaagaaaaaac
MARAGTVAAANWMAATHWMAAAAAAAAAAA	MEME-3	chr12	48297858	48297887	+	14.1538	2.34e-06	0.00707	TCaaagaaaagtaaaaaaaaaaaaaaaaaa
MARAGTVAAANWMAATHWMAAAAAAAAAAA	MEME-3	chr12	32339776	32339805	+	14.011	2.5e-06	0.00748	agataagacagtaaattaataaataaattc
MARAGTVAAANWMAATHWMAAAAAAAAAAA	MEME-3	chr16	76171727	76171756	+	13.9121	2.62e-06	0.00767	aagggcaaaaggcagaacaaagataacatg
MARAGTVAAANWMAATHWMAAAAAAAAAAA	MEME-3	chr6	56593191	56593220	+	13.8901	2.64e-06	0.00767	ctgtctcaaaaaaaataattaattaaataa
MARAGTVAAANWMAATHWMAAAAAAAAAAA	MEME-3	chr2	114633907	114633936	+	13.8791	2.66e-06	0.00767	aaaacaaacaaaaaaaCCAAACCTAACTAC
MARAGTVAAANWMAATHWMAAAAAAAAAAA	MEME-3	chr3	124556651	124556680	+	13.8681	2.67e-06	0.00767	CAGGAGGAGACACAGCATTCAGTAAACAAA
MARAGTVAAANWMAATHWMAAAAAAAAAAA	MEME-3	chr5	154080504	154080533	-	13.7802	2.78e-06	0.00791	AACAAACAAACAAACAAAAAACAAAAGAAA
MARAGTVAAANWMAATHWMAAAAAAAAAAA	MEME-3	chr9	136608673	136608702	-	13.6813	2.91e-06	0.0082	AAAACAAACACACAAGAACAAAACAAACAA
MARAGTVAAANWMAATHWMAAAAAAAAAAA	MEME-3	chr8	10532332	10532361	-	13.4725	3.21e-06	0.00893	CAAAACCAAACGAAAACAAAACAAAAGCAA
MARAGTVAAANWMAATHWMAAAAAAAAAAA	MEME-3	chr13	100629609	100629638	-	13.4505	3.24e-06	0.00893	TAGAGAAACAAGTGACCAAAAAAAAAAAAA
MARAGTVAAANWMAATHWMAAAAAAAAAAA	MEME-3	chr9	136608665	136608694	-	13.3297	3.42e-06	0.00935	CACACAAGAACAAAACAAACAAACAAAAAA
MARAGTVAAANWMAATHWMAAAAAAAAAAA	MEME-3	chr12	64994104	64994133	-	13.2418	3.56e-06	0.00963	AAAGAAAAAAAACAAAATCCAAACTTCAAC
MARAGTVAAANWMAATHWMAAAAAAAAAAA	MEME-3	chr12	48297869	48297898	+	13.1978	3.63e-06	0.00971	taaaaaaaaaaaaaaaaaaaaaaaaaTTAC
MARAGTVAAANWMAATHWMAAAAAAAAAAA	MEME-3	chr7	100995765	100995794	+	13.1538	3.71e-06	0.00971	tctactaaaaaaaaaaaaaaaaaaaaaaga
MARAGTVAAANWMAATHWMAAAAAAAAAAA	MEME-3	chr8	18858393	18858422	-	13.1319	3.74e-06	0.00971	AAAAAAAAAAGTCATTTTAAAAAGATAATA
MARAGTVAAANWMAATHWMAAAAAAAAAAA	MEME-3	chr10	95241978	95242007	+	13.1209	3.76e-06	0.00971	AAGTGAAAAGGACAAACCCTAAACTAAAAA
MARAGTVAAANWMAATHWMAAAAAAAAAAA	MEME-3	chr12	6884938	6884967	+	13.1099	3.78e-06	0.00971	CAGTATAAAACAAACACAGAAAAAAGAATA
MARAGTVAAANWMAATHWMAAAAAAAAAAA	MEME-3	chr1	169498203	169498232	-	13.0989	3.8e-06	0.00971	AACAGAAAACCACAACAACAAAAAGCCAGT
MARAGTVAAANWMAATHWMAAAAAAAAAAA	MEME-3	chr10	32250258	32250287	+	13.033	3.91e-06	0.00991	catttcaaaacacacacacacataaaaaaa
MARAGTVAAANWMAATHWMAAAAAAAAAAA	MEME-3	chr5	154080517	154080546	-	12.989	3.99e-06	0.01	AATTAAGACAAAAAACAAACAAACAAACAA
MARAGTVAAANWMAATHWMAAAAAAAAAAA	MEME-3	chr7	100995767	100995796	+	12.9011	4.15e-06	0.0103	tactaaaaaaaaaaaaaaaaaaaaaagaaa
MARAGTVAAANWMAATHWMAAAAAAAAAAA	MEME-3	chr12	48297871	48297900	+	12.8681	4.21e-06	0.0104	aaaaaaaaaaaaaaaaaaaaaaaaTTACTT
MARAGTVAAANWMAATHWMAAAAAAAAAAA	MEME-3	chr2	204408633	204408662	+	12.7912	4.36e-06	0.0106	aagactccatctcaaaaaaaaaaaaaaaaa
MARAGTVAAANWMAATHWMAAAAAAAAAAA	MEME-3	chr3	73729966	73729995	-	12.7582	4.42e-06	0.0106	CTAGATAAAATAAAACAAAATAAAACAAAA
MARAGTVAAANWMAATHWMAAAAAAAAAAA	MEME-3	chr14	56648363	56648392	-	12.7473	4.44e-06	0.0106	CACACACACATTACATAATCAGAGAAATAC
MARAGTVAAANWMAATHWMAAAAAAAAAAA	MEME-3	chr5	154080509	154080538	-	12.7473	4.44e-06	0.0106	CAAAAAACAAACAAACAAACAAAAAACAAA
MARAGTVAAANWMAATHWMAAAAAAAAAAA	MEME-3	chr19	46696126	46696155	+	12.6484	4.64e-06	0.011	agaacaaaaacaaaacacaaaacaaagaaa
MARAGTVAAANWMAATHWMAAAAAAAAAAA	MEME-3	chr9	136608671	136608700	-	12.5824	4.78e-06	0.0112	AACAAACACACAAGAACAAAACAAACAAAC
MARAGTVAAANWMAATHWMAAAAAAAAAAA	MEME-3	chr10	95241984	95242013	+	12.5714	4.8e-06	0.0112	AAAGGACAAACCCTAAACTAAAAATAATTC
MARAGTVAAANWMAATHWMAAAAAAAAAAA	MEME-3	chr8	17663640	17663669	-	12.4945	4.97e-06	0.0114	CTGTCTCAAAAAAAAAAAAAAATCATATGA
MARAGTVAAANWMAATHWMAAAAAAAAAAA	MEME-3	chr9	136608669	136608698	-	12.4066	5.16e-06	0.0118	CAAACACACAAGAACAAAACAAACAAACAA
MARAGTVAAANWMAATHWMAAAAAAAAAAA	MEME-3	chr1	65992838	65992867	+	12.3187	5.37e-06	0.0122	AAATAGCAGAGATTAACTAAACAGATAAAC
MARAGTVAAANWMAATHWMAAAAAAAAAAA	MEME-3	chr3	60944991	60945020	-	12.0549	6.02e-06	0.0135	GACATTAAAAAAAAAAAAAAAAAGAAAAAG
MARAGTVAAANWMAATHWMAAAAAAAAAAA	MEME-3	chrX	143455764	143455793	-	12.033	6.07e-06	0.0135	AGAAAGAAAAAAAAGAAGATAAATAAATAG
MARAGTVAAANWMAATHWMAAAAAAAAAAA	MEME-3	chr2	230962345	230962374	-	11.9231	6.37e-06	0.014	TTCACTAAAAGTCAAAAACCAGAAACAAGC
MARAGTVAAANWMAATHWMAAAAAAAAAAA	MEME-3	chr11	9590310	9590339	-	11.9121	6.4e-06	0.014	AAATAACAAAACAAAACAAAAGTGAGAAAC
MARAGTVAAANWMAATHWMAAAAAAAAAAA	MEME-3	chr5	154080500	154080529	-	11.8681	6.52e-06	0.0142	AACAAACAAACAAAAAACAAAAGAAAACAC
MARAGTVAAANWMAATHWMAAAAAAAAAAA	MEME-3	chr12	48297868	48297897	+	11.6593	7.12e-06	0.0154	gtaaaaaaaaaaaaaaaaaaaaaaaaaTTA
MARAGTVAAANWMAATHWMAAAAAAAAAAA	MEME-3	chr10	127258048	127258077	+	11.6374	7.19e-06	0.0154	aagactctgtctcaaaaaaaaaaaaaaaaa
MARAGTVAAANWMAATHWMAAAAAAAAAAA	MEME-3	chr17	4681653	4681682	+	11.5385	7.49e-06	0.0159	aaagcaaaCACACACACACACGAAAGCAAG
MARAGTVAAANWMAATHWMAAAAAAAAAAA	MEME-3	chr21	35816671	35816700	+	11.5055	7.6e-06	0.016	cagaccctatctcaaaaaaaaaaaaaaaaa
MARAGTVAAANWMAATHWMAAAAAAAAAAA	MEME-3	chr2	114633902	114633931	+	11.3736	8.03e-06	0.0168	caaacaaaacaaacaaaaaaaCCAAACCTA
MARAGTVAAANWMAATHWMAAAAAAAAAAA	MEME-3	chr14	56648375	56648404	-	11.3077	8.26e-06	0.0172	CACACACACACACACACACACATTACATAA
MARAGTVAAANWMAATHWMAAAAAAAAAAA	MEME-3	chr7	100995768	100995797	+	11.1758	8.72e-06	0.018	actaaaaaaaaaaaaaaaaaaaaaagaaat
MARAGTVAAANWMAATHWMAAAAAAAAAAA	MEME-3	chr10	83363081	83363110	-	11.1538	8.8e-06	0.018	CAAAGAGAAAGCACAATCCAAATAAAACTT
MARAGTVAAANWMAATHWMAAAAAAAAAAA	MEME-3	chr8	48454205	48454234	-	11.1099	8.96e-06	0.0182	TTAGACAAAGATTAAAAAAAAAAAAAAAGA
MARAGTVAAANWMAATHWMAAAAAAAAAAA	MEME-3	chr1	169042671	169042700	-	11.0989	9e-06	0.0182	AAGGATCACAGAACAAACAAAACTCAATGC
MARAGTVAAANWMAATHWMAAAAAAAAAAA	MEME-3	chr6	19527066	19527095	-	10.967	9.51e-06	0.019	CAAAAGCAAATGCAATAAGAACAGAGATAA
MARAGTVAAANWMAATHWMAAAAAAAAAAA	MEME-3	chr20	50338763	50338792	+	10.956	9.55e-06	0.019	agaactcaaacaaatcagtaagaaaaaaac
MARAGTVAAANWMAATHWMAAAAAAAAAAA	MEME-3	chr7	100995764	100995793	+	10.9121	9.72e-06	0.0192	ctctactaaaaaaaaaaaaaaaaaaaaaag
MARAGTVAAANWMAATHWMAAAAAAAAAAA	MEME-3	chr5	131721264	131721293	+	10.7802	1.03e-05	0.0201	CACTCAAAAGAGCCAAAACAAAACAGAATC
MARAGTVAAANWMAATHWMAAAAAAAAAAA	MEME-3	chr10	33587434	33587463	-	10.7253	1.05e-05	0.0204	AAGGAGGAAACTAAGTATAAAAAGATGAAA
MARAGTVAAANWMAATHWMAAAAAAAAAAA	MEME-3	chr2	208693867	208693896	-	10.7143	1.05e-05	0.0204	CTATCTCCAAAAAAATAAATAAATAAAAAC
MARAGTVAAANWMAATHWMAAAAAAAAAAA	MEME-3	chr8	48454206	48454235	-	10.6923	1.06e-05	0.0204	GTTAGACAAAGATTAAAAAAAAAAAAAAAG
MARAGTVAAANWMAATHWMAAAAAAAAAAA	MEME-3	chr9	136608660	136608689	-	10.6593	1.08e-05	0.0206	AAGAACAAAACAAACAAACAAAAAACTAGA
MARAGTVAAANWMAATHWMAAAAAAAAAAA	MEME-3	chr5	154080510	154080539	-	10.5824	1.11e-05	0.0211	ACAAAAAACAAACAAACAAACAAAAAACAA
MARAGTVAAANWMAATHWMAAAAAAAAAAA	MEME-3	chr7	131312453	131312482	-	10.5275	1.14e-05	0.0214	AAGGCAGGGACAAAGTAAATAAATAAAAAG
MARAGTVAAANWMAATHWMAAAAAAAAAAA	MEME-3	chr1	119021815	119021844	+	10.4945	1.15e-05	0.0216	caaaataaCAATATTTAAAAAATTATAAGC
MARAGTVAAANWMAATHWMAAAAAAAAAAA	MEME-3	chr4	96338857	96338886	+	10.4396	1.18e-05	0.0219	TGTTCTCAAACACAATTAAAACAACTATAT
MARAGTVAAANWMAATHWMAAAAAAAAAAA	MEME-3	chr12	49275855	49275884	+	10.3736	1.21e-05	0.0221	CAGTGAAAAGGAAACACACACACAAACTAA
MARAGTVAAANWMAATHWMAAAAAAAAAAA	MEME-3	chr10	127258054	127258083	+	10.3626	1.22e-05	0.0221	ctgtctcaaaaaaaaaaaaaaaaatacaca
MARAGTVAAANWMAATHWMAAAAAAAAAAA	MEME-3	chr1	188458307	188458336	-	10.3626	1.22e-05	0.0221	AATACAGAGCCTATGCTTCAAAAACACTAC
MARAGTVAAANWMAATHWMAAAAAAAAAAA	MEME-3	chr19	46696125	46696154	+	10.3187	1.24e-05	0.0224	aagaacaaaaacaaaacacaaaacaaagaa
MARAGTVAAANWMAATHWMAAAAAAAAAAA	MEME-3	chr13	67694924	67694953	-	10.2418	1.28e-05	0.0228	TAATATCAAGAAACATCCAGAAAAAGATGA
MARAGTVAAANWMAATHWMAAAAAAAAAAA	MEME-3	chr3	139021109	139021138	-	10.2418	1.28e-05	0.0228	CAGTAACAAACAAAACACAAAACCAAAACA
MARAGTVAAANWMAATHWMAAAAAAAAAAA	MEME-3	chr7	30387459	30387488	+	10.2088	1.29e-05	0.0229	AATGTTaaaaaaaaaaaaaaaaaaaaGATC
MARAGTVAAANWMAATHWMAAAAAAAAAAA	MEME-3	chr9	100476612	100476641	-	10.1868	1.3e-05	0.0229	AAAGGGGAGGAAAAACCCAAACCACAAAAC
MARAGTVAAANWMAATHWMAAAAAAAAAAA	MEME-3	chr16	82171867	82171896	+	10.1758	1.31e-05	0.0229	aatgaccagaccatatataaaaacagaatg
MARAGTVAAANWMAATHWMAAAAAAAAAAA	MEME-3	chr12	48297873	48297902	+	10.1429	1.33e-05	0.0231	aaaaaaaaaaaaaaaaaaaaaaTTACTTAA
MARAGTVAAANWMAATHWMAAAAAAAAAAA	MEME-3	chr5	133974466	133974495	+	10.0989	1.35e-05	0.0234	ctatctcaaaacaaacaaaaagaaaCAATT
MARAGTVAAANWMAATHWMAAAAAAAAAAA	MEME-3	chr1	70819223	70819252	+	10.0549	1.37e-05	0.0236	CAAATCGAAGGCCTGTCTCAAACAAAACAG
MARAGTVAAANWMAATHWMAAAAAAAAAAA	MEME-3	chr19	46696123	46696152	+	10.033	1.39e-05	0.0237	aaaagaacaaaaacaaaacacaaaacaaag
MARAGTVAAANWMAATHWMAAAAAAAAAAA	MEME-3	chr1	169042660	169042689	-	9.95604	1.43e-05	0.0242	AACAAACAAAACTCAATGCACAAAATATAA
MARAGTVAAANWMAATHWMAAAAAAAAAAA	MEME-3	chr11	9590312	9590341	-	9.94505	1.43e-05	0.0242	CAAAATAACAAAACAAAACAAAAGTGAGAA
MARAGTVAAANWMAATHWMAAAAAAAAAAA	MEME-3	chr20	31097371	31097400	-	9.9011	1.46e-05	0.0245	AAGAATGAAGCACAAAACCGCACAAACAGC
MARAGTVAAANWMAATHWMAAAAAAAAAAA	MEME-3	chr12	48297863	48297892	+	9.86813	1.48e-05	0.0246	gaaaagtaaaaaaaaaaaaaaaaaaaaaaa
MARAGTVAAANWMAATHWMAAAAAAAAAAA	MEME-3	chr10	121558413	121558442	-	9.85714	1.49e-05	0.0246	AGAGAAAAAAACATACTGAAAAATACATAA
MARAGTVAAANWMAATHWMAAAAAAAAAAA	MEME-3	chr11	9590317	9590346	-	9.81319	1.51e-05	0.0249	AGTGCCAAAATAACAAAACAAAACAAAAGT
MARAGTVAAANWMAATHWMAAAAAAAAAAA	MEME-3	chr3	73729971	73730000	-	9.76923	1.54e-05	0.0252	ATATGCTAGATAAAATAAAACAAAATAAAA
MARAGTVAAANWMAATHWMAAAAAAAAAAA	MEME-3	chr17	65387057	65387086	-	9.74725	1.55e-05	0.0252	GAAGGTCAAACTTCACCCAAACTTAAAAAG
MARAGTVAAANWMAATHWMAAAAAAAAAAA	MEME-3	chr12	67989277	67989306	-	9.73626	1.56e-05	0.0252	AAAATTGAGACTTAACATCCAACATCACAC
MARAGTVAAANWMAATHWMAAAAAAAAAAA	MEME-3	chr9	136608679	136608708	-	9.62637	1.63e-05	0.0262	TTCAAAAAAACAAACACACAAGAACAAAAC
MARAGTVAAANWMAATHWMAAAAAAAAAAA	MEME-3	chr3	139021103	139021132	-	9.6044	1.64e-05	0.0262	CAAACAAAACACAAAACCAAAACAACCAGC
MARAGTVAAANWMAATHWMAAAAAAAAAAA	MEME-3	chr7	30387456	30387485	+	9.59341	1.65e-05	0.0262	AAAAATGTTaaaaaaaaaaaaaaaaaaaaG
MARAGTVAAANWMAATHWMAAAAAAAAAAA	MEME-3	chr8	52683557	52683586	+	9.52747	1.69e-05	0.0267	AACGTTAAGGGAACGTTTCAAAACAAACAA
MARAGTVAAANWMAATHWMAAAAAAAAAAA	MEME-3	chr12	48297861	48297890	+	9.47253	1.73e-05	0.0272	aagaaaagtaaaaaaaaaaaaaaaaaaaaa
MARAGTVAAANWMAATHWMAAAAAAAAAAA	MEME-3	chr13	74167485	74167514	+	9.43956	1.75e-05	0.0274	AAATAAAAGACCTTGAATAAAACAAACAGT
MARAGTVAAANWMAATHWMAAAAAAAAAAA	MEME-3	chr7	30387453	30387482	+	9.41758	1.76e-05	0.0274	CTTAAAAATGTTaaaaaaaaaaaaaaaaaa
MARAGTVAAANWMAATHWMAAAAAAAAAAA	MEME-3	chr8	17663602	17663631	-	9.34066	1.82e-05	0.028	AATATACACATTCTCTTCACAAAAACAAAG
MARAGTVAAANWMAATHWMAAAAAAAAAAA	MEME-3	chr5	154080512	154080541	-	9.34066	1.82e-05	0.028	AGACAAAAAACAAACAAACAAACAAAAAAC
MARAGTVAAANWMAATHWMAAAAAAAAAAA	MEME-3	chr12	125214862	125214891	-	9.28571	1.85e-05	0.0282	AGATCTCACAGTCCAAAATCAAAATGCAAT
MARAGTVAAANWMAATHWMAAAAAAAAAAA	MEME-3	chr6	83398121	83398150	-	9.27473	1.86e-05	0.0282	AACTTTAAAAAATCATTTCTAGTTAGATAA
MARAGTVAAANWMAATHWMAAAAAAAAAAA	MEME-3	chr13	100629607	100629636	-	9.27473	1.86e-05	0.0282	GAGAAACAAGTGACCAAAAAAAAAAAAAAA
MARAGTVAAANWMAATHWMAAAAAAAAAAA	MEME-3	chr8	48454210	48454239	-	9.24176	1.89e-05	0.0284	GGATGTTAGACAAAGATTAAAAAAAAAAAA
MARAGTVAAANWMAATHWMAAAAAAAAAAA	MEME-3	chr15	90236503	90236532	+	9.21978	1.9e-05	0.0284	ctcagaaacaaacatttaataaataaatac
MARAGTVAAANWMAATHWMAAAAAAAAAAA	MEME-3	chr14	37325138	37325167	-	9.20879	1.91e-05	0.0284	AGGATAGAAACAATATACAGAAAGACAAGC
MARAGTVAAANWMAATHWMAAAAAAAAAAA	MEME-3	chr22	46307687	46307716	-	9.1978	1.92e-05	0.0284	AAGAAGAAAACTCAACCCCAACACGCACAA
MARAGTVAAANWMAATHWMAAAAAAAAAAA	MEME-3	chr3	139021117	139021146	-	9.0989	1.99e-05	0.0294	TTAGGAAACAGTAACAAACAAAACACAAAA
MARAGTVAAANWMAATHWMAAAAAAAAAAA	MEME-3	chr3	175991010	175991039	-	9	2.07e-05	0.0303	AGCCATCAAAGAAAACTGAAAAATATCAAA
MARAGTVAAANWMAATHWMAAAAAAAAAAA	MEME-3	chr12	64994102	64994131	-	8.94505	2.11e-05	0.0308	AGAAAAAAAACAAAATCCAAACTTCAACAT
MARAGTVAAANWMAATHWMAAAAAAAAAAA	MEME-3	chrX	24171056	24171085	-	8.91209	2.14e-05	0.031	TGTACACAAGAACAAATAATACAAAGAAGA
MARAGTVAAANWMAATHWMAAAAAAAAAAA	MEME-3	chr7	30387458	30387487	+	8.79121	2.24e-05	0.0323	AAATGTTaaaaaaaaaaaaaaaaaaaaGAT
MARAGTVAAANWMAATHWMAAAAAAAAAAA	MEME-3	chr16	70779742	70779771	+	8.75824	2.27e-05	0.0326	aaagggcaaattttatCTAGAAAACAAACA
MARAGTVAAANWMAATHWMAAAAAAAAAAA	MEME-3	chr11	39015936	39015965	+	8.64835	2.36e-05	0.0338	ATAACTCAAAACCCATGGTAAAAAAAATAA
MARAGTVAAANWMAATHWMAAAAAAAAAAA	MEME-3	chr8	10532337	10532366	-	8.56044	2.44e-05	0.0347	TTAAGCAAAACCAAACGAAAACAAAACAAA
MARAGTVAAANWMAATHWMAAAAAAAAAAA	MEME-3	chr8	18400209	18400238	+	8.54945	2.45e-05	0.0347	CATAATATAATTCCACTATCAGAAAAATAA
MARAGTVAAANWMAATHWMAAAAAAAAAAA	MEME-3	chr8	55470893	55470922	-	8.51648	2.48e-05	0.0349	GAACCTGAAACAAAGAAACAAAACAAAAAA
MARAGTVAAANWMAATHWMAAAAAAAAAAA	MEME-3	chr11	131566558	131566587	+	8.46154	2.53e-05	0.0354	cacacacacacacacacacacaAGGCAAAC
MARAGTVAAANWMAATHWMAAAAAAAAAAA	MEME-3	chr8	119890543	119890572	-	8.43956	2.55e-05	0.0354	AGTTAACAGACACCGTAGAAACTGATAAAC
MARAGTVAAANWMAATHWMAAAAAAAAAAA	MEME-3	chr18	45659589	45659618	+	8.43956	2.55e-05	0.0354	AAAAATCAAACAAAAATTAACAAGCACACA
MARAGTVAAANWMAATHWMAAAAAAAAAAA	MEME-3	chr10	83363101	83363130	-	8.35165	2.64e-05	0.0364	AAGAAACAGAAAAAGCATAACAAAGAGAAA
MARAGTVAAANWMAATHWMAAAAAAAAAAA	MEME-3	chr14	51331753	51331782	-	8.34066	2.65e-05	0.0364	TAAAAAAAAATTCAGCCTACAAATGCACAG
MARAGTVAAANWMAATHWMAAAAAAAAAAA	MEME-3	chr10	121545325	121545354	-	8.30769	2.68e-05	0.0366	CTCTGAAACACGCGATCTCAAAAAGACAAC
MARAGTVAAANWMAATHWMAAAAAAAAAAA	MEME-3	chr7	27823996	27824025	-	8.26374	2.73e-05	0.037	AATTTTAAAAATTAGTCACGACATATCAAG
MARAGTVAAANWMAATHWMAAAAAAAAAAA	MEME-3	chr19	46696133	46696162	+	8.24176	2.75e-05	0.037	aaacaaaacacaaaacaaagaaaaaacagt
MARAGTVAAANWMAATHWMAAAAAAAAAAA	MEME-3	chr8	121085133	121085162	+	8.24176	2.75e-05	0.037	CAAAAAAGAAGTTAGAATAAAACACAATGA
MARAGTVAAANWMAATHWMAAAAAAAAAAA	MEME-3	chr6	35063933	35063962	-	8.20879	2.78e-05	0.0373	CATAACCAAACCAAAATGAGACCAAAATTA
MARAGTVAAANWMAATHWMAAAAAAAAAAA	MEME-3	chr2	205838300	205838329	-	8.13187	2.86e-05	0.0381	AAGATACAGAAAAAGTAAATAACCAAATGT
MARAGTVAAANWMAATHWMAAAAAAAAAAA	MEME-3	chr12	104613838	104613867	-	8.10989	2.88e-05	0.0382	AAATGTGAAAATCCAAATAATGAGTAATGA
MARAGTVAAANWMAATHWMAAAAAAAAAAA	MEME-3	chr12	64994110	64994139	-	8.0989	2.9e-05	0.0382	AATGAGAAAGAAAAAAAACAAAATCCAAAC
MARAGTVAAANWMAATHWMAAAAAAAAAAA	MEME-3	chr1	245966415	245966444	+	8.06593	2.93e-05	0.0385	CTAGGAGCAAACCAACAGCAAAATAAAAAC
MARAGTVAAANWMAATHWMAAAAAAAAAAA	MEME-3	chr10	17332357	17332386	-	8.05495	2.94e-05	0.0385	AATGGAAAAAGGCTGTCACATAAAATCAGC
MARAGTVAAANWMAATHWMAAAAAAAAAAA	MEME-3	chr9	136608682	136608711	-	8.04396	2.96e-05	0.0385	CACTTCAAAAAAACAAACACACAAGAACAA
MARAGTVAAANWMAATHWMAAAAAAAAAAA	MEME-3	chr2	182885052	182885081	-	8.03297	2.97e-05	0.0385	CAGAAAGAAATGAAATACCATATAGAAAAG
MARAGTVAAANWMAATHWMAAAAAAAAAAA	MEME-3	chr3	100314580	100314609	-	8.01099	2.99e-05	0.0386	AGAACCCAAAAGCAAATGCAATAAAAACAA
MARAGTVAAANWMAATHWMAAAAAAAAAAA	MEME-3	chr19	46696116	46696145	+	7.93407	3.08e-05	0.0395	ctgtctcaaaagaacaaaaacaaaacacaa
MARAGTVAAANWMAATHWMAAAAAAAAAAA	MEME-3	chr15	52274023	52274052	+	7.89011	3.13e-05	0.0398	AAAACTGAAAATTTCACTTTACAGCAAAAC
MARAGTVAAANWMAATHWMAAAAAAAAAAA	MEME-3	chr3	139021118	139021147	-	7.89011	3.13e-05	0.0398	CTTAGGAAACAGTAACAAACAAAACACAAA
MARAGTVAAANWMAATHWMAAAAAAAAAAA	MEME-3	chr1	188458258	188458287	-	7.85714	3.16e-05	0.0401	CACACACACACACACACACACACACACATG
MARAGTVAAANWMAATHWMAAAAAAAAAAA	MEME-3	chr12	32827901	32827930	-	7.82418	3.2e-05	0.0402	CAGTGACACTCCACCTCAAAAAAAAAAATG
MARAGTVAAANWMAATHWMAAAAAAAAAAA	MEME-3	chr5	154080496	154080525	-	7.82418	3.2e-05	0.0402	AACAAACAAAAAACAAAAGAAAACACCAAC
MARAGTVAAANWMAATHWMAAAAAAAAAAA	MEME-3	chr9	136608657	136608686	-	7.78022	3.25e-05	0.0406	AACAAAACAAACAAACAAAAAACTAGAAAA
MARAGTVAAANWMAATHWMAAAAAAAAAAA	MEME-3	chr16	73030579	73030608	+	7.7033	3.35e-05	0.0416	CCCTGAGAAAGGAAATCACAaacagaaatc
MARAGTVAAANWMAATHWMAAAAAAAAAAA	MEME-3	chr1	168721359	168721388	-	7.67033	3.39e-05	0.0419	AACAGAGAAGATAAAATTTCACAGATAAGG
MARAGTVAAANWMAATHWMAAAAAAAAAAA	MEME-3	chr2	85224019	85224048	-	7.63736	3.43e-05	0.0422	AAATGGAAAAAAAATCCTATAATTAAAAAG
MARAGTVAAANWMAATHWMAAAAAAAAAAA	MEME-3	chr10	122012587	122012616	-	7.62637	3.44e-05	0.0422	CTTAAGAAAAATCAGCTCTTAAAAACAAAC
MARAGTVAAANWMAATHWMAAAAAAAAAAA	MEME-3	chr13	100629613	100629642	-	7.6044	3.47e-05	0.0423	AAATTAGAGAAACAAGTGACCAAAAAAAAA
MARAGTVAAANWMAATHWMAAAAAAAAAAA	MEME-3	chr16	82171926	82171955	+	7.59341	3.48e-05	0.0423	agaaaccaacccctatttacagtaagcaac
MARAGTVAAANWMAATHWMAAAAAAAAAAA	MEME-3	chr12	49275869	49275898	+	7.56044	3.52e-05	0.0427	CACACACACAAACTAACCTAACCAGAAATG
MARAGTVAAANWMAATHWMAAAAAAAAAAA	MEME-3	chr8	18400074	18400103	-	7.50549	3.59e-05	0.0429	GAGACAAAGATAAAATCTTTAATAACATAA
MARAGTVAAANWMAATHWMAAAAAAAAAAA	MEME-3	chr1	235110286	235110315	-	7.50549	3.59e-05	0.0429	AGCAAGGAAAGTTTGCTGCAACAAAGAATG
MARAGTVAAANWMAATHWMAAAAAAAAAAA	MEME-3	chr10	3510272	3510301	-	7.47253	3.63e-05	0.0429	CTTTCTGAAATTCTGTTGAAAAATATCTTG
MARAGTVAAANWMAATHWMAAAAAAAAAAA	MEME-3	chr12	6884942	6884971	+	7.47253	3.63e-05	0.0429	ATAAAACAAACACAGAAAAAAGAATACTCA
MARAGTVAAANWMAATHWMAAAAAAAAAAA	MEME-3	chr5	14187837	14187866	-	7.47253	3.63e-05	0.0429	CTCGGTGACAGAACAAATAAAAACTTCAGT
MARAGTVAAANWMAATHWMAAAAAAAAAAA	MEME-3	chr1	169042737	169042766	+	7.47253	3.63e-05	0.0429	cacacacacacacacatgcacacacacaag
MARAGTVAAANWMAATHWMAAAAAAAAAAA	MEME-3	chr2	114633903	114633932	+	7.46154	3.65e-05	0.0429	aaacaaaacaaacaaaaaaaCCAAACCTAA
MARAGTVAAANWMAATHWMAAAAAAAAAAA	MEME-3	chr8	125150443	125150472	+	7.45055	3.66e-05	0.0429	GAATGCCAAAGCACATACCTACAAAAATAC
MARAGTVAAANWMAATHWMAAAAAAAAAAA	MEME-3	chr2	99099387	99099416	-	7.35165	3.8e-05	0.0442	CTGGGTCACAAAACACAAAGAATTCGATGA
MARAGTVAAANWMAATHWMAAAAAAAAAAA	MEME-3	chr5	154080503	154080532	-	7.27473	3.9e-05	0.0453	ACAAACAAACAAACAAAAAACAAAAGAAAA
MARAGTVAAANWMAATHWMAAAAAAAAAAA	MEME-3	chr12	49275860	49275889	+	7.26374	3.92e-05	0.0453	AAAAGGAAACACACACACAAACTAACCTAA
MARAGTVAAANWMAATHWMAAAAAAAAAAA	MEME-3	chr3	60945002	60945031	-	7.21978	3.98e-05	0.0458	CAAACAGTGTTGACATTAAAAAAAAAAAAA
MARAGTVAAANWMAATHWMAAAAAAAAAAA	MEME-3	chr14	24912106	24912135	+	7.14286	4.09e-05	0.0469	CAAACCAAACCCAAACCAACAAAACCCTTC
MARAGTVAAANWMAATHWMAAAAAAAAAAA	MEME-3	chr2	184673896	184673925	-	7.10989	4.14e-05	0.0472	TTCTCTGAAACAAAGTAAATAAACTGAATA
MARAGTVAAANWMAATHWMAAAAAAAAAAA	MEME-3	chr18	45659601	45659630	+	7.07692	4.18e-05	0.0476	AAAATTAACAAGCACACACACACAAGATGG
MARAGTVAAANWMAATHWMAAAAAAAAAAA	MEME-3	chr3	60944998	60945027	-	7.05495	4.22e-05	0.0478	CAGTGTTGACATTAAAAAAAAAAAAAAAAA
MARAGTVAAANWMAATHWMAAAAAAAAAAA	MEME-3	chr9	136608652	136608681	-	6.97802	4.33e-05	0.0489	AACAAACAAACAAAAAACTAGAAAATCTGA
MARAGTVAAANWMAATHWMAAAAAAAAAAA	MEME-3	chr13	100629604	100629633	-	6.96703	4.35e-05	0.0489	AAACAAGTGACCAAAAAAAAAAAAAAAAAA
MARAGTVAAANWMAATHWMAAAAAAAAAAA	MEME-3	chr15	63753931	63753960	+	6.93407	4.4e-05	0.049	gaaatgcaaactaaaataaaaattagatac
MARAGTVAAANWMAATHWMAAAAAAAAAAA	MEME-3	chr16	74642677	74642706	-	6.93407	4.4e-05	0.049	CACATGCAGACTCAGCATTGAAAATTAATG
MARAGTVAAANWMAATHWMAAAAAAAAAAA	MEME-3	chr17	4681661	4681690	+	6.82418	4.57e-05	0.0508	CACACACACACACGAAAGCAAGAAGCAAGA
MARAGTVAAANWMAATHWMAAAAAAAAAAA	MEME-3	chr12	49275865	49275894	+	6.8022	4.61e-05	0.0509	GAAACACACACACAAACTAACCTAACCAGA
MARAGTVAAANWMAATHWMAAAAAAAAAAA	MEME-3	chr20	19028258	19028287	+	6.79121	4.63e-05	0.0509	aacagtcacctacaactcagaactggaaag
MARAGTVAAANWMAATHWMAAAAAAAAAAA	MEME-3	chr12	48297883	48297912	+	6.74725	4.7e-05	0.0515	aaaaaaaaaaaaTTACTTAAAAGACCCAAC
MARAGTVAAANWMAATHWMAAAAAAAAAAA	MEME-3	chr6	45677883	45677912	+	6.67033	4.83e-05	0.0527	aaattgcaaactttttatcaagataaaaac
MARAGTVAAANWMAATHWMAAAAAAAAAAA	MEME-3	chr5	17305852	17305881	+	6.65934	4.84e-05	0.0527	TAATGCCAAGTTACACAATCAGAAAGACAA
MARAGTVAAANWMAATHWMAAAAAAAAAAA	MEME-3	chr12	6884939	6884968	+	6.58242	4.97e-05	0.0539	AGTATAAAACAAACACAGAAAAAAGAATAC
MARAGTVAAANWMAATHWMAAAAAAAAAAA	MEME-3	chr10	121558414	121558443	-	6.54945	5.03e-05	0.0541	CAGAGAAAAAAACATACTGAAAAATACATA
MARAGTVAAANWMAATHWMAAAAAAAAAAA	MEME-3	chrX	132431320	132431349	-	6.54945	5.03e-05	0.0541	AAAAGAAAATACACATATATAAAATGCATA
MARAGTVAAANWMAATHWMAAAAAAAAAAA	MEME-3	chr3	139021104	139021133	-	6.53846	5.05e-05	0.0541	ACAAACAAAACACAAAACCAAAACAACCAG
MARAGTVAAANWMAATHWMAAAAAAAAAAA	MEME-3	chr7	41188146	41188175	+	6.48352	5.15e-05	0.055	CTGACTAAAGCCAAATCCTAACCACAATAA
MARAGTVAAANWMAATHWMAAAAAAAAAAA	MEME-3	chr10	83363107	83363136	-	6.47253	5.17e-05	0.055	GACAGTAAGAAACAGAAAAAGCATAACAAA
MARAGTVAAANWMAATHWMAAAAAAAAAAA	MEME-3	chr12	54372808	54372837	+	6.43956	5.23e-05	0.0554	AAGATTCCCCATCCCTTAAAAAAAAAAAAG
MARAGTVAAANWMAATHWMAAAAAAAAAAA	MEME-3	chr3	60944987	60945016	-	6.36264	5.37e-05	0.0566	TTAAAAAAAAAAAAAAAAAGAAAAAGCCTC
MARAGTVAAANWMAATHWMAAAAAAAAAAA	MEME-3	chr9	136608663	136608692	-	6.35165	5.39e-05	0.0566	CACAAGAACAAAACAAACAAACAAAAAACT
MARAGTVAAANWMAATHWMAAAAAAAAAAA	MEME-3	chr7	112121773	112121802	-	6.30769	5.47e-05	0.0573	AGCTGCAACACGCAAATGGAAAAATAAAGA
MARAGTVAAANWMAATHWMAAAAAAAAAAA	MEME-3	chr10	95242086	95242115	-	6.28571	5.51e-05	0.0575	CAGTTTCACGAACCATTGCTAAAAGGCAGC
MARAGTVAAANWMAATHWMAAAAAAAAAAA	MEME-3	chr5	14187811	14187840	-	6.26374	5.55e-05	0.0577	CAGTGACAAAACACATTTATCCCCATAAGA
MARAGTVAAANWMAATHWMAAAAAAAAAAA	MEME-3	chr7	16844666	16844695	-	6.24176	5.59e-05	0.0577	GGAGCAGAAAAAAAATCTACAAACTACAAA
MARAGTVAAANWMAATHWMAAAAAAAAAAA	MEME-3	chr12	93480754	93480783	+	6.24176	5.59e-05	0.0577	ctcaaaaaaaataaataaataaaagggaac
MARAGTVAAANWMAATHWMAAAAAAAAAAA	MEME-3	chr17	37926025	37926054	+	6.23077	5.62e-05	0.0577	CATAAAAAAGGTTAGTCAAACCACAAAAGT
MARAGTVAAANWMAATHWMAAAAAAAAAAA	MEME-3	chr8	116999793	116999822	+	6.18681	5.7e-05	0.0584	AAAAAAAAAGTATTGTACACAACTTGAAAC
MARAGTVAAANWMAATHWMAAAAAAAAAAA	MEME-3	chrX	143455768	143455797	-	6.17582	5.72e-05	0.0584	CAATAGAAAGAAAAAAAAGAAGATAAATAA
MARAGTVAAANWMAATHWMAAAAAAAAAAA	MEME-3	chrX	132431326	132431355	-	6.15385	5.77e-05	0.0586	CCAAGAAAAAGAAAATACACATATATAAAA
MARAGTVAAANWMAATHWMAAAAAAAAAAA	MEME-3	chr6	35064017	35064046	+	6.04396	5.99e-05	0.0606	agagcaaaaataaacattccaaatggcaga
MARAGTVAAANWMAATHWMAAAAAAAAAAA	MEME-3	chr14	56648381	56648410	-	6.03297	6.01e-05	0.0607	CACACACACACACACACACACACACACATT
MARAGTVAAANWMAATHWMAAAAAAAAAAA	MEME-3	chr3	73729958	73729987	-	6	6.08e-05	0.0611	AATAAAACAAAATAAAACAAAATAAAATAG
MARAGTVAAANWMAATHWMAAAAAAAAAAA	MEME-3	chr6	13873335	13873364	-	5.93407	6.21e-05	0.0618	CACGCACACACACACACACACACCGGAAAA
MARAGTVAAANWMAATHWMAAAAAAAAAAA	MEME-3	chr5	124982467	124982496	+	5.93407	6.21e-05	0.0618	aaatgggaaaagaacacgctactcaacaaa
MARAGTVAAANWMAATHWMAAAAAAAAAAA	MEME-3	chr7	27824010	27824039	-	5.92308	6.24e-05	0.0618	AAAAATGAGAAAAAAATTTTAAAAATTAGT
MARAGTVAAANWMAATHWMAAAAAAAAAAA	MEME-3	chr2	71347489	71347518	+	5.92308	6.24e-05	0.0618	AGAAATATGAGTAAACCTCACAAGAAAAAG
MARAGTVAAANWMAATHWMAAAAAAAAAAA	MEME-3	chr14	34837194	34837223	+	5.83516	6.42e-05	0.0635	aaaaaagaaaaccaaagtacagagaaaaat
MARAGTVAAANWMAATHWMAAAAAAAAAAA	MEME-3	chr2	61135236	61135265	-	5.82418	6.45e-05	0.0635	AGAAGATAGAGATAACAGTAAAACAAATAC
MARAGTVAAANWMAATHWMAAAAAAAAAAA	MEME-3	chr13	28531016	28531045	+	5.8022	6.5e-05	0.0637	AATTGGGAAAAGCTGTTGTTAAAACAAATG
MARAGTVAAANWMAATHWMAAAAAAAAAAA	MEME-3	chr5	154080520	154080549	-	5.71429	6.69e-05	0.0654	CTAAATTAAGACAAAAAACAAACAAACAAA
MARAGTVAAANWMAATHWMAAAAAAAAAAA	MEME-3	chr1	57036501	57036530	+	5.7033	6.72e-05	0.0654	TAATATCAAATTTCAAACCAACAAGTCCAC
MARAGTVAAANWMAATHWMAAAAAAAAAAA	MEME-3	chr3	139021108	139021137	-	5.64835	6.84e-05	0.0662	AGTAACAAACAAAACACAAAACCAAAACAA
MARAGTVAAANWMAATHWMAAAAAAAAAAA	MEME-3	chr10	48548583	48548612	-	5.63736	6.87e-05	0.0662	CAAAGTAAATAATATTAAACAGAAAACAAG
MARAGTVAAANWMAATHWMAAAAAAAAAAA	MEME-3	chr2	85224020	85224049	-	5.63736	6.87e-05	0.0662	AAAATGGAAAAAAAATCCTATAATTAAAAA
MARAGTVAAANWMAATHWMAAAAAAAAAAA	MEME-3	chrX	44809805	44809834	-	5.58242	6.99e-05	0.0663	CAAATACAGCTGCAACAAAGCAAACTAAGC
MARAGTVAAANWMAATHWMAAAAAAAAAAA	MEME-3	chr12	48297876	48297905	+	5.58242	6.99e-05	0.0663	aaaaaaaaaaaaaaaaaaaTTACTTAAAAG
MARAGTVAAANWMAATHWMAAAAAAAAAAA	MEME-3	chr21	35816677	35816706	+	5.57143	7.02e-05	0.0663	ctatctcaaaaaaaaaaaaaaaaaGTACCA
MARAGTVAAANWMAATHWMAAAAAAAAAAA	MEME-3	chr4	44159805	44159834	+	5.57143	7.02e-05	0.0663	AGAAGAAAAAGCAAACACAAAAATCCCTTT
MARAGTVAAANWMAATHWMAAAAAAAAAAA	MEME-3	chr1	70819135	70819164	+	5.57143	7.02e-05	0.0663	AGAAATAAAGATATATAGCTCCATAAACAA
MARAGTVAAANWMAATHWMAAAAAAAAAAA	MEME-3	chr2	208133656	208133685	-	5.56044	7.05e-05	0.0663	AAAAAGAAAACAAACAATAAAGTCACATTG
MARAGTVAAANWMAATHWMAAAAAAAAAAA	MEME-3	chr2	71347467	71347496	+	5.54945	7.07e-05	0.0663	TAGTGAGAGGCAAAGACACACAAGAAATAT
MARAGTVAAANWMAATHWMAAAAAAAAAAA	MEME-3	chr2	121095733	121095762	-	5.54945	7.07e-05	0.0663	CAAACAAGAAGAAAAAAGAAAGATGTAAAG
MARAGTVAAANWMAATHWMAAAAAAAAAAA	MEME-3	chr11	76483220	76483249	+	5.52747	7.12e-05	0.0664	CGTAATCACGCAACAACCCAAGCATGATAA
MARAGTVAAANWMAATHWMAAAAAAAAAAA	MEME-3	chr7	100995760	100995789	+	5.51648	7.15e-05	0.0664	ccgtctctactaaaaaaaaaaaaaaaaaaa
MARAGTVAAANWMAATHWMAAAAAAAAAAA	MEME-3	chr3	189497108	189497137	+	5.51648	7.15e-05	0.0664	TAGGGAAAAAAGCTGCAAAGAAAATCCATG
MARAGTVAAANWMAATHWMAAAAAAAAAAA	MEME-3	chr16	73030555	73030584	+	5.47253	7.26e-05	0.0672	CAAAAACAGACCCTCCCAAACCAACCCTGA
MARAGTVAAANWMAATHWMAAAAAAAAAAA	MEME-3	chr5	5335603	5335632	+	5.43956	7.34e-05	0.0675	TTATGACAAAGGAAAACAAAACTAATCATT
MARAGTVAAANWMAATHWMAAAAAAAAAAA	MEME-3	chr9	77463313	77463342	-	5.43956	7.34e-05	0.0675	AAGATTAAATAGAAAATCCCAGAAAAAAAG
MARAGTVAAANWMAATHWMAAAAAAAAAAA	MEME-3	chr12	6884944	6884973	+	5.37363	7.5e-05	0.0687	AAAACAAACACAGAAAAAAGAATACTCAGA
MARAGTVAAANWMAATHWMAAAAAAAAAAA	MEME-3	chr14	24912100	24912129	+	5.34066	7.58e-05	0.0691	ACCAACCAAACCAAACCCAAACCAACAAAA
MARAGTVAAANWMAATHWMAAAAAAAAAAA	MEME-3	chr3	139021098	139021127	-	5.32967	7.61e-05	0.0691	AAAACACAAAACCAAAACAACCAGCAACAG
MARAGTVAAANWMAATHWMAAAAAAAAAAA	MEME-3	chr14	34837183	34837212	+	5.30769	7.66e-05	0.0691	aaatggcacacaaaaaagaaaaccaaagta
MARAGTVAAANWMAATHWMAAAAAAAAAAA	MEME-3	chrX	78094332	78094361	-	5.30769	7.66e-05	0.0691	CTCAGTGAATCTACATTTTTACATAAACAA
MARAGTVAAANWMAATHWMAAAAAAAAAAA	MEME-3	chr9	136608681	136608710	-	5.30769	7.66e-05	0.0691	ACTTCAAAAAAACAAACACACAAGAACAAA
MARAGTVAAANWMAATHWMAAAAAAAAAAA	MEME-3	chr12	76118793	76118822	+	5.28571	7.72e-05	0.0692	CAGAGTCACCATCTGTTGACAATACTCTTG
MARAGTVAAANWMAATHWMAAAAAAAAAAA	MEME-3	chr6	170439876	170439905	+	5.28571	7.72e-05	0.0692	ataagtaaaacattattggaacaaacattc
MARAGTVAAANWMAATHWMAAAAAAAAAAA	MEME-3	chr5	16573217	16573246	+	5.27473	7.75e-05	0.0692	TAGAATCAGAACTCATAGAAAAATTAATTT
MARAGTVAAANWMAATHWMAAAAAAAAAAA	MEME-3	chr2	226199119	226199148	-	5.25275	7.81e-05	0.0695	CAGTTGCAAAGCAAACAAAGAAAAGGCAAT
MARAGTVAAANWMAATHWMAAAAAAAAAAA	MEME-3	chr12	48297853	48297882	+	5.20879	7.92e-05	0.0703	GTAGTTCaaagaaaagtaaaaaaaaaaaaa
MARAGTVAAANWMAATHWMAAAAAAAAAAA	MEME-3	chr2	182885099	182885128	-	5.18681	7.98e-05	0.0706	CAAAAACAAAGTCAGACTAACCTTTGGAAA
MARAGTVAAANWMAATHWMAAAAAAAAAAA	MEME-3	chr8	129151960	129151989	-	5.17582	8.01e-05	0.0706	CTTACAAAACTCAAATTCAAAGATAAAAAT
MARAGTVAAANWMAATHWMAAAAAAAAAAA	MEME-3	chr9	128059017	128059046	-	5.16484	8.04e-05	0.0706	AGATCACAAATGTTAAATCAACAACAGAAA
MARAGTVAAANWMAATHWMAAAAAAAAAAA	MEME-3	chr2	201508407	201508436	-	5.0989	8.21e-05	0.072	GAAACTCAAACAAATCAGTAAGAAAAAAAC
MARAGTVAAANWMAATHWMAAAAAAAAAAA	MEME-3	chr20	49262030	49262059	-	5.08791	8.24e-05	0.072	CACTGTCAAAAGAAAAACCAGAACAGCAGG
MARAGTVAAANWMAATHWMAAAAAAAAAAA	MEME-3	chr17	37925968	37925997	+	5.06593	8.3e-05	0.0721	AAGGGTAAACTACAGTAATTGAAAAGCCAA
MARAGTVAAANWMAATHWMAAAAAAAAAAA	MEME-3	chr3	42538300	42538329	-	5.06593	8.3e-05	0.0721	AAAAAAGAAAGTATGTAACTCCCAAATAAC
MARAGTVAAANWMAATHWMAAAAAAAAAAA	MEME-3	chr15	90236507	90236536	+	5.05495	8.33e-05	0.0721	gaaacaaacatttaataaataaatacaatt
MARAGTVAAANWMAATHWMAAAAAAAAAAA	MEME-3	chr19	46696132	46696161	+	5.03297	8.39e-05	0.0724	aaaacaaaacacaaaacaaagaaaaaacag
MARAGTVAAANWMAATHWMAAAAAAAAAAA	MEME-3	chr10	32250257	32250286	+	4.98901	8.51e-05	0.073	ccatttcaaaacacacacacacataaaaaa
MARAGTVAAANWMAATHWMAAAAAAAAAAA	MEME-3	chr15	90459818	90459847	-	4.98901	8.51e-05	0.073	CAGTCTAAGACTCCACACACAAATGCACTT
MARAGTVAAANWMAATHWMAAAAAAAAAAA	MEME-3	chr2	230962338	230962367	-	4.96703	8.58e-05	0.0733	AAAGTCAAAAACCAGAAACAAGCCAAATAT
MARAGTVAAANWMAATHWMAAAAAAAAAAA	MEME-3	chr20	50338765	50338794	+	4.89011	8.79e-05	0.0743	aactcaaacaaatcagtaagaaaaaaacaa
MARAGTVAAANWMAATHWMAAAAAAAAAAA	MEME-3	chr5	150367221	150367250	-	4.89011	8.79e-05	0.0743	CAAAGTAAACCTGCATCTCACCTACTCAAC
MARAGTVAAANWMAATHWMAAAAAAAAAAA	MEME-3	chr2	201508405	201508434	-	4.89011	8.79e-05	0.0743	AACTCAAACAAATCAGTAAGAAAAAAACAA
MARAGTVAAANWMAATHWMAAAAAAAAAAA	MEME-3	chr11	63332510	63332539	+	4.87912	8.83e-05	0.0743	TTGTATAAAAGGCTATAAAAGGAAAGATAA
MARAGTVAAANWMAATHWMAAAAAAAAAAA	MEME-3	chr9	128058984	128059013	-	4.87912	8.83e-05	0.0743	CTGTGGCACAGATAACAAAACATAATATTG
MARAGTVAAANWMAATHWMAAAAAAAAAAA	MEME-3	chr15	52273979	52274008	+	4.83516	8.95e-05	0.0751	AATAGAAAGGAACCACTAAAACAGATCCGG
MARAGTVAAANWMAATHWMAAAAAAAAAAA	MEME-3	chr2	114633906	114633935	+	4.82418	8.98e-05	0.0752	caaaacaaacaaaaaaaCCAAACCTAACTA
MARAGTVAAANWMAATHWMAAAAAAAAAAA	MEME-3	chr8	48454200	48454229	-	4.79121	9.08e-05	0.0755	CAAAGATTAAAAAAAAAAAAAAAGAAAATG
MARAGTVAAANWMAATHWMAAAAAAAAAAA	MEME-3	chr13	76836082	76836111	-	4.79121	9.08e-05	0.0755	AAATATCTGAGTCAATAAACAGAATTAAGT
MARAGTVAAANWMAATHWMAAAAAAAAAAA	MEME-3	chr14	34837189	34837218	+	4.78022	9.11e-05	0.0756	cacacaaaaaagaaaaccaaagtacagaga
MARAGTVAAANWMAATHWMAAAAAAAAAAA	MEME-3	chr18	55755115	55755144	-	4.71429	9.31e-05	0.077	CAATCCCAACTTAACATAAGAATAAGACAC
MARAGTVAAANWMAATHWMAAAAAAAAAAA	MEME-3	chr11	76483212	76483241	+	4.68132	9.41e-05	0.0774	CACAATAACGTAATCACGCAACAACCCAAG
MARAGTVAAANWMAATHWMAAAAAAAAAAA	MEME-3	chr6	164129455	164129484	-	4.68132	9.41e-05	0.0774	CAGAGACTGAACCCCCAAATAAAAATACAA
MARAGTVAAANWMAATHWMAAAAAAAAAAA	MEME-3	chr1	168876160	168876189	-	4.59341	9.68e-05	0.0794	AAAGCTAAGCTCCTATGTAAAAAGAACAAG
MARAGTVAAANWMAATHWMAAAAAAAAAAA	MEME-3	chr6	83398139	83398168	-	4.58242	9.72e-05	0.0794	TACACTGACATCAAATATAACTTTAAAAAA
MARAGTVAAANWMAATHWMAAAAAAAAAAA	MEME-3	chr3	139021107	139021136	-	4.57143	9.75e-05	0.0795	GTAACAAACAAAACACAAAACCAAAACAAC
MARAGTVAAANWMAATHWMAAAAAAAAAAA	MEME-3	chrX	132431324	132431353	-	4.54945	9.82e-05	0.0798	AAGAAAAAGAAAATACACATATATAAAATG
MARAGTVAAANWMAATHWMAAAAAAAAAAA	MEME-3	chr2	142015174	142015203	+	4.52747	9.89e-05	0.0801	CATGAAGAACTAACAATATGAATACTAAAA
MARAGTVAAANWMAATHWMAAAAAAAAAAA	MEME-3	chr3	73729964	73729993	-	4.51648	9.93e-05	0.0802	AGATAAAATAAAACAAAATAAAACAAAATA
MARAGTVAAANWMAATHWMAAAAAAAAAAA	MEME-3	chr7	30387457	30387486	+	4.49451	0.0001	0.0803	AAAATGTTaaaaaaaaaaaaaaaaaaaaGA
MARAGTVAAANWMAATHWMAAAAAAAAAAA	MEME-3	chr5	145360914	145360943	-	4.49451	0.0001	0.0803	ATGAGAAAAAATAATTTAACAATTATCAGA
