MOTIF_INDEX	MOTIF_SOURCE	MOTIF_ID	ALT_ID	CONSENSUS	WIDTH	SITES	E-VALUE	E-VALUE_SOURCE	MOST_SIMILAR_MOTIF_SOURCE	MOST_SIMILAR_MOTIF	URL
1	DREME	RYAAAYA	DREME-1	RYAAAYA	7	625	1.2e-047	DREME	/Users/filipov4/meme/db/motif_databases/JASPAR/JASPAR2018_CORE_non-redundant.meme	MA0446.1 (fkh)	http://jaspar2018.genereg.net/matrix/MA0446.1
2	MEME	TNTTTKTTTTTDTTKTWKTTKBTTTT	MEME-1	TNTTTKTTTTTDTTKTWKTTKBTTTT	26	59	1.8e-034	MEME	/Users/filipov4/meme/db/motif_databases/JASPAR/JASPAR2018_CORE_non-redundant.meme	MA1267.1 (AT5G66940)	http://jaspar2018.genereg.net/matrix/MA1267.1
3	MEME	CTTSTAGACAYTGNCTTAGGCAARKAYTTC	MEME-5	CTTSTAGACAYTGNCTTAGGCAARKAYTTC	30	6	6.2e-016	MEME	/Users/filipov4/meme/db/motif_databases/JASPAR/JASPAR2018_CORE_non-redundant.meme	MA1153.1 (Smad4)	http://jaspar2018.genereg.net/matrix/MA1153.1
4	MEME	GVARAGTAAACAVAMA	MEME-2	GVARAGTAAACAVAMA	16	43	4.3e-012	MEME	/Users/filipov4/meme/db/motif_databases/JASPAR/JASPAR2018_CORE_non-redundant.meme	MA0593.1 (FOXP2)	http://jaspar2018.genereg.net/matrix/MA0593.1
5	DREME	HCGTGM	DREME-2	HCGTGM	6	171	2.8e-011	DREME	/Users/filipov4/meme/db/motif_databases/JASPAR/JASPAR2018_CORE_non-redundant.meme	MA1378.1 (PLT3)	http://jaspar2018.genereg.net/matrix/MA1378.1
6	MEME	TGTGGTCAGACYGGTTCTCTGCTCTYRAAC	MEME-6	TGTGGTCAGACYGGTTCTCTGCTCTYRAAC	30	6	4.6e-008	MEME	 	 	 
7	DREME	AGATAW	DREME-3	AGATAW	6	278	2.5e-006	DREME	/Users/filipov4/meme/db/motif_databases/JASPAR/JASPAR2018_CORE_non-redundant.meme	MA1104.1 (GATA6)	http://jaspar2018.genereg.net/matrix/MA1104.1
8	DREME	TGAGTCAB	DREME-4	TGAGTCAB	8	76	6.2e-006	DREME	/Users/filipov4/meme/db/motif_databases/JASPAR/JASPAR2018_CORE_non-redundant.meme	MA1101.1 (BACH2)	http://jaspar2018.genereg.net/matrix/MA1101.1
9	MEME	GTCTATGTTCAGCDDTGCACRTATTGTCTT	MEME-7	GTCTATGTTCAGCDDTGCACRTATTGTCTT	30	4	2.9e-005	MEME	 	 	 
10	DREME	CMCAG	DREME-5	CMCAG	5	860	3.1e-005	DREME	/Users/filipov4/meme/db/motif_databases/JASPAR/JASPAR2018_CORE_non-redundant.meme	MA0332.1 (MET28)	http://jaspar2018.genereg.net/matrix/MA0332.1
11	MEME	TGCCCTSAGGCW	MEME-3	TGCCCTSAGGCW	12	43	2.1e-004	MEME	/Users/filipov4/meme/db/motif_databases/JASPAR/JASPAR2018_CORE_non-redundant.meme	MA0810.1 (TFAP2A(var.2))	http://jaspar2018.genereg.net/matrix/MA0810.1
12	MEME	AARAGCTTCTGCACRGCAAARGAA	MEME-4	AARAGCTTCTGCACRGCAAARGAA	24	6	5.0e-004	MEME	 	 	 
13	DREME	AKGTCA	DREME-7	AKGTCA	6	246	5.2e-003	DREME	/Users/filipov4/meme/db/motif_databases/JASPAR/JASPAR2018_CORE_non-redundant.meme	MA0160.1 (NR4A2)	http://jaspar2018.genereg.net/matrix/MA0160.1
14	DREME	CCTSAGGS	DREME-6	CCTSAGGS	8	49	5.5e-003	DREME	/Users/filipov4/meme/db/motif_databases/JASPAR/JASPAR2018_CORE_non-redundant.meme	MA0814.1 (TFAP2C(var.2))	http://jaspar2018.genereg.net/matrix/MA0814.1
15	DREME	CATTCCW	DREME-8	CATTCCW	7	96	3.0e-002	DREME	/Users/filipov4/meme/db/motif_databases/JASPAR/JASPAR2018_CORE_non-redundant.meme	MA0090.2 (TEAD1)	http://jaspar2018.genereg.net/matrix/MA0090.2
