********************************************************************************
MEME - Motif discovery tool
********************************************************************************
MEME version 4.12.0 (Release date: Tue Jun 27 16:22:50 2017 -0700)

For further information on how to interpret these results or to get
a copy of the MEME software please access http://meme-suite.org .

This file may be used as input to the MAST algorithm for searching
sequence databases for matches to groups of motifs.  MAST is available
for interactive use and downloading at http://meme-suite.org .
********************************************************************************


********************************************************************************
REFERENCE
********************************************************************************
If you use this program in your research, please cite:

Timothy L. Bailey and Charles Elkan,
"Fitting a mixture model by expectation maximization to discover
motifs in biopolymers", Proceedings of the Second International
Conference on Intelligent Systems for Molecular Biology, pp. 28-36,
AAAI Press, Menlo Park, California, 1994.
********************************************************************************


********************************************************************************
TRAINING SET
********************************************************************************
DATAFILE= results/AHRpeaks_not-in-DHSs.bed.fa/jaspar/seqs-centered
ALPHABET= ACGT
Sequence name            Weight Length  Sequence name            Weight Length  
-------------            ------ ------  -------------            ------ ------  
chr11:102323700-10232414 1.0000    100  chr6:473950-474699       1.0000    100  
chr5:14187700-14188249   1.0000    100  chr14:51331750-51332699  1.0000    100  
chr3:133718450-133718949 1.0000    100  chr3:42538300-42538749   1.0000    100  
chr3:197391550-197391999 1.0000    100  chr3:100314500-100315199 1.0000    100  
chr5:42620500-42620999   1.0000    100  chr6:164129450-164129999 1.0000    100  
chr4:131057400-131058299 1.0000    100  chr9:136608600-136609099 1.0000    100  
chr13:111252450-11125309 1.0000    100  chr3:30367300-30367849   1.0000    100  
chr5:53039550-53040149   1.0000    100  chr2:223843200-223843749 1.0000    100  
chr4:24861800-24862399   1.0000    100  chrX:143455700-143456199 1.0000    100  
chr14:34682250-34682949  1.0000    100  chr9:77463250-77463649   1.0000    100  
chr16:78330900-78331399  1.0000    100  chrX:142490150-142490549 1.0000    100  
chr1:523900-524399       1.0000    100  chr9:22124600-22125049   1.0000    100  
chr13:100629600-10063024 1.0000    100  chr21:23055400-23055999  1.0000    100  
chr9:93712750-93713449   1.0000    100  chr13:76836050-76836549  1.0000    100  
chr5:38533650-38534099   1.0000    100  chr2:138011550-138012149 1.0000    100  
chr12:124723400-12472389 1.0000    100  chr7:117565150-117565649 1.0000    100  
chr6:171042750-171043199 1.0000    100  chr2:142015050-142015599 1.0000    100  
chr11:86289250-86289799  1.0000    100  chr18:71509800-71510299  1.0000    100  
chr19:24065200-24065649  1.0000    100  chr15:40377300-40377849  1.0000    100  
chr17:78725650-78726099  1.0000    100  chr19:28916200-28916699  1.0000    100  
chr15:75054300-75054749  1.0000    100  chr6:67444900-67445299   1.0000    100  
chr2:5504450-5505199     1.0000    100  chr2:43826650-43827199   1.0000    100  
chr1:153650950-153651299 1.0000    100  chr6:16832050-16832599   1.0000    100  
chr12:77073250-77074049  1.0000    100  chr10:9391250-9391649    1.0000    100  
chr6:99195700-99196049   1.0000    100  chr6:26257300-26257949   1.0000    100  
chr14:63545150-63545699  1.0000    100  chr6:10317300-10318049   1.0000    100  
chr12:114182450-11418309 1.0000    100  chr17:78690100-78690649  1.0000    100  
chr18:32629450-32630099  1.0000    100  chr6:44826100-44826549   1.0000    100  
chr3:65973950-65974299   1.0000    100  chr7:128073600-128073849 1.0000    100  
chr12:115912450-11591299 1.0000    100  chr6:16992350-16992899   1.0000    100  
chr15:45402150-45402499  1.0000    100  
********************************************************************************

********************************************************************************
COMMAND LINE SUMMARY
********************************************************************************
This information can also be useful in the event you wish to report a
problem with the MEME software.

command: meme results/AHRpeaks_not-in-DHSs.bed.fa/jaspar/seqs-centered -oc results/AHRpeaks_not-in-DHSs.bed.fa/jaspar/meme_out -mod zoops -nmotifs 7 -minw 5 -maxw 30 -bfile results/AHRpeaks_not-in-DHSs.bed.fa/jaspar/background -dna -revcomp -nostatus 

model:  mod=         zoops    nmotifs=         7    evt=           inf
object function=  E-value of product of p-values
width:  minw=            5    maxw=           30
width:  wg=             11    ws=              1    endgaps=       yes
nsites: minsites=        2    maxsites=       61    wnsites=       0.8
theta:  spmap=         uni    spfuzz=        0.5
global: substring=     yes    branching=      no    wbranch=        no
em:     prior=   dirichlet    b=            0.01    maxiter=        50
        distance=    1e-05
data:   n=            6100    N=              61    shuffle=        -1
strands: + -
sample: seed=            0    ctfrac=         -1    maxwords=       -1
Letter frequencies in dataset:
A 0.284 C 0.216 G 0.216 T 0.284 
Background letter frequencies (from results/AHRpeaks_not-in-DHSs.bed.fa/jaspar/background):
A 0.290 C 0.210 G 0.210 T 0.290 
********************************************************************************


********************************************************************************
MOTIF AAGCAAATRCAATARAAACAAASATAA MEME-1	width =  27  sites =   7  llr = 180  E-value = 4.1e-013
********************************************************************************
--------------------------------------------------------------------------------
	Motif AAGCAAATRCAATARAAACAAASATAA MEME-1 Description
--------------------------------------------------------------------------------
Simplified        A  971:a99141aa194a99:aaa1a3aa
pos.-specific     C  :3:9:::::9:::11:::9:::3::::
probability       G  ::71:11:4:::::3:111:::6::::
matrix            T  1:1::::91:::9:1:::::::::7::

         bits    2.3                            
                 2.0                            
                 1.8     *     **   *   *** * **
                 1.6    **    ***   *  **** * **
Relative         1.4    ****  *** * ******* * **
Entropy          1.1 ** ***** ***** ******* * **
(37.1 bits)      0.9 ******** ***** ************
                 0.7 ******** ***** ************
                 0.5 ************** ************
                 0.2 ***************************
                 0.0 ---------------------------

Multilevel           AAGCAAATACAATAAAAACAAAGATAA
consensus             C      G     G       C A  
sequence                                        
                                                
--------------------------------------------------------------------------------

--------------------------------------------------------------------------------
	Motif AAGCAAATRCAATARAAACAAASATAA MEME-1 sites sorted by position p-value
--------------------------------------------------------------------------------
Sequence name            Strand  Start   P-value                       Site          
-------------            ------  ----- ---------            ---------------------------
chr17:78690100-78690649      -     64  4.40e-16 AAGAACCCAA AAGCAAATGCAATAAAAACAAAGATAA ATAGCTGGGA
chr5:53039550-53040149       +     19  4.40e-16 aagagcccaa aagcaaatgcaataaaaacaaagataa atagctggga
chr3:100314500-100315199     -     26  4.40e-16 AAGAACCCAA AAGCAAATGCAATAAAAACAAAGATAA ATAGCTGGGA
chr7:117565150-117565649     +     74  1.34e-14 aagaacccaa aagcaaattcaatagaaacaaagataa           
chr14:63545150-63545699      +     59  6.56e-11 caaaaaatac tagcaaataaaatctaggcaaacataa aaagaaaaat
chr9:136608600-136609099     -     19  6.56e-11 AAAAACAAAC ACACAAGAACAAAACAAACAAACAAAA AACTAGAAAA
chrX:143455700-143456199     -     32  7.43e-11 GATTACTCAG ACTGAGATACAATAGAAAGAAAAAAAA GAAGATAAAT
--------------------------------------------------------------------------------

--------------------------------------------------------------------------------
	Motif AAGCAAATRCAATARAAACAAASATAA MEME-1 block diagrams
--------------------------------------------------------------------------------
SEQUENCE NAME            POSITION P-VALUE  MOTIF DIAGRAM
-------------            ----------------  -------------
chr17:78690100-78690649           4.4e-16  63_[-1]_10
chr5:53039550-53040149            4.4e-16  18_[+1]_55
chr3:100314500-100315199          4.4e-16  25_[-1]_48
chr7:117565150-117565649          1.3e-14  73_[+1]
chr14:63545150-63545699           6.6e-11  58_[+1]_15
chr9:136608600-136609099          6.6e-11  18_[-1]_55
chrX:143455700-143456199          7.4e-11  31_[-1]_42
--------------------------------------------------------------------------------

--------------------------------------------------------------------------------
	Motif AAGCAAATRCAATARAAACAAASATAA MEME-1 in BLOCKS format
--------------------------------------------------------------------------------
BL   MOTIF AAGCAAATRCAATARAAACAAASATAA width=27 seqs=7
chr17:78690100-78690649  (   64) AAGCAAATGCAATAAAAACAAAGATAA  1 
chr5:53039550-53040149   (   19) AAGCAAATGCAATAAAAACAAAGATAA  1 
chr3:100314500-100315199 (   26) AAGCAAATGCAATAAAAACAAAGATAA  1 
chr7:117565150-117565649 (   74) AAGCAAATTCAATAGAAACAAAGATAA  1 
chr14:63545150-63545699  (   59) TAGCAAATAAAATCTAGGCAAACATAA  1 
chr9:136608600-136609099 (   19) ACACAAGAACAAAACAAACAAACAAAA  1 
chrX:143455700-143456199 (   32) ACTGAGATACAATAGAAAGAAAAAAAA  1 
//

--------------------------------------------------------------------------------

--------------------------------------------------------------------------------
	Motif AAGCAAATRCAATARAAACAAASATAA MEME-1 position-specific scoring matrix
--------------------------------------------------------------------------------
log-odds matrix: alength= 4 w= 27 n= 4514 bayes= 9.17422 E= 4.1e-013 
   156   -945   -945   -102 
   130     45   -945   -945 
  -102   -945    177   -102 
  -945    203    -55   -945 
   178   -945   -945   -945 
   156   -945    -55   -945 
   156   -945    -55   -945 
  -102   -945   -945    156 
    56   -945    103   -102 
  -102    203   -945   -945 
   178   -945   -945   -945 
   178   -945   -945   -945 
  -102   -945   -945    156 
   156    -55   -945   -945 
    56    -55     45   -102 
   178   -945   -945   -945 
   156   -945    -55   -945 
   156   -945    -55   -945 
  -945    203    -55   -945 
   178   -945   -945   -945 
   178   -945   -945   -945 
   178   -945   -945   -945 
  -102     45    144   -945 
   178   -945   -945   -945 
    -2   -945   -945    130 
   178   -945   -945   -945 
   178   -945   -945   -945 
--------------------------------------------------------------------------------

--------------------------------------------------------------------------------
	Motif AAGCAAATRCAATARAAACAAASATAA MEME-1 position-specific probability matrix
--------------------------------------------------------------------------------
letter-probability matrix: alength= 4 w= 27 nsites= 7 E= 4.1e-013 
 0.857143  0.000000  0.000000  0.142857 
 0.714286  0.285714  0.000000  0.000000 
 0.142857  0.000000  0.714286  0.142857 
 0.000000  0.857143  0.142857  0.000000 
 1.000000  0.000000  0.000000  0.000000 
 0.857143  0.000000  0.142857  0.000000 
 0.857143  0.000000  0.142857  0.000000 
 0.142857  0.000000  0.000000  0.857143 
 0.428571  0.000000  0.428571  0.142857 
 0.142857  0.857143  0.000000  0.000000 
 1.000000  0.000000  0.000000  0.000000 
 1.000000  0.000000  0.000000  0.000000 
 0.142857  0.000000  0.000000  0.857143 
 0.857143  0.142857  0.000000  0.000000 
 0.428571  0.142857  0.285714  0.142857 
 1.000000  0.000000  0.000000  0.000000 
 0.857143  0.000000  0.142857  0.000000 
 0.857143  0.000000  0.142857  0.000000 
 0.000000  0.857143  0.142857  0.000000 
 1.000000  0.000000  0.000000  0.000000 
 1.000000  0.000000  0.000000  0.000000 
 1.000000  0.000000  0.000000  0.000000 
 0.142857  0.285714  0.571429  0.000000 
 1.000000  0.000000  0.000000  0.000000 
 0.285714  0.000000  0.000000  0.714286 
 1.000000  0.000000  0.000000  0.000000 
 1.000000  0.000000  0.000000  0.000000 
--------------------------------------------------------------------------------

--------------------------------------------------------------------------------
	Motif AAGCAAATRCAATARAAACAAASATAA MEME-1 regular expression
--------------------------------------------------------------------------------
A[AC]GCAAAT[AG]CAATA[AG]AAACAAA[GC]A[TA]AA
--------------------------------------------------------------------------------




Time  2.01 secs.

********************************************************************************


********************************************************************************
MOTIF AGTTTAATTAAGTCCCAGCTAT MEME-2	width =  22  sites =   5  llr = 122  E-value = 1.2e-004
********************************************************************************
--------------------------------------------------------------------------------
	Motif AGTTTAATTAAGTCCCAGCTAT MEME-2 Description
--------------------------------------------------------------------------------
Simplified        A  82:22aa::86:::::a:::a:
pos.-specific     C  ::::::::2:2::8aa::8:::
probability       G  28::2::::22a:2:::a2:::
matrix            T  ::a86::a8:::a::::::a:a

         bits    2.3            *  ** *    
                 2.0            *  ** *    
                 1.8   *  ***   ** **** ***
                 1.6   *  ***   ***********
Relative         1.4  **  ***   ***********
Entropy          1.1 **** ***** ***********
(35.2 bits)      0.9 **** ***** ***********
                 0.7 **** *****************
                 0.5 **********************
                 0.2 **********************
                 0.0 ----------------------

Multilevel           AGTTTAATTAAGTCCCAGCTAT
consensus            GA AA   CGC  G    G   
sequence                 G     G           
                                           
--------------------------------------------------------------------------------

--------------------------------------------------------------------------------
	Motif AGTTTAATTAAGTCCCAGCTAT MEME-2 sites sorted by position p-value
--------------------------------------------------------------------------------
Sequence name            Strand  Start   P-value                     Site       
-------------            ------  ----- ---------            ----------------------
chr3:100314500-100315199     +      4  1.55e-13        ttt agtttaattaagtcccagctat ttatctttgt
chr5:53039550-53040149       -     46  4.93e-13 AAAACTCCTT AGTTTAATTAGGTCCCAGCTAT TTATCTTTGT
chr17:78690100-78690649      +     42  9.86e-13 aaaggccttt agttaaattaagtcccagctat ttatctttgt
chr4:131057400-131058299     -     12  9.86e-13 AAAGCTCTTT GGTTTAATTAAGTCCCAGCTAT TTATCTTTGT
chr6:16832050-16832599       +     57  2.92e-10 cagATGCAAA AATAGAATCGCGTGCCAGGTAT GGTGATATGT
--------------------------------------------------------------------------------

--------------------------------------------------------------------------------
	Motif AGTTTAATTAAGTCCCAGCTAT MEME-2 block diagrams
--------------------------------------------------------------------------------
SEQUENCE NAME            POSITION P-VALUE  MOTIF DIAGRAM
-------------            ----------------  -------------
chr3:100314500-100315199          1.6e-13  3_[+2]_75
chr5:53039550-53040149            4.9e-13  45_[-2]_33
chr17:78690100-78690649           9.9e-13  41_[+2]_37
chr4:131057400-131058299          9.9e-13  11_[-2]_67
chr6:16832050-16832599            2.9e-10  56_[+2]_22
--------------------------------------------------------------------------------

--------------------------------------------------------------------------------
	Motif AGTTTAATTAAGTCCCAGCTAT MEME-2 in BLOCKS format
--------------------------------------------------------------------------------
BL   MOTIF AGTTTAATTAAGTCCCAGCTAT width=22 seqs=5
chr3:100314500-100315199 (    4) AGTTTAATTAAGTCCCAGCTAT  1 
chr5:53039550-53040149   (   46) AGTTTAATTAGGTCCCAGCTAT  1 
chr17:78690100-78690649  (   42) AGTTAAATTAAGTCCCAGCTAT  1 
chr4:131057400-131058299 (   12) GGTTTAATTAAGTCCCAGCTAT  1 
chr6:16832050-16832599   (   57) AATAGAATCGCGTGCCAGGTAT  1 
//

--------------------------------------------------------------------------------

--------------------------------------------------------------------------------
	Motif AGTTTAATTAAGTCCCAGCTAT MEME-2 position-specific scoring matrix
--------------------------------------------------------------------------------
log-odds matrix: alength= 4 w= 22 n= 4819 bayes= 9.34478 E= 1.2e-004 
   146   -897     -7   -897 
   -54   -897    193   -897 
  -897   -897   -897    178 
   -54   -897   -897    146 
   -54   -897     -7    105 
   178   -897   -897   -897 
   178   -897   -897   -897 
  -897   -897   -897    178 
  -897     -7   -897    146 
   146   -897     -7   -897 
   105     -7     -7   -897 
  -897   -897    225   -897 
  -897   -897   -897    178 
  -897    193     -7   -897 
  -897    225   -897   -897 
  -897    225   -897   -897 
   178   -897   -897   -897 
  -897   -897    225   -897 
  -897    193     -7   -897 
  -897   -897   -897    178 
   178   -897   -897   -897 
  -897   -897   -897    178 
--------------------------------------------------------------------------------

--------------------------------------------------------------------------------
	Motif AGTTTAATTAAGTCCCAGCTAT MEME-2 position-specific probability matrix
--------------------------------------------------------------------------------
letter-probability matrix: alength= 4 w= 22 nsites= 5 E= 1.2e-004 
 0.800000  0.000000  0.200000  0.000000 
 0.200000  0.000000  0.800000  0.000000 
 0.000000  0.000000  0.000000  1.000000 
 0.200000  0.000000  0.000000  0.800000 
 0.200000  0.000000  0.200000  0.600000 
 1.000000  0.000000  0.000000  0.000000 
 1.000000  0.000000  0.000000  0.000000 
 0.000000  0.000000  0.000000  1.000000 
 0.000000  0.200000  0.000000  0.800000 
 0.800000  0.000000  0.200000  0.000000 
 0.600000  0.200000  0.200000  0.000000 
 0.000000  0.000000  1.000000  0.000000 
 0.000000  0.000000  0.000000  1.000000 
 0.000000  0.800000  0.200000  0.000000 
 0.000000  1.000000  0.000000  0.000000 
 0.000000  1.000000  0.000000  0.000000 
 1.000000  0.000000  0.000000  0.000000 
 0.000000  0.000000  1.000000  0.000000 
 0.000000  0.800000  0.200000  0.000000 
 0.000000  0.000000  0.000000  1.000000 
 1.000000  0.000000  0.000000  0.000000 
 0.000000  0.000000  0.000000  1.000000 
--------------------------------------------------------------------------------

--------------------------------------------------------------------------------
	Motif AGTTTAATTAAGTCCCAGCTAT MEME-2 regular expression
--------------------------------------------------------------------------------
[AG][GA]T[TA][TAG]AAT[TC][AG][ACG]GT[CG]CCAG[CG]TAT
--------------------------------------------------------------------------------




Time  4.04 secs.

********************************************************************************


********************************************************************************
MOTIF GGRBTYTTGSWCRNGAMAWGSDDSMSTVAG MEME-3	width =  30  sites =  12  llr = 209  E-value = 8.2e-004
********************************************************************************
--------------------------------------------------------------------------------
	Motif GGRBTYTTGSWCRNGAMAWGSDDSMSTVAG MEME-3 Description
--------------------------------------------------------------------------------
Simplified        A  :23:::2:2:413218783::53:3::362
pos.-specific     C  2:1337:2:7:7123:31234::355:32:
probability       G  8863::1383116362:1274337141418
matrix            T  :1:48386::52:311::41234:119:2:

         bits    2.3                               
                 2.0                               
                 1.8                               
                 1.6 *       *                    *
Relative         1.4 *       **             *  *  *
Entropy          1.1 **  **  **      ** *   *  *  *
(25.2 bits)      0.9 *** **  **  *  *** *   * **  *
                 0.7 *** ****** ** **** **  * *** *
                 0.5 ************* **** ********* *
                 0.2 ************* **** ***********
                 0.0 ------------------------------

Multilevel           GGGTTCTTGCTCGGGAAATGCATGCCTGAG
consensus              AGCT G GA ATC C ACGGACAG C  
sequence                C                 TG    A  
                                                   
--------------------------------------------------------------------------------

--------------------------------------------------------------------------------
	Motif GGRBTYTTGSWCRNGAMAWGSDDSMSTVAG MEME-3 sites sorted by position p-value
--------------------------------------------------------------------------------
Sequence name            Strand  Start   P-value                         Site           
-------------            ------  ----- ---------            ------------------------------
chr5:53039550-53040149       +     70  1.35e-11 attaaactaa ggagttttgcacggcaaagggaacagtcag c         
chr3:100314500-100315199     +     55  2.02e-11 atttgctttt gggttcttggtcatgaaattcttgcctaag ccaacgtcta
chr7:117565150-117565649     -     42  2.61e-11 ATTTGCTTTT GGGTTCTTGGTCATGAAATCCTTGCCTAGG GCAATGCCTA
chr2:43826650-43827199       -     59  3.83e-11 ATTTGCTTTT GAGTTCTTGGTCATGAAATCCTTGCCTAAG CCAACGTCAG
chr13:111252450-11125309     +     32  3.83e-11 ctgcagggca ggggccaggctggggacaagggagcctgag gcagtctgta
chr17:78690100-78690649      -      9  7.95e-11 TTTAACTAAA GGCCTTTTGCACGGCAAAAGGAACAGTCAG CAGAGTAA  
chr4:131057400-131058299     +     37  2.04e-09 ttaaaccaaa gagcttttgcatgacaaaaggaacagtcag cagagtaaac
chr9:136608600-136609099     +     63  1.04e-08 tttttgaagt ggagtcttgctcccgtcacgcaggctggag tgcagtgg  
chr16:78330900-78331399      +      9  6.31e-08   TTATTTTA CGGCTCTCGCACGGAGCATGCAGCTGTGTA AACCTGAGAA
chr19:28916200-28916699      +     36  1.26e-07 CTGAAAACAT GGATCCTGGGTAAATAACGGGATGACTGTG AGATGATTAC
chr3:197391550-197391999     +     36  5.13e-07 ccatgcgtgc gtgttcacacgtgtggagtgtgtgcgtgcg tccgtgcctg
chr6:164129450-164129999     -     67  1.32e-06       CCCA CGAGCTGGACACGCGACACCTGGGGCTCCA GCTGGCCATG
--------------------------------------------------------------------------------

--------------------------------------------------------------------------------
	Motif GGRBTYTTGSWCRNGAMAWGSDDSMSTVAG MEME-3 block diagrams
--------------------------------------------------------------------------------
SEQUENCE NAME            POSITION P-VALUE  MOTIF DIAGRAM
-------------            ----------------  -------------
chr5:53039550-53040149            1.4e-11  69_[+3]_1
chr3:100314500-100315199            2e-11  54_[+3]_16
chr7:117565150-117565649          2.6e-11  41_[-3]_29
chr2:43826650-43827199            3.8e-11  58_[-3]_12
chr13:111252450-11125309          3.8e-11  31_[+3]_39
chr17:78690100-78690649           7.9e-11  8_[-3]_62
chr4:131057400-131058299            2e-09  36_[+3]_34
chr9:136608600-136609099            1e-08  62_[+3]_8
chr16:78330900-78331399           6.3e-08  8_[+3]_62
chr19:28916200-28916699           1.3e-07  35_[+3]_35
chr3:197391550-197391999          5.1e-07  35_[+3]_35
chr6:164129450-164129999          1.3e-06  66_[-3]_4
--------------------------------------------------------------------------------

--------------------------------------------------------------------------------
	Motif GGRBTYTTGSWCRNGAMAWGSDDSMSTVAG MEME-3 in BLOCKS format
--------------------------------------------------------------------------------
BL   MOTIF GGRBTYTTGSWCRNGAMAWGSDDSMSTVAG width=30 seqs=12
chr5:53039550-53040149   (   70) GGAGTTTTGCACGGCAAAGGGAACAGTCAG  1 
chr3:100314500-100315199 (   55) GGGTTCTTGGTCATGAAATTCTTGCCTAAG  1 
chr7:117565150-117565649 (   42) GGGTTCTTGGTCATGAAATCCTTGCCTAGG  1 
chr2:43826650-43827199   (   59) GAGTTCTTGGTCATGAAATCCTTGCCTAAG  1 
chr13:111252450-11125309 (   32) GGGGCCAGGCTGGGGACAAGGGAGCCTGAG  1 
chr17:78690100-78690649  (    9) GGCCTTTTGCACGGCAAAAGGAACAGTCAG  1 
chr4:131057400-131058299 (   37) GAGCTTTTGCATGACAAAAGGAACAGTCAG  1 
chr9:136608600-136609099 (   63) GGAGTCTTGCTCCCGTCACGCAGGCTGGAG  1 
chr16:78330900-78331399  (    9) CGGCTCTCGCACGGAGCATGCAGCTGTGTA  1 
chr19:28916200-28916699  (   36) GGATCCTGGGTAAATAACGGGATGACTGTG  1 
chr3:197391550-197391999 (   36) GTGTTCACACGTGTGGAGTGTGTGCGTGCG  1 
chr6:164129450-164129999 (   67) CGAGCTGGACACGCGACACCTGGGGCTCCA  1 
//

--------------------------------------------------------------------------------

--------------------------------------------------------------------------------
	Motif GGRBTYTTGSWCRNGAMAWGSDDSMSTVAG MEME-3 position-specific scoring matrix
--------------------------------------------------------------------------------
log-odds matrix: alength= 4 w= 30 n= 4331 bayes= 7.26377 E= 8.2e-004 
 -1023    -33    199  -1023 
   -80  -1023    184   -180 
    20   -133    147  -1023 
 -1023     25     67     52 
 -1023     25  -1023    137 
 -1023    167  -1023     20 
   -80  -1023   -133    137 
 -1023    -33     25    101 
   -80  -1023    199  -1023 
 -1023    167     67  -1023 
    52  -1023   -133     78 
  -180    167   -133    -80 
    20   -133    147  -1023 
   -80    -33     67     20 
  -180     25    147   -180 
   137  -1023    -33   -180 
   120     67  -1023  -1023 
   152   -133   -133  -1023 
   -21    -33    -33     52 
 -1023     25    167   -180 
 -1023     99     99    -80 
    78  -1023     25    -21 
    20  -1023     25     52 
 -1023     67    167  -1023 
    20    125   -133   -180 
 -1023    125     99   -180 
 -1023  -1023   -133    166 
   -21     67     99  -1023 
   101    -33   -133    -80 
   -80  -1023    199  -1023 
--------------------------------------------------------------------------------

--------------------------------------------------------------------------------
	Motif GGRBTYTTGSWCRNGAMAWGSDDSMSTVAG MEME-3 position-specific probability matrix
--------------------------------------------------------------------------------
letter-probability matrix: alength= 4 w= 30 nsites= 12 E= 8.2e-004 
 0.000000  0.166667  0.833333  0.000000 
 0.166667  0.000000  0.750000  0.083333 
 0.333333  0.083333  0.583333  0.000000 
 0.000000  0.250000  0.333333  0.416667 
 0.000000  0.250000  0.000000  0.750000 
 0.000000  0.666667  0.000000  0.333333 
 0.166667  0.000000  0.083333  0.750000 
 0.000000  0.166667  0.250000  0.583333 
 0.166667  0.000000  0.833333  0.000000 
 0.000000  0.666667  0.333333  0.000000 
 0.416667  0.000000  0.083333  0.500000 
 0.083333  0.666667  0.083333  0.166667 
 0.333333  0.083333  0.583333  0.000000 
 0.166667  0.166667  0.333333  0.333333 
 0.083333  0.250000  0.583333  0.083333 
 0.750000  0.000000  0.166667  0.083333 
 0.666667  0.333333  0.000000  0.000000 
 0.833333  0.083333  0.083333  0.000000 
 0.250000  0.166667  0.166667  0.416667 
 0.000000  0.250000  0.666667  0.083333 
 0.000000  0.416667  0.416667  0.166667 
 0.500000  0.000000  0.250000  0.250000 
 0.333333  0.000000  0.250000  0.416667 
 0.000000  0.333333  0.666667  0.000000 
 0.333333  0.500000  0.083333  0.083333 
 0.000000  0.500000  0.416667  0.083333 
 0.000000  0.000000  0.083333  0.916667 
 0.250000  0.333333  0.416667  0.000000 
 0.583333  0.166667  0.083333  0.166667 
 0.166667  0.000000  0.833333  0.000000 
--------------------------------------------------------------------------------

--------------------------------------------------------------------------------
	Motif GGRBTYTTGSWCRNGAMAWGSDDSMSTVAG MEME-3 regular expression
--------------------------------------------------------------------------------
GG[GA][TGC][TC][CT]T[TG]G[CG][TA]C[GA][GT][GC]A[AC]A[TA][GC][CG][AGT][TAG][GC][CA][CG]T[GCA]AG
--------------------------------------------------------------------------------




Time  6.02 secs.

********************************************************************************


********************************************************************************
MOTIF SWSRCACGHACACAG MEME-4	width =  15  sites =   9  llr = 127  E-value = 8.8e-001
********************************************************************************
--------------------------------------------------------------------------------
	Motif SWSRCACGHACACAG MEME-4 Description
--------------------------------------------------------------------------------
Simplified        A  :7:3:a2:38:8:a:
pos.-specific     C  6:4:a:7:3:918:1
probability       G  4:66::1a:211::9
matrix            T  :3:1::::3:::2::

         bits    2.3     *  *       
                 2.0     *  *       
                 1.8     ** *  *  **
                 1.6     ** *  *  **
Relative         1.4 * * ** *  * ***
Entropy          1.1 * * ** * ** ***
(20.4 bits)      0.9 *** **** ******
                 0.7 ******** ******
                 0.5 ***************
                 0.2 ***************
                 0.0 ---------------

Multilevel           CAGGCACGAACACAG
consensus            GTCA  A CG  T  
sequence                     T      
                                    
--------------------------------------------------------------------------------

--------------------------------------------------------------------------------
	Motif SWSRCACGHACACAG MEME-4 sites sorted by position p-value
--------------------------------------------------------------------------------
Sequence name            Strand  Start   P-value                 Site    
-------------            ------  ----- ---------            ---------------
chr6:171042750-171043199     -     57  1.03e-09 AGAAAAGACT GAGGCACGCACACAG ACAGACACAC
chr1:523900-524399           +     80  1.03e-09 AGAAAAGATT GAGGcacgcacacag acagac    
chr3:197391550-197391999     -      8  6.68e-08 CGCATGGCTG CACACACGTGCACAG AGAGGCA   
chr6:26257300-26257949       -     23  1.81e-07 GAATGTCACG CACACACGCACACAC GGATGTTCAA
chr13:111252450-11125309     +      6  2.15e-07      gcagg ctggcaagtgcacag tctgcagggc
chr19:24065200-24065649      +     10  2.29e-07  gagtactca gacacaggtacacag tgttagagca
chr5:38533650-38534099       +     52  4.61e-07 GCATGTCCTG CTGGCACGAACCTAG CCTGGTGGCA
chr14:63545150-63545699      +     21  7.29e-07 agacacatat ctctcacgaacatag ttgcaaaact
chr9:93712750-93713449       +     29  1.29e-06 AATTATCTGT GAGGCAAGAAGGCAG AAAACATTGA
--------------------------------------------------------------------------------

--------------------------------------------------------------------------------
	Motif SWSRCACGHACACAG MEME-4 block diagrams
--------------------------------------------------------------------------------
SEQUENCE NAME            POSITION P-VALUE  MOTIF DIAGRAM
-------------            ----------------  -------------
chr6:171042750-171043199            1e-09  56_[-4]_29
chr1:523900-524399                  1e-09  79_[+4]_6
chr3:197391550-197391999          6.7e-08  7_[-4]_78
chr6:26257300-26257949            1.8e-07  22_[-4]_63
chr13:111252450-11125309          2.2e-07  5_[+4]_80
chr19:24065200-24065649           2.3e-07  9_[+4]_76
chr5:38533650-38534099            4.6e-07  51_[+4]_34
chr14:63545150-63545699           7.3e-07  20_[+4]_65
chr9:93712750-93713449            1.3e-06  28_[+4]_57
--------------------------------------------------------------------------------

--------------------------------------------------------------------------------
	Motif SWSRCACGHACACAG MEME-4 in BLOCKS format
--------------------------------------------------------------------------------
BL   MOTIF SWSRCACGHACACAG width=15 seqs=9
chr6:171042750-171043199 (   57) GAGGCACGCACACAG  1 
chr1:523900-524399       (   80) GAGGCACGCACACAG  1 
chr3:197391550-197391999 (    8) CACACACGTGCACAG  1 
chr6:26257300-26257949   (   23) CACACACGCACACAC  1 
chr13:111252450-11125309 (    6) CTGGCAAGTGCACAG  1 
chr19:24065200-24065649  (   10) GACACAGGTACACAG  1 
chr5:38533650-38534099   (   52) CTGGCACGAACCTAG  1 
chr14:63545150-63545699  (   21) CTCTCACGAACATAG  1 
chr9:93712750-93713449   (   29) GAGGCAAGAAGGCAG  1 
//

--------------------------------------------------------------------------------

--------------------------------------------------------------------------------
	Motif SWSRCACGHACACAG MEME-4 position-specific scoring matrix
--------------------------------------------------------------------------------
log-odds matrix: alength= 4 w= 15 n= 5246 bayes= 10.5905 E= 8.8e-001 
  -982    140    108   -982 
   120   -982   -982     20 
  -982    108    140   -982 
    20   -982    140   -138 
  -982    225   -982   -982 
   178   -982   -982   -982 
   -38    167    -92   -982 
  -982   -982    225   -982 
    20     67   -982     20 
   142   -982      8   -982 
  -982    208    -92   -982 
   142    -92    -92   -982 
  -982    189   -982    -38 
   178   -982   -982   -982 
  -982    -92    208   -982 
--------------------------------------------------------------------------------

--------------------------------------------------------------------------------
	Motif SWSRCACGHACACAG MEME-4 position-specific probability matrix
--------------------------------------------------------------------------------
letter-probability matrix: alength= 4 w= 15 nsites= 9 E= 8.8e-001 
 0.000000  0.555556  0.444444  0.000000 
 0.666667  0.000000  0.000000  0.333333 
 0.000000  0.444444  0.555556  0.000000 
 0.333333  0.000000  0.555556  0.111111 
 0.000000  1.000000  0.000000  0.000000 
 1.000000  0.000000  0.000000  0.000000 
 0.222222  0.666667  0.111111  0.000000 
 0.000000  0.000000  1.000000  0.000000 
 0.333333  0.333333  0.000000  0.333333 
 0.777778  0.000000  0.222222  0.000000 
 0.000000  0.888889  0.111111  0.000000 
 0.777778  0.111111  0.111111  0.000000 
 0.000000  0.777778  0.000000  0.222222 
 1.000000  0.000000  0.000000  0.000000 
 0.000000  0.111111  0.888889  0.000000 
--------------------------------------------------------------------------------

--------------------------------------------------------------------------------
	Motif SWSRCACGHACACAG MEME-4 regular expression
--------------------------------------------------------------------------------
[CG][AT][GC][GA]CA[CA]G[ACT][AG]CA[CT]AG
--------------------------------------------------------------------------------




Time  7.85 secs.

********************************************************************************


********************************************************************************
MOTIF HRKRAGRKRAMATYRGARRWA MEME-5	width =  21  sites =  15  llr = 203  E-value = 2.6e-002
********************************************************************************
--------------------------------------------------------------------------------
	Motif HRKRAGRKRAMATYRGARRWA MEME-5 Description
--------------------------------------------------------------------------------
Simplified        A  2515a:6:68573:5:95776
pos.-specific     C  41:1:::1::31:5:1::::2
probability       G  :463:a43421:1257153:2
matrix            T  4:31:::6:::263:2:::3:

         bits    2.3      *               
                 2.0      *               
                 1.8     **               
                 1.6     **               
Relative         1.4     **          *    
Entropy          1.1     **   *    *****  
(19.5 bits)      0.9   * *** **    ****** 
                 0.7  ** ******** ********
                 0.5 *** *****************
                 0.2 *********************
                 0.0 ---------------------

Multilevel           CAGAAGATAAAATCGGAGAAA
consensus            TGTG  GGGGCTATAT AGTC
sequence             A            G      G
                                          
--------------------------------------------------------------------------------

--------------------------------------------------------------------------------
	Motif HRKRAGRKRAMATYRGARRWA MEME-5 sites sorted by position p-value
--------------------------------------------------------------------------------
Sequence name            Strand  Start   P-value                    Site       
-------------            ------  ----- ---------            ---------------------
chr7:117565150-117565649     +      5  4.59e-10       attc cagaagataacattggaaaaa ctcttctagg
chr2:43826650-43827199       +     26  1.19e-09 ctaaaaactc tagaagataacattggaaaaa ccctgacgtt
chr4:24861800-24862399       +     65  3.71e-08 acaaaaattc tataagatagcatcagaaaaa cccttctaga
chr9:77463250-77463649       +     70  4.24e-08 actgaaacaa tggaaggtaaaatggcagaaa aggtgggact
chr6:171042750-171043199     -     75  4.83e-08      GGGAT TGGGAGAGAAATTCAGAAAAG ACTGAGGCAC
chr1:523900-524399           +     56  4.83e-08 AGACGGGGAT TGGGAGAGAAATTCAGAAAAG ATTGAGGcac
chr13:76836050-76836549      +     62  1.73e-07 ATGAACACAG AAAGAGATAACATCAGAGGAA GATAAAATCT
chr14:51331750-51332699      -      5  2.13e-07 TCATATGTAG CGTGAGATGAGATCATAGATA TGAA      
chr11:102323700-10232414     +     75  4.11e-07 CGTGACCCAG CCTAAGGGGGAAGTGGAGAAA AACAG     
chr13:100629600-10063024     -     16  7.33e-07 CCTCTTAAGG AAGAAGGTGGAAACGGGGGTA GTGGGAAAGA
chr2:142015050-142015599     +     27  9.87e-07 CAGTTTAGGA TATTAGGTGAAATGGTAAATA TTGATTCTGC
chr1:153650950-153651299     -     30  1.22e-06 CTCCGGCTAT CCGGAGGGAACCGTGGAGGAC CCGAGCCAAG
chr3:133718450-133718949     +      4  1.48e-06        TCC AGGTAGGTGAGAAGAGAAAAC CAAGTCAGAA
chr18:32629450-32630099      -     79  2.77e-06          T CGTAAGACAAATATAGAGGTC ATAGTAGGGT
chr15:40377300-40377849      +     40  3.06e-06 ctcagctgag cagcagaggaaaacgtgggtg gcatttaggg
--------------------------------------------------------------------------------

--------------------------------------------------------------------------------
	Motif HRKRAGRKRAMATYRGARRWA MEME-5 block diagrams
--------------------------------------------------------------------------------
SEQUENCE NAME            POSITION P-VALUE  MOTIF DIAGRAM
-------------            ----------------  -------------
chr7:117565150-117565649          4.6e-10  4_[+5]_75
chr2:43826650-43827199            1.2e-09  25_[+5]_54
chr4:24861800-24862399            3.7e-08  64_[+5]_15
chr9:77463250-77463649            4.2e-08  69_[+5]_10
chr6:171042750-171043199          4.8e-08  74_[-5]_5
chr1:523900-524399                4.8e-08  55_[+5]_24
chr13:76836050-76836549           1.7e-07  61_[+5]_18
chr14:51331750-51332699           2.1e-07  4_[-5]_75
chr11:102323700-10232414          4.1e-07  74_[+5]_5
chr13:100629600-10063024          7.3e-07  15_[-5]_64
chr2:142015050-142015599          9.9e-07  26_[+5]_53
chr1:153650950-153651299          1.2e-06  29_[-5]_50
chr3:133718450-133718949          1.5e-06  3_[+5]_76
chr18:32629450-32630099           2.8e-06  78_[-5]_1
chr15:40377300-40377849           3.1e-06  39_[+5]_40
--------------------------------------------------------------------------------

--------------------------------------------------------------------------------
	Motif HRKRAGRKRAMATYRGARRWA MEME-5 in BLOCKS format
--------------------------------------------------------------------------------
BL   MOTIF HRKRAGRKRAMATYRGARRWA width=21 seqs=15
chr7:117565150-117565649 (    5) CAGAAGATAACATTGGAAAAA  1 
chr2:43826650-43827199   (   26) TAGAAGATAACATTGGAAAAA  1 
chr4:24861800-24862399   (   65) TATAAGATAGCATCAGAAAAA  1 
chr9:77463250-77463649   (   70) TGGAAGGTAAAATGGCAGAAA  1 
chr6:171042750-171043199 (   75) TGGGAGAGAAATTCAGAAAAG  1 
chr1:523900-524399       (   56) TGGGAGAGAAATTCAGAAAAG  1 
chr13:76836050-76836549  (   62) AAAGAGATAACATCAGAGGAA  1 
chr14:51331750-51332699  (    5) CGTGAGATGAGATCATAGATA  1 
chr11:102323700-10232414 (   75) CCTAAGGGGGAAGTGGAGAAA  1 
chr13:100629600-10063024 (   16) AAGAAGGTGGAAACGGGGGTA  1 
chr2:142015050-142015599 (   27) TATTAGGTGAAATGGTAAATA  1 
chr1:153650950-153651299 (   30) CCGGAGGGAACCGTGGAGGAC  1 
chr3:133718450-133718949 (    4) AGGTAGGTGAGAAGAGAAAAC  1 
chr18:32629450-32630099  (   79) CGTAAGACAAATATAGAGGTC  1 
chr15:40377300-40377849  (   40) CAGCAGAGGAAAACGTGGGTG  1 
//

--------------------------------------------------------------------------------

--------------------------------------------------------------------------------
	Motif HRKRAGRKRAMATYRGARRWA MEME-5 position-specific scoring matrix
--------------------------------------------------------------------------------
log-odds matrix: alength= 4 w= 21 n= 4880 bayes= 8.26613 E= 2.6e-002 
   -54     93  -1055     46 
    68    -65     93  -1055 
  -212  -1055    152     20 
    68   -165     67   -112 
   178  -1055  -1055  -1055 
 -1055  -1055    225  -1055 
   105  -1055     93  -1055 
 -1055   -165     67    105 
   105  -1055     93  -1055 
   146  -1055     -7  -1055 
    88     67    -65  -1055 
   134   -165  -1055    -54 
   -12  -1055    -65    105 
 -1055    115     -7     20 
    68  -1055    135  -1055 
 -1055   -165    180    -54 
   158  -1055    -65  -1055 
    68  -1055    135  -1055 
   120  -1055     67  -1055 
   120  -1055  -1055     20 
   105     -7     -7  -1055 
--------------------------------------------------------------------------------

--------------------------------------------------------------------------------
	Motif HRKRAGRKRAMATYRGARRWA MEME-5 position-specific probability matrix
--------------------------------------------------------------------------------
letter-probability matrix: alength= 4 w= 21 nsites= 15 E= 2.6e-002 
 0.200000  0.400000  0.000000  0.400000 
 0.466667  0.133333  0.400000  0.000000 
 0.066667  0.000000  0.600000  0.333333 
 0.466667  0.066667  0.333333  0.133333 
 1.000000  0.000000  0.000000  0.000000 
 0.000000  0.000000  1.000000  0.000000 
 0.600000  0.000000  0.400000  0.000000 
 0.000000  0.066667  0.333333  0.600000 
 0.600000  0.000000  0.400000  0.000000 
 0.800000  0.000000  0.200000  0.000000 
 0.533333  0.333333  0.133333  0.000000 
 0.733333  0.066667  0.000000  0.200000 
 0.266667  0.000000  0.133333  0.600000 
 0.000000  0.466667  0.200000  0.333333 
 0.466667  0.000000  0.533333  0.000000 
 0.000000  0.066667  0.733333  0.200000 
 0.866667  0.000000  0.133333  0.000000 
 0.466667  0.000000  0.533333  0.000000 
 0.666667  0.000000  0.333333  0.000000 
 0.666667  0.000000  0.000000  0.333333 
 0.600000  0.200000  0.200000  0.000000 
--------------------------------------------------------------------------------

--------------------------------------------------------------------------------
	Motif HRKRAGRKRAMATYRGARRWA MEME-5 regular expression
--------------------------------------------------------------------------------
[CTA][AG][GT][AG]AG[AG][TG][AG][AG][AC][AT][TA][CTG][GA][GT]A[GA][AG][AT][ACG]
--------------------------------------------------------------------------------




Time  9.65 secs.

********************************************************************************


********************************************************************************
MOTIF GGGWGGGRG MEME-6	width =   9  sites =  14  llr = 135  E-value = 1.5e+002
********************************************************************************
--------------------------------------------------------------------------------
	Motif GGGWGGGRG MEME-6 Description
--------------------------------------------------------------------------------
Simplified        A  :::51:141
pos.-specific     C  1:::1::::
probability       G  9aa:6a949
matrix            T  :::52::1:

         bits    2.3  **  *   
                 2.0  **  *   
                 1.8 ***  **  
                 1.6 ***  ** *
Relative         1.4 ***  ** *
Entropy          1.1 ***  ** *
(13.9 bits)      0.9 ***  ** *
                 0.7 **** ** *
                 0.5 *********
                 0.2 *********
                 0.0 ---------

Multilevel           GGGAGGGAG
consensus               TT  G 
sequence                      
                              
--------------------------------------------------------------------------------

--------------------------------------------------------------------------------
	Motif GGGWGGGRG MEME-6 sites sorted by position p-value
--------------------------------------------------------------------------------
Sequence name            Strand  Start   P-value              Site 
-------------            ------  ----- ---------            ---------
chr14:34682250-34682949      +     51  2.19e-06 CTTTTTTGTG GGGAGGGGG CGAATCTGAT
chr1:153650950-153651299     +      2  5.22e-06          T GGGAGGGAG GGTTCGGAGC
chr15:75054300-75054749      +     70  5.22e-06 cttacaggtt gggtgggag gtttaatgag
chr18:71509800-71510299      -      8  5.22e-06 TTAAACATTA GGGAGGGAG AGATTTG   
chr2:223843200-223843749     +     89  8.25e-06 actgtgaaga gggatgggg tct       
chr6:171042750-171043199     +     41  1.35e-05 atctgtgtgt gggtgggtg tgtctgtctg
chr19:28916200-28916699      +     11  1.77e-05 AACGCGAGAG GGGTTGGAG ATTTATCTGA
chr6:164129450-164129999     +     34  1.77e-05 CACGGAAGGA GGGATGGAG ACCTCACCCT
chr15:45402150-45402499      +     89  2.37e-05 AGTCCAGGTA GGGTGGGGA GAG       
chr5:14187700-14188249       +     19  2.37e-05 TGAGACTTAT GGGAGGGGA GGAAGGAATT
chr12:115912450-11591299     -     42  3.09e-05 TTGAACTTAA GGGAAGGGG TTAGGTGAGG
chr1:523900-524399           -     27  4.76e-05 CTCTTTCCTC GGGTCGGTG TTTCCCTCCT
chr3:65973950-65974299       +      4  5.06e-05        GGA GGGTGGAGG TCTCTCCTCA
chr11:102323700-10232414     +     45  1.00e-04 GAGTCCTGGG CGGTCGGAG CTTTCCCCTC
--------------------------------------------------------------------------------

--------------------------------------------------------------------------------
	Motif GGGWGGGRG MEME-6 block diagrams
--------------------------------------------------------------------------------
SEQUENCE NAME            POSITION P-VALUE  MOTIF DIAGRAM
-------------            ----------------  -------------
chr14:34682250-34682949           2.2e-06  50_[+6]_41
chr1:153650950-153651299          5.2e-06  1_[+6]_90
chr15:75054300-75054749           5.2e-06  69_[+6]_22
chr18:71509800-71510299           5.2e-06  7_[-6]_84
chr2:223843200-223843749          8.3e-06  88_[+6]_3
chr6:171042750-171043199          1.3e-05  40_[+6]_51
chr19:28916200-28916699           1.8e-05  10_[+6]_81
chr6:164129450-164129999          1.8e-05  33_[+6]_58
chr15:45402150-45402499           2.4e-05  88_[+6]_3
chr5:14187700-14188249            2.4e-05  18_[+6]_73
chr12:115912450-11591299          3.1e-05  41_[-6]_50
chr1:523900-524399                4.8e-05  26_[-6]_65
chr3:65973950-65974299            5.1e-05  3_[+6]_88
chr11:102323700-10232414           0.0001  44_[+6]_47
--------------------------------------------------------------------------------

--------------------------------------------------------------------------------
	Motif GGGWGGGRG MEME-6 in BLOCKS format
--------------------------------------------------------------------------------
BL   MOTIF GGGWGGGRG width=9 seqs=14
chr14:34682250-34682949  (   51) GGGAGGGGG  1 
chr1:153650950-153651299 (    2) GGGAGGGAG  1 
chr15:75054300-75054749  (   70) GGGTGGGAG  1 
chr18:71509800-71510299  (    8) GGGAGGGAG  1 
chr2:223843200-223843749 (   89) GGGATGGGG  1 
chr6:171042750-171043199 (   41) GGGTGGGTG  1 
chr19:28916200-28916699  (   11) GGGTTGGAG  1 
chr6:164129450-164129999 (   34) GGGATGGAG  1 
chr15:45402150-45402499  (   89) GGGTGGGGA  1 
chr5:14187700-14188249   (   19) GGGAGGGGA  1 
chr12:115912450-11591299 (   42) GGGAAGGGG  1 
chr1:523900-524399       (   27) GGGTCGGTG  1 
chr3:65973950-65974299   (    4) GGGTGGAGG  1 
chr11:102323700-10232414 (   45) CGGTCGGAG  1 
//

--------------------------------------------------------------------------------

--------------------------------------------------------------------------------
	Motif GGGWGGGRG MEME-6 position-specific scoring matrix
--------------------------------------------------------------------------------
log-odds matrix: alength= 4 w= 9 n= 5612 bayes= 9.2503 E= 1.5e+002 
 -1045   -155    215  -1045 
 -1045  -1045    225  -1045 
 -1045  -1045    225  -1045 
    78  -1045  -1045     78 
  -202    -55    144    -44 
 -1045  -1045    225  -1045 
  -202  -1045    215  -1045 
    56  -1045    103   -102 
  -102  -1045    203  -1045 
--------------------------------------------------------------------------------

--------------------------------------------------------------------------------
	Motif GGGWGGGRG MEME-6 position-specific probability matrix
--------------------------------------------------------------------------------
letter-probability matrix: alength= 4 w= 9 nsites= 14 E= 1.5e+002 
 0.000000  0.071429  0.928571  0.000000 
 0.000000  0.000000  1.000000  0.000000 
 0.000000  0.000000  1.000000  0.000000 
 0.500000  0.000000  0.000000  0.500000 
 0.071429  0.142857  0.571429  0.214286 
 0.000000  0.000000  1.000000  0.000000 
 0.071429  0.000000  0.928571  0.000000 
 0.428571  0.000000  0.428571  0.142857 
 0.142857  0.000000  0.857143  0.000000 
--------------------------------------------------------------------------------

--------------------------------------------------------------------------------
	Motif GGGWGGGRG MEME-6 regular expression
--------------------------------------------------------------------------------
GGG[AT][GT]GG[AG]G
--------------------------------------------------------------------------------




Time 11.33 secs.

********************************************************************************


********************************************************************************
MOTIF CCAGMHKVGSCATCHGVSVBDCCCAGGC MEME-7	width =  28  sites =   4  llr = 105  E-value = 5.9e+003
********************************************************************************
--------------------------------------------------------------------------------
	Motif CCAGMHKVGSCATCHGVSVBDCCCAGGC MEME-7 Description
--------------------------------------------------------------------------------
Simplified        A  3:a:53:33::8::3:3:3:3::3a3::
pos.-specific     C  8a::53:5:5a:3a5:5555:8a8:::8
probability       G  :::a::5385:3:::a353333:::8a:
matrix            T  :::::55:::::8:3::::35::::::3

         bits    2.3  * *      *  * *      *   * 
                 2.0  * *      *  * *      *   * 
                 1.8  ***      *  * *      * * * 
                 1.6  ***      *  * *      * * * 
Relative         1.4 ****    ***  * * *   *******
Entropy          1.1 ***** * ****** * *   *******
(38.0 bits)      0.9 ***** * ****** * *   *******
                 0.7 ***** ******** ***** *******
                 0.5 ****************************
                 0.2 ****************************
                 0.0 ----------------------------

Multilevel           CCAGATGCGCCATCCGCCCCTCCCAGGC
consensus            A   CATAAG GC A AGAGAG A A T
sequence                  C G      T G GTG       
                                                 
--------------------------------------------------------------------------------

--------------------------------------------------------------------------------
	Motif CCAGMHKVGSCATCHGVSVBDCCCAGGC MEME-7 sites sorted by position p-value
--------------------------------------------------------------------------------
Sequence name            Strand  Start   P-value                        Site          
-------------            ------  ----- ---------            ----------------------------
chr3:197391550-197391999     -     71  2.43e-13         TG CCAGCCTCACCACCCGCCACACCCAGGC ACGGACGCAC
chr6:473950-474699           -     26  3.17e-13 GCCACAGCTA ACAGCTTCGGCATCTGAGCTTCCCAGGC TCGGTCATGG
chr3:65973950-65974299       +     34  6.78e-13 TCACATCACT CCAGATGAGCCATCAGCGGCTGCAAGGC AAGATTTCTA
chr1:153650950-153651299     -     61  3.14e-12 AGGGAGTGTG CCAGAAGGGGCGTCCGGCCGGCCCAAGT CTCCGGCTAT
--------------------------------------------------------------------------------

--------------------------------------------------------------------------------
	Motif CCAGMHKVGSCATCHGVSVBDCCCAGGC MEME-7 block diagrams
--------------------------------------------------------------------------------
SEQUENCE NAME            POSITION P-VALUE  MOTIF DIAGRAM
-------------            ----------------  -------------
chr3:197391550-197391999          2.4e-13  70_[-7]_2
chr6:473950-474699                3.2e-13  25_[-7]_47
chr3:65973950-65974299            6.8e-13  33_[+7]_39
chr1:153650950-153651299          3.1e-12  60_[-7]_12
--------------------------------------------------------------------------------

--------------------------------------------------------------------------------
	Motif CCAGMHKVGSCATCHGVSVBDCCCAGGC MEME-7 in BLOCKS format
--------------------------------------------------------------------------------
BL   MOTIF CCAGMHKVGSCATCHGVSVBDCCCAGGC width=28 seqs=4
chr3:197391550-197391999 (   71) CCAGCCTCACCACCCGCCACACCCAGGC  1 
chr6:473950-474699       (   26) ACAGCTTCGGCATCTGAGCTTCCCAGGC  1 
chr3:65973950-65974299   (   34) CCAGATGAGCCATCAGCGGCTGCAAGGC  1 
chr1:153650950-153651299 (   61) CCAGAAGGGGCGTCCGGCCGGCCCAAGT  1 
//

--------------------------------------------------------------------------------

--------------------------------------------------------------------------------
	Motif CCAGMHKVGSCATCHGVSVBDCCCAGGC MEME-7 position-specific scoring matrix
--------------------------------------------------------------------------------
log-odds matrix: alength= 4 w= 28 n= 4453 bayes= 9.27023 E= 5.9e+003 
   -21    184   -865   -865 
  -865    225   -865   -865 
   178   -865   -865   -865 
  -865   -865    225   -865 
    78    125   -865   -865 
   -21     25   -865     78 
  -865   -865    125     78 
   -21    125     25   -865 
   -21   -865    184   -865 
  -865    125    125   -865 
  -865    225   -865   -865 
   137   -865     25   -865 
  -865     25   -865    137 
  -865    225   -865   -865 
   -21    125   -865    -21 
  -865   -865    225   -865 
   -21    125     25   -865 
  -865    125    125   -865 
   -21    125     25   -865 
  -865    125     25    -21 
   -21   -865     25     78 
  -865    184     25   -865 
  -865    225   -865   -865 
   -21    184   -865   -865 
   178   -865   -865   -865 
   -21   -865    184   -865 
  -865   -865    225   -865 
  -865    184   -865    -21 
--------------------------------------------------------------------------------

--------------------------------------------------------------------------------
	Motif CCAGMHKVGSCATCHGVSVBDCCCAGGC MEME-7 position-specific probability matrix
--------------------------------------------------------------------------------
letter-probability matrix: alength= 4 w= 28 nsites= 4 E= 5.9e+003 
 0.250000  0.750000  0.000000  0.000000 
 0.000000  1.000000  0.000000  0.000000 
 1.000000  0.000000  0.000000  0.000000 
 0.000000  0.000000  1.000000  0.000000 
 0.500000  0.500000  0.000000  0.000000 
 0.250000  0.250000  0.000000  0.500000 
 0.000000  0.000000  0.500000  0.500000 
 0.250000  0.500000  0.250000  0.000000 
 0.250000  0.000000  0.750000  0.000000 
 0.000000  0.500000  0.500000  0.000000 
 0.000000  1.000000  0.000000  0.000000 
 0.750000  0.000000  0.250000  0.000000 
 0.000000  0.250000  0.000000  0.750000 
 0.000000  1.000000  0.000000  0.000000 
 0.250000  0.500000  0.000000  0.250000 
 0.000000  0.000000  1.000000  0.000000 
 0.250000  0.500000  0.250000  0.000000 
 0.000000  0.500000  0.500000  0.000000 
 0.250000  0.500000  0.250000  0.000000 
 0.000000  0.500000  0.250000  0.250000 
 0.250000  0.000000  0.250000  0.500000 
 0.000000  0.750000  0.250000  0.000000 
 0.000000  1.000000  0.000000  0.000000 
 0.250000  0.750000  0.000000  0.000000 
 1.000000  0.000000  0.000000  0.000000 
 0.250000  0.000000  0.750000  0.000000 
 0.000000  0.000000  1.000000  0.000000 
 0.000000  0.750000  0.000000  0.250000 
--------------------------------------------------------------------------------

--------------------------------------------------------------------------------
	Motif CCAGMHKVGSCATCHGVSVBDCCCAGGC MEME-7 regular expression
--------------------------------------------------------------------------------
[CA]CAG[AC][TAC][GT][CAG][GA][CG]C[AG][TC]C[CAT]G[CAG][CG][CAG][CGT][TAG][CG]C[CA]A[GA]G[CT]
--------------------------------------------------------------------------------




Time 12.96 secs.

********************************************************************************


********************************************************************************
SUMMARY OF MOTIFS
********************************************************************************

--------------------------------------------------------------------------------
	Combined block diagrams: non-overlapping sites with p-value < 0.0001
--------------------------------------------------------------------------------
SEQUENCE NAME            COMBINED P-VALUE  MOTIF DIAGRAM
-------------            ----------------  -------------
chr11:102323700-10232414         2.52e-04  14_[+6(5.89e-05)]_21_[+6(1.00e-04)]_\
    21_[+5(4.11e-07)]_5
chr6:473950-474699               3.00e-08  25_[-7(3.17e-13)]_47
chr5:14187700-14188249           2.97e-01  18_[+6(2.37e-05)]_73
chr14:51331750-51332699          3.45e-03  4_[-5(2.13e-07)]_75
chr3:133718450-133718949         3.87e-06  3_[+5(1.48e-06)]_15_[-4(9.57e-05)]_\
    46
chr3:42538300-42538749           9.40e-01  100
chr3:197391550-197391999         6.11e-14  7_[-4(6.68e-08)]_30_[-4(9.16e-08)]_\
    3_[-7(2.43e-13)]_2
chr3:100314500-100315199         3.64e-26  3_[+2(1.55e-13)]_[-1(4.40e-16)]_2_\
    [+3(2.02e-11)]_16
chr5:42620500-42620999           4.60e-01  100
chr6:164129450-164129999         1.24e-05  33_[+6(1.77e-05)]_24_[-3(1.32e-06)]_\
    4
chr4:131057400-131058299         3.98e-13  11_[-2(9.86e-13)]_3_[+3(2.04e-09)]_\
    34
chr9:136608600-136609099         1.75e-11  18_[-1(6.56e-11)]_17_[+3(1.04e-08)]_\
    8
chr13:111252450-11125309         3.35e-10  5_[+4(2.15e-07)]_11_[+3(3.83e-11)]_\
    39
chr3:30367300-30367849           1.11e-01  100
chr5:53039550-53040149           3.17e-26  18_[+1(4.40e-16)]_[-2(4.93e-13)]_2_\
    [+3(1.35e-11)]_1
chr2:223843200-223843749         6.50e-04  27_[+3(7.47e-06)]_31_[+6(8.25e-06)]_\
    3
chr4:24861800-24862399           1.85e-03  64_[+5(3.71e-08)]_15
chrX:143455700-143456199         1.32e-05  31_[-1(7.43e-11)]_42
chr14:34682250-34682949          2.46e-03  50_[+6(2.19e-06)]_41
chr9:77463250-77463649           9.18e-04  69_[+5(4.24e-08)]_10
chr16:78330900-78331399          9.81e-04  8_[+3(6.31e-08)]_62
chrX:142490150-142490549         9.16e-01  100
chr1:523900-524399               5.54e-12  [+4(6.28e-05)]_11_[-6(4.76e-05)]_20_\
    [+5(4.83e-08)]_3_[+4(1.03e-09)]_6
chr9:22124600-22125049           8.68e-01  100
chr13:100629600-10063024         4.25e-02  15_[-5(7.33e-07)]_64
chr21:23055400-23055999          8.46e-01  100
chr9:93712750-93713449           1.66e-04  28_[+4(1.29e-06)]_57
chr13:76836050-76836549          6.43e-04  61_[+5(1.73e-07)]_18
chr5:38533650-38534099           1.50e-04  51_[+4(4.61e-07)]_34
chr2:138011550-138012149         6.51e-01  100
chr12:124723400-12472389         5.59e-01  100
chr7:117565150-117565649         1.83e-20  4_[+5(4.59e-10)]_16_[-3(2.61e-11)]_\
    2_[+1(1.34e-14)]
chr6:171042750-171043199         7.00e-11  4_[-4(9.89e-06)]_21_[+6(1.35e-05)]_\
    7_[-4(1.03e-09)]_3_[-5(4.83e-08)]_5
chr2:142015050-142015599         1.10e-01  26_[+5(9.87e-07)]_53
chr11:86289250-86289799          9.68e-02  100
chr18:71509800-71510299          8.76e-02  7_[-6(5.22e-06)]_84
chr19:24065200-24065649          6.76e-04  9_[+4(2.29e-07)]_17_[-7(5.30e-05)]_\
    31
chr15:40377300-40377849          2.15e-04  39_[+5(3.06e-06)]_40
chr17:78725650-78726099          8.99e-02  100
chr19:28916200-28916699          6.69e-05  10_[+6(1.77e-05)]_16_[+3(1.26e-07)]_\
    35
chr15:75054300-75054749          9.17e-03  69_[+6(5.22e-06)]_22
chr6:67444900-67445299           2.14e-01  100
chr2:5504450-5505199             7.94e-01  100
chr2:43826650-43827199           2.00e-11  25_[+5(1.19e-09)]_12_[-3(3.83e-11)]_\
    12
chr1:153650950-153651299         2.75e-12  1_[+6(5.22e-06)]_19_[-5(1.22e-06)]_\
    10_[-7(3.14e-12)]_12
chr6:16832050-16832599           3.19e-06  56_[+2(2.92e-10)]_22
chr12:77073250-77074049          7.91e-01  100
chr10:9391250-9391649            1.30e-01  100
chr6:99195700-99196049           8.55e-02  100
chr6:26257300-26257949           5.73e-03  22_[-4(1.81e-07)]_63
chr14:63545150-63545699          5.52e-08  20_[+4(7.29e-07)]_23_[+1(6.56e-11)]_\
    15
chr6:10317300-10318049           3.04e-01  100
chr12:114182450-11418309         1.98e-01  100
chr17:78690100-78690649          4.31e-25  8_[-3(7.95e-11)]_3_[+2(9.86e-13)]_\
    [-1(4.40e-16)]_10
chr18:32629450-32630099          6.20e-02  78_[-5(2.77e-06)]_1
chr6:44826100-44826549           8.20e-01  100
chr3:65973950-65974299           3.16e-08  3_[+6(5.06e-05)]_21_[+7(6.78e-13)]_\
    39
chr7:128073600-128073849         2.22e-01  100
chr12:115912450-11591299         2.18e-02  41_[-6(3.09e-05)]_50
chr6:16992350-16992899           6.95e-01  100
chr15:45402150-45402499          3.29e-01  88_[+6(2.37e-05)]_3
--------------------------------------------------------------------------------

********************************************************************************


********************************************************************************
Stopped because requested number of motifs (7) found.
********************************************************************************

CPU: Sudins-iMac.local

********************************************************************************
