#Query ID	Target ID	Optimal offset	p-value	E-value	q-value	Overlap	Query consensus	Target consensus	Orientation
DCACGC	MA0938.1	0	5.4786e-05	0.0769196	0.152562	6	GCACGC	ACACGCAA	+
DCACGC	MA0006.1	-1	0.000364437	0.51167	0.398361	5	GCACGC	CACGCA	-
DCACGC	MA0939.1	0	0.000429162	0.602543	0.398361	6	GCACGC	ACACGCAA	+
RYAAAYA	MA0446.1	4	1.32445e-06	0.00185953	0.0036925	7	GCAAACA	TTAAGCAAACA	-
RYAAAYA	MA0847.1	0	1.60314e-05	0.0225081	0.0133053	7	GCAAACA	GTAAACA	+
RYAAAYA	MA0546.1	3	1.64413e-05	0.0230836	0.0133053	7	GCAAACA	AAAGTAAACA	+
RYAAAYA	MA0033.2	0	1.90898e-05	0.0268021	0.0133053	7	GCAAACA	GTAAACA	+
RYAAAYA	MA0850.1	0	3.09626e-05	0.0434715	0.0172644	7	GCAAACA	GTAAACA	+
RYAAAYA	MA0848.1	0	0.000115151	0.161672	0.0410308	7	GCAAACA	GTAAACA	+
RYAAAYA	MA0614.1	0	0.000125317	0.175945	0.0410308	7	GCAAACA	GTAAACAA	+
RYAAAYA	MA0846.1	3	0.000135491	0.19023	0.0410308	7	GCAAACA	TAAGTAAACAAA	+
RYAAAYA	MA0042.2	0	0.000158406	0.222402	0.0410308	7	GCAAACA	GTAAACA	+
RYAAAYA	MA0041.1	2	0.000159158	0.223457	0.0410308	7	GCAAACA	AAACAAACATTC	-
RYAAAYA	MA0613.1	0	0.00016189	0.227293	0.0410308	7	GCAAACA	GTAAACAA	+
RYAAAYA	MA0920.1	0	0.000183022	0.256962	0.0412974	7	GCAAACA	GTAAACAA	+
RYAAAYA	MA0849.1	0	0.000192567	0.270364	0.0412974	7	GCAAACA	GTAAACA	+
RYAAAYA	MA0297.1	0	0.000211347	0.296731	0.0420873	7	GCAAACA	GTAAACA	+
RYAAAYA	MA0032.2	3	0.000313263	0.439821	0.0582238	7	GCAAACA	TATGTAAATAT	+
RYAAAYA	MA0148.3	4	0.00049424	0.693913	0.0850267	7	GCAAACA	CAAAGTAAACATGGA	-
RYAAAYA	MA0851.1	5	0.000527332	0.740374	0.0850267	7	GCAAACA	AAAAAGTAAACAAACAC	+
RYAAAYA	MA0047.2	5	0.000548965	0.770746	0.0850267	7	GCAAACA	CCTAAGTAAACA	-
RYAAAYA	MA0031.1	0	0.000593723	0.833587	0.0855466	7	GCAAACA	GTAAACAT	+
RYAAAYA	MA1103.1	2	0.000641836	0.901137	0.0855466	7	GCAAACA	ATGTAAACAAG	+
RYAAAYA	MA0157.2	0	0.000644375	0.904702	0.0855466	7	GCAAACA	GTAAACAA	+
RYAAAYA	MA0929.1	3	0.000690707	0.969752	0.0875295	7	GCAAACA	ATTGTAAACAAA	+
RTGAGTCA	MA1130.1	2	1.92715e-06	0.00270572	0.00179917	8	ATGAGTCA	GGATGAGTCATC	+
RTGAGTCA	MA1141.1	2	2.31258e-06	0.00324686	0.00179917	8	ATGAGTCA	GGATGAGTCATCG	+
RTGAGTCA	MA0655.1	0	2.84325e-06	0.00399193	0.00179917	8	ATGAGTCA	ATGAGTCAT	-
RTGAGTCA	MA0099.3	0	3.25368e-06	0.00456817	0.00179917	8	ATGAGTCA	ATGAGTCATC	+
RTGAGTCA	MA1144.1	0	3.25368e-06	0.00456817	0.00179917	8	ATGAGTCA	ATGAGTCATC	-
RTGAGTCA	MA1128.1	2	4.83027e-06	0.00678171	0.0018892	8	ATGAGTCA	GGATGAGTCATCA	-
RTGAGTCA	MA1134.1	1	5.4228e-06	0.00761361	0.0018892	8	ATGAGTCA	GATGAGTCATCC	+
RTGAGTCA	MA1138.1	0	5.46638e-06	0.0076748	0.0018892	8	ATGAGTCA	ATGAGTCATC	-
RTGAGTCA	MA1135.1	0	6.9114e-06	0.00970361	0.00201514	8	ATGAGTCA	ATGAGTCATC	-
RTGAGTCA	MA0841.1	1	7.28851e-06	0.0102331	0.00201514	8	ATGAGTCA	GATGAGTCATG	-
RTGAGTCA	MA1142.1	0	1.22214e-05	0.0171589	0.00307183	8	ATGAGTCA	ATGAGTCATC	-
RTGAGTCA	MA1137.1	2	1.38228e-05	0.0194071	0.00318479	8	ATGAGTCA	GTATGAGTCATCA	-
RTGAGTCA	MA1132.1	0	1.56155e-05	0.0219242	0.00332109	8	ATGAGTCA	ATGAGTCATC	-
RTGAGTCA	MA0491.1	1	2.58852e-05	0.0363428	0.005112	8	ATGAGTCA	GATGAGTCACC	-
RTGAGTCA	MA0476.1	1	3.21918e-05	0.0451973	0.00557333	8	ATGAGTCA	AATGAGTCACA	-
RTGAGTCA	MA0303.1	6	3.22528e-05	0.0452829	0.00557333	8	ATGAGTCA	CAAGGGATGAGTCATACTTCA	+
RTGAGTCA	MA0580.1	1	5.6335e-05	0.0790944	0.00916214	8	ATGAGTCA	CGTGAGTCACGTGA	+
RTGAGTCA	MA0489.1	0	6.85926e-05	0.096304	0.0105359	8	ATGAGTCA	ATGAGTCATCTCCT	-
RTGAGTCA	MA0490.1	2	8.13148e-05	0.114166	0.0112411	8	ATGAGTCA	GGATGACTCAT	+
RTGAGTCA	MA0478.1	0	8.13148e-05	0.114166	0.0112411	8	ATGAGTCA	ATGAGTCATCC	-
RTGAGTCA	MA0477.1	1	9.1055e-05	0.127841	0.0119881	8	ATGAGTCA	CATGAGTCACC	-
RTGAGTCA	MA0462.1	3	0.000160275	0.225026	0.014771	8	ATGAGTCA	GAAATGACTCA	+
RTGAGTCA	MA0272.1	-1	0.000392829	0.551533	0.0295483	7	ATGAGTCA	AGAGTCAC	-
RTGAGTCA	MA0501.1	0	0.000706925	0.992523	0.045454	8	ATGAGTCA	ATGACTCAGCAATTT	+
RTGAGTCA	MA0591.1	3	0.000706925	0.992523	0.045454	8	ATGAGTCA	AGGATGACTCAGCAC	+
GGARR	MA0471.1	5	1.86673e-05	0.0262089	0.0524177	5	GGAGA	GGGCGGGAAGG	+
GGARR	MA0470.1	5	0.000141505	0.198673	0.198673	5	GGAGA	GGGCGGGAAGG	+
CGTGH	MA0603.1	5	0.000139923	0.196452	0.202858	5	CGTGA	GGTCACGTGC	+
CGTGH	MA1011.1	4	0.000415774	0.583747	0.202858	5	CGTGA	GTCACGTGAC	+
CGTGH	MA0964.1	3	0.000524201	0.735978	0.202858	5	CGTGA	GCACGTGACC	+
CGTGH	MA0464.2	4	0.000524201	0.735978	0.202858	5	CGTGA	GTCACGTGAT	-
CGTGH	MA1362.1	9	0.000599656	0.841917	0.202858	5	CGTGA	GAGAGGTCACGTGCG	+
CGTGH	MA0664.1	4	0.000666503	0.93577	0.202858	5	CGTGA	ATCACGTGAT	-
