prim_db	prim_id	prim_alt	prim_cons	sec_db	sec_id	sec_alt	sec_cons	trim_left	trim_right	red_db	red_id	red_alt	E-value	gap	orient	count	total	adj_p-value	p-value
dreme.xml	GAKAA	DREME-4	GAKAA	meme.xml	TCCAGCCTGGGTSACAGAGYRASAYYCC	MEME-4	TCCAGCCTGGGTSACAGAGYRASAYYCC	0	0	.	.	.	4.43e-02	54	2	4	18	5.67e-09	5.10e-08
dreme.xml	GAKAA	DREME-4	GAKAA	meme.xml	TCCAGCCTGGGTSACAGAGYRASAYYCC	MEME-4	TCCAGCCTGGGTSACAGAGYRASAYYCC	0	0	.	.	.	4.43e-02	54	6	4	18	8.87e-08	7.98e-07
dreme.xml	GAKAA	DREME-4	GAKAA	meme.xml	TCCAGCCTGGGTSACAGAGYRASAYYCC	MEME-4	TCCAGCCTGGGTSACAGAGYRASAYYCC	0	0	.	.	.	4.43e-02	54	7	4	18	8.87e-08	7.98e-07
dreme.xml	GAKAA	DREME-4	GAKAA	meme.xml	TCCAGCCTGGGTSACAGAGYRASAYYCC	MEME-4	TCCAGCCTGGGTSACAGAGYRASAYYCC	0	0	.	.	.	4.43e-02	54	8	4	18	1.36e-06	1.22e-05
dreme.xml	GAKAA	DREME-4	GAKAA	HOCOMOCOv11_full_HUMAN_mono_meme_format	ZN121_HUMAN.H11MO.0.C	.	CTGGGCAACABAGYRAGACC	0	0	.	.	.	1.38e-01	60	2	5	62	1.66e-08	1.50e-07
dreme.xml	GAKAA	DREME-4	GAKAA	HOCOMOCOv11_full_HUMAN_mono_meme_format	ZN121_HUMAN.H11MO.0.C	.	CTGGGCAACABAGYRAGACC	0	0	.	.	.	1.38e-01	60	6	5	62	4.86e-07	4.37e-06
dreme.xml	GAKAA	DREME-4	GAKAA	HOCOMOCOv11_full_HUMAN_mono_meme_format	ZN121_HUMAN.H11MO.0.C	.	CTGGGCAACABAGYRAGACC	0	0	.	.	.	1.38e-01	60	7	5	62	4.86e-07	4.37e-06
dreme.xml	GAKAA	DREME-4	GAKAA	HOCOMOCOv11_full_HUMAN_mono_meme_format	ZN121_HUMAN.H11MO.0.C	.	CTGGGCAACABAGYRAGACC	0	0	.	.	.	1.38e-01	81	0	4	62	7.53e-07	6.77e-06
dreme.xml	GAKAA	DREME-4	GAKAA	HOCOMOCOv11_full_HUMAN_mono_meme_format	ZN121_HUMAN.H11MO.0.C	.	CTGGGCAACABAGYRAGACC	0	0	.	.	.	1.38e-01	63	8	6	62	9.37e-07	8.43e-06
dreme.xml	GAKAA	DREME-4	GAKAA	HOCOMOCOv11_full_HUMAN_mono_meme_format	ZBT18_HUMAN.H11MO.0.C	.	KCCAGMTGTKB	0	1	.	.	.	1.18e+00	51	0	8	422	1.32e-07	1.19e-06
dreme.xml	GAKAA	DREME-4	GAKAA	HOCOMOCOv11_full_HUMAN_mono_meme_format	ZBT18_HUMAN.H11MO.0.C	.	KCCAGMTGTKB	0	1	.	.	.	1.18e+00	51	4	9	422	2.85e-06	2.57e-05
dreme.xml	GAKAA	DREME-4	GAKAA	HOCOMOCOv11_full_HUMAN_mono_meme_format	TBX21_HUMAN.H11MO.0.A	.	GDGDRGGTGTGRV	2	1	.	.	.	2.40e+00	3	0	10	800	2.69e-07	2.42e-06
dreme.xml	GAKAA	DREME-4	GAKAA	HOCOMOCOv11_full_HUMAN_mono_meme_format	TBX21_HUMAN.H11MO.0.A	.	GDGDRGGTGTGRV	2	1	.	.	.	2.40e+00	3	8	18	800	2.86e-06	2.57e-05
dreme.xml	GAKAA	DREME-4	GAKAA	HOCOMOCOv11_full_HUMAN_mono_meme_format	TBX21_HUMAN.H11MO.0.A	.	GDGDRGGTGTGRV	2	1	.	.	.	2.40e+00	3	4	12	800	4.48e-06	4.03e-05
dreme.xml	GAKAA	DREME-4	GAKAA	HOCOMOCOv11_full_HUMAN_mono_meme_format	ZN770_HUMAN.H11MO.1.C	.	DGGAGGCYGRG	1	0	HOCOMOCOv11_full_HUMAN_mono_meme_format	TBX21_HUMAN.H11MO.0.A	.	8.66e+00	4	0	6	261	9.72e-07	8.75e-06
dreme.xml	GAKAA	DREME-4	GAKAA	HOCOMOCOv11_full_HUMAN_mono_meme_format	SP4_HUMAN.H11MO.0.A	.	SRGVARGRGGCGGRGCHDRR	2	1	.	.	.	2.65e+00	0	0	9	604	3.13e-07	2.81e-06
dreme.xml	GAKAA	DREME-4	GAKAA	HOCOMOCOv11_full_HUMAN_mono_meme_format	PAX5_HUMAN.H11MO.0.A	.	SCSKGGGCARCVRAGCGWGAC	0	0	.	.	.	3.29e+00	58	2	6	206	3.99e-07	3.59e-06
dreme.xml	GAKAA	DREME-4	GAKAA	HOCOMOCOv11_full_HUMAN_mono_meme_format	E2F6_HUMAN.H11MO.0.A	.	DGGGCGGGARRVR	1	2	.	.	.	4.47e+00	71	0	8	506	5.01e-07	4.51e-06
dreme.xml	GAKAA	DREME-4	GAKAA	HOCOMOCOv11_full_HUMAN_mono_meme_format	KLF1_HUMAN.H11MO.0.A	.	DGGGYGKGGCYGGG	0	0	.	.	.	5.01e+00	103	4	9	335	5.77e-07	5.20e-06
dreme.xml	GAKAA	DREME-4	GAKAA	HOCOMOCOv11_full_HUMAN_mono_meme_format	KLF5_HUMAN.H11MO.0.A	.	WGGGTGKGGCDGGG	0	2	.	.	.	5.03e+00	21	5	11	532	5.72e-07	5.15e-06
dreme.xml	GAKAA	DREME-4	GAKAA	HOCOMOCOv11_full_HUMAN_mono_meme_format	NKX31_HUMAN.H11MO.0.C	.	NTWAAGTGBTTD	1	1	.	.	.	5.41e+00	129	5	10	441	6.06e-07	5.46e-06
dreme.xml	GAKAA	DREME-4	GAKAA	HOCOMOCOv11_full_HUMAN_mono_meme_format	EOMES_HUMAN.H11MO.0.D	.	RRGAGGTGWKAA	1	0	.	.	.	6.07e+00	2	0	7	373	6.85e-07	6.17e-06
dreme.xml	GAKAA	DREME-4	GAKAA	HOCOMOCOv11_full_HUMAN_mono_meme_format	ZN708_HUMAN.H11MO.1.D	.	AGGYACAGC	0	0	.	.	.	6.64e+00	42	4	9	358	7.39e-07	6.65e-06
##
# Detailed descriptions of columns in this file:
#
# prim_db:	The name of the database (file name) that contains the primary motif.
# prim_id:	A name for the primary motif that is unique in the motif database file.
# prim_alt:	An alternate name of the primary motif that may be provided
#		in the motif database file.
# prim_cons:	A consensus sequence computed from the primary motif (see doc/motif-consensus.html).
# sec_db:	The name of the database (file name) that contains the secondary motif.
# sec_id:	A name for the motif that is unique in the motif database file.
# sec_alt:	An alternate name of the secondary motif that may be provided
#		in the motif database file.
# sec_cons:	A consensus sequence computed from the secondary motif (see doc/motif-consensus.html).
# trim_left:	Number of positions trimmed from left of secondary motif
# trim_right:	Number of positions trimmed from right of secondary motif
# If the next three fields are not blank, the motif is redundant with a more significant ('parent') motif.
# red_db:	The database (file name) that contains the parent motif.
# red_id:	A name for the parent motif that is unique in the motif database file.
# red_alt:	An alternate name of the parent motif that may be provided
#		in the motif database file.
# E-value:	The expected number motifs that would have least one
#		spacing as enriched as the best spacing for this secondary.
#		The E-value is the best spacing p-value multiplied by the number of motifs in the
#		input database(s).
# gap:		The distance between the edge of the primary and the (trimmed) secondary motif.
# orient:	The (combination) of quadrants for which occurrences
#		of this spacing are combined.
# count:	The number of occurrences of the secondary motif with the
#		given spacing and orientation to the primary motif.
# total:	The total number of occurrences of the secondary motif within the
#		margins around the best primary motif occurrence.
# adj_p-value:	The p-value of the gap and orientation, adjusted for
#		nine combinations of quadrants times the number of gaps tested
#		(as controlled by the -range switch).
# p-value:	The p-value of the gap and orientation adjusted only for the number of gaps tested.
