# motif_id	motif_alt_id	sequence_name	start	stop	strand	score	p-value	q-value	matched_sequence
TGACTCAB	DREME-3	chr5	1516488	1516495	+	14.4878	1.5e-05	0.21	TGACTCAC
TGACTCAB	DREME-3	chr4	2331974	2331981	-	14.4878	1.5e-05	0.21	TGACTCAC
TGACTCAB	DREME-3	chr10	3137707	3137714	-	14.4878	1.5e-05	0.21	TGACTCAC
TGACTCAB	DREME-3	chr10	3137793	3137800	-	14.4878	1.5e-05	0.21	TGACTCAC
TGACTCAB	DREME-3	chr7	3284207	3284214	-	14.4878	1.5e-05	0.21	TGACTCAC
TGACTCAB	DREME-3	chr4	5367516	5367523	-	14.4878	1.5e-05	0.21	TGACTCAC
TGACTCAB	DREME-3	chr6	8083746	8083753	-	14.4878	1.5e-05	0.21	TGACTCAC
TGACTCAB	DREME-3	chr11	8358041	8358048	+	14.4878	1.5e-05	0.21	TGACTCAC
TGACTCAB	DREME-3	chr1	9173204	9173211	-	14.4878	1.5e-05	0.21	TGACTCAC
TGACTCAB	DREME-3	chr6	9400332	9400339	+	14.4878	1.5e-05	0.21	TGACTCAC
TGACTCAB	DREME-3	chr11	9587700	9587707	+	14.4878	1.5e-05	0.21	TGACTCAC
TGACTCAB	DREME-3	chr11	9587820	9587827	+	14.4878	1.5e-05	0.21	TGACTCAC
TGACTCAB	DREME-3	chr5	9712801	9712808	-	14.4878	1.5e-05	0.21	TGACTCAC
TGACTCAB	DREME-3	chr2	11638689	11638696	-	14.4878	1.5e-05	0.21	TGACTCAC
TGACTCAB	DREME-3	chr7	12584435	12584442	-	14.4878	1.5e-05	0.21	TGACTCAC
TGACTCAB	DREME-3	chr8	12973910	12973917	+	14.4878	1.5e-05	0.21	TGACTCAC
TGACTCAB	DREME-3	chr5	14570261	14570268	+	14.4878	1.5e-05	0.21	TGACTCAC
TGACTCAB	DREME-3	chr6	14744380	14744387	+	14.4878	1.5e-05	0.21	TGACTCAC
TGACTCAB	DREME-3	chr6	16849963	16849970	+	14.4878	1.5e-05	0.21	TGACTCAC
TGACTCAB	DREME-3	chr1	17577257	17577264	+	14.4878	1.5e-05	0.21	TGACTCAC
TGACTCAB	DREME-3	chr20	19894998	19895005	+	14.4878	1.5e-05	0.21	TGACTCAC
TGACTCAB	DREME-3	chr10	21480671	21480678	-	14.4878	1.5e-05	0.21	TGACTCAC
TGACTCAB	DREME-3	chr10	24907425	24907432	-	14.4878	1.5e-05	0.21	TGACTCAC
TGACTCAB	DREME-3	chr13	25085840	25085847	-	14.4878	1.5e-05	0.21	TGACTCAC
TGACTCAB	DREME-3	chr13	25086404	25086411	+	14.4878	1.5e-05	0.21	TGACTCAC
TGACTCAB	DREME-3	chr13	26596962	26596969	+	14.4878	1.5e-05	0.21	TGACTCAC
TGACTCAB	DREME-3	chr3	27575366	27575373	+	14.4878	1.5e-05	0.21	TGACTCAC
TGACTCAB	DREME-3	chr3	27575628	27575635	-	14.4878	1.5e-05	0.21	TGACTCAC
TGACTCAB	DREME-3	chr3	27575667	27575674	-	14.4878	1.5e-05	0.21	TGACTCAC
TGACTCAB	DREME-3	chr2	28498991	28498998	+	14.4878	1.5e-05	0.21	TGACTCAC
TGACTCAB	DREME-3	chr2	28499173	28499180	-	14.4878	1.5e-05	0.21	TGACTCAC
TGACTCAB	DREME-3	chr19	28916554	28916561	-	14.4878	1.5e-05	0.21	TGACTCAC
TGACTCAB	DREME-3	chr10	29948062	29948069	+	14.4878	1.5e-05	0.21	TGACTCAC
TGACTCAB	DREME-3	chr7	30388112	30388119	+	14.4878	1.5e-05	0.21	tgactcac
TGACTCAB	DREME-3	chr18	32559298	32559305	-	14.4878	1.5e-05	0.21	TGACTCAC
TGACTCAB	DREME-3	chr9	32701807	32701814	+	14.4878	1.5e-05	0.21	tgactcac
TGACTCAB	DREME-3	chr20	33113751	33113758	-	14.4878	1.5e-05	0.21	TGACTCAC
TGACTCAB	DREME-3	chr13	33694250	33694257	+	14.4878	1.5e-05	0.21	TGACTCAC
TGACTCAB	DREME-3	chr5	34585792	34585799	-	14.4878	1.5e-05	0.21	TGACTCAC
TGACTCAB	DREME-3	chr13	34729874	34729881	+	14.4878	1.5e-05	0.21	TGACTCAC
TGACTCAB	DREME-3	chr14	34837536	34837543	-	14.4878	1.5e-05	0.21	TGACTCAC
TGACTCAB	DREME-3	chr13	35503062	35503069	+	14.4878	1.5e-05	0.21	TGACTCAC
TGACTCAB	DREME-3	chr22	35615157	35615164	+	14.4878	1.5e-05	0.21	tgactcac
TGACTCAB	DREME-3	chr6	36992569	36992576	-	14.4878	1.5e-05	0.21	TGACTCAC
TGACTCAB	DREME-3	chr3	39194316	39194323	+	14.4878	1.5e-05	0.21	TGACTCAC
TGACTCAB	DREME-3	chr3	39194399	39194406	+	14.4878	1.5e-05	0.21	TGACTCAC
TGACTCAB	DREME-3	chr17	39560339	39560346	+	14.4878	1.5e-05	0.21	tgactcac
TGACTCAB	DREME-3	chr17	39560381	39560388	+	14.4878	1.5e-05	0.21	tgactcac
TGACTCAB	DREME-3	chr19	42278612	42278619	+	14.4878	1.5e-05	0.21	TGACTCAC
TGACTCAB	DREME-3	chr21	43204238	43204245	+	14.4878	1.5e-05	0.21	TGACTCAC
TGACTCAB	DREME-3	chr2	43861983	43861990	+	14.4878	1.5e-05	0.21	TGACTCAC
TGACTCAB	DREME-3	chr21	46172983	46172990	-	14.4878	1.5e-05	0.21	TGACTCAC
TGACTCAB	DREME-3	chr19	46696560	46696567	-	14.4878	1.5e-05	0.21	TGACTCAC
TGACTCAB	DREME-3	chr6	47012279	47012286	+	14.4878	1.5e-05	0.21	TGACTCAC
TGACTCAB	DREME-3	chr20	47314417	47314424	-	14.4878	1.5e-05	0.21	TGACTCAC
TGACTCAB	DREME-3	chr19	47429021	47429028	-	14.4878	1.5e-05	0.21	TGACTCAC
TGACTCAB	DREME-3	chr6	47666192	47666199	+	14.4878	1.5e-05	0.21	TGACTCAC
TGACTCAB	DREME-3	chr22	47733048	47733055	-	14.4878	1.5e-05	0.21	TGACTCAC
TGACTCAB	DREME-3	chr12	48297845	48297852	+	14.4878	1.5e-05	0.21	TGACTCAC
TGACTCAB	DREME-3	chr20	49287232	49287239	-	14.4878	1.5e-05	0.21	TGACTCAC
TGACTCAB	DREME-3	chr19	49378692	49378699	-	14.4878	1.5e-05	0.21	TGACTCAC
TGACTCAB	DREME-3	chr20	49379221	49379228	-	14.4878	1.5e-05	0.21	TGACTCAC
TGACTCAB	DREME-3	chr20	50359474	50359481	-	14.4878	1.5e-05	0.21	TGACTCAC
TGACTCAB	DREME-3	chr16	50431310	50431317	-	14.4878	1.5e-05	0.21	TGACTCAC
TGACTCAB	DREME-3	chr22	50466368	50466375	+	14.4878	1.5e-05	0.21	TGACTCAC
TGACTCAB	DREME-3	chr20	52523130	52523137	-	14.4878	1.5e-05	0.21	TGACTCAC
TGACTCAB	DREME-3	chr13	53384330	53384337	-	14.4878	1.5e-05	0.21	TGACTCAC
TGACTCAB	DREME-3	chr12	54753424	54753431	+	14.4878	1.5e-05	0.21	tgaCTCAC
TGACTCAB	DREME-3	chr17	57864032	57864039	-	14.4878	1.5e-05	0.21	TGACTCAC
TGACTCAB	DREME-3	chr17	57923424	57923431	-	14.4878	1.5e-05	0.21	TGACTCAC
TGACTCAB	DREME-3	chr20	58707663	58707670	-	14.4878	1.5e-05	0.21	TGACTCAC
TGACTCAB	DREME-3	chr11	60144221	60144228	-	14.4878	1.5e-05	0.21	TGACTCAC
TGACTCAB	DREME-3	chr11	65149948	65149955	+	14.4878	1.5e-05	0.21	TGACTCAC
TGACTCAB	DREME-3	chr11	65150008	65150015	-	14.4878	1.5e-05	0.21	TGACTCAC
TGACTCAB	DREME-3	chr8	67036266	67036273	+	14.4878	1.5e-05	0.21	tgactcac
TGACTCAB	DREME-3	chr17	70395246	70395253	-	14.4878	1.5e-05	0.21	TGACTCAC
TGACTCAB	DREME-3	chr17	70396297	70396304	+	14.4878	1.5e-05	0.21	tgactcac
TGACTCAB	DREME-3	chr11	71136984	71136991	+	14.4878	1.5e-05	0.21	tgactcac
TGACTCAB	DREME-3	chr2	71347728	71347735	-	14.4878	1.5e-05	0.21	TGACTCAC
TGACTCAB	DREME-3	chr3	72031919	72031926	+	14.4878	1.5e-05	0.21	tgactcac
TGACTCAB	DREME-3	chr18	72895697	72895704	-	14.4878	1.5e-05	0.21	TGACTCAC
TGACTCAB	DREME-3	chr8	73687820	73687827	+	14.4878	1.5e-05	0.21	TGACTCAC
TGACTCAB	DREME-3	chr14	74223303	74223310	-	14.4878	1.5e-05	0.21	TGACTCAC
TGACTCAB	DREME-3	chr8	74332260	74332267	-	14.4878	1.5e-05	0.21	TGACTCAC
TGACTCAB	DREME-3	chr15	74492928	74492935	+	14.4878	1.5e-05	0.21	TGACTCAC
TGACTCAB	DREME-3	chr7	75735609	75735616	-	14.4878	1.5e-05	0.21	TGACTCAC
TGACTCAB	DREME-3	chr12	76371831	76371838	+	14.4878	1.5e-05	0.21	TGACTCAC
TGACTCAB	DREME-3	chr5	77995435	77995442	-	14.4878	1.5e-05	0.21	TGACTCAC
TGACTCAB	DREME-3	chr5	77995676	77995683	+	14.4878	1.5e-05	0.21	TGACTCAC
TGACTCAB	DREME-3	chr7	80128768	80128775	+	14.4878	1.5e-05	0.21	tgactcac
TGACTCAB	DREME-3	chr15	81042218	81042225	+	14.4878	1.5e-05	0.21	TGACTCAC
TGACTCAB	DREME-3	chr5	82859651	82859658	+	14.4878	1.5e-05	0.21	TGACTCAC
TGACTCAB	DREME-3	chr4	84469723	84469730	-	14.4878	1.5e-05	0.21	TGACTCAC
TGACTCAB	DREME-3	chr2	86191096	86191103	-	14.4878	1.5e-05	0.21	TGACTCAC
TGACTCAB	DREME-3	chr12	92171217	92171224	-	14.4878	1.5e-05	0.21	TGACTCAC
TGACTCAB	DREME-3	chr15	93160937	93160944	-	14.4878	1.5e-05	0.21	TGACTCAC
TGACTCAB	DREME-3	chr15	93161285	93161292	-	14.4878	1.5e-05	0.21	TGACTCAC
TGACTCAB	DREME-3	chr14	95732011	95732018	-	14.4878	1.5e-05	0.21	TGACTCAC
TGACTCAB	DREME-3	chr14	95739651	95739658	-	14.4878	1.5e-05	0.21	TGACTCAC
TGACTCAB	DREME-3	chr7	99935887	99935894	-	14.4878	1.5e-05	0.21	TGACTCAC
TGACTCAB	DREME-3	chr7	100995963	100995970	+	14.4878	1.5e-05	0.21	tgactcac
TGACTCAB	DREME-3	chr5	100999546	100999553	-	14.4878	1.5e-05	0.21	TGACTCAC
TGACTCAB	DREME-3	chr15	101253870	101253877	+	14.4878	1.5e-05	0.21	TGACTCAC
TGACTCAB	DREME-3	chr14	101539778	101539785	+	14.4878	1.5e-05	0.21	TGACTCAC
TGACTCAB	DREME-3	chr10	101766206	101766213	-	14.4878	1.5e-05	0.21	TGACTCAC
TGACTCAB	DREME-3	chr9	102196018	102196025	+	14.4878	1.5e-05	0.21	TGACTCAC
TGACTCAB	DREME-3	chr9	102196050	102196057	-	14.4878	1.5e-05	0.21	TGACTCAC
TGACTCAB	DREME-3	chr8	102449917	102449924	+	14.4878	1.5e-05	0.21	TGACTCAC
TGACTCAB	DREME-3	chr12	104613948	104613955	-	14.4878	1.5e-05	0.21	TGACTCAC
TGACTCAB	DREME-3	chr10	106232466	106232473	+	14.4878	1.5e-05	0.21	tgactcac
TGACTCAB	DREME-3	chr6	107199711	107199718	+	14.4878	1.5e-05	0.21	TGACTCAC
TGACTCAB	DREME-3	chr1	109373313	109373320	+	14.4878	1.5e-05	0.21	TGACTCAC
TGACTCAB	DREME-3	chr9	110267288	110267295	+	14.4878	1.5e-05	0.21	TGACTCAC
TGACTCAB	DREME-3	chr11	115812338	115812345	-	14.4878	1.5e-05	0.21	TGACTCAC
TGACTCAB	DREME-3	chr11	115812445	115812452	-	14.4878	1.5e-05	0.21	TGACTCAC
TGACTCAB	DREME-3	chr12	116310965	116310972	+	14.4878	1.5e-05	0.21	TGACTCAC
TGACTCAB	DREME-3	chr11	118790803	118790810	+	14.4878	1.5e-05	0.21	TGACTCAC
TGACTCAB	DREME-3	chr8	120451547	120451554	-	14.4878	1.5e-05	0.21	TGACTCAC
TGACTCAB	DREME-3	chr12	122934097	122934104	-	14.4878	1.5e-05	0.21	TGACTCAC
TGACTCAB	DREME-3	chr11	123016023	123016030	+	14.4878	1.5e-05	0.21	TGACTCAC
TGACTCAB	DREME-3	chr9	123464522	123464529	+	14.4878	1.5e-05	0.21	TGACTCAC
TGACTCAB	DREME-3	chr10	127755277	127755284	+	14.4878	1.5e-05	0.21	TGACTCAC
TGACTCAB	DREME-3	chr6	129018027	129018034	-	14.4878	1.5e-05	0.21	TGACTCAC
TGACTCAB	DREME-3	chr12	130824774	130824781	-	14.4878	1.5e-05	0.21	TGACTCAC
TGACTCAB	DREME-3	chr12	132349943	132349950	+	14.4878	1.5e-05	0.21	tgactcac
TGACTCAB	DREME-3	chrX	132431412	132431419	-	14.4878	1.5e-05	0.21	TGACTCAC
TGACTCAB	DREME-3	chr5	132581369	132581376	-	14.4878	1.5e-05	0.21	TGACTCAC
TGACTCAB	DREME-3	chr9	138287570	138287577	+	14.4878	1.5e-05	0.21	TGACTCAC
TGACTCAB	DREME-3	chr3	139021230	139021237	+	14.4878	1.5e-05	0.21	TGACTCAC
TGACTCAB	DREME-3	chr5	142625727	142625734	+	14.4878	1.5e-05	0.21	TGACTCAC
TGACTCAB	DREME-3	chr5	142625794	142625801	-	14.4878	1.5e-05	0.21	TGACTCAC
TGACTCAB	DREME-3	chr4	146734195	146734202	-	14.4878	1.5e-05	0.21	TGACTCAC
TGACTCAB	DREME-3	chr6	158461517	158461524	+	14.4878	1.5e-05	0.21	TGACTCAC
TGACTCAB	DREME-3	chr1	168721503	168721510	+	14.4878	1.5e-05	0.21	TGACTCAC
TGACTCAB	DREME-3	chr1	169088979	169088986	-	14.4878	1.5e-05	0.21	TGACTCAC
TGACTCAB	DREME-3	chr2	171095458	171095465	+	14.4878	1.5e-05	0.21	TGACTCAC
TGACTCAB	DREME-3	chr1	180137363	180137370	-	14.4878	1.5e-05	0.21	TGACTCAC
TGACTCAB	DREME-3	chr2	197466346	197466353	+	14.4878	1.5e-05	0.21	TGACTCAC
TGACTCAB	DREME-3	chr1	204386909	204386916	+	14.4878	1.5e-05	0.21	tgactcac
TGACTCAB	DREME-3	chr1	224393301	224393308	+	14.4878	1.5e-05	0.21	TGACTCAC
TGACTCAB	DREME-3	chr16	377380	377387	-	14.3902	3.21e-05	0.21	TGACTCAT
TGACTCAB	DREME-3	chr1	524366	524373	-	14.3902	3.21e-05	0.21	TGACTCAT
TGACTCAB	DREME-3	chr16	1696453	1696460	+	14.3902	3.21e-05	0.21	tgactcat
TGACTCAB	DREME-3	chr6	2432644	2432651	-	14.3902	3.21e-05	0.21	TGACTCAT
TGACTCAB	DREME-3	chr10	3138062	3138069	-	14.3902	3.21e-05	0.21	TGACTCAT
TGACTCAB	DREME-3	chr7	6035424	6035431	-	14.3902	3.21e-05	0.21	TGACTCAT
TGACTCAB	DREME-3	chr4	6918522	6918529	+	14.3902	3.21e-05	0.21	TGACTCAT
TGACTCAB	DREME-3	chr6	7975453	7975460	-	14.3902	3.21e-05	0.21	TGACTCAT
TGACTCAB	DREME-3	chr6	7975606	7975613	-	14.3902	3.21e-05	0.21	TGACTCAT
TGACTCAB	DREME-3	chr6	8084287	8084294	+	14.3902	3.21e-05	0.21	TGACTCAT
TGACTCAB	DREME-3	chr6	9405805	9405812	+	14.3902	3.21e-05	0.21	TGACTCAT
TGACTCAB	DREME-3	chr18	11005872	11005879	+	14.3902	3.21e-05	0.21	TGACTCAT
TGACTCAB	DREME-3	chr12	13036439	13036446	+	14.3902	3.21e-05	0.21	TGACTCAT
TGACTCAB	DREME-3	chr5	13378319	13378326	+	14.3902	3.21e-05	0.21	TGACTCAT
TGACTCAB	DREME-3	chr5	13378439	13378446	+	14.3902	3.21e-05	0.21	TGACTCAT
TGACTCAB	DREME-3	chr3	14270265	14270272	-	14.3902	3.21e-05	0.21	TGACTCAT
TGACTCAB	DREME-3	chr3	14307190	14307197	+	14.3902	3.21e-05	0.21	tgactcat
TGACTCAB	DREME-3	chrX	15221004	15221011	-	14.3902	3.21e-05	0.21	TGACTCAT
TGACTCAB	DREME-3	chr16	15583544	15583551	+	14.3902	3.21e-05	0.21	TGACTCAT
TGACTCAB	DREME-3	chr10	18899618	18899625	+	14.3902	3.21e-05	0.21	TGACTCAT
TGACTCAB	DREME-3	chr18	21207512	21207519	+	14.3902	3.21e-05	0.21	TGACTCAT
TGACTCAB	DREME-3	chr4	24765306	24765313	-	14.3902	3.21e-05	0.21	TGACTCAT
TGACTCAB	DREME-3	chr2	25301543	25301550	-	14.3902	3.21e-05	0.21	TGACTCAT
TGACTCAB	DREME-3	chr2	26235559	26235566	-	14.3902	3.21e-05	0.21	TGACTCAT
TGACTCAB	DREME-3	chr2	27516453	27516460	-	14.3902	3.21e-05	0.21	TGACTCAT
TGACTCAB	DREME-3	chr18	32559241	32559248	+	14.3902	3.21e-05	0.21	TGACTCAT
TGACTCAB	DREME-3	chr10	33580284	33580291	+	14.3902	3.21e-05	0.21	TGACTCAT
TGACTCAB	DREME-3	chr11	35412772	35412779	+	14.3902	3.21e-05	0.21	tgactcat
TGACTCAB	DREME-3	chr17	36442543	36442550	-	14.3902	3.21e-05	0.21	TGACTCAT
TGACTCAB	DREME-3	chr9	36924212	36924219	-	14.3902	3.21e-05	0.21	TGACTCAT
TGACTCAB	DREME-3	chr9	36924261	36924268	-	14.3902	3.21e-05	0.21	TGACTCAT
TGACTCAB	DREME-3	chr15	39420606	39420613	-	14.3902	3.21e-05	0.21	TGACTCAT
TGACTCAB	DREME-3	chr3	40459732	40459739	+	14.3902	3.21e-05	0.21	TGACTCAT
TGACTCAB	DREME-3	chr22	41107705	41107712	-	14.3902	3.21e-05	0.21	TGACTCAT
TGACTCAB	DREME-3	chr17	42164301	42164308	-	14.3902	3.21e-05	0.21	TGACTCAT
TGACTCAB	DREME-3	chr17	42164374	42164381	-	14.3902	3.21e-05	0.21	TGACTCAT
TGACTCAB	DREME-3	chr5	42620870	42620877	-	14.3902	3.21e-05	0.21	TGACTCAT
TGACTCAB	DREME-3	chr14	44786263	44786270	-	14.3902	3.21e-05	0.21	TGACTCAT
TGACTCAB	DREME-3	chr14	44786287	44786294	-	14.3902	3.21e-05	0.21	TGACTCAT
TGACTCAB	DREME-3	chr17	45579999	45580006	+	14.3902	3.21e-05	0.21	TGACTCAT
TGACTCAB	DREME-3	chr6	45678274	45678281	-	14.3902	3.21e-05	0.21	TGACTCAT
TGACTCAB	DREME-3	chr1	45876905	45876912	+	14.3902	3.21e-05	0.21	tgactcat
TGACTCAB	DREME-3	chr21	46129978	46129985	+	14.3902	3.21e-05	0.21	TGACTCAT
TGACTCAB	DREME-3	chr20	46704756	46704763	+	14.3902	3.21e-05	0.21	TGACTCAT
TGACTCAB	DREME-3	chr21	46891322	46891329	+	14.3902	3.21e-05	0.21	TGACTCAT
TGACTCAB	DREME-3	chr20	46928018	46928025	+	14.3902	3.21e-05	0.21	TGACTCAT
TGACTCAB	DREME-3	chr21	47167897	47167904	+	14.3902	3.21e-05	0.21	TGACTCAT
TGACTCAB	DREME-3	chr2	47426266	47426273	+	14.3902	3.21e-05	0.21	TGACTCAT
TGACTCAB	DREME-3	chr10	48549269	48549276	+	14.3902	3.21e-05	0.21	TGACTCAT
TGACTCAB	DREME-3	chr20	48782736	48782743	+	14.3902	3.21e-05	0.21	TGACTCAT
TGACTCAB	DREME-3	chr20	49039954	49039961	+	14.3902	3.21e-05	0.21	TGACTCAT
TGACTCAB	DREME-3	chr20	50366867	50366874	+	14.3902	3.21e-05	0.21	TGACTCAT
TGACTCAB	DREME-3	chr10	52271472	52271479	-	14.3902	3.21e-05	0.21	TGACTCAT
TGACTCAB	DREME-3	chr10	52271698	52271705	+	14.3902	3.21e-05	0.21	tgactcat
TGACTCAB	DREME-3	chr20	52522964	52522971	-	14.3902	3.21e-05	0.21	TGACTCAT
TGACTCAB	DREME-3	chr12	52910277	52910284	-	14.3902	3.21e-05	0.21	TGACTCAT
TGACTCAB	DREME-3	chr12	53365988	53365995	+	14.3902	3.21e-05	0.21	tgactcat
TGACTCAB	DREME-3	chr17	53510702	53510709	+	14.3902	3.21e-05	0.21	TGACTCAT
TGACTCAB	DREME-3	chr1	54482244	54482251	-	14.3902	3.21e-05	0.21	TGACTCAT
TGACTCAB	DREME-3	chr1	55894843	55894850	-	14.3902	3.21e-05	0.21	TGACTCAT
TGACTCAB	DREME-3	chr17	57920670	57920677	+	14.3902	3.21e-05	0.21	TGACTCAT
TGACTCAB	DREME-3	chr8	58991606	58991613	+	14.3902	3.21e-05	0.21	TGACTCAT
TGACTCAB	DREME-3	chr17	60828552	60828559	-	14.3902	3.21e-05	0.21	TGACTCAT
TGACTCAB	DREME-3	chr15	63793916	63793923	+	14.3902	3.21e-05	0.21	TGACTCAT
TGACTCAB	DREME-3	chr15	63794531	63794538	+	14.3902	3.21e-05	0.21	tgactcat
TGACTCAB	DREME-3	chr3	65016733	65016740	-	14.3902	3.21e-05	0.21	TGACTCAT
TGACTCAB	DREME-3	chr15	67442590	67442597	+	14.3902	3.21e-05	0.21	TGACTCAT
TGACTCAB	DREME-3	chr6	67445205	67445212	+	14.3902	3.21e-05	0.21	TGACTCAT
TGACTCAB	DREME-3	chr5	67845179	67845186	+	14.3902	3.21e-05	0.21	TGACTCAT
TGACTCAB	DREME-3	chr14	68013861	68013868	-	14.3902	3.21e-05	0.21	TGACTCAT
TGACTCAB	DREME-3	chr14	69043369	69043376	-	14.3902	3.21e-05	0.21	TGACTCAT
TGACTCAB	DREME-3	chr7	69764315	69764322	+	14.3902	3.21e-05	0.21	TGACTCAT
TGACTCAB	DREME-3	chr17	70585263	70585270	-	14.3902	3.21e-05	0.21	TGACTCAT
TGACTCAB	DREME-3	chr11	70634569	70634576	+	14.3902	3.21e-05	0.21	tgactcat
TGACTCAB	DREME-3	chr15	70800343	70800350	-	14.3902	3.21e-05	0.21	TGACTCAT
TGACTCAB	DREME-3	chr3	72031994	72032001	+	14.3902	3.21e-05	0.21	tgactcat
TGACTCAB	DREME-3	chr11	72983242	72983249	-	14.3902	3.21e-05	0.21	TGACTCAT
TGACTCAB	DREME-3	chr15	74207492	74207499	-	14.3902	3.21e-05	0.21	TGACTCAT
TGACTCAB	DREME-3	chr6	74290383	74290390	-	14.3902	3.21e-05	0.21	TGACTCAT
TGACTCAB	DREME-3	chr9	74341018	74341025	-	14.3902	3.21e-05	0.21	TGACTCAT
TGACTCAB	DREME-3	chr13	76836052	76836059	+	14.3902	3.21e-05	0.21	tgactcat
TGACTCAB	DREME-3	chr14	77385311	77385318	-	14.3902	3.21e-05	0.21	TGACTCAT
TGACTCAB	DREME-3	chr14	77513298	77513305	+	14.3902	3.21e-05	0.21	tgactcat
TGACTCAB	DREME-3	chr5	78489739	78489746	-	14.3902	3.21e-05	0.21	TGACTCAT
TGACTCAB	DREME-3	chr17	78765958	78765965	+	14.3902	3.21e-05	0.21	TGACTCAT
TGACTCAB	DREME-3	chr10	80944117	80944124	+	14.3902	3.21e-05	0.21	tgactcat
TGACTCAB	DREME-3	chr16	85548462	85548469	-	14.3902	3.21e-05	0.21	TGACTCAT
TGACTCAB	DREME-3	chr1	85763789	85763796	+	14.3902	3.21e-05	0.21	TGACTCAT
TGACTCAB	DREME-3	chr16	87274265	87274272	+	14.3902	3.21e-05	0.21	TGACTCAT
TGACTCAB	DREME-3	chr9	88358162	88358169	-	14.3902	3.21e-05	0.21	TGACTCAT
TGACTCAB	DREME-3	chr15	90237081	90237088	-	14.3902	3.21e-05	0.21	TGACTCAT
TGACTCAB	DREME-3	chr15	90461176	90461183	+	14.3902	3.21e-05	0.21	tgactcat
TGACTCAB	DREME-3	chr15	96774289	96774296	-	14.3902	3.21e-05	0.21	TGACTCAT
TGACTCAB	DREME-3	chr13	97786373	97786380	-	14.3902	3.21e-05	0.21	TGACTCAT
TGACTCAB	DREME-3	chr9	100477158	100477165	+	14.3902	3.21e-05	0.21	TGACTCAT
TGACTCAB	DREME-3	chr8	102381231	102381238	-	14.3902	3.21e-05	0.21	TGACTCAT
TGACTCAB	DREME-3	chr8	102516946	102516953	+	14.3902	3.21e-05	0.21	TGACTCAT
TGACTCAB	DREME-3	chr6	106583238	106583245	+	14.3902	3.21e-05	0.21	TGACTCAT
TGACTCAB	DREME-3	chr13	106589893	106589900	-	14.3902	3.21e-05	0.21	TGACTCAT
TGACTCAB	DREME-3	chr2	106778625	106778632	-	14.3902	3.21e-05	0.21	TGACTCAT
TGACTCAB	DREME-3	chr13	107173935	107173942	-	14.3902	3.21e-05	0.21	TGACTCAT
TGACTCAB	DREME-3	chr13	109572170	109572177	+	14.3902	3.21e-05	0.21	tgactcat
TGACTCAB	DREME-3	chr9	110517804	110517811	+	14.3902	3.21e-05	0.21	tgactcat
TGACTCAB	DREME-3	chr13	110651331	110651338	+	14.3902	3.21e-05	0.21	TGACTCAT
TGACTCAB	DREME-3	chr13	111152105	111152112	+	14.3902	3.21e-05	0.21	TGACTCAT
TGACTCAB	DREME-3	chr7	112122125	112122132	-	14.3902	3.21e-05	0.21	TGACTCAT
TGACTCAB	DREME-3	chr1	114447430	114447437	-	14.3902	3.21e-05	0.21	TGACTCAT
TGACTCAB	DREME-3	chr9	114828123	114828130	-	14.3902	3.21e-05	0.21	TGACTCAT
TGACTCAB	DREME-3	chr12	116827968	116827975	-	14.3902	3.21e-05	0.21	TGACTCAT
TGACTCAB	DREME-3	chr8	117849853	117849860	-	14.3902	3.21e-05	0.21	TGACTCAT
TGACTCAB	DREME-3	chr6	119582657	119582664	+	14.3902	3.21e-05	0.21	tgactcat
TGACTCAB	DREME-3	chr8	119862577	119862584	-	14.3902	3.21e-05	0.21	TGACTCAT
TGACTCAB	DREME-3	chr8	119890718	119890725	-	14.3902	3.21e-05	0.21	TGACTCAT
TGACTCAB	DREME-3	chr7	122831500	122831507	+	14.3902	3.21e-05	0.21	TGACTCAT
TGACTCAB	DREME-3	chr12	123579383	123579390	+	14.3902	3.21e-05	0.21	TGACTCAT
TGACTCAB	DREME-3	chr12	125401797	125401804	-	14.3902	3.21e-05	0.21	TGACTCAT
TGACTCAB	DREME-3	chr8	126123267	126123274	+	14.3902	3.21e-05	0.21	TGACTCAT
TGACTCAB	DREME-3	chr2	128458308	128458315	-	14.3902	3.21e-05	0.21	TGACTCAT
TGACTCAB	DREME-3	chr6	129018002	129018009	+	14.3902	3.21e-05	0.21	TGACTCAT
TGACTCAB	DREME-3	chr8	129164757	129164764	-	14.3902	3.21e-05	0.21	TGACTCAT
TGACTCAB	DREME-3	chrX	129169347	129169354	+	14.3902	3.21e-05	0.21	TGACTCAT
TGACTCAB	DREME-3	chr5	132576363	132576370	+	14.3902	3.21e-05	0.21	TGACTCAT
TGACTCAB	DREME-3	chr5	132576382	132576389	+	14.3902	3.21e-05	0.21	TGACTCAT
TGACTCAB	DREME-3	chr5	132581431	132581438	+	14.3902	3.21e-05	0.21	TGACTCAT
TGACTCAB	DREME-3	chr9	134180584	134180591	-	14.3902	3.21e-05	0.21	TGACTCAT
TGACTCAB	DREME-3	chr6	138409536	138409543	+	14.3902	3.21e-05	0.21	TGACTCAT
TGACTCAB	DREME-3	chr5	142625829	142625836	+	14.3902	3.21e-05	0.21	TGACTCAT
TGACTCAB	DREME-3	chr5	142975159	142975166	+	14.3902	3.21e-05	0.21	TGACTCAT
TGACTCAB	DREME-3	chr2	150990332	150990339	-	14.3902	3.21e-05	0.21	TGACTCAT
TGACTCAB	DREME-3	chr2	150990343	150990350	+	14.3902	3.21e-05	0.21	TGACTCAT
TGACTCAB	DREME-3	chr4	153186471	153186478	-	14.3902	3.21e-05	0.21	TGACTCAT
TGACTCAB	DREME-3	chr3	158441133	158441140	-	14.3902	3.21e-05	0.21	TGACTCAT
TGACTCAB	DREME-3	chr6	158461617	158461624	+	14.3902	3.21e-05	0.21	TGACTCAT
TGACTCAB	DREME-3	chr2	161086329	161086336	-	14.3902	3.21e-05	0.21	TGACTCAT
TGACTCAB	DREME-3	chr3	163567637	163567644	+	14.3902	3.21e-05	0.21	tgactcat
TGACTCAB	DREME-3	chr6	164129596	164129603	-	14.3902	3.21e-05	0.21	TGACTCAT
TGACTCAB	DREME-3	chr1	169088827	169088834	+	14.3902	3.21e-05	0.21	TGACTCAT
TGACTCAB	DREME-3	chr6	171042799	171042806	+	14.3902	3.21e-05	0.21	TGACTCAT
TGACTCAB	DREME-3	chr3	171847863	171847870	+	14.3902	3.21e-05	0.21	TGACTCAT
TGACTCAB	DREME-3	chr5	172881548	172881555	+	14.3902	3.21e-05	0.21	tgactcat
TGACTCAB	DREME-3	chr5	172882563	172882570	+	14.3902	3.21e-05	0.21	TGACTCAT
TGACTCAB	DREME-3	chr5	173249606	173249613	-	14.3902	3.21e-05	0.21	TGACTCAT
TGACTCAB	DREME-3	chr3	175056669	175056676	+	14.3902	3.21e-05	0.21	TGACTCAT
TGACTCAB	DREME-3	chr2	178109915	178109922	+	14.3902	3.21e-05	0.21	TGACTCAT
TGACTCAB	DREME-3	chr3	180024648	180024655	+	14.3902	3.21e-05	0.21	TGACTCAT
TGACTCAB	DREME-3	chr2	182885539	182885546	-	14.3902	3.21e-05	0.21	TGACTCAT
TGACTCAB	DREME-3	chr3	193876825	193876832	-	14.3902	3.21e-05	0.21	TGACTCAT
TGACTCAB	DREME-3	chr3	196377950	196377957	-	14.3902	3.21e-05	0.21	TGACTCAT
TGACTCAB	DREME-3	chr2	197451796	197451803	+	14.3902	3.21e-05	0.21	tgactcat
TGACTCAB	DREME-3	chr2	208693924	208693931	+	14.3902	3.21e-05	0.21	TGACTCAT
TGACTCAB	DREME-3	chr1	211909221	211909228	-	14.3902	3.21e-05	0.21	TGACTCAT
TGACTCAB	DREME-3	chr1	211909233	211909240	-	14.3902	3.21e-05	0.21	TGACTCAT
TGACTCAB	DREME-3	chr2	216484190	216484197	+	14.3902	3.21e-05	0.21	TGACTCAT
TGACTCAB	DREME-3	chr2	220833657	220833664	+	14.3902	3.21e-05	0.21	tgactcat
TGACTCAB	DREME-3	chr2	226983848	226983855	+	14.3902	3.21e-05	0.21	TGACTCAT
TGACTCAB	DREME-3	chr1	232285821	232285828	-	14.3902	3.21e-05	0.21	TGACTCAT
TGACTCAB	DREME-3	chr1	232285858	232285865	-	14.3902	3.21e-05	0.21	TGACTCAT
TGACTCAB	DREME-3	chr1	235110917	235110924	-	14.3902	3.21e-05	0.21	TGACTCAT
TGACTCAB	DREME-3	chr1	235111146	235111153	+	14.3902	3.21e-05	0.21	TGACTCAT
TGACTCAB	DREME-3	chr2	236954447	236954454	-	14.3902	3.21e-05	0.21	TGACTCAT
TGACTCAB	DREME-3	chr10	1332326	1332333	-	14.1341	4.71e-05	0.21	TGACTCAG
TGACTCAB	DREME-3	chr16	1696122	1696129	-	14.1341	4.71e-05	0.21	TGACTCAG
TGACTCAB	DREME-3	chr19	2525031	2525038	+	14.1341	4.71e-05	0.21	TGACTCAG
TGACTCAB	DREME-3	chr19	2525095	2525102	-	14.1341	4.71e-05	0.21	TGACTCAG
TGACTCAB	DREME-3	chr7	3284164	3284171	+	14.1341	4.71e-05	0.21	TGACTCAG
TGACTCAB	DREME-3	chr10	3510628	3510635	-	14.1341	4.71e-05	0.21	TGACTCAG
TGACTCAB	DREME-3	chr20	3792514	3792521	-	14.1341	4.71e-05	0.21	TGACTCAG
TGACTCAB	DREME-3	chr3	4929198	4929205	-	14.1341	4.71e-05	0.21	TGACTCAG
TGACTCAB	DREME-3	chr5	5335866	5335873	+	14.1341	4.71e-05	0.21	TGACTCAG
TGACTCAB	DREME-3	chr4	5367652	5367659	+	14.1341	4.71e-05	0.21	TGACTCAG
TGACTCAB	DREME-3	chr4	5368158	5368165	-	14.1341	4.71e-05	0.21	TGACTCAG
TGACTCAB	DREME-3	chr12	6885472	6885479	+	14.1341	4.71e-05	0.21	TGACTCAG
TGACTCAB	DREME-3	chr11	9587710	9587717	-	14.1341	4.71e-05	0.21	TGACTCAG
TGACTCAB	DREME-3	chr6	10317607	10317614	-	14.1341	4.71e-05	0.21	TGACTCAG
TGACTCAB	DREME-3	chr3	12486542	12486549	-	14.1341	4.71e-05	0.21	TGACTCAG
TGACTCAB	DREME-3	chrX	13687466	13687473	-	14.1341	4.71e-05	0.21	TGACTCAG
TGACTCAB	DREME-3	chr6	14744392	14744399	+	14.1341	4.71e-05	0.21	TGACTCAG
TGACTCAB	DREME-3	chr16	15601304	15601311	+	14.1341	4.71e-05	0.21	TGACTCAG
TGACTCAB	DREME-3	chr19	16603888	16603895	-	14.1341	4.71e-05	0.21	TGACTCAG
TGACTCAB	DREME-3	chr1	17738415	17738422	+	14.1341	4.71e-05	0.21	TGACTCAG
TGACTCAB	DREME-3	chr1	17886452	17886459	+	14.1341	4.71e-05	0.21	TGACTCAG
TGACTCAB	DREME-3	chr8	18858253	18858260	+	14.1341	4.71e-05	0.21	TGACTCAG
TGACTCAB	DREME-3	chr13	20368505	20368512	+	14.1341	4.71e-05	0.21	tgactcag
TGACTCAB	DREME-3	chr6	21884951	21884958	-	14.1341	4.71e-05	0.21	TGACTCAG
TGACTCAB	DREME-3	chr9	22084871	22084878	-	14.1341	4.71e-05	0.21	TGACTCAG
TGACTCAB	DREME-3	chr7	22612821	22612828	-	14.1341	4.71e-05	0.21	TGACTCAG
TGACTCAB	DREME-3	chr4	24765181	24765188	+	14.1341	4.71e-05	0.21	tgactcag
TGACTCAB	DREME-3	chr13	26345454	26345461	-	14.1341	4.71e-05	0.21	TGACTCAG
TGACTCAB	DREME-3	chr11	27423685	27423692	+	14.1341	4.71e-05	0.21	tgactcag
TGACTCAB	DREME-3	chr7	27824077	27824084	-	14.1341	4.71e-05	0.21	TGACTCAG
TGACTCAB	DREME-3	chr2	28499218	28499225	+	14.1341	4.71e-05	0.21	TGACTCAG
TGACTCAB	DREME-3	chr10	29948125	29948132	+	14.1341	4.71e-05	0.21	TGACTCAG
TGACTCAB	DREME-3	chr7	30387823	30387830	-	14.1341	4.71e-05	0.21	TGACTCAG
TGACTCAB	DREME-3	chr10	32250915	32250922	-	14.1341	4.71e-05	0.21	TGACTCAG
TGACTCAB	DREME-3	chr13	33690694	33690701	+	14.1341	4.71e-05	0.21	TGACTCAG
TGACTCAB	DREME-3	chr13	34730166	34730173	+	14.1341	4.71e-05	0.21	TGACTCAG
TGACTCAB	DREME-3	chr21	36260434	36260441	+	14.1341	4.71e-05	0.21	TGACTCAG
TGACTCAB	DREME-3	chr6	37511870	37511877	+	14.1341	4.71e-05	0.21	tgactcag
TGACTCAB	DREME-3	chr17	38182253	38182260	-	14.1341	4.71e-05	0.21	TGACTCAG
TGACTCAB	DREME-3	chr15	40391110	40391117	+	14.1341	4.71e-05	0.21	TGACTCAG
TGACTCAB	DREME-3	chr19	41426861	41426868	-	14.1341	4.71e-05	0.21	TGACTCAG
TGACTCAB	DREME-3	chr19	41427100	41427107	-	14.1341	4.71e-05	0.21	TGACTCAG
TGACTCAB	DREME-3	chr19	41427335	41427342	-	14.1341	4.71e-05	0.21	TGACTCAG
TGACTCAB	DREME-3	chr21	41817248	41817255	+	14.1341	4.71e-05	0.21	TGACTCAG
TGACTCAB	DREME-3	chr1	42639908	42639915	+	14.1341	4.71e-05	0.21	tgactcag
TGACTCAB	DREME-3	chr14	44786235	44786242	-	14.1341	4.71e-05	0.21	TGACTCAG
TGACTCAB	DREME-3	chr19	45245233	45245240	+	14.1341	4.71e-05	0.21	TGACTCAG
TGACTCAB	DREME-3	chr11	45951409	45951416	+	14.1341	4.71e-05	0.21	TGACTCAG
TGACTCAB	DREME-3	chr3	46152302	46152309	+	14.1341	4.71e-05	0.21	tgactcag
TGACTCAB	DREME-3	chr2	46391552	46391559	+	14.1341	4.71e-05	0.21	TGACTCAG
TGACTCAB	DREME-3	chr20	46618851	46618858	-	14.1341	4.71e-05	0.21	TGACTCAG
TGACTCAB	DREME-3	chr22	46847071	46847078	-	14.1341	4.71e-05	0.21	TGACTCAG
TGACTCAB	DREME-3	chr11	47968648	47968655	+	14.1341	4.71e-05	0.21	TGACTCAG
TGACTCAB	DREME-3	chr11	47968674	47968681	-	14.1341	4.71e-05	0.21	TGACTCAG
TGACTCAB	DREME-3	chr20	48782837	48782844	-	14.1341	4.71e-05	0.21	TGACTCAG
TGACTCAB	DREME-3	chr20	49262253	49262260	-	14.1341	4.71e-05	0.21	TGACTCAG
TGACTCAB	DREME-3	chr20	49361154	49361161	+	14.1341	4.71e-05	0.21	tgactcag
TGACTCAB	DREME-3	chr20	49378391	49378398	+	14.1341	4.71e-05	0.21	TGACTCAG
TGACTCAB	DREME-3	chr20	49378419	49378426	+	14.1341	4.71e-05	0.21	TGACTCAG
TGACTCAB	DREME-3	chr20	51962131	51962138	+	14.1341	4.71e-05	0.21	TGACTCAG
TGACTCAB	DREME-3	chr15	52363921	52363928	-	14.1341	4.71e-05	0.21	TGACTCAG
TGACTCAB	DREME-3	chr12	53340059	53340066	+	14.1341	4.71e-05	0.21	TGACTCAG
TGACTCAB	DREME-3	chr13	53384225	53384232	+	14.1341	4.71e-05	0.21	TGACTCAG
TGACTCAB	DREME-3	chr3	53553318	53553325	+	14.1341	4.71e-05	0.21	TGACTCAG
TGACTCAB	DREME-3	chr3	53553514	53553521	-	14.1341	4.71e-05	0.21	TGACTCAG
TGACTCAB	DREME-3	chr12	54373250	54373257	-	14.1341	4.71e-05	0.21	TGACTCAG
TGACTCAB	DREME-3	chr16	54963662	54963669	+	14.1341	4.71e-05	0.21	TGACTCAG
TGACTCAB	DREME-3	chr17	55417966	55417973	-	14.1341	4.71e-05	0.21	TGACTCAG
TGACTCAB	DREME-3	chr1	55895152	55895159	+	14.1341	4.71e-05	0.21	TGACTCAG
TGACTCAB	DREME-3	chr17	57922987	57922994	-	14.1341	4.71e-05	0.21	TGACTCAG
TGACTCAB	DREME-3	chr17	57923818	57923825	+	14.1341	4.71e-05	0.21	TGACTCAG
TGACTCAB	DREME-3	chr8	58991677	58991684	+	14.1341	4.71e-05	0.21	TGACTCAG
TGACTCAB	DREME-3	chr14	60719094	60719101	-	14.1341	4.71e-05	0.21	TGACTCAG
TGACTCAB	DREME-3	chr15	63754454	63754461	+	14.1341	4.71e-05	0.21	tgactcag
TGACTCAB	DREME-3	chr8	67036318	67036325	-	14.1341	4.71e-05	0.21	TGACTCAG
TGACTCAB	DREME-3	chr13	67695215	67695222	+	14.1341	4.71e-05	0.21	tgactcag
TGACTCAB	DREME-3	chr5	67746860	67746867	-	14.1341	4.71e-05	0.21	TGACTCAG
TGACTCAB	DREME-3	chr12	67988888	67988895	+	14.1341	4.71e-05	0.21	TGACTCAG
TGACTCAB	DREME-3	chr1	68663690	68663697	-	14.1341	4.71e-05	0.21	TGACTCAG
TGACTCAB	DREME-3	chr16	68692737	68692744	-	14.1341	4.71e-05	0.21	TGACTCAG
TGACTCAB	DREME-3	chr14	69043527	69043534	+	14.1341	4.71e-05	0.21	TGACTCAG
TGACTCAB	DREME-3	chr7	69197471	69197478	-	14.1341	4.71e-05	0.21	TGACTCAG
TGACTCAB	DREME-3	chr15	69847222	69847229	+	14.1341	4.71e-05	0.21	TGACTCAG
TGACTCAB	DREME-3	chr11	71136603	71136610	-	14.1341	4.71e-05	0.21	TGACTCAG
TGACTCAB	DREME-3	chr11	72905856	72905863	-	14.1341	4.71e-05	0.21	TGACTCAG
TGACTCAB	DREME-3	chr6	74290235	74290242	-	14.1341	4.71e-05	0.21	TGACTCAG
TGACTCAB	DREME-3	chr4	75579869	75579876	+	14.1341	4.71e-05	0.21	TGACTCAG
TGACTCAB	DREME-3	chr17	76501701	76501708	-	14.1341	4.71e-05	0.21	TGACTCAG
TGACTCAB	DREME-3	chr13	76836248	76836255	+	14.1341	4.71e-05	0.21	TGACTCAG
TGACTCAB	DREME-3	chr5	77995828	77995835	+	14.1341	4.71e-05	0.21	TGACTCAG
TGACTCAB	DREME-3	chrX	78095129	78095136	+	14.1341	4.71e-05	0.21	tgactcag
TGACTCAB	DREME-3	chr17	78765967	78765974	-	14.1341	4.71e-05	0.21	TGACTCAG
TGACTCAB	DREME-3	chr17	78830424	78830431	-	14.1341	4.71e-05	0.21	TGACTCAG
TGACTCAB	DREME-3	chr11	80411694	80411701	+	14.1341	4.71e-05	0.21	TGACTCAG
TGACTCAB	DREME-3	chr7	80506433	80506440	-	14.1341	4.71e-05	0.21	TGACTCAG
TGACTCAB	DREME-3	chr17	81103313	81103320	-	14.1341	4.71e-05	0.21	TGACTCAG
TGACTCAB	DREME-3	chr4	84469802	84469809	+	14.1341	4.71e-05	0.21	TGACTCAG
TGACTCAB	DREME-3	chr16	84918421	84918428	-	14.1341	4.71e-05	0.21	TGACTCAG
TGACTCAB	DREME-3	chr11	86289288	86289295	-	14.1341	4.71e-05	0.21	TGACTCAG
TGACTCAB	DREME-3	chr16	87823803	87823810	-	14.1341	4.71e-05	0.21	TGACTCAG
TGACTCAB	DREME-3	chr14	88935634	88935641	-	14.1341	4.71e-05	0.21	TGACTCAG
TGACTCAB	DREME-3	chr15	92170994	92171001	+	14.1341	4.71e-05	0.21	TGACTCAG
TGACTCAB	DREME-3	chr15	93187355	93187362	+	14.1341	4.71e-05	0.21	TGACTCAG
TGACTCAB	DREME-3	chr1	94045670	94045677	-	14.1341	4.71e-05	0.21	TGACTCAG
TGACTCAB	DREME-3	chr3	95911739	95911746	+	14.1341	4.71e-05	0.21	TGACTCAG
TGACTCAB	DREME-3	chr14	96562273	96562280	+	14.1341	4.71e-05	0.21	TGACTCAG
TGACTCAB	DREME-3	chr15	96614035	96614042	+	14.1341	4.71e-05	0.21	TGACTCAG
TGACTCAB	DREME-3	chr13	96891401	96891408	+	14.1341	4.71e-05	0.21	TGACTCAG
TGACTCAB	DREME-3	chr15	99343770	99343777	+	14.1341	4.71e-05	0.21	TGACTCAG
TGACTCAB	DREME-3	chr15	99433474	99433481	-	14.1341	4.71e-05	0.21	TGACTCAG
TGACTCAB	DREME-3	chr15	100016827	100016834	-	14.1341	4.71e-05	0.21	TGACTCAG
TGACTCAB	DREME-3	chr12	100542729	100542736	-	14.1341	4.71e-05	0.21	TGACTCAG
TGACTCAB	DREME-3	chr15	101262306	101262313	-	14.1341	4.71e-05	0.21	TGACTCAG
TGACTCAB	DREME-3	chr2	101519513	101519520	+	14.1341	4.71e-05	0.21	TGACTCAG
TGACTCAB	DREME-3	chr7	101526304	101526311	-	14.1341	4.71e-05	0.21	TGACTCAG
TGACTCAB	DREME-3	chr14	101539674	101539681	+	14.1341	4.71e-05	0.21	TGACTCAG
TGACTCAB	DREME-3	chr8	101758593	101758600	-	14.1341	4.71e-05	0.21	TGACTCAG
TGACTCAB	DREME-3	chr10	101766241	101766248	+	14.1341	4.71e-05	0.21	tgactcag
TGACTCAB	DREME-3	chr10	101768100	101768107	-	14.1341	4.71e-05	0.21	TGACTCAG
TGACTCAB	DREME-3	chr12	105608148	105608155	+	14.1341	4.71e-05	0.21	TGACTCAG
TGACTCAB	DREME-3	chr2	106778474	106778481	-	14.1341	4.71e-05	0.21	TGACTCAG
TGACTCAB	DREME-3	chr9	110517664	110517671	-	14.1341	4.71e-05	0.21	TGACTCAG
TGACTCAB	DREME-3	chr10	112617152	112617159	+	14.1341	4.71e-05	0.21	tgactcag
TGACTCAB	DREME-3	chr13	114304843	114304850	-	14.1341	4.71e-05	0.21	TGACTCAG
TGACTCAB	DREME-3	chr12	117174062	117174069	-	14.1341	4.71e-05	0.21	TGACTCAG
TGACTCAB	DREME-3	chr2	121154954	121154961	-	14.1341	4.71e-05	0.21	TGACTCAG
TGACTCAB	DREME-3	chr12	122187002	122187009	-	14.1341	4.71e-05	0.21	TGACTCAG
TGACTCAB	DREME-3	chrX	122937513	122937520	-	14.1341	4.71e-05	0.21	TGACTCAG
TGACTCAB	DREME-3	chr12	125401070	125401077	-	14.1341	4.71e-05	0.21	TGACTCAG
TGACTCAB	DREME-3	chr6	125523470	125523477	+	14.1341	4.71e-05	0.21	TGACTCAG
TGACTCAB	DREME-3	chr6	128919857	128919864	-	14.1341	4.71e-05	0.21	TGACTCAG
TGACTCAB	DREME-3	chr11	129724316	129724323	+	14.1341	4.71e-05	0.21	TGACTCAG
TGACTCAB	DREME-3	chr4	140074685	140074692	-	14.1341	4.71e-05	0.21	TGACTCAG
TGACTCAB	DREME-3	chr9	140376839	140376846	+	14.1341	4.71e-05	0.21	tgactcag
TGACTCAB	DREME-3	chr8	142164369	142164376	+	14.1341	4.71e-05	0.21	TGACTCAG
TGACTCAB	DREME-3	chr2	142197294	142197301	+	14.1341	4.71e-05	0.21	TGACTCAG
TGACTCAB	DREME-3	chrX	143456150	143456157	+	14.1341	4.71e-05	0.21	TGACTCAG
TGACTCAB	DREME-3	chr7	150700877	150700884	+	14.1341	4.71e-05	0.21	tgactcag
TGACTCAB	DREME-3	chrX	152064508	152064515	-	14.1341	4.71e-05	0.21	TGACTCAG
TGACTCAB	DREME-3	chrX	152064635	152064642	+	14.1341	4.71e-05	0.21	TGACTCAG
TGACTCAB	DREME-3	chr1	154390796	154390803	-	14.1341	4.71e-05	0.21	TGACTCAG
TGACTCAB	DREME-3	chr1	154390916	154390923	+	14.1341	4.71e-05	0.21	TGACTCAG
TGACTCAB	DREME-3	chr1	154391042	154391049	-	14.1341	4.71e-05	0.21	TGACTCAG
TGACTCAB	DREME-3	chr2	154449846	154449853	+	14.1341	4.71e-05	0.21	tgactcag
TGACTCAB	DREME-3	chr6	158461483	158461490	-	14.1341	4.71e-05	0.21	TGACTCAG
TGACTCAB	DREME-3	chr4	159077017	159077024	+	14.1341	4.71e-05	0.21	tgactcag
TGACTCAB	DREME-3	chr6	170341806	170341813	-	14.1341	4.71e-05	0.21	TGACTCAG
TGACTCAB	DREME-3	chr2	177750546	177750553	+	14.1341	4.71e-05	0.21	TGACTCAG
TGACTCAB	DREME-3	chr3	193588253	193588260	+	14.1341	4.71e-05	0.21	TGACTCAG
TGACTCAB	DREME-3	chr1	204386350	204386357	+	14.1341	4.71e-05	0.21	TGACTCAG
TGACTCAB	DREME-3	chr1	212659450	212659457	+	14.1341	4.71e-05	0.21	TGACTCAG
TGACTCAB	DREME-3	chr2	220587765	220587772	-	14.1341	4.71e-05	0.21	TGACTCAG
TGACTCAB	DREME-3	chr1	230220475	230220482	+	14.1341	4.71e-05	0.21	TGACTCAG
TGACTCAB	DREME-3	chr4	3113251	3113258	-	4.07317	6.42e-05	0.256	TGACTCAA
TGACTCAB	DREME-3	chr4	5368358	5368365	+	4.07317	6.42e-05	0.256	TGACTCAA
TGACTCAB	DREME-3	chr12	6884906	6884913	-	4.07317	6.42e-05	0.256	TGACTCAA
TGACTCAB	DREME-3	chr6	9504160	9504167	-	4.07317	6.42e-05	0.256	TGACTCAA
TGACTCAB	DREME-3	chr6	11390098	11390105	+	4.07317	6.42e-05	0.256	TGACTCAA
TGACTCAB	DREME-3	chr3	14307164	14307171	-	4.07317	6.42e-05	0.256	TGACTCAA
TGACTCAB	DREME-3	chr6	15908194	15908201	+	4.07317	6.42e-05	0.256	TGACTCAA
TGACTCAB	DREME-3	chr1	24702200	24702207	+	4.07317	6.42e-05	0.256	TGACTCAA
TGACTCAB	DREME-3	chr4	26320719	26320726	+	4.07317	6.42e-05	0.256	TGACTCAA
TGACTCAB	DREME-3	chr4	26320731	26320738	+	4.07317	6.42e-05	0.256	TGACTCAA
TGACTCAB	DREME-3	chr2	27516095	27516102	+	4.07317	6.42e-05	0.256	TGACTCAA
TGACTCAB	DREME-3	chr10	29872771	29872778	+	4.07317	6.42e-05	0.256	TGACTCAA
TGACTCAB	DREME-3	chr19	30808641	30808648	-	4.07317	6.42e-05	0.256	TGACTCAA
TGACTCAB	DREME-3	chr5	34586095	34586102	-	4.07317	6.42e-05	0.256	TGACTCAA
TGACTCAB	DREME-3	chr19	34709746	34709753	-	4.07317	6.42e-05	0.256	TGACTCAA
TGACTCAB	DREME-3	chr22	36001288	36001295	-	4.07317	6.42e-05	0.256	TGACTCAA
TGACTCAB	DREME-3	chr17	37926368	37926375	+	4.07317	6.42e-05	0.256	TGACTCAA
TGACTCAB	DREME-3	chr6	42098074	42098081	+	4.07317	6.42e-05	0.256	TGACTCAA
TGACTCAB	DREME-3	chr3	42942729	42942736	-	4.07317	6.42e-05	0.256	TGACTCAA
TGACTCAB	DREME-3	chr21	45030056	45030063	+	4.07317	6.42e-05	0.256	tgactcaa
TGACTCAB	DREME-3	chr1	45876912	45876919	+	4.07317	6.42e-05	0.256	tgactcaa
TGACTCAB	DREME-3	chr20	48782960	48782967	-	4.07317	6.42e-05	0.256	TGACTCAA
TGACTCAB	DREME-3	chr3	50642583	50642590	+	4.07317	6.42e-05	0.256	TGACTCAA
TGACTCAB	DREME-3	chr15	51660020	51660027	+	4.07317	6.42e-05	0.256	TGACTCAA
TGACTCAB	DREME-3	chr15	63789028	63789035	+	4.07317	6.42e-05	0.256	tgactcaa
TGACTCAB	DREME-3	chr3	64486895	64486902	+	4.07317	6.42e-05	0.256	TGACTCAA
TGACTCAB	DREME-3	chr5	67845314	67845321	-	4.07317	6.42e-05	0.256	TGACTCAA
TGACTCAB	DREME-3	chr13	74352500	74352507	-	4.07317	6.42e-05	0.256	TGACTCAA
TGACTCAB	DREME-3	chr7	75735748	75735755	-	4.07317	6.42e-05	0.256	TGACTCAA
TGACTCAB	DREME-3	chr12	76371589	76371596	-	4.07317	6.42e-05	0.256	TGACTCAA
TGACTCAB	DREME-3	chr4	77532617	77532624	-	4.07317	6.42e-05	0.256	TGACTCAA
TGACTCAB	DREME-3	chr4	84469617	84469624	+	4.07317	6.42e-05	0.256	tgactcaa
TGACTCAB	DREME-3	chr14	88935476	88935483	+	4.07317	6.42e-05	0.256	TGACTCAA
TGACTCAB	DREME-3	chr16	89497440	89497447	+	4.07317	6.42e-05	0.256	TGACTCAA
TGACTCAB	DREME-3	chr13	96891376	96891383	+	4.07317	6.42e-05	0.256	TGACTCAA
TGACTCAB	DREME-3	chr13	98946137	98946144	-	4.07317	6.42e-05	0.256	TGACTCAA
TGACTCAB	DREME-3	chr9	100476795	100476802	+	4.07317	6.42e-05	0.256	tgactcaa
TGACTCAB	DREME-3	chr2	114564313	114564320	-	4.07317	6.42e-05	0.256	TGACTCAA
TGACTCAB	DREME-3	chr12	116311290	116311297	-	4.07317	6.42e-05	0.256	TGACTCAA
TGACTCAB	DREME-3	chr12	116827876	116827883	-	4.07317	6.42e-05	0.256	TGACTCAA
TGACTCAB	DREME-3	chr11	117759163	117759170	-	4.07317	6.42e-05	0.256	TGACTCAA
TGACTCAB	DREME-3	chr10	121558285	121558292	-	4.07317	6.42e-05	0.256	TGACTCAA
TGACTCAB	DREME-3	chr12	122934292	122934299	-	4.07317	6.42e-05	0.256	TGACTCAA
TGACTCAB	DREME-3	chr8	125150712	125150719	-	4.07317	6.42e-05	0.256	TGACTCAA
TGACTCAB	DREME-3	chr8	129165379	129165386	+	4.07317	6.42e-05	0.256	tgactcaa
TGACTCAB	DREME-3	chr2	134035123	134035130	+	4.07317	6.42e-05	0.256	tgactcaa
TGACTCAB	DREME-3	chr2	134035667	134035674	+	4.07317	6.42e-05	0.256	tgactcaa
TGACTCAB	DREME-3	chr8	134781405	134781412	-	4.07317	6.42e-05	0.256	TGACTCAA
TGACTCAB	DREME-3	chr5	137566421	137566428	+	4.07317	6.42e-05	0.256	TGACTCAA
TGACTCAB	DREME-3	chr3	156535426	156535433	+	4.07317	6.42e-05	0.256	TGACTCAA
TGACTCAB	DREME-3	chr5	173250928	173250935	+	4.07317	6.42e-05	0.256	TGACTCAA
TGACTCAB	DREME-3	chr5	177518107	177518114	-	4.07317	6.42e-05	0.256	TGACTCAA
TGACTCAB	DREME-3	chr2	226983893	226983900	+	4.07317	6.42e-05	0.256	TGACTCAA
