prim_db	prim_id	prim_alt	prim_cons	sec_db	sec_id	sec_alt	sec_cons	trim_left	trim_right	red_db	red_id	red_alt	E-value	gap	orient	count	total	adj_p-value	p-value
meme.xml	AAGCAAATRCAATARAAACAAASATAA	MEME-1	AAGCAAATRCAATARAAACAAASATAA	JASPAR2018_CORE_non-redundant	MA1294.1	MYB62	AHWAWAGTTAGGYAD	4	1	.	.	.	3.98e-02	24	0	3	4	2.47e-09	2.23e-08
meme.xml	AAGCAAATRCAATARAAACAAASATAA	MEME-1	AAGCAAATRCAATARAAACAAASATAA	JASPAR2018_CORE_non-redundant	MA1294.1	MYB62	AHWAWAGTTAGGYAD	4	1	.	.	.	3.98e-02	24	4	3	4	1.98e-08	1.78e-07
meme.xml	AAGCAAATRCAATARAAACAAASATAA	MEME-1	AAGCAAATRCAATARAAACAAASATAA	JASPAR2018_CORE_non-redundant	MA1294.1	MYB62	AHWAWAGTTAGGYAD	4	1	.	.	.	3.98e-02	24	5	3	4	1.98e-08	1.78e-07
meme.xml	AAGCAAATRCAATARAAACAAASATAA	MEME-1	AAGCAAATRCAATARAAACAAASATAA	JASPAR2018_CORE_non-redundant	MA1294.1	MYB62	AHWAWAGTTAGGYAD	4	1	.	.	.	3.98e-02	24	8	3	4	1.58e-07	1.42e-06
meme.xml	AAGCAAATRCAATARAAACAAASATAA	MEME-1	AAGCAAATRCAATARAAACAAASATAA	JASPAR2018_CORE_non-redundant	MA0340.1	MOT3	HAGGYA	0	0	JASPAR2018_CORE_non-redundant	MA1294.1	MYB62	9.41e-02	24	0	3	5	5.68e-09	5.11e-08
meme.xml	AAGCAAATRCAATARAAACAAASATAA	MEME-1	AAGCAAATRCAATARAAACAAASATAA	JASPAR2018_CORE_non-redundant	MA0340.1	MOT3	HAGGYA	0	0	JASPAR2018_CORE_non-redundant	MA1294.1	MYB62	9.41e-02	24	4	3	5	4.53e-08	4.08e-07
meme.xml	AAGCAAATRCAATARAAACAAASATAA	MEME-1	AAGCAAATRCAATARAAACAAASATAA	JASPAR2018_CORE_non-redundant	MA0340.1	MOT3	HAGGYA	0	0	JASPAR2018_CORE_non-redundant	MA1294.1	MYB62	9.41e-02	24	5	3	5	4.53e-08	4.08e-07
meme.xml	AAGCAAATRCAATARAAACAAASATAA	MEME-1	AAGCAAATRCAATARAAACAAASATAA	JASPAR2018_CORE_non-redundant	MA0340.1	MOT3	HAGGYA	0	0	JASPAR2018_CORE_non-redundant	MA1294.1	MYB62	9.41e-02	24	8	3	5	3.61e-07	3.25e-06
meme.xml	AAGCAAATRCAATARAAACAAASATAA	MEME-1	AAGCAAATRCAATARAAACAAASATAA	JASPAR2018_CORE_non-redundant	MA0003.3	TFAP2A	HGCCYSAGGCD	1	1	JASPAR2018_CORE_non-redundant	MA1294.1	MYB62	5.57e+00	25	0	2	2	3.44e-07	3.10e-06
meme.xml	AAGCAAATRCAATARAAACAAASATAA	MEME-1	AAGCAAATRCAATARAAACAAASATAA	JASPAR2018_CORE_non-redundant	MA0003.3	TFAP2A	HGCCYSAGGCD	1	1	JASPAR2018_CORE_non-redundant	MA1294.1	MYB62	5.57e+00	25	4	2	2	1.38e-06	1.24e-05
meme.xml	AAGCAAATRCAATARAAACAAASATAA	MEME-1	AAGCAAATRCAATARAAACAAASATAA	JASPAR2018_CORE_non-redundant	MA0003.3	TFAP2A	HGCCYSAGGCD	1	1	JASPAR2018_CORE_non-redundant	MA1294.1	MYB62	5.57e+00	25	5	2	2	1.38e-06	1.24e-05
meme.xml	AAGCAAATRCAATARAAACAAASATAA	MEME-1	AAGCAAATRCAATARAAACAAASATAA	JASPAR2018_CORE_non-redundant	MA0814.1	TFAP2C(var.2)	HGCCTSAGGCD	1	1	JASPAR2018_CORE_non-redundant	MA1294.1	MYB62	5.57e+00	25	0	2	2	3.44e-07	3.10e-06
meme.xml	AAGCAAATRCAATARAAACAAASATAA	MEME-1	AAGCAAATRCAATARAAACAAASATAA	JASPAR2018_CORE_non-redundant	MA0814.1	TFAP2C(var.2)	HGCCTSAGGCD	1	1	JASPAR2018_CORE_non-redundant	MA1294.1	MYB62	5.57e+00	25	4	2	2	1.38e-06	1.24e-05
meme.xml	AAGCAAATRCAATARAAACAAASATAA	MEME-1	AAGCAAATRCAATARAAACAAASATAA	JASPAR2018_CORE_non-redundant	MA0814.1	TFAP2C(var.2)	HGCCTSAGGCD	1	1	JASPAR2018_CORE_non-redundant	MA1294.1	MYB62	5.57e+00	25	5	2	2	1.38e-06	1.24e-05
meme.xml	AAGCAAATRCAATARAAACAAASATAA	MEME-1	AAGCAAATRCAATARAAACAAASATAA	meme.xml	AGTTTAATTAAGTCCCAGCTAT	MEME-2	AGTTTAATTAAGTCCCAGCTAT	0	0	.	.	.	4.76e-02	0	3	3	4	3.23e-09	2.91e-08
meme.xml	AAGCAAATRCAATARAAACAAASATAA	MEME-1	AAGCAAATRCAATARAAACAAASATAA	meme.xml	AGTTTAATTAAGTCCCAGCTAT	MEME-2	AGTTTAATTAAGTCCCAGCTAT	0	0	.	.	.	4.76e-02	0	5	3	4	2.58e-08	2.32e-07
meme.xml	AAGCAAATRCAATARAAACAAASATAA	MEME-1	AAGCAAATRCAATARAAACAAASATAA	meme.xml	AGTTTAATTAAGTCCCAGCTAT	MEME-2	AGTTTAATTAAGTCCCAGCTAT	0	0	.	.	.	4.76e-02	0	7	3	4	2.58e-08	2.32e-07
meme.xml	AAGCAAATRCAATARAAACAAASATAA	MEME-1	AAGCAAATRCAATARAAACAAASATAA	meme.xml	AGTTTAATTAAGTCCCAGCTAT	MEME-2	AGTTTAATTAAGTCCCAGCTAT	0	0	.	.	.	4.76e-02	0	8	3	4	2.06e-07	1.85e-06
meme.xml	AAGCAAATRCAATARAAACAAASATAA	MEME-1	AAGCAAATRCAATARAAACAAASATAA	JASPAR2018_CORE_non-redundant	MA0261.1	lin-14	GAACRC	0	0	.	.	.	2.66e+00	2	0	3	13	1.61e-07	1.45e-06
meme.xml	AAGCAAATRCAATARAAACAAASATAA	MEME-1	AAGCAAATRCAATARAAACAAASATAA	JASPAR2018_CORE_non-redundant	MA0261.1	lin-14	GAACRC	0	0	.	.	.	2.66e+00	2	4	3	13	1.27e-06	1.14e-05
meme.xml	AAGCAAATRCAATARAAACAAASATAA	MEME-1	AAGCAAATRCAATARAAACAAASATAA	JASPAR2018_CORE_non-redundant	MA0261.1	lin-14	GAACRC	0	0	.	.	.	2.66e+00	2	5	3	13	1.27e-06	1.14e-05
meme.xml	AAGCAAATRCAATARAAACAAASATAA	MEME-1	AAGCAAATRCAATARAAACAAASATAA	JASPAR2018_CORE_non-redundant	MA0355.1	PHD1	NSMTGCABVN	1	3	.	.	.	4.22e+00	32	3	3	15	2.55e-07	2.30e-06
meme.xml	AAGCAAATRCAATARAAACAAASATAA	MEME-1	AAGCAAATRCAATARAAACAAASATAA	JASPAR2018_CORE_non-redundant	MA0355.1	PHD1	NSMTGCABVN	1	3	.	.	.	4.22e+00	32	5	3	15	2.01e-06	1.81e-05
meme.xml	AAGCAAATRCAATARAAACAAASATAA	MEME-1	AAGCAAATRCAATARAAACAAASATAA	JASPAR2018_CORE_non-redundant	MA0355.1	PHD1	NSMTGCABVN	1	3	.	.	.	4.22e+00	32	7	3	15	2.01e-06	1.81e-05
meme.xml	AAGCAAATRCAATARAAACAAASATAA	MEME-1	AAGCAAATRCAATARAAACAAASATAA	JASPAR2018_CORE_non-redundant	MA0997.1	ERF069	NCGCCGBMN	2	3	.	.	.	5.39e+00	36	3	2	2	3.21e-07	2.89e-06
meme.xml	AAGCAAATRCAATARAAACAAASATAA	MEME-1	AAGCAAATRCAATARAAACAAASATAA	JASPAR2018_CORE_non-redundant	MA0997.1	ERF069	NCGCCGBMN	2	3	.	.	.	5.39e+00	36	5	2	2	1.29e-06	1.16e-05
meme.xml	AAGCAAATRCAATARAAACAAASATAA	MEME-1	AAGCAAATRCAATARAAACAAASATAA	JASPAR2018_CORE_non-redundant	MA0997.1	ERF069	NCGCCGBMN	2	3	.	.	.	5.39e+00	36	7	2	2	1.29e-06	1.16e-05
meme.xml	AAGCAAATRCAATARAAACAAASATAA	MEME-1	AAGCAAATRCAATARAAACAAASATAA	JASPAR2018_CORE_non-redundant	MA0541.1	efl-1	HDHKSGCGSGAAAWT	4	1	.	.	.	5.61e+00	34	2	2	2	3.49e-07	3.14e-06
meme.xml	AAGCAAATRCAATARAAACAAASATAA	MEME-1	AAGCAAATRCAATARAAACAAASATAA	JASPAR2018_CORE_non-redundant	MA0541.1	efl-1	HDHKSGCGSGAAAWT	4	1	.	.	.	5.61e+00	34	6	2	2	1.40e-06	1.26e-05
meme.xml	AAGCAAATRCAATARAAACAAASATAA	MEME-1	AAGCAAATRCAATARAAACAAASATAA	JASPAR2018_CORE_non-redundant	MA0541.1	efl-1	HDHKSGCGSGAAAWT	4	1	.	.	.	5.61e+00	34	7	2	2	1.40e-06	1.26e-05
meme.xml	AAGCAAATRCAATARAAACAAASATAA	MEME-1	AAGCAAATRCAATARAAACAAASATAA	JASPAR2018_CORE_non-redundant	MA0111.1	Spz1	AGGGTWWCAGC	0	0	.	.	.	5.65e+00	77	1	2	2	3.54e-07	3.19e-06
meme.xml	AAGCAAATRCAATARAAACAAASATAA	MEME-1	AAGCAAATRCAATARAAACAAASATAA	JASPAR2018_CORE_non-redundant	MA0111.1	Spz1	AGGGTWWCAGC	0	0	.	.	.	5.65e+00	77	4	2	2	1.42e-06	1.28e-05
meme.xml	AAGCAAATRCAATARAAACAAASATAA	MEME-1	AAGCAAATRCAATARAAACAAASATAA	JASPAR2018_CORE_non-redundant	MA0111.1	Spz1	AGGGTWWCAGC	0	0	.	.	.	5.65e+00	77	6	2	2	1.42e-06	1.28e-05
meme.xml	AAGCAAATRCAATARAAACAAASATAA	MEME-1	AAGCAAATRCAATARAAACAAASATAA	JASPAR2018_CORE_non-redundant	MA0216.2	cad	RGYMATAAAAM	0	0	JASPAR2018_CORE_non-redundant	MA0111.1	Spz1	5.65e+00	72	0	2	2	3.54e-07	3.19e-06
meme.xml	AAGCAAATRCAATARAAACAAASATAA	MEME-1	AAGCAAATRCAATARAAACAAASATAA	JASPAR2018_CORE_non-redundant	MA0216.2	cad	RGYMATAAAAM	0	0	JASPAR2018_CORE_non-redundant	MA0111.1	Spz1	5.65e+00	72	4	2	2	1.42e-06	1.28e-05
meme.xml	AAGCAAATRCAATARAAACAAASATAA	MEME-1	AAGCAAATRCAATARAAACAAASATAA	JASPAR2018_CORE_non-redundant	MA0216.2	cad	RGYMATAAAAM	0	0	JASPAR2018_CORE_non-redundant	MA0111.1	Spz1	5.65e+00	72	5	2	2	1.42e-06	1.28e-05
meme.xml	AAGCAAATRCAATARAAACAAASATAA	MEME-1	AAGCAAATRCAATARAAACAAASATAA	JASPAR2018_CORE_non-redundant	MA0715.1	PROP1	TAATYWAATTA	0	0	.	.	.	5.65e+00	12	3	2	2	3.54e-07	3.19e-06
meme.xml	AAGCAAATRCAATARAAACAAASATAA	MEME-1	AAGCAAATRCAATARAAACAAASATAA	JASPAR2018_CORE_non-redundant	MA0715.1	PROP1	TAATYWAATTA	0	0	.	.	.	5.65e+00	12	5	2	2	1.42e-06	1.28e-05
meme.xml	AAGCAAATRCAATARAAACAAASATAA	MEME-1	AAGCAAATRCAATARAAACAAASATAA	JASPAR2018_CORE_non-redundant	MA0715.1	PROP1	TAATYWAATTA	0	0	.	.	.	5.65e+00	12	7	2	2	1.42e-06	1.28e-05
meme.xml	AAGCAAATRCAATARAAACAAASATAA	MEME-1	AAGCAAATRCAATARAAACAAASATAA	JASPAR2018_CORE_non-redundant	MA0095.2	YY1	CAARATGGCBGC	0	0	.	.	.	5.69e+00	105	0	2	2	3.59e-07	3.23e-06
meme.xml	AAGCAAATRCAATARAAACAAASATAA	MEME-1	AAGCAAATRCAATARAAACAAASATAA	JASPAR2018_CORE_non-redundant	MA0095.2	YY1	CAARATGGCBGC	0	0	.	.	.	5.69e+00	105	4	2	2	1.44e-06	1.29e-05
meme.xml	AAGCAAATRCAATARAAACAAASATAA	MEME-1	AAGCAAATRCAATARAAACAAASATAA	JASPAR2018_CORE_non-redundant	MA0095.2	YY1	CAARATGGCBGC	0	0	.	.	.	5.69e+00	105	5	2	2	1.44e-06	1.29e-05
meme.xml	AAGCAAATRCAATARAAACAAASATAA	MEME-1	AAGCAAATRCAATARAAACAAASATAA	JASPAR2018_CORE_non-redundant	MA0697.1	ZIC3	GACCCCCCGCTGYGH	0	1	.	.	.	5.78e+00	66	2	2	2	3.70e-07	3.33e-06
meme.xml	AAGCAAATRCAATARAAACAAASATAA	MEME-1	AAGCAAATRCAATARAAACAAASATAA	JASPAR2018_CORE_non-redundant	MA0697.1	ZIC3	GACCCCCCGCTGYGH	0	1	.	.	.	5.78e+00	66	6	2	2	1.48e-06	1.33e-05
meme.xml	AAGCAAATRCAATARAAACAAASATAA	MEME-1	AAGCAAATRCAATARAAACAAASATAA	JASPAR2018_CORE_non-redundant	MA0697.1	ZIC3	GACCCCCCGCTGYGH	0	1	.	.	.	5.78e+00	66	7	2	2	1.48e-06	1.33e-05
meme.xml	AAGCAAATRCAATARAAACAAASATAA	MEME-1	AAGCAAATRCAATARAAACAAASATAA	JASPAR2018_CORE_non-redundant	MA0751.1	ZIC4	GRCCCCCCGCKGYGH	0	1	.	.	.	5.78e+00	66	2	2	2	3.70e-07	3.33e-06
meme.xml	AAGCAAATRCAATARAAACAAASATAA	MEME-1	AAGCAAATRCAATARAAACAAASATAA	JASPAR2018_CORE_non-redundant	MA0751.1	ZIC4	GRCCCCCCGCKGYGH	0	1	.	.	.	5.78e+00	66	6	2	2	1.48e-06	1.33e-05
meme.xml	AAGCAAATRCAATARAAACAAASATAA	MEME-1	AAGCAAATRCAATARAAACAAASATAA	JASPAR2018_CORE_non-redundant	MA0751.1	ZIC4	GRCCCCCCGCKGYGH	0	1	.	.	.	5.78e+00	66	7	2	2	1.48e-06	1.33e-05
meme.xml	AAGCAAATRCAATARAAACAAASATAA	MEME-1	AAGCAAATRCAATARAAACAAASATAA	JASPAR2018_CORE_non-redundant	MA0047.2	Foxa2	TGTTTACWYWGB	0	1	.	.	.	6.67e+00	55	7	3	9	4.18e-07	3.77e-06
meme.xml	AAGCAAATRCAATARAAACAAASATAA	MEME-1	AAGCAAATRCAATARAAACAAASATAA	JASPAR2018_CORE_non-redundant	MA0047.2	Foxa2	TGTTTACWYWGB	0	1	.	.	.	6.67e+00	55	8	3	9	3.29e-06	2.96e-05
##
# Detailed descriptions of columns in this file:
#
# prim_db:	The name of the database (file name) that contains the primary motif.
# prim_id:	A name for the primary motif that is unique in the motif database file.
# prim_alt:	An alternate name of the primary motif that may be provided
#		in the motif database file.
# prim_cons:	A consensus sequence computed from the primary motif (see doc/motif-consensus.html).
# sec_db:	The name of the database (file name) that contains the secondary motif.
# sec_id:	A name for the motif that is unique in the motif database file.
# sec_alt:	An alternate name of the secondary motif that may be provided
#		in the motif database file.
# sec_cons:	A consensus sequence computed from the secondary motif (see doc/motif-consensus.html).
# trim_left:	Number of positions trimmed from left of secondary motif
# trim_right:	Number of positions trimmed from right of secondary motif
# If the next three fields are not blank, the motif is redundant with a more significant ('parent') motif.
# red_db:	The database (file name) that contains the parent motif.
# red_id:	A name for the parent motif that is unique in the motif database file.
# red_alt:	An alternate name of the parent motif that may be provided
#		in the motif database file.
# E-value:	The expected number motifs that would have least one
#		spacing as enriched as the best spacing for this secondary.
#		The E-value is the best spacing p-value multiplied by the number of motifs in the
#		input database(s).
# gap:		The distance between the edge of the primary and the (trimmed) secondary motif.
# orient:	The (combination) of quadrants for which occurrences
#		of this spacing are combined.
# count:	The number of occurrences of the secondary motif with the
#		given spacing and orientation to the primary motif.
# total:	The total number of occurrences of the secondary motif within the
#		margins around the best primary motif occurrence.
# adj_p-value:	The p-value of the gap and orientation, adjusted for
#		nine combinations of quadrants times the number of gaps tested
#		(as controlled by the -range switch).
# p-value:	The p-value of the gap and orientation adjusted only for the number of gaps tested.
