# motif_id	motif_alt_id	sequence_name	start	stop	strand	score	p-value	q-value	matched_sequence
TCTRKVAVATAACWTHAGAAAADCCCT	MEME-3	chr2	43826772	43826798	+	34.4393	3.25e-13	1.29e-09	tctagaagataacattggaaaaaccct
TCTRKVAVATAACWTHAGAAAADCCCT	MEME-3	chr5	53039596	53039622	+	34.4393	3.25e-13	1.29e-09	tctagaagataacattggaaaaaccct
TCTRKVAVATAACWTHAGAAAADCCCT	MEME-3	chr17	78690333	78690359	-	34.4393	3.25e-13	1.29e-09	TCTAGAAGATAACATTGGAAAAACCCT
TCTRKVAVATAACWTHAGAAAADCCCT	MEME-3	chr4	24861961	24861987	+	33.4019	1.57e-12	4.69e-09	tctataagatagcatcagaaaaaccct
TCTRKVAVATAACWTHAGAAAADCCCT	MEME-3	chr7	117565251	117565277	+	30.5701	4.74e-11	1.13e-07	tccagaagataacattggaaaaactct
TCTRKVAVATAACWTHAGAAAADCCCT	MEME-3	chr9	93712854	93712880	-	25.6262	2.54e-09	5.05e-06	CCTCACAGATAATTGAAGAAAATCCCT
TCTRKVAVATAACWTHAGAAAADCCCT	MEME-3	chr17	78690232	78690258	-	25.3645	2.99e-09	5.1e-06	GCTGGGACTTAATTTAACTAAAGGCCT
TCTRKVAVATAACWTHAGAAAADCCCT	MEME-3	chr12	124723524	124723550	+	25.1215	3.45e-09	5.15e-06	GCTGGGGAGTAACAGGAGTTAAGGCCT
TCTRKVAVATAACWTHAGAAAADCCCT	MEME-3	chr3	65974068	65974094	+	24.1215	6.16e-09	8.17e-06	TCAGTCACATCACTCCAGATGAGCCAT
TCTRKVAVATAACWTHAGAAAADCCCT	MEME-3	chr15	45402283	45402309	-	22.8972	1.19e-08	1.42e-05	TCAGTAAACGCACATCACCAAATCTCT
TCTRKVAVATAACWTHAGAAAADCCCT	MEME-3	chr4	131057513	131057539	+	2.69159	2.88e-05	0.0312	gctgggacttaattaaaccaaagagct
TCTRKVAVATAACWTHAGAAAADCCCT	MEME-3	chr2	43826748	43826774	+	2.37383	3.16e-05	0.0314	tctaagacctgacactctaaaaactct
TCTRKVAVATAACWTHAGAAAADCCCT	MEME-3	chr4	24861937	24861963	+	1.38318	4.2e-05	0.0386	tctaagacctgaaaccacaaaaattct
TCTRKVAVATAACWTHAGAAAADCCCT	MEME-3	chr4	24861988	24862014	+	-1.72897	9.94e-05	0.0847	tctagacattggcttaggcaaatacat
