#Query ID	Target ID	Optimal offset	p-value	E-value	q-value	Overlap	Query consensus	Target consensus	Orientation
GTGTGTGTGYGTGTGT	EGR2_HUMAN.H11MO.1.A	1	0.000873025	0.673102	1	15	GTGTGTGTGTGTGTGT	GGGGCGTGGGCGGGGG	+
RAAAAAAAMAAAMAAA	CPEB1_HUMAN.H11MO.0.D	1	2.43255e-08	1.8755e-05	3.66849e-05	16	AAAAAAAAAAAAAAAA	AAAAAAAAAAATAAAAA	-
RAAAAAAAMAAAMAAA	FOXL1_HUMAN.H11MO.0.D	1	8.85262e-06	0.00682537	0.00498875	16	AAAAAAAAAAAAAAAA	AAAAGTAAACAAACAAACA	-
RAAAAAAAMAAAMAAA	PRDM6_HUMAN.H11MO.0.C	-2	9.92404e-06	0.00765144	0.00498875	13	AAAAAAAAAAAAAAAA	AAAAAGAAAAAAA	+
RAAAAAAAMAAAMAAA	FUBP1_HUMAN.H11MO.0.D	-3	3.54137e-05	0.0273039	0.0133517	12	AAAAAAAAAAAAAAAA	AAAAAAACACAA	-
RAAAAAAAMAAAMAAA	FOXG1_HUMAN.H11MO.0.D	-1	6.30987e-05	0.0486491	0.0190316	15	AAAAAAAAAAAAAAAA	AAAAAAATATAAACAAT	-
RAAAAAAAMAAAMAAA	FOXJ3_HUMAN.H11MO.0.A	-2	8.92821e-05	0.0688365	0.0224408	13	AAAAAAAAAAAAAAAA	AAAAAATAAACAA	-
RAAAAAAAMAAAMAAA	ONEC2_HUMAN.H11MO.0.D	1	0.000158567	0.122255	0.0341617	16	AAAAAAAAAAAAAAAA	AAAAAAAATCAATAACAAGAC	-
RAAAAAAAMAAAMAAA	FOXJ3_HUMAN.H11MO.1.B	-4	0.000288626	0.222531	0.054409	12	AAAAAAAAAAAAAAAA	TAAACAAAAACAA	-
RAAAAAAAMAAAMAAA	ANDR_HUMAN.H11MO.0.A	2	0.000391527	0.301867	0.065606	16	AAAAAAAAAAAAAAAA	AGCAAACAAAAAAGAACA	-
RAAAAAAAMAAAMAAA	STAT1_HUMAN.H11MO.1.A	0	0.000954291	0.735758	0.1212	16	AAAAAAAAAAAAAAAA	AAGAAAATGAAACTGAAAG	+
RAAAAAAAMAAAMAAA	IRF1_HUMAN.H11MO.0.A	0	0.00106684	0.822536	0.1212	16	AAAAAAAAAAAAAAAA	GAAAATGAAAGTGAAAGTAA	+
RAAAAAAAMAAAMAAA	FOXJ2_HUMAN.H11MO.0.C	-4	0.00109265	0.842435	0.1212	10	AAAAAAAAAAAAAAAA	TAAATAAACA	-
RAAAAAAAMAAAMAAA	ONEC3_HUMAN.H11MO.0.D	-1	0.00109654	0.845436	0.1212	12	AAAAAAAAAAAAAAAA	AAAAAATCAATA	-
RAAAAAAAMAAAMAAA	NFAC1_HUMAN.H11MO.0.B	1	0.00125131	0.964763	0.1212	14	AAAAAAAAAAAAAAAA	ATGGAAAAAAAGAAA	+
RAAAAAAAMAAAMAAA	SRY_HUMAN.H11MO.0.B	-4	0.00127778	0.985169	0.1212	9	AAAAAAAAAAAAAAAA	AAAACAAAA	-
RAAAAAAAMAAAMAAA	HXC10_HUMAN.H11MO.0.D	3	0.00128587	0.991407	0.1212	16	AAAAAAAAAAAAAAAA	GTAATAAAAAAATTAAAAA	-
RKCTCMCHGCMMHCYCCNCCHC	MAZ_HUMAN.H11MO.0.A	-1	1.76524e-05	0.01361	0.0189955	21	GGCTCCCTGCAATCTCCACCTC	CCCCCCCCCCCCCCCCTCCCCC	-
RKCTCMCHGCMMHCYCCNCCHC	TBX15_HUMAN.H11MO.0.D	-2	2.82842e-05	0.0218071	0.0189955	19	GGCTCCCTGCAATCTCCACCTC	CCCCCACCCCCCCCCCCCC	-
RKCTCMCHGCMMHCYCCNCCHC	WT1_HUMAN.H11MO.0.C	-2	4.05087e-05	0.0312322	0.0189955	20	GGCTCCCTGCAATCTCCACCTC	CCCCCCCTCCTCCCCCGCCC	-
RKCTCMCHGCMMHCYCCNCCHC	KLF15_HUMAN.H11MO.0.A	-3	6.34944e-05	0.0489542	0.0189955	19	GGCTCCCTGCAATCTCCACCTC	CCCCCCCCTGCTCCTCCCC	-
RKCTCMCHGCMMHCYCCNCCHC	ZN467_HUMAN.H11MO.0.C	0	9.49686e-05	0.0732208	0.0189955	22	GGCTCCCTGCAATCTCCACCTC	CCCCCCCCCCCCTCCCCTCCCC	-
RKCTCMCHGCMMHCYCCNCCHC	RXRA_HUMAN.H11MO.0.A	-4	9.8445e-05	0.0759011	0.0189955	18	GGCTCCCTGCAATCTCCACCTC	CTCTGACCTCTGCCTCCCCC	-
RKCTCMCHGCMMHCYCCNCCHC	EGR2_HUMAN.H11MO.0.A	-4	0.000106762	0.0823137	0.0189955	18	GGCTCCCTGCAATCTCCACCTC	CCCCTCCCACACCCCCCC	-
RKCTCMCHGCMMHCYCCNCCHC	ZN341_HUMAN.H11MO.0.C	-1	0.000113504	0.0875115	0.0189955	21	GGCTCCCTGCAATCTCCACCTC	GCTCTTCCCTCCCCCCCCCCCC	-
RKCTCMCHGCMMHCYCCNCCHC	ZN740_HUMAN.H11MO.0.D	-5	0.000114399	0.0882015	0.0189955	14	GGCTCCCTGCAATCTCCACCTC	CCCACCCCCCCCCC	-
RKCTCMCHGCMMHCYCCNCCHC	PATZ1_HUMAN.H11MO.0.C	-1	0.000227808	0.17564	0.032697	21	GGCTCCCTGCAATCTCCACCTC	CCTCCCCCCCCGCCCCCTCCCC	-
RKCTCMCHGCMMHCYCCNCCHC	KLF16_HUMAN.H11MO.0.D	-4	0.000240674	0.185559	0.032697	18	GGCTCCCTGCAATCTCCACCTC	CCCCCCCCCCCCCGCCCCC	-
RKCTCMCHGCMMHCYCCNCCHC	COT1_HUMAN.H11MO.0.C	-4	0.00041729	0.32173	0.051967	17	GGCTCCCTGCAATCTCCACCTC	CCCTGACCTCTGACCCC	-
RKCTCMCHGCMMHCYCCNCCHC	PURA_HUMAN.H11MO.0.D	-4	0.000505083	0.389419	0.0547017	17	GGCTCCCTGCAATCTCCACCTC	CCCTGCCCCCCCCTTCC	-
RKCTCMCHGCMMHCYCCNCCHC	VEZF1_HUMAN.H11MO.0.C	-1	0.000525036	0.404802	0.0547017	21	GGCTCCCTGCAATCTCCACCTC	CCCCTCCCCCTCCCCCCTCCCC	-
RKCTCMCHGCMMHCYCCNCCHC	KLF5_HUMAN.H11MO.0.A	-4	0.000564976	0.435597	0.0547017	14	GGCTCCCTGCAATCTCCACCTC	CCCAGCCCCACCCT	-
RKCTCMCHGCMMHCYCCNCCHC	KLF6_HUMAN.H11MO.0.A	-2	0.000622269	0.479769	0.0547017	19	GGCTCCCTGCAATCTCCACCTC	CCCCCGGCCCCGCCCTTCC	-
RKCTCMCHGCMMHCYCCNCCHC	ZBT17_HUMAN.H11MO.0.A	-1	0.000622269	0.479769	0.0547017	19	GGCTCCCTGCAATCTCCACCTC	CTTCCCCTCCCCCACCCTC	-
RKCTCMCHGCMMHCYCCNCCHC	SP1_HUMAN.H11MO.0.A	-2	0.000725369	0.55926	0.0554064	20	GGCTCCCTGCAATCTCCACCTC	CCCCCCCCCGGCCCCGCCCCCC	-
RKCTCMCHGCMMHCYCCNCCHC	SP3_HUMAN.H11MO.0.B	-4	0.000761241	0.586917	0.0554064	18	GGCTCCCTGCAATCTCCACCTC	CCCCGGCCCCGCCCCCCCCC	-
RKCTCMCHGCMMHCYCCNCCHC	MYBA_HUMAN.H11MO.0.D	-5	0.000765022	0.589832	0.0554064	15	GGCTCCCTGCAATCTCCACCTC	TCTCCAACTGCCACT	-
RKCTCMCHGCMMHCYCCNCCHC	RARA_HUMAN.H11MO.0.A	-4	0.000804293	0.62011	0.0554064	18	GGCTCCCTGCAATCTCCACCTC	CCTTGACCTCTTGATCCCCC	-
RKCTCMCHGCMMHCYCCNCCHC	KLF14_HUMAN.H11MO.0.D	-8	0.000815663	0.628876	0.0554064	13	GGCTCCCTGCAATCTCCACCTC	GCCACGCCCCCCT	-
RKCTCMCHGCMMHCYCCNCCHC	TAF1_HUMAN.H11MO.0.A	-6	0.00093927	0.724177	0.0610287	16	GGCTCCCTGCAATCTCCACCTC	CCGCCGCCGCCATCTT	-
RKCTCMCHGCMMHCYCCNCCHC	VEZF1_HUMAN.H11MO.1.C	-9	0.00103019	0.794279	0.0630736	12	GGCTCCCTGCAATCTCCACCTC	CCCCCTCCCTCT	-
RKCTCMCHGCMMHCYCCNCCHC	ZN263_HUMAN.H11MO.0.A	-4	0.00105607	0.814228	0.0630736	18	GGCTCCCTGCAATCTCCACCTC	CTCCTCCTCTCCCTCCTCCC	-
RKCTCMCHGCMMHCYCCNCCHC	MZF1_HUMAN.H11MO.0.B	-7	0.00109736	0.846065	0.0630736	13	GGCTCCCTGCAATCTCCACCTC	CCCAATCCCCTCC	-
TCCAGCCTGGGTSACAGAGYRASAYYCC	ZN121_HUMAN.H11MO.0.C	-6	2.98875e-07	0.000230433	0.000460865	20	TCCAGCCTGGGTGACAGAGTAAGATTCC	CTGGGCAACATAGCAAGACC	+
TCCAGCCTGGGTSACAGAGYRASAYYCC	PAX5_HUMAN.H11MO.0.A	-4	2.79697e-06	0.00215647	0.00215647	21	TCCAGCCTGGGTGACAGAGTAAGATTCC	GCCTGGGCAGCAGAGCGTGAC	+
TCCAGCCTGGGTSACAGAGYRASAYYCC	PBX1_HUMAN.H11MO.0.A	-7	0.000962014	0.741713	0.494475	10	TCCAGCCTGGGTGACAGAGTAAGATTCC	TGATTGACAG	+
CWGGGCWGDGCAGRGM	ZN331_HUMAN.H11MO.0.C	2	1.55145e-05	0.0119617	0.0234229	16	CAGGGCAGGGCAGGGC	GGCTGGGCTCAGCTGGGTGG	+
CWGGGCWGDGCAGRGM	TFCP2_HUMAN.H11MO.0.D	1	3.61567e-05	0.0278768	0.0272936	15	CAGGGCAGGGCAGGGC	TCTGGCCAGTTCAGGC	-
CWGGGCWGDGCAGRGM	TBX1_HUMAN.H11MO.0.D	2	5.88329e-05	0.0453601	0.0296075	16	CAGGGCAGGGCAGGGC	GGGTGGGCAGGGGTGGGCGG	+
CWGGGCWGDGCAGRGM	KLF6_HUMAN.H11MO.0.A	2	9.18927e-05	0.0708493	0.0296731	16	CAGGGCAGGGCAGGGC	GGAAGGGCGGGGCCGGGGG	+
CWGGGCWGDGCAGRGM	KLF1_HUMAN.H11MO.0.A	-1	9.82719e-05	0.0757676	0.0296731	14	CAGGGCAGGGCAGGGC	GGGGCGGGGCCGGG	+
CWGGGCWGDGCAGRGM	KLF5_HUMAN.H11MO.0.A	-1	0.000162943	0.125629	0.0364769	14	CAGGGCAGGGCAGGGC	AGGGTGGGGCTGGG	+
CWGGGCWGDGCAGRGM	KLF3_HUMAN.H11MO.0.B	4	0.000169127	0.130397	0.0364769	15	CAGGGCAGGGCAGGGC	GGGGAGGGGCGGGGCCGGG	+
CWGGGCWGDGCAGRGM	RARA_HUMAN.H11MO.1.A	-5	0.000633884	0.488725	0.119625	10	CAGGGCAGGGCAGGGC	AAGGTCAGGG	+
CWGGGCWGDGCAGRGM	ZN341_HUMAN.H11MO.0.C	6	0.00101191	0.780185	0.169748	16	CAGGGCAGGGCAGGGC	GGGGGGGGGGGGAGGGAAGAGC	+
GTGACTCAY	FOS_HUMAN.H11MO.0.A	0	5.59153e-10	4.31107e-07	8.50249e-07	9	GTGACTCAC	GTGACTCAC	-
GTGACTCAY	JUND_HUMAN.H11MO.0.A	1	1.76411e-07	0.000136013	0.000134125	9	GTGACTCAC	GATGACTCATC	-
GTGACTCAY	FOSB_HUMAN.H11MO.0.A	0	3.86238e-07	0.00029779	0.000195772	9	GTGACTCAC	ATGACTCAT	-
GTGACTCAY	FOSL1_HUMAN.H11MO.0.A	1	7.98684e-07	0.000615786	0.00030362	9	GTGACTCAC	GGTGACTCATCC	-
GTGACTCAY	JUNB_HUMAN.H11MO.0.A	1	1.15871e-06	0.000893369	0.000352389	9	GTGACTCAC	GGTGACTCAGA	-
GTGACTCAY	JUN_HUMAN.H11MO.0.A	1	3.03857e-06	0.00234273	0.000770076	9	GTGACTCAC	GATGACTCATC	-
GTGACTCAY	FOSL2_HUMAN.H11MO.0.A	1	4.89314e-06	0.00377261	0.00106293	9	GTGACTCAC	GATGACTCATCC	-
GTGACTCAY	BACH2_HUMAN.H11MO.0.A	0	8.17444e-05	0.0630249	0.0138112	9	GTGACTCAC	ATGACTCAGCA	-
GTGACTCAY	BACH1_HUMAN.H11MO.0.A	2	0.000116939	0.0901596	0.0171001	9	GTGACTCAC	GCATGACTCAGCA	-
GTGACTCAY	NFE2_HUMAN.H11MO.0.A	2	0.000210063	0.161959	0.024571	9	GTGACTCAC	GCATGACTCAGCA	+
GTGACTCAY	NF2L2_HUMAN.H11MO.0.A	0	0.000406497	0.313409	0.03636	9	GTGACTCAC	ATGACTCAGCAGTT	-
GTGACTCAY	MAFK_HUMAN.H11MO.1.A	2	0.00120097	0.925945	0.0913097	9	GTGACTCAC	TGCTGACTCAGCA	-
RCAYTNDRYAAATRTTTRCTGA	FOXD2_HUMAN.H11MO.0.D	-3	8.74941e-06	0.00674579	0.00949215	19	ACACTTAGTAAATATTTGCTGA	TTAAATAAATATTTACATA	-
RCAYTNDRYAAATRTTTRCTGA	FOXB1_HUMAN.H11MO.0.D	-7	0.00010406	0.0802303	0.052593	15	ACACTTAGTAAATATTTGCTGA	GTCAATATTTACATAAC	+
RCAYTNDRYAAATRTTTRCTGA	FOXJ2_HUMAN.H11MO.0.C	-12	0.000195986	0.151105	0.0704785	10	ACACTTAGTAAATATTTGCTGA	TGTTTATTTA	+
RCAYTNDRYAAATRTTTRCTGA	PO4F3_HUMAN.H11MO.0.D	-7	0.000703337	0.542273	0.177737	15	ACACTTAGTAAATATTTGCTGA	ATGAATAATTAATGA	-
RCAYTNDRYAAATRTTTRCTGA	HXC10_HUMAN.H11MO.0.D	-4	0.00124483	0.959764	0.269636	18	ACACTTAGTAAATATTTGCTGA	TTTTTAATTTTTTTATTAC	+
