# motif_id	motif_alt_id	sequence_name	start	stop	strand	score	p-value	q-value	matched_sequence
TGTGGTCAGACYGGTTCTCTGCTCTYRAAC	MEME-6	chr22	19922885	19922914	+	50.9835	2.49e-18	2.46e-12	tgtggtcagactggttctctgctcttaaac
TGTGGTCAGACYGGTTCTCTGCTCTYRAAC	MEME-6	chr2	106947166	106947195	-	50.4711	4.87e-18	2.46e-12	TGTGGTCAGACTGGTTCTCTGCTCTTGAAC
TGTGGTCAGACYGGTTCTCTGCTCTYRAAC	MEME-6	chr3	195316746	195316775	-	50.4711	4.87e-18	2.46e-12	TGTGGTCAGACTGGTTCTCTGCTCTTGAAC
TGTGGTCAGACYGGTTCTCTGCTCTYRAAC	MEME-6	chr16	19555154	19555183	+	47.6777	2.1e-16	7.01e-11	tgtggtcggaccagttctctgctctcaaac
TGTGGTCAGACYGGTTCTCTGCTCTYRAAC	MEME-6	chr5	67042213	67042242	-	47.6116	2.32e-16	7.01e-11	TGTGGTCAGACCAGTTCTCTGCTCTTGAAC
TGTGGTCAGACYGGTTCTCTGCTCTYRAAC	MEME-6	chr5	79789546	79789575	+	46.8843	4.78e-16	1.2e-10	tctagtcagaccggttctctgctctcaaac
TGTGGTCAGACYGGTTCTCTGCTCTYRAAC	MEME-6	chr7	56264052	56264081	-	46.4711	6.94e-16	1.44e-10	TCTAGTCAGACTGGTTCTCTGCTCTCGAAC
TGTGGTCAGACYGGTTCTCTGCTCTYRAAC	MEME-6	chr1	20559211	20559240	-	46.3719	7.63e-16	1.44e-10	TCTAGTCAGACCGGTTCTCTGCTCTCGAAC
TGTGGTCAGACYGGTTCTCTGCTCTYRAAC	MEME-6	chr10	34716383	34716412	+	45.314	2.05e-15	3.44e-10	tctagtcagaccggttctctgctcttgaac
TGTGGTCAGACYGGTTCTCTGCTCTYRAAC	MEME-6	chr16	29794954	29794983	+	43.5207	8.27e-15	1.25e-09	tttggtcagaccggttctctgctctcgaac
TGTGGTCAGACYGGTTCTCTGCTCTYRAAC	MEME-6	chr2	153020389	153020418	+	42.562	1.7e-14	2.33e-09	tttggtcagactggttctctgctcttgaac
TGTGGTCAGACYGGTTCTCTGCTCTYRAAC	MEME-6	chr8	67103291	67103320	-	42.0661	2.38e-14	3e-09	TGTGGTCAGACCAGTTCTCTGCTCTCTAAC
TGTGGTCAGACYGGTTCTCTGCTCTYRAAC	MEME-6	chr8	67107999	67108028	-	39.9174	9.34e-14	1.09e-08	TGTGGTCAGACCAGTTCTCTGCTCTTGATC
TGTGGTCAGACYGGTTCTCTGCTCTYRAAC	MEME-6	chr5	83731868	83731897	+	37.405	4.1e-13	4.42e-08	tctagtcagaccggttgtctgctcttgaac
TGTGGTCAGACYGGTTCTCTGCTCTYRAAC	MEME-6	chr6	39384598	39384627	+	34.1983	2.32e-12	2.34e-07	TGTGGGCTGACTGGTTTGCAGTTCACAAAT
TGTGGTCAGACYGGTTCTCTGCTCTYRAAC	MEME-6	chr5	154224536	154224565	+	32.124	6.6e-12	6.24e-07	GGTGGTGAGAAGGCTTCTCGGCTGTAAGAG
TGTGGTCAGACYGGTTCTCTGCTCTYRAAC	MEME-6	chr1	117217562	117217591	+	10.876	3.29e-08	0.00293	tctggtctgtcttgttctctggtgttggtc
TGTGGTCAGACYGGTTCTCTGCTCTYRAAC	MEME-6	chr1	246868850	246868879	+	4.56198	2.45e-07	0.0206	TCTTGTGGGAAATCTTTTCTGCCCATAAAC
TGTGGTCAGACYGGTTCTCTGCTCTYRAAC	MEME-6	chr9	115154629	115154658	-	3.40496	3.47e-07	0.0276	TTGTGGTCAACCGGTTCTCTGCTCTCAAAC
TGTGGTCAGACYGGTTCTCTGCTCTYRAAC	MEME-6	chr1	178624729	178624758	+	1.18182	6.67e-07	0.0504	tgtggtgaaaccccatctctactaaaaaag
TGTGGTCAGACYGGTTCTCTGCTCTYRAAC	MEME-6	chr14	68981497	68981526	+	-0.677686	1.13e-06	0.0816	TCAGGGGAGATTTGTTTTCAACTCCCAAAT
TGTGGTCAGACYGGTTCTCTGCTCTYRAAC	MEME-6	chr4	125554510	125554539	-	-0.842975	1.19e-06	0.0817	GCTGGGCAGTCAGGTTATGGTCTGTAAAAT
TGTGGTCAGACYGGTTCTCTGCTCTYRAAC	MEME-6	chr12	79941343	79941372	-	-1.40496	1.39e-06	0.0914	TGTAGGTAGACCAGGCTTCTTTTCTTGCAC
TGTGGTCAGACYGGTTCTCTGCTCTYRAAC	MEME-6	chr3	187754386	187754415	+	-1.77686	1.54e-06	0.0971	TGTGATTAGAAAGATTCTTTCCTCTAAAAG
TGTGGTCAGACYGGTTCTCTGCTCTYRAAC	MEME-6	chr14	68981539	68981568	-	-2.00826	1.64e-06	0.0992	GCCAGTGAGATAGGATCTCAGGTCTAGAAT
TGTGGTCAGACYGGTTCTCTGCTCTYRAAC	MEME-6	chr16	10720185	10720214	-	-3.03306	2.17e-06	0.126	GGTGGGGAAACCACATCTCTACTAAAAATC
TGTGGTCAGACYGGTTCTCTGCTCTYRAAC	MEME-6	chr7	12687144	12687173	+	-3.72727	2.62e-06	0.147	tctgggctgtagttgtctcaactctaaaat
TGTGGTCAGACYGGTTCTCTGCTCTYRAAC	MEME-6	chr2	120824509	120824538	+	-3.91736	2.76e-06	0.149	TGTAGGTTGAAGAATTTTCTACTGAAAGAA
TGTGGTCAGACYGGTTCTCTGCTCTYRAAC	MEME-6	chr8	116879947	116879976	-	-4.09917	2.9e-06	0.151	TGTGGTGAGTGTGTTTCCAAGTTGTCAAGC
TGTGGTCAGACYGGTTCTCTGCTCTYRAAC	MEME-6	chr2	102013001	102013030	-	-5.52066	4.23e-06	0.203	TCTGGGAGGAGTTGTTCTTTGTCGAAGAAT
TGTGGTCAGACYGGTTCTCTGCTCTYRAAC	MEME-6	chr11	78770990	78771019	-	-5.55372	4.26e-06	0.203	AGGGCTGTGACCACCTTGCAGCTCTTTAAT
TGTGGTCAGACYGGTTCTCTGCTCTYRAAC	MEME-6	chr11	67350213	67350242	-	-5.59504	4.3e-06	0.203	TGCGGTCTCGCTGGTTTTCTGTTCCTGTGT
TGTGGTCAGACYGGTTCTCTGCTCTYRAAC	MEME-6	chr9	115154610	115154639	-	-5.89256	4.66e-06	0.206	TGCTCTCAAACCTGTTTTCTGTTGTTTAAG
TGTGGTCAGACYGGTTCTCTGCTCTYRAAC	MEME-6	chr4	40365839	40365868	+	-5.90909	4.68e-06	0.206	TGTGGTGAGGCCACTTGACATGTCACCAAC
TGTGGTCAGACYGGTTCTCTGCTCTYRAAC	MEME-6	chr13	20749196	20749225	-	-5.98347	4.77e-06	0.206	TGGGGTGTGTCCTGGTTTCAGATCTCGGGC
TGTGGTCAGACYGGTTCTCTGCTCTYRAAC	MEME-6	chr15	70386262	70386291	-	-6.13223	4.96e-06	0.208	TGAAGGCAGCCGAGTTCCCATTTTACAGAG
TGTGGTCAGACYGGTTCTCTGCTCTYRAAC	MEME-6	chr9	97392855	97392884	+	-7.01653	6.24e-06	0.255	tgtagtgtgtctgcttcatagtctacagag
TGTGGTCAGACYGGTTCTCTGCTCTYRAAC	MEME-6	chr21	22611579	22611608	-	-7.57851	7.19e-06	0.286	TGTGGTGGGAGGCGCTCTCTGCCTTTCCAC
TGTGGTCAGACYGGTTCTCTGCTCTYRAAC	MEME-6	chr3	133171984	133172013	-	-8.15702	8.33e-06	0.318	GGCTGTCAGTTCAGATCTCTGTTGATGATC
TGTGGTCAGACYGGTTCTCTGCTCTYRAAC	MEME-6	chr1	243950006	243950035	+	-8.19008	8.41e-06	0.318	GATGGTAAAAATGATTAGAAGCTGTTGAAC
TGTGGTCAGACYGGTTCTCTGCTCTYRAAC	MEME-6	chr3	4818624	4818653	-	-8.66116	9.46e-06	0.349	TGGTGTATGACTGATTCTGGGTTCTGAACC
TGTGGTCAGACYGGTTCTCTGCTCTYRAAC	MEME-6	chr21	16072391	16072420	-	-8.98347	1.03e-05	0.363	TGTGGACAAAGGTGGTGTCATTTCTCAAAC
TGTGGTCAGACYGGTTCTCTGCTCTYRAAC	MEME-6	chr3	30367416	30367445	-	-9.06612	1.05e-05	0.363	TCTTTTCTGAAAGCTTATCTTTTCTTCAAG
TGTGGTCAGACYGGTTCTCTGCTCTYRAAC	MEME-6	chr4	37482298	37482327	-	-9.18182	1.08e-05	0.363	TCTGGGCTGGAAAGATGTCTGCCCCAAAAT
TGTGGTCAGACYGGTTCTCTGCTCTYRAAC	MEME-6	chr4	6690949	6690978	+	-9.19008	1.08e-05	0.363	TGAGGTGAGACGCCACCCCTGCCCTCACAG
TGTGGTCAGACYGGTTCTCTGCTCTYRAAC	MEME-6	chr6	170501970	170501999	-	-9.52893	1.18e-05	0.364	TCGGGTGTGGCTGGAGTTCAGCTCCAGGTC
TGTGGTCAGACYGGTTCTCTGCTCTYRAAC	MEME-6	chr8	38441014	38441043	+	-9.54545	1.18e-05	0.364	TGTAATCAGGCGGGAGCCGTGCTATCGAAT
TGTGGTCAGACYGGTTCTCTGCTCTYRAAC	MEME-6	chr2	221484918	221484947	-	-9.55372	1.18e-05	0.364	TCCAGTGGGACAGGTGAGCAGCTCCCAGTG
TGTGGTCAGACYGGTTCTCTGCTCTYRAAC	MEME-6	chr8	37160033	37160062	-	-9.61983	1.2e-05	0.364	TGTGATGGGACTATTTTTCTACAGCCGAGT
TGTGGTCAGACYGGTTCTCTGCTCTYRAAC	MEME-6	chr3	48309884	48309913	-	-9.61983	1.2e-05	0.364	TTTTGTCTGAAGATTTTTCTGCTGTGACTG
TGTGGTCAGACYGGTTCTCTGCTCTYRAAC	MEME-6	chr1	117217547	117217576	-	-10.1157	1.36e-05	0.397	ACAAGACAGACCAGATTCCAGCCCACAGAC
TGTGGTCAGACYGGTTCTCTGCTCTYRAAC	MEME-6	chr2	71352605	71352634	-	-10.1322	1.36e-05	0.397	GGTGGGCACAGTGGCTCACATCTCTAATCC
TGTGGTCAGACYGGTTCTCTGCTCTYRAAC	MEME-6	chr10	107345493	107345522	+	-10.2314	1.4e-05	0.399	tatgttcagtctcctttgcagctctgccac
TGTGGTCAGACYGGTTCTCTGCTCTYRAAC	MEME-6	chr14	76028600	76028629	-	-10.3967	1.46e-05	0.403	TGTGCTGACACAGGTCCTCCCCTGACAGCC
TGTGGTCAGACYGGTTCTCTGCTCTYRAAC	MEME-6	chr11	70652014	70652043	+	-10.4298	1.47e-05	0.403	gctccagggacttgtttgatgctatcaaat
TGTGGTCAGACYGGTTCTCTGCTCTYRAAC	MEME-6	chr13	108614841	108614870	+	-10.562	1.52e-05	0.41	TTCAGTGATACTAGTCTTCTGTTTACAAAA
TGTGGTCAGACYGGTTCTCTGCTCTYRAAC	MEME-6	chr21	41697130	41697159	+	-10.7107	1.57e-05	0.414	GGTAGTCAATATATTTCACAGAACTAAGAC
TGTGGTCAGACYGGTTCTCTGCTCTYRAAC	MEME-6	chr8	50708240	50708269	-	-10.7603	1.59e-05	0.414	TGTGTTTGGGATATTTTTCAGATCTTGCAT
TGTGGTCAGACYGGTTCTCTGCTCTYRAAC	MEME-6	chrX	9384901	9384930	-	-10.8182	1.61e-05	0.414	TGCAAGGGGACCTCTTCTCTCCTCTAGTGT
TGTGGTCAGACYGGTTCTCTGCTCTYRAAC	MEME-6	chr3	9236506	9236535	+	-10.9421	1.66e-05	0.416	Tgtgccctgtccagatccctgttcccaggc
TGTGGTCAGACYGGTTCTCTGCTCTYRAAC	MEME-6	chr19	18475710	18475739	+	-10.9752	1.68e-05	0.416	GGTGCTGGGACGAGTTTGTTGTTCTCCTTA
TGTGGTCAGACYGGTTCTCTGCTCTYRAAC	MEME-6	chr9	97686114	97686143	-	-11.1488	1.75e-05	0.427	GATAGGCTTGCGGCTTAGATGCTTTCAGAC
TGTGGTCAGACYGGTTCTCTGCTCTYRAAC	MEME-6	chr5	166021436	166021465	+	-11.4298	1.87e-05	0.433	TTTCATCTGATTGCTTGTCAGAACTCAGAC
TGTGGTCAGACYGGTTCTCTGCTCTYRAAC	MEME-6	chr3	70854709	70854738	-	-11.6033	1.95e-05	0.433	CCGGGGCAGATCATTTCGCAGTTTGCAGAG
TGTGGTCAGACYGGTTCTCTGCTCTYRAAC	MEME-6	chr7	157916554	157916583	+	-11.719	2.01e-05	0.433	TCTAATCTGATTGGATCTCAGATCCCGTGC
TGTGGTCAGACYGGTTCTCTGCTCTYRAAC	MEME-6	chr11	86211257	86211286	+	-11.7521	2.02e-05	0.433	TTCTGTCAGAATCCTTCTCTGTGCTGAAGG
TGTGGTCAGACYGGTTCTCTGCTCTYRAAC	MEME-6	chrX	128063481	128063510	-	-11.7603	2.03e-05	0.433	AAATGGCTGATTTGTTCACTGCTGTTAAAT
TGTGGTCAGACYGGTTCTCTGCTCTYRAAC	MEME-6	chr17	76417717	76417746	+	-11.7686	2.03e-05	0.433	TGCAGGGGCACTGGGTTTCTGTTTGGAGAG
TGTGGTCAGACYGGTTCTCTGCTCTYRAAC	MEME-6	chr3	162414679	162414708	+	-11.7686	2.03e-05	0.433	TCTGGAGGGACTGCATTCCTAACCATGAAT
TGTGGTCAGACYGGTTCTCTGCTCTYRAAC	MEME-6	chr1	189744184	189744213	+	-11.8182	2.06e-05	0.433	TAAAGATATTCTGcttctcttctctcagag
TGTGGTCAGACYGGTTCTCTGCTCTYRAAC	MEME-6	chr7	3255675	3255704	+	-11.843	2.07e-05	0.433	GGAGGTGAGTGGGCATGTCTGTTCTCTAAA
TGTGGTCAGACYGGTTCTCTGCTCTYRAAC	MEME-6	chr1	117217322	117217351	-	-11.9256	2.11e-05	0.433	TGTTGGTATACTGCTTTTTCCCTCTGAAAT
TGTGGTCAGACYGGTTCTCTGCTCTYRAAC	MEME-6	chr20	46924249	46924278	-	-11.9339	2.11e-05	0.433	GGAGAGAAAAATAGTTTTCTGGTTACAAAG
TGTGGTCAGACYGGTTCTCTGCTCTYRAAC	MEME-6	chr1	201486626	201486655	-	-11.9504	2.12e-05	0.433	GTTGGGCAGGCTGGTCTCCAACTCCTGACC
TGTGGTCAGACYGGTTCTCTGCTCTYRAAC	MEME-6	chr13	33664899	33664928	-	-12.0909	2.19e-05	0.439	TGAGGGCTGAATACTTGCATACTGCTGGAC
TGTGGTCAGACYGGTTCTCTGCTCTYRAAC	MEME-6	chr16	54683561	54683590	-	-12.124	2.21e-05	0.439	GCTGGGATGCCCACCTTGCTGCTCCTCAAA
TGTGGTCAGACYGGTTCTCTGCTCTYRAAC	MEME-6	chr14	65340741	65340770	-	-12.2231	2.26e-05	0.439	AGGGGTGTGATGAAATCTTTGTTGACAAAG
TGTGGTCAGACYGGTTCTCTGCTCTYRAAC	MEME-6	chr2	106947146	106947175	-	-12.314	2.31e-05	0.439	GCTCTTGAACCCTGTTTTCTGTTGTTTAAG
TGTGGTCAGACYGGTTCTCTGCTCTYRAAC	MEME-6	chr3	195316726	195316755	-	-12.314	2.31e-05	0.439	GCTCTTGAACCCTGTTTTCTGTTGTTTAAG
TGTGGTCAGACYGGTTCTCTGCTCTYRAAC	MEME-6	chr8	134863809	134863838	+	-12.3306	2.32e-05	0.439	AGCAGACAGGCTGCATTTCTGTAGATGAag
TGTGGTCAGACYGGTTCTCTGCTCTYRAAC	MEME-6	chr17	38705990	38706019	-	-12.4959	2.42e-05	0.451	CCAATTCAGACTCCTCTGCCGCTGTCAGAT
TGTGGTCAGACYGGTTCTCTGCTCTYRAAC	MEME-6	chr7	16718696	16718725	-	-12.7355	2.56e-05	0.465	TCTAGTCAGACCAGTTGTGTCTGCTCTCAA
TGTGGTCAGACYGGTTCTCTGCTCTYRAAC	MEME-6	chr16	8773213	8773242	+	-12.8017	2.6e-05	0.465	TGTGGGGAAATTCCTTCTCTGAGCACCTAG
TGTGGTCAGACYGGTTCTCTGCTCTYRAAC	MEME-6	chr10	9229882	9229911	-	-12.8017	2.6e-05	0.465	TGAAATCAGAGTATTTCTATGACCATGAAC
TGTGGTCAGACYGGTTCTCTGCTCTYRAAC	MEME-6	chr10	116105985	116106014	-	-12.8595	2.64e-05	0.465	GCTGGTCACAGTGGCTTTCTGGAGAAGGGG
TGTGGTCAGACYGGTTCTCTGCTCTYRAAC	MEME-6	chr21	41696830	41696859	-	-12.9091	2.67e-05	0.465	TGGGGTCACATGGCTTTGCTTCCATCAGAA
TGTGGTCAGACYGGTTCTCTGCTCTYRAAC	MEME-6	chr10	95500768	95500797	-	-12.9256	2.67e-05	0.465	TGTAGGTGGAATCGTTGTATTCTGGAAGAT
TGTGGTCAGACYGGTTCTCTGCTCTYRAAC	MEME-6	chrX	121166918	121166947	+	-12.9752	2.7e-05	0.465	tttgttgtaattgcttttgggttcttggtc
TGTGGTCAGACYGGTTCTCTGCTCTYRAAC	MEME-6	chr2	120824487	120824516	+	-13.0413	2.75e-05	0.467	TGATGGATGAACTGTTTACTGCTGTAGGTT
TGTGGTCAGACYGGTTCTCTGCTCTYRAAC	MEME-6	chr16	85505221	85505250	+	-13.1653	2.83e-05	0.467	gttgcccagactggtcttgaactcttgggc
TGTGGTCAGACYGGTTCTCTGCTCTYRAAC	MEME-6	chr10	98070962	98070991	-	-13.1983	2.85e-05	0.467	GTTAAACTGACCTGTTTACAGTTTAAAAAC
TGTGGTCAGACYGGTTCTCTGCTCTYRAAC	MEME-6	chr3	12413298	12413327	-	-13.2149	2.86e-05	0.467	TGAGATCATCTGAGTTCTCATTTGACAGAT
TGTGGTCAGACYGGTTCTCTGCTCTYRAAC	MEME-6	chr9	97393008	97393037	-	-13.2314	2.87e-05	0.467	TGAGGTCTTTCTGGTGCTGAGTTCTTGCTT
TGTGGTCAGACYGGTTCTCTGCTCTYRAAC	MEME-6	chrX	105545226	105545255	-	-13.3636	2.97e-05	0.472	CTTGGAAGAAACGGTTCTCTCCTCATGAGT
TGTGGTCAGACYGGTTCTCTGCTCTYRAAC	MEME-6	chr2	101944697	101944726	-	-13.5041	3.06e-05	0.472	TGTAGTCTTTAGGGTCTTCTTCTCTGAACA
TGTGGTCAGACYGGTTCTCTGCTCTYRAAC	MEME-6	chr12	13214792	13214821	+	-13.5124	3.07e-05	0.472	GGTGGAGTATCTGATTTACTGATCTGGAAT
TGTGGTCAGACYGGTTCTCTGCTCTYRAAC	MEME-6	chr21	41442853	41442882	-	-13.5868	3.13e-05	0.472	TTGTGGCAGAGTGTCTTGCTTCTCTTGAAT
TGTGGTCAGACYGGTTCTCTGCTCTYRAAC	MEME-6	chr10	4323648	4323677	+	-13.5868	3.13e-05	0.472	ggaaggcagagggcttttctagtgtctgtt
TGTGGTCAGACYGGTTCTCTGCTCTYRAAC	MEME-6	chr14	52746901	52746930	-	-13.595	3.13e-05	0.472	TGTAGTGATAAGAAATTGATGCTGGCAAGC
TGTGGTCAGACYGGTTCTCTGCTCTYRAAC	MEME-6	chr7	82419209	82419238	+	-13.6612	3.18e-05	0.472	TCTGCTGTTAACATTTCTTTTCTGTTTAAT
TGTGGTCAGACYGGTTCTCTGCTCTYRAAC	MEME-6	chr15	42338862	42338891	+	-13.6942	3.21e-05	0.472	tcttgtctgacctgctcagtgctctctctc
TGTGGTCAGACYGGTTCTCTGCTCTYRAAC	MEME-6	chr4	143522163	143522192	-	-13.7851	3.27e-05	0.472	TCTGGGTGTCCCAGTTTTCAGTGCCTATAT
TGTGGTCAGACYGGTTCTCTGCTCTYRAAC	MEME-6	chr6	1761777	1761806	+	-13.8182	3.3e-05	0.472	TCTGAGGAGCAAGCTTTTCTGTTAATATAA
TGTGGTCAGACYGGTTCTCTGCTCTYRAAC	MEME-6	chr22	47856885	47856914	-	-13.8347	3.31e-05	0.472	GGTAGGGGCACTGGCTGCCTGCTGGCTAAA
TGTGGTCAGACYGGTTCTCTGCTCTYRAAC	MEME-6	chr17	70515212	70515241	+	-13.8347	3.31e-05	0.472	GGGGGTGGGGAAGCTTTGCAGGAGAAGGAG
TGTGGTCAGACYGGTTCTCTGCTCTYRAAC	MEME-6	chr16	10688477	10688506	+	-13.9504	3.4e-05	0.472	TCAGTGCAGACTGGGGCTGTTCTGAGGAAG
TGTGGTCAGACYGGTTCTCTGCTCTYRAAC	MEME-6	chr8	116951493	116951522	+	-13.9504	3.4e-05	0.472	TGTGGTAAGATTAGCTCTGACTTTTTAATG
TGTGGTCAGACYGGTTCTCTGCTCTYRAAC	MEME-6	chr5	38533711	38533740	-	-13.9587	3.41e-05	0.472	TGTGTTGGGACTAGTTTCTGGTATTTAGCT
TGTGGTCAGACYGGTTCTCTGCTCTYRAAC	MEME-6	chr6	3665087	3665116	-	-13.9835	3.43e-05	0.472	GGTAGAGTGAACGGTGTTGACATTACAAAC
TGTGGTCAGACYGGTTCTCTGCTCTYRAAC	MEME-6	chr20	19916562	19916591	-	-14.0496	3.48e-05	0.472	TCTGGGAGAAAGGGGAAGCTGTTAACAAAT
TGTGGTCAGACYGGTTCTCTGCTCTYRAAC	MEME-6	chr13	34263501	34263530	-	-14.0496	3.48e-05	0.472	TCCACACAGACTGAGTTTCTGATCATGAAA
TGTGGTCAGACYGGTTCTCTGCTCTYRAAC	MEME-6	chr10	30985178	30985207	-	-14.0661	3.5e-05	0.472	GGTGGGCAGAATACTTCCTATGTCATGGGA
TGTGGTCAGACYGGTTCTCTGCTCTYRAAC	MEME-6	chr2	191281767	191281796	+	-14.1074	3.53e-05	0.473	gttgggcaaacgagatatctgtaaaaagat
TGTGGTCAGACYGGTTCTCTGCTCTYRAAC	MEME-6	chr20	14860021	14860050	+	-14.157	3.57e-05	0.474	AGTGTTCAGATTGGTTCACTCATGTTGACA
TGTGGTCAGACYGGTTCTCTGCTCTYRAAC	MEME-6	chr19	16284008	16284037	+	-14.2397	3.64e-05	0.476	TGTGGAGAGAGGTGTTGTCTTAACCCGAAC
TGTGGTCAGACYGGTTCTCTGCTCTYRAAC	MEME-6	chr1	151895898	151895927	+	-14.2645	3.66e-05	0.476	aggagtggaactgctttgcagctgtttgca
TGTGGTCAGACYGGTTCTCTGCTCTYRAAC	MEME-6	chr8	124576311	124576340	-	-14.3223	3.71e-05	0.476	TCTGGGCAGGCTTCTCTTGAGATGATGATG
TGTGGTCAGACYGGTTCTCTGCTCTYRAAC	MEME-6	chr2	29329202	29329231	-	-14.3471	3.73e-05	0.476	GGTGGTCAGGAAAGTCTTCAAGGGAAAGAC
TGTGGTCAGACYGGTTCTCTGCTCTYRAAC	MEME-6	chr20	46786875	46786904	+	-14.3802	3.76e-05	0.476	TCTGGGCTGGCTCATTCCCAGCCGACATTC
TGTGGTCAGACYGGTTCTCTGCTCTYRAAC	MEME-6	chr5	37002402	37002431	-	-14.3967	3.77e-05	0.476	TTTGGCCAGTAGGGTGCCCTGTTAGAAGAT
TGTGGTCAGACYGGTTCTCTGCTCTYRAAC	MEME-6	chr12	116865609	116865638	+	-14.4628	3.83e-05	0.479	TGGAATCataatggttacctgttttctgag
TGTGGTCAGACYGGTTCTCTGCTCTYRAAC	MEME-6	chr14	68430923	68430952	-	-14.5124	3.88e-05	0.48	TGGCTGCAGTACTGATCTCTTTTCATGAAC
TGTGGTCAGACYGGTTCTCTGCTCTYRAAC	MEME-6	chr7	127899954	127899983	+	-14.7521	4.09e-05	0.503	actggttgggccagattactgctctgggtg
TGTGGTCAGACYGGTTCTCTGCTCTYRAAC	MEME-6	chr12	33741164	33741193	+	-14.8347	4.18e-05	0.504	tgttggcagtttgcttgacctctgatgaat
TGTGGTCAGACYGGTTCTCTGCTCTYRAAC	MEME-6	chr5	66503097	66503126	+	-14.8347	4.18e-05	0.504	TGTGGGTGCAGTGGAGCTGGATTCTTGAAG
TGTGGTCAGACYGGTTCTCTGCTCTYRAAC	MEME-6	chr12	125406079	125406108	+	-14.9339	4.27e-05	0.504	TTTTGCCTTAACACTTTTCTGCTGATTACT
TGTGGTCAGACYGGTTCTCTGCTCTYRAAC	MEME-6	chr6	151979019	151979048	-	-14.9669	4.3e-05	0.504	TCTGGTCATCATACTTTTTTTTTGCCAGAA
TGTGGTCAGACYGGTTCTCTGCTCTYRAAC	MEME-6	chr9	130749374	130749403	-	-15.0083	4.34e-05	0.504	AGTGGGCCAGCTGGGTGGCTGCCCTCAAGG
TGTGGTCAGACYGGTTCTCTGCTCTYRAAC	MEME-6	chr5	386793	386822	+	-15.0165	4.35e-05	0.504	tctgtagggaatgtgtttgtgttgttggaa
TGTGGTCAGACYGGTTCTCTGCTCTYRAAC	MEME-6	chr7	140675731	140675760	-	-15.0579	4.39e-05	0.504	GCTTTTCACACTGCATGGCAGTTGTCAGTT
TGTGGTCAGACYGGTTCTCTGCTCTYRAAC	MEME-6	chr7	3255853	3255882	+	-15.0744	4.41e-05	0.504	TCTGGCTGGACAGGTTTTGTGTTTTGGGGT
TGTGGTCAGACYGGTTCTCTGCTCTYRAAC	MEME-6	chr5	172963365	172963394	+	-15.0992	4.44e-05	0.504	tgtgtctggaagccttcccttctctttgat
TGTGGTCAGACYGGTTCTCTGCTCTYRAAC	MEME-6	chr20	46875608	46875637	+	-15.1653	4.5e-05	0.504	CAAAGGCAGACCCGATGCCAGCTCACAGAT
TGTGGTCAGACYGGTTCTCTGCTCTYRAAC	MEME-6	chr3	10018398	10018427	-	-15.2149	4.55e-05	0.504	ATTAAAAAAAATAGTTCTCAGCTGATGGAG
TGTGGTCAGACYGGTTCTCTGCTCTYRAAC	MEME-6	chr2	10627577	10627606	-	-15.2397	4.58e-05	0.504	GGTGCTTTCAACGCATTTCAGCTAAAAGAA
TGTGGTCAGACYGGTTCTCTGCTCTYRAAC	MEME-6	chr2	157638400	157638429	-	-15.2562	4.6e-05	0.504	TTTATTGTGTTTGCTTTTGGGTTCTTGGTC
TGTGGTCAGACYGGTTCTCTGCTCTYRAAC	MEME-6	chr17	62224712	62224741	+	-15.281	4.62e-05	0.504	GGTGAGGGCCCCGGTGCTCTGTACTCATTT
TGTGGTCAGACYGGTTCTCTGCTCTYRAAC	MEME-6	chr2	1635851	1635880	-	-15.3388	4.69e-05	0.504	TGTAATCAGAACAGTGGGCAGTGCCTGGGT
TGTGGTCAGACYGGTTCTCTGCTCTYRAAC	MEME-6	chr5	22070452	22070481	+	-15.3471	4.7e-05	0.504	gggaagtggacgggtgccaagttgacaaag
TGTGGTCAGACYGGTTCTCTGCTCTYRAAC	MEME-6	chr2	149972498	149972527	+	-15.3471	4.7e-05	0.504	tctactgagaccgtattgcagtgcttgtgt
TGTGGTCAGACYGGTTCTCTGCTCTYRAAC	MEME-6	chr2	10162154	10162183	+	-15.4215	4.78e-05	0.504	TGCTGGAGGCAGAGCTCGCAGCTGAAGACC
TGTGGTCAGACYGGTTCTCTGCTCTYRAAC	MEME-6	chr5	73025294	73025323	+	-15.4298	4.78e-05	0.504	TGTTTGCTGGCTGGATCTTGCCCCAAGGAC
TGTGGTCAGACYGGTTCTCTGCTCTYRAAC	MEME-6	chr15	52580597	52580626	+	-15.438	4.79e-05	0.504	TAACCACTGACGGCTTCTCTTCTGAAGACC
TGTGGTCAGACYGGTTCTCTGCTCTYRAAC	MEME-6	chr19	38790091	38790120	-	-15.4463	4.8e-05	0.504	TGTAGGAAAAAGGGACCTGTGCTCCCAGCT
TGTGGTCAGACYGGTTCTCTGCTCTYRAAC	MEME-6	chr10	4778538	4778567	-	-15.4959	4.86e-05	0.506	TGTTGTCCAACTTGTTTCTTGCTCGTTAAT
TGTGGTCAGACYGGTTCTCTGCTCTYRAAC	MEME-6	chr6	49509070	49509099	-	-15.5289	4.89e-05	0.506	TATATTCATCATCATTCTCTCCTGTCAGAG
TGTGGTCAGACYGGTTCTCTGCTCTYRAAC	MEME-6	chr5	118873780	118873809	+	-15.5702	4.94e-05	0.508	tctgatgggaaactttctggcatgtcaaac
TGTGGTCAGACYGGTTCTCTGCTCTYRAAC	MEME-6	chr14	96583501	96583530	+	-15.6116	4.99e-05	0.509	tgcagggagcccatgtctttgctgctgcac
TGTGGTCAGACYGGTTCTCTGCTCTYRAAC	MEME-6	chr12	123547449	123547478	+	-15.7438	5.14e-05	0.509	TGAGGGGTGACATGTGCTCTGCCTCTAAAA
TGTGGTCAGACYGGTTCTCTGCTCTYRAAC	MEME-6	chr9	97392914	97392943	+	-15.7521	5.15e-05	0.509	agtggtcagaaaagtgcctggtgcataggc
TGTGGTCAGACYGGTTCTCTGCTCTYRAAC	MEME-6	chr20	52402684	52402713	+	-15.7769	5.18e-05	0.509	TCTGATCCGATAACTTATTTGTTGGCAAAG
TGTGGTCAGACYGGTTCTCTGCTCTYRAAC	MEME-6	chr2	159580501	159580530	+	-15.7769	5.18e-05	0.509	GGCAGTGTGACAAGATCCAAGCTCCCCAAG
TGTGGTCAGACYGGTTCTCTGCTCTYRAAC	MEME-6	chr7	117565408	117565437	-	-15.8512	5.26e-05	0.509	TCTATTGAATTTGCTTTTGGGTTCTTGGTC
TGTGGTCAGACYGGTTCTCTGCTCTYRAAC	MEME-6	chr8	113472030	113472059	+	-15.8512	5.26e-05	0.509	tagttcctgactagtactttgctcttcaac
TGTGGTCAGACYGGTTCTCTGCTCTYRAAC	MEME-6	chr17	81099125	81099154	+	-15.8595	5.27e-05	0.509	TCGGCGCAGCCCCCTTCAAAGCTGTCGGTC
TGTGGTCAGACYGGTTCTCTGCTCTYRAAC	MEME-6	chr5	37002395	37002424	-	-15.8678	5.29e-05	0.509	AGTAGGGTGCCCTGTTAGAAGATCAAAGAG
TGTGGTCAGACYGGTTCTCTGCTCTYRAAC	MEME-6	chr1	52035412	52035441	-	-15.8678	5.29e-05	0.509	TCTGTGCTTTCTGCTTCTAGGTCTCCAAAC
TGTGGTCAGACYGGTTCTCTGCTCTYRAAC	MEME-6	chr3	135574864	135574893	-	-15.8926	5.31e-05	0.509	TCTGCTGTGTTTACTTTTGCTCTGTAAAAG
TGTGGTCAGACYGGTTCTCTGCTCTYRAAC	MEME-6	chr10	19535357	19535386	+	-15.9339	5.37e-05	0.51	GCTAGTGCTTATTTTCTTCTGCTGTAAAAT
TGTGGTCAGACYGGTTCTCTGCTCTYRAAC	MEME-6	chr17	55979011	55979040	+	-15.9587	5.4e-05	0.51	GGAGGTGTGAATGGTGTGCTCCCCTTCTCC
TGTGGTCAGACYGGTTCTCTGCTCTYRAAC	MEME-6	chr10	107345551	107345580	+	-15.9835	5.43e-05	0.51	tcagcccagtctgctcttttgctgtgggag
TGTGGTCAGACYGGTTCTCTGCTCTYRAAC	MEME-6	chr20	49294703	49294732	-	-16.0909	5.56e-05	0.519	GGAAGCCCGCTGGGATCTCTGCTCCAACAC
TGTGGTCAGACYGGTTCTCTGCTCTYRAAC	MEME-6	chr16	85505633	85505662	+	-16.1901	5.69e-05	0.522	gtaggttggccttgtcctctgctcacgaga
TGTGGTCAGACYGGTTCTCTGCTCTYRAAC	MEME-6	chr3	113256155	113256184	-	-16.2149	5.72e-05	0.522	ACTGGTTTAACTGGTTCTAGGTATACAACT
TGTGGTCAGACYGGTTCTCTGCTCTYRAAC	MEME-6	chr7	42332923	42332952	+	-16.2149	5.72e-05	0.522	TGTGCTGTGTCCGTCTCGATGTGCTCAGGT
TGTGGTCAGACYGGTTCTCTGCTCTYRAAC	MEME-6	chr13	33366232	33366261	-	-16.2893	5.81e-05	0.522	TGAGCTGTGATCGCGCCTCTGCACTCCAGC
TGTGGTCAGACYGGTTCTCTGCTCTYRAAC	MEME-6	chr8	69765192	69765221	+	-16.2975	5.82e-05	0.522	gcttctgagactgcttttcaggccttccaa
TGTGGTCAGACYGGTTCTCTGCTCTYRAAC	MEME-6	chr12	83076367	83076396	-	-16.314	5.84e-05	0.522	GGAGGTCAGAACAGAGCTCTCTGCTGGGGG
TGTGGTCAGACYGGTTCTCTGCTCTYRAAC	MEME-6	chr3	168891483	168891512	-	-16.3306	5.87e-05	0.522	ATTTGGCAGAATGGATCGCACCTGAGCAAG
TGTGGTCAGACYGGTTCTCTGCTCTYRAAC	MEME-6	chr2	217622282	217622311	+	-16.3306	5.87e-05	0.522	GGTGGTGACAGTGAGAAGCTGCTCTGGCAC
TGTGGTCAGACYGGTTCTCTGCTCTYRAAC	MEME-6	chr5	134304002	134304031	+	-16.405	5.97e-05	0.523	GATAATCTGAAGGCTTTTCTCTTTTTTTAT
TGTGGTCAGACYGGTTCTCTGCTCTYRAAC	MEME-6	chrX	122722918	122722947	+	-16.4132	5.98e-05	0.523	gggGACCTGTCTTGTCCTCTTCTCACAAAA
TGTGGTCAGACYGGTTCTCTGCTCTYRAAC	MEME-6	chr17	76417736	76417765	+	-16.438	6.02e-05	0.523	TGTTTGGAGAGAGGCTCTCGGTAAACAGAG
TGTGGTCAGACYGGTTCTCTGCTCTYRAAC	MEME-6	chr1	201486988	201487017	+	-16.4711	6.06e-05	0.523	tctggctcaaccagttctgggatctcaccc
TGTGGTCAGACYGGTTCTCTGCTCTYRAAC	MEME-6	chr9	90885503	90885532	+	-16.4876	6.08e-05	0.523	ggtcatgtgactggttttagccaatggaat
TGTGGTCAGACYGGTTCTCTGCTCTYRAAC	MEME-6	chr5	100511065	100511094	+	-16.5207	6.12e-05	0.523	ACTGCTCAGATTTATTTTTAACTGTTGAAG
TGTGGTCAGACYGGTTCTCTGCTCTYRAAC	MEME-6	chr2	39407573	39407602	-	-16.5289	6.13e-05	0.523	TAGGGGCAGGCAGCTTCAGGGATCTCAGAA
TGTGGTCAGACYGGTTCTCTGCTCTYRAAC	MEME-6	chr2	237734139	237734168	+	-16.5455	6.16e-05	0.523	GCTGGGCTGCATTCTCTGTAGCTATCAAGG
TGTGGTCAGACYGGTTCTCTGCTCTYRAAC	MEME-6	chr1	59086864	59086893	+	-16.6116	6.25e-05	0.526	gCTTTGGAGATTTTATCTCTGTTCTAGAAA
TGTGGTCAGACYGGTTCTCTGCTCTYRAAC	MEME-6	chr3	196520248	196520277	+	-16.6198	6.26e-05	0.526	ggagattggaagatttttctctggataaac
TGTGGTCAGACYGGTTCTCTGCTCTYRAAC	MEME-6	chr5	79477687	79477716	-	-16.6529	6.31e-05	0.526	GCTGGTTAATCTGGTTGGTTGTGCAAGAAA
TGTGGTCAGACYGGTTCTCTGCTCTYRAAC	MEME-6	chr2	154069886	154069915	+	-16.7025	6.38e-05	0.526	tgtggggagacttgatctttattctgatca
TGTGGTCAGACYGGTTCTCTGCTCTYRAAC	MEME-6	chr7	99639497	99639526	+	-16.7273	6.41e-05	0.526	agtcacctgaatggacctctcctctcagcc
TGTGGTCAGACYGGTTCTCTGCTCTYRAAC	MEME-6	chr7	111139181	111139210	+	-16.7355	6.43e-05	0.526	tggaggcagcagtgttccaggagcaaaaac
TGTGGTCAGACYGGTTCTCTGCTCTYRAAC	MEME-6	chr16	72962169	72962198	-	-16.7603	6.46e-05	0.526	TGTGGAAAGACCTGTTCTCCTACCTCCTAC
TGTGGTCAGACYGGTTCTCTGCTCTYRAAC	MEME-6	chr8	91901709	91901738	+	-16.7686	6.47e-05	0.526	GTTAGTTGTAATCGTTATCTACTGTGGAag
TGTGGTCAGACYGGTTCTCTGCTCTYRAAC	MEME-6	chr3	14864813	14864842	-	-16.8017	6.52e-05	0.527	CTGGGAGTGACGGGTTCCCTGTGGCTGGAG
TGTGGTCAGACYGGTTCTCTGCTCTYRAAC	MEME-6	chr3	48310663	48310692	+	-16.876	6.63e-05	0.533	TCTGGGGAGAAGCCTTATGCATGCACGGAG
TGTGGTCAGACYGGTTCTCTGCTCTYRAAC	MEME-6	chr4	24755132	24755161	+	-16.9504	6.74e-05	0.534	aggagactaaattattctctgatgacaaat
TGTGGTCAGACYGGTTCTCTGCTCTYRAAC	MEME-6	chr3	113255505	113255534	+	-16.9504	6.74e-05	0.534	TTGTGTCATACTAGTTAGCTGCACTCAGCA
TGTGGTCAGACYGGTTCTCTGCTCTYRAAC	MEME-6	chr15	93188997	93189026	+	-16.9669	6.77e-05	0.534	TGAGGTCACAGTGCTTTGGGGCACATGTCG
TGTGGTCAGACYGGTTCTCTGCTCTYRAAC	MEME-6	chr2	237727431	237727460	-	-16.9752	6.78e-05	0.534	GATGGATGGGCTGGGTTTCAGCTCTGACTC
TGTGGTCAGACYGGTTCTCTGCTCTYRAAC	MEME-6	chr9	114724345	114724374	+	-17.0165	6.84e-05	0.536	GATGCACAGAGTCCATCTCTCCTCTAAATC
TGTGGTCAGACYGGTTCTCTGCTCTYRAAC	MEME-6	chr12	102288868	102288897	+	-17.0496	6.89e-05	0.537	TGTGCTCAGAAGGGCATCCTCCACCTCAAC
TGTGGTCAGACYGGTTCTCTGCTCTYRAAC	MEME-6	chr13	34699008	34699037	+	-17.1074	6.98e-05	0.541	GGAGGTAGGAATAGTTTCCTGCAAATGCAA
TGTGGTCAGACYGGTTCTCTGCTCTYRAAC	MEME-6	chr9	80204289	80204318	+	-17.1653	7.08e-05	0.546	TGGAGTGAGCTCGGttttctttttttgttt
TGTGGTCAGACYGGTTCTCTGCTCTYRAAC	MEME-6	chr8	40300457	40300486	+	-17.2066	7.14e-05	0.547	CTTACTCAGCTTGCTTTTCAGTTCTCACCT
TGTGGTCAGACYGGTTCTCTGCTCTYRAAC	MEME-6	chr6	21103677	21103706	+	-17.2231	7.17e-05	0.547	AAAGGTCATCAGTGTTTTCTGTCCTTGGAG
TGTGGTCAGACYGGTTCTCTGCTCTYRAAC	MEME-6	chr12	31902267	31902296	-	-17.2645	7.23e-05	0.549	GGTCCTCTGACCACTCCCCTGCAGGAAATG
TGTGGTCAGACYGGTTCTCTGCTCTYRAAC	MEME-6	chr3	161130010	161130039	+	-17.3884	7.43e-05	0.556	tgtgctgggcacagtttgagagtcagggaG
TGTGGTCAGACYGGTTCTCTGCTCTYRAAC	MEME-6	chr3	139635642	139635671	-	-17.405	7.45e-05	0.556	GCTAGGGAAACTGGTTCTTATCTTCGATAG
TGTGGTCAGACYGGTTCTCTGCTCTYRAAC	MEME-6	chr2	10627563	10627592	+	-17.4215	7.49e-05	0.556	TGTGGGATTACCTGTTCTTTTAGCTGAAAT
TGTGGTCAGACYGGTTCTCTGCTCTYRAAC	MEME-6	chr1	217489942	217489971	-	-17.4215	7.49e-05	0.556	GGTGCACACACTGTTGTACTTTTCTCCAAC
TGTGGTCAGACYGGTTCTCTGCTCTYRAAC	MEME-6	chr2	66440091	66440120	+	-17.4298	7.5e-05	0.556	GTTGGTGGAACCAGTGTCATGCTGTCTCAG
TGTGGTCAGACYGGTTCTCTGCTCTYRAAC	MEME-6	chr3	70853098	70853127	-	-17.4793	7.59e-05	0.559	TGAAGGAAGGAGGCATGACTGCTCTTTGAT
TGTGGTCAGACYGGTTCTCTGCTCTYRAAC	MEME-6	chr16	12118877	12118906	+	-17.5041	7.62e-05	0.559	gctgggtgcaatggttcattcctgtaatcc
TGTGGTCAGACYGGTTCTCTGCTCTYRAAC	MEME-6	chr7	156925846	156925875	+	-17.5455	7.69e-05	0.56	tgtatagacatcagttttcattagtcggag
TGTGGTCAGACYGGTTCTCTGCTCTYRAAC	MEME-6	chr20	18912786	18912815	+	-17.5702	7.73e-05	0.56	gctgtgcagaaggtttttagtttaattaag
TGTGGTCAGACYGGTTCTCTGCTCTYRAAC	MEME-6	chr3	70853090	70853119	-	-17.5785	7.75e-05	0.56	GGAGGCATGACTGCTCTTTGATTCTCATAG
TGTGGTCAGACYGGTTCTCTGCTCTYRAAC	MEME-6	chr11	60925909	60925938	-	-17.6116	7.8e-05	0.562	TGTGGTCTGTCTTGGTAAATGTTCTGTGAG
TGTGGTCAGACYGGTTCTCTGCTCTYRAAC	MEME-6	chr12	48921175	48921204	+	-17.6529	7.88e-05	0.564	TGTGTGCAGCTTGGTGGCCAGCTCTCCGGT
TGTGGTCAGACYGGTTCTCTGCTCTYRAAC	MEME-6	chr5	34421926	34421955	-	-17.6694	7.9e-05	0.564	TCTGGTCTAACCGGTTGTCTAGCTTCACCT
TGTGGTCAGACYGGTTCTCTGCTCTYRAAC	MEME-6	chr15	50339117	50339146	+	-17.7107	7.98e-05	0.566	TATATTAAAAATATGTCACTGTTCTTAAAT
TGTGGTCAGACYGGTTCTCTGCTCTYRAAC	MEME-6	chr6	11344952	11344981	-	-17.7355	8.02e-05	0.567	TCAGGGCTGGAGAGGCTGATGCTCATGATG
TGTGGTCAGACYGGTTCTCTGCTCTYRAAC	MEME-6	chr10	110213076	110213105	+	-17.7851	8.11e-05	0.568	TCTAGTGTAAATGCTATCCAGCAAACAGTC
TGTGGTCAGACYGGTTCTCTGCTCTYRAAC	MEME-6	chr20	52403749	52403778	-	-17.7934	8.12e-05	0.568	TCTATGGATATTTCTTTGGAGCTGTGAAAG
TGTGGTCAGACYGGTTCTCTGCTCTYRAAC	MEME-6	chr9	12814711	12814740	-	-17.8099	8.15e-05	0.568	AGTGGACTGATTGATGTTGTTTTGATAAAG
TGTGGTCAGACYGGTTCTCTGCTCTYRAAC	MEME-6	chr6	33958817	33958846	-	-17.8347	8.19e-05	0.568	GGTGGACAGTCTGGATCGCTTACTCCAGAT
TGTGGTCAGACYGGTTCTCTGCTCTYRAAC	MEME-6	chr8	134305411	134305440	-	-17.9008	8.32e-05	0.574	GGTAGGCAGAAGGGCTGGGGACACTGAGGC
TGTGGTCAGACYGGTTCTCTGCTCTYRAAC	MEME-6	chr8	91784338	91784367	-	-17.9504	8.41e-05	0.577	GTTTGTCTCACTAGTTTTCATCTTGTAATT
TGTGGTCAGACYGGTTCTCTGCTCTYRAAC	MEME-6	chr10	9220834	9220863	+	-17.9587	8.43e-05	0.577	TATAGGCTGGATACATCTATGTTAATAATT
TGTGGTCAGACYGGTTCTCTGCTCTYRAAC	MEME-6	chr14	77499486	77499515	-	-18.0413	8.58e-05	0.584	TCTGGGGTTCCTGGCGCGCGGCGATCAGGG
TGTGGTCAGACYGGTTCTCTGCTCTYRAAC	MEME-6	chr8	125193940	125193969	+	-18.0992	8.68e-05	0.589	tcaggtcacatggccgcattgctctcaagg
TGTGGTCAGACYGGTTCTCTGCTCTYRAAC	MEME-6	chr4	131215714	131215743	-	-18.1405	8.76e-05	0.591	TGCTGTGTGACCGGTCTTGGTCGATAAGAT
TGTGGTCAGACYGGTTCTCTGCTCTYRAAC	MEME-6	chr2	18391769	18391798	+	-18.157	8.8e-05	0.591	TGTAATGATAAGCCTTCTGTAATCCTAAAG
TGTGGTCAGACYGGTTCTCTGCTCTYRAAC	MEME-6	chr2	11076649	11076678	+	-18.2645	9.01e-05	0.594	TGGCAACTGAGCCCTTCTCTCCTCTTAAGG
TGTGGTCAGACYGGTTCTCTGCTCTYRAAC	MEME-6	chr10	123270074	123270103	-	-18.2645	9.01e-05	0.594	GGAAGGGGGATGGATGTTCTACTCCCAGAA
TGTGGTCAGACYGGTTCTCTGCTCTYRAAC	MEME-6	chr12	77073491	77073520	+	-18.281	9.04e-05	0.594	tggtccaggattggttttcagatctataac
TGTGGTCAGACYGGTTCTCTGCTCTYRAAC	MEME-6	chr16	82170892	82170921	-	-18.2893	9.05e-05	0.594	TCTTCTCTGACCTCTGCTCTGATCCCTGTC
TGTGGTCAGACYGGTTCTCTGCTCTYRAAC	MEME-6	chr16	12118204	12118233	+	-18.2975	9.07e-05	0.594	gttggccaggctggtcttgaactcctgacc
TGTGGTCAGACYGGTTCTCTGCTCTYRAAC	MEME-6	chr2	71352674	71352703	+	-18.2975	9.07e-05	0.594	gttggtcaggctggtctcaaactcctgacc
TGTGGTCAGACYGGTTCTCTGCTCTYRAAC	MEME-6	chr4	125554716	125554745	+	-18.3554	9.18e-05	0.598	TGTGGTCATACCTGCTTTAGGCAAATATCC
TGTGGTCAGACYGGTTCTCTGCTCTYRAAC	MEME-6	chr17	27675317	27675346	-	-18.3719	9.22e-05	0.598	GGTCATATGATTACGTTCCTGTTCCTGAAC
TGTGGTCAGACYGGTTCTCTGCTCTYRAAC	MEME-6	chr6	67796188	67796217	+	-18.4132	9.31e-05	0.601	tttagtttaattaggtttctcttctcaatg
TGTGGTCAGACYGGTTCTCTGCTCTYRAAC	MEME-6	chr14	100479637	100479666	+	-18.5289	9.55e-05	0.602	TCAGTTGAGACTGGTTTTGGTCAGGAGGGC
TGTGGTCAGACYGGTTCTCTGCTCTYRAAC	MEME-6	chr4	16035915	16035944	+	-18.5372	9.56e-05	0.602	GCCAGTCACAaggttcctcctctgatacac
TGTGGTCAGACYGGTTCTCTGCTCTYRAAC	MEME-6	chr6	16964853	16964882	+	-18.562	9.61e-05	0.602	AGTCGGAGTATCAGTGCTCTGGTCAGAAAC
TGTGGTCAGACYGGTTCTCTGCTCTYRAAC	MEME-6	chr6	151954012	151954041	-	-18.5702	9.63e-05	0.602	AATGCTCAGATTAATTTAAATCTCTCAAAC
TGTGGTCAGACYGGTTCTCTGCTCTYRAAC	MEME-6	chr5	55230251	55230280	-	-18.5868	9.66e-05	0.602	GCTGGGGGTGAGGGGCCGCTCCTCTTCAAA
TGTGGTCAGACYGGTTCTCTGCTCTYRAAC	MEME-6	chr9	130336759	130336788	-	-18.5868	9.66e-05	0.602	CTTGGGCAAATTGCTTTCCTTCTCTGAGTC
TGTGGTCAGACYGGTTCTCTGCTCTYRAAC	MEME-6	chr12	81776191	81776220	+	-18.595	9.68e-05	0.602	gctgctcaagctgctgtgttgagcacagac
TGTGGTCAGACYGGTTCTCTGCTCTYRAAC	MEME-6	chr1	188862424	188862453	-	-18.6033	9.69e-05	0.602	ATGGGTCTGATTATTTGTCTGCACGTGAAT
TGTGGTCAGACYGGTTCTCTGCTCTYRAAC	MEME-6	chr13	34223452	34223481	+	-18.6116	9.71e-05	0.602	tcttggctttccgtttctcatttttcaggt
TGTGGTCAGACYGGTTCTCTGCTCTYRAAC	MEME-6	chr11	115175770	115175799	+	-18.6281	9.75e-05	0.602	CCTAGACAGGAGACATAGAAGCTCACAGAT
TGTGGTCAGACYGGTTCTCTGCTCTYRAAC	MEME-6	chr5	66531670	66531699	-	-18.6529	9.8e-05	0.602	TGCAGGTTGCTCTGTTTGCTTTTCACTAAC
TGTGGTCAGACYGGTTCTCTGCTCTYRAAC	MEME-6	chr14	75650186	75650215	-	-18.6529	9.8e-05	0.602	GGTAGGCAGCAAGGTCCAAGGCTCTGATGC
TGTGGTCAGACYGGTTCTCTGCTCTYRAAC	MEME-6	chr10	30971480	30971509	-	-18.686	9.88e-05	0.605	GGTAGTGGGTGTGGATGGTGACTCAGAAAG
TGTGGTCAGACYGGTTCTCTGCTCTYRAAC	MEME-6	chr6	65483457	65483486	-	-18.719	9.95e-05	0.607	GCTGGTGGGAATGTAATGTAGTTCACCCAT
TGTGGTCAGACYGGTTCTCTGCTCTYRAAC	MEME-6	chr16	82171060	82171089	+	-18.7355	9.99e-05	0.607	TGTAGGGTCACCCCTGCTCTCCCCATCCAG
