# motif_id	motif_alt_id	sequence_name	start	stop	strand	score	p-value	q-value	matched_sequence
GYAAAYA	DREME-2	chr2	1235470	1235476	+	12.1053	6.51e-05	0.244	gcaaaca
GYAAAYA	DREME-2	chr2	1235566	1235572	+	12.1053	6.51e-05	0.244	gcaaaca
GYAAAYA	DREME-2	chr12	3459018	3459024	+	12.1053	6.51e-05	0.244	GCAAACA
GYAAAYA	DREME-2	chr17	4681806	4681812	+	12.1053	6.51e-05	0.244	gcaaaCA
GYAAAYA	DREME-2	chr6	7201476	7201482	+	12.1053	6.51e-05	0.244	GCAAACA
GYAAAYA	DREME-2	chr10	7330112	7330118	+	12.1053	6.51e-05	0.244	GCAAACA
GYAAAYA	DREME-2	chr6	8083632	8083638	+	12.1053	6.51e-05	0.244	GCAAACA
GYAAAYA	DREME-2	chr3	8542291	8542297	+	12.1053	6.51e-05	0.244	GCAAACA
GYAAAYA	DREME-2	chr12	11585126	11585132	+	12.1053	6.51e-05	0.244	GCAAACA
GYAAAYA	DREME-2	chr12	11585146	11585152	+	12.1053	6.51e-05	0.244	GCAAACA
GYAAAYA	DREME-2	chr3	14307149	14307155	+	12.1053	6.51e-05	0.244	gcaaaca
GYAAAYA	DREME-2	chr5	14768195	14768201	+	12.1053	6.51e-05	0.244	GCAAACA
GYAAAYA	DREME-2	chr6	15908224	15908230	+	12.1053	6.51e-05	0.244	GCAAACA
GYAAAYA	DREME-2	chr8	18858514	18858520	+	12.1053	6.51e-05	0.244	gcaaaca
GYAAAYA	DREME-2	chr2	19338285	19338291	+	12.1053	6.51e-05	0.244	GCAAACA
GYAAAYA	DREME-2	chr2	28600496	28600502	+	12.1053	6.51e-05	0.244	GCAAACA
GYAAAYA	DREME-2	chr10	29947931	29947937	+	12.1053	6.51e-05	0.244	GCAAACA
GYAAAYA	DREME-2	chr10	32250278	32250284	+	12.1053	6.51e-05	0.244	gcaaaca
GYAAAYA	DREME-2	chr12	32340018	32340024	+	12.1053	6.51e-05	0.244	GCAAACA
GYAAAYA	DREME-2	chr12	32340059	32340065	+	12.1053	6.51e-05	0.244	GCAAACA
GYAAAYA	DREME-2	chr3	32625372	32625378	+	12.1053	6.51e-05	0.244	GCAAACA
GYAAAYA	DREME-2	chr10	33562341	33562347	+	12.1053	6.51e-05	0.244	GCAAACA
GYAAAYA	DREME-2	chr7	41188419	41188425	+	12.1053	6.51e-05	0.244	GCAAACA
GYAAAYA	DREME-2	chr15	42222552	42222558	+	12.1053	6.51e-05	0.244	GCAAACA
GYAAAYA	DREME-2	chr21	43476011	43476017	+	12.1053	6.51e-05	0.244	GCAAACA
GYAAAYA	DREME-2	chr21	43476044	43476050	+	12.1053	6.51e-05	0.244	GCAAACA
GYAAAYA	DREME-2	chr21	43476077	43476083	+	12.1053	6.51e-05	0.244	GCAAACA
GYAAAYA	DREME-2	chr21	43783460	43783466	+	12.1053	6.51e-05	0.244	GCAAACA
GYAAAYA	DREME-2	chr1	44856050	44856056	+	12.1053	6.51e-05	0.244	GCAAACA
GYAAAYA	DREME-2	chr22	45501288	45501294	+	12.1053	6.51e-05	0.244	gcaaaca
GYAAAYA	DREME-2	chr18	45660005	45660011	+	12.1053	6.51e-05	0.244	GCAAACA
GYAAAYA	DREME-2	chr2	46391355	46391361	+	12.1053	6.51e-05	0.244	GCAAACA
GYAAAYA	DREME-2	chr20	47377614	47377620	+	12.1053	6.51e-05	0.244	gcaaaca
GYAAAYA	DREME-2	chr6	49858849	49858855	+	12.1053	6.51e-05	0.244	gcaaaca
GYAAAYA	DREME-2	chr19	51574441	51574447	+	12.1053	6.51e-05	0.244	gcaaaca
GYAAAYA	DREME-2	chr20	52130224	52130230	+	12.1053	6.51e-05	0.244	GCAAACA
GYAAAYA	DREME-2	chr8	52683772	52683778	+	12.1053	6.51e-05	0.244	GCAAACA
GYAAAYA	DREME-2	chr8	52683806	52683812	+	12.1053	6.51e-05	0.244	GCAAACA
GYAAAYA	DREME-2	chr13	53383964	53383970	+	12.1053	6.51e-05	0.244	GCAAACA
GYAAAYA	DREME-2	chr3	56413979	56413985	+	12.1053	6.51e-05	0.244	gcaaaca
GYAAAYA	DREME-2	chr20	58628529	58628535	+	12.1053	6.51e-05	0.244	GCAAACA
GYAAAYA	DREME-2	chr14	61905720	61905726	+	12.1053	6.51e-05	0.244	GCAAACA
GYAAAYA	DREME-2	chr12	64994133	64994139	+	12.1053	6.51e-05	0.244	GCAAACA
GYAAAYA	DREME-2	chr3	65565995	65566001	+	12.1053	6.51e-05	0.244	GCAAACA
GYAAAYA	DREME-2	chr13	67695250	67695256	+	12.1053	6.51e-05	0.244	GCAAACA
GYAAAYA	DREME-2	chr7	69197386	69197392	+	12.1053	6.51e-05	0.244	GCAAACA
GYAAAYA	DREME-2	chr15	69846814	69846820	+	12.1053	6.51e-05	0.244	GCAAACA
GYAAAYA	DREME-2	chr16	70779964	70779970	+	12.1053	6.51e-05	0.244	GCAAACA
GYAAAYA	DREME-2	chr18	71510117	71510123	+	12.1053	6.51e-05	0.244	GCAAACA
GYAAAYA	DREME-2	chr15	74207522	74207528	+	12.1053	6.51e-05	0.244	gcaaaca
GYAAAYA	DREME-2	chr14	77371257	77371263	+	12.1053	6.51e-05	0.244	GCAAACA
GYAAAYA	DREME-2	chr3	78662336	78662342	+	12.1053	6.51e-05	0.244	GCAAACA
GYAAAYA	DREME-2	chr1	85422536	85422542	+	12.1053	6.51e-05	0.244	gcaaaca
GYAAAYA	DREME-2	chr2	88895688	88895694	+	12.1053	6.51e-05	0.244	gcaaaca
GYAAAYA	DREME-2	chr9	90185675	90185681	+	12.1053	6.51e-05	0.244	GCAAACA
GYAAAYA	DREME-2	chr15	93187455	93187461	+	12.1053	6.51e-05	0.244	GCAAACA
GYAAAYA	DREME-2	chr15	93289188	93289194	+	12.1053	6.51e-05	0.244	gcaaaca
GYAAAYA	DREME-2	chr12	93481101	93481107	+	12.1053	6.51e-05	0.244	gcaaaca
GYAAAYA	DREME-2	chr8	93977100	93977106	+	12.1053	6.51e-05	0.244	GCAAACA
GYAAAYA	DREME-2	chr1	94535183	94535189	+	12.1053	6.51e-05	0.244	GCAAACA
GYAAAYA	DREME-2	chr1	94535358	94535364	+	12.1053	6.51e-05	0.244	GCAAACA
GYAAAYA	DREME-2	chr13	97126716	97126722	+	12.1053	6.51e-05	0.244	GCAAACA
GYAAAYA	DREME-2	chr3	103156924	103156930	+	12.1053	6.51e-05	0.244	gcaaaca
GYAAAYA	DREME-2	chr4	108979918	108979924	+	12.1053	6.51e-05	0.244	gcaaaca
GYAAAYA	DREME-2	chr1	112055981	112055987	+	12.1053	6.51e-05	0.244	GCAAACA
GYAAAYA	DREME-2	chr7	112921731	112921737	+	12.1053	6.51e-05	0.244	gcaaaca
GYAAAYA	DREME-2	chr12	113683615	113683621	+	12.1053	6.51e-05	0.244	GCAAACA
GYAAAYA	DREME-2	chr12	113683735	113683741	+	12.1053	6.51e-05	0.244	GCAAACA
GYAAAYA	DREME-2	chr1	118624326	118624332	+	12.1053	6.51e-05	0.244	GCAAACA
GYAAAYA	DREME-2	chr1	119021868	119021874	+	12.1053	6.51e-05	0.244	gcaaaca
GYAAAYA	DREME-2	chr11	121330323	121330329	+	12.1053	6.51e-05	0.244	GCAAACA
GYAAAYA	DREME-2	chr5	124982604	124982610	+	12.1053	6.51e-05	0.244	gcaaaca
GYAAAYA	DREME-2	chr9	134180454	134180460	+	12.1053	6.51e-05	0.244	gcaaaca
GYAAAYA	DREME-2	chr9	134180507	134180513	+	12.1053	6.51e-05	0.244	gcaaaca
GYAAAYA	DREME-2	chr9	134622918	134622924	+	12.1053	6.51e-05	0.244	GCAAACA
GYAAAYA	DREME-2	chr1	151170425	151170431	+	12.1053	6.51e-05	0.244	gcaaaca
GYAAAYA	DREME-2	chr7	157794296	157794302	+	12.1053	6.51e-05	0.244	GCAAACA
GYAAAYA	DREME-2	chr5	159687916	159687922	+	12.1053	6.51e-05	0.244	GCAAACA
GYAAAYA	DREME-2	chr2	161078299	161078305	+	12.1053	6.51e-05	0.244	GCAAACA
GYAAAYA	DREME-2	chr1	168876442	168876448	+	12.1053	6.51e-05	0.244	GCAAACA
GYAAAYA	DREME-2	chr1	169088647	169088653	+	12.1053	6.51e-05	0.244	GCAAACA
GYAAAYA	DREME-2	chr2	171095406	171095412	+	12.1053	6.51e-05	0.244	GCAAACA
GYAAAYA	DREME-2	chr2	175449932	175449938	+	12.1053	6.51e-05	0.244	GCAAACA
GYAAAYA	DREME-2	chr2	177750545	177750551	+	12.1053	6.51e-05	0.244	GCAAACA
GYAAAYA	DREME-2	chr2	177750635	177750641	+	12.1053	6.51e-05	0.244	GCAAACA
GYAAAYA	DREME-2	chr4	183665969	183665975	+	12.1053	6.51e-05	0.244	GCAAACA
GYAAAYA	DREME-2	chr4	183665988	183665994	+	12.1053	6.51e-05	0.244	GCAAACA
GYAAAYA	DREME-2	chr3	192315332	192315338	+	12.1053	6.51e-05	0.244	GCAAACA
GYAAAYA	DREME-2	chr2	205204587	205204593	+	12.1053	6.51e-05	0.244	gcaaaca
GYAAAYA	DREME-2	chr2	205204625	205204631	+	12.1053	6.51e-05	0.244	gcaaaca
GYAAAYA	DREME-2	chr2	217615464	217615470	+	12.1053	6.51e-05	0.244	gcaaaca
GYAAAYA	DREME-2	chr1	233004658	233004664	+	12.1053	6.51e-05	0.244	GCAAACA
GYAAAYA	DREME-2	chr1	235110569	235110575	+	12.1053	6.51e-05	0.244	GCAAACA
GYAAAYA	DREME-2	chr1	3571626	3571632	-	12.1053	6.51e-05	0.244	GCAAACA
GYAAAYA	DREME-2	chr3	4786303	4786309	-	12.1053	6.51e-05	0.244	GCAAACA
GYAAAYA	DREME-2	chr19	5857617	5857623	-	12.1053	6.51e-05	0.244	GCAAACA
GYAAAYA	DREME-2	chr3	8692914	8692920	-	12.1053	6.51e-05	0.244	GCAAACA
GYAAAYA	DREME-2	chr11	9124989	9124995	-	12.1053	6.51e-05	0.244	GCAAACA
GYAAAYA	DREME-2	chr1	9173181	9173187	-	12.1053	6.51e-05	0.244	GCAAACA
GYAAAYA	DREME-2	chr3	9191245	9191251	-	12.1053	6.51e-05	0.244	GCAAACA
GYAAAYA	DREME-2	chr11	10416158	10416164	-	12.1053	6.51e-05	0.244	GCAAACA
GYAAAYA	DREME-2	chr11	10416310	10416316	-	12.1053	6.51e-05	0.244	GCAAACA
GYAAAYA	DREME-2	chr8	10532459	10532465	-	12.1053	6.51e-05	0.244	GCAAACA
GYAAAYA	DREME-2	chr8	10532479	10532485	-	12.1053	6.51e-05	0.244	GCAAACA
GYAAAYA	DREME-2	chr8	11219193	11219199	-	12.1053	6.51e-05	0.244	GCAAACA
GYAAAYA	DREME-2	chr3	13236368	13236374	-	12.1053	6.51e-05	0.244	GCAAACA
GYAAAYA	DREME-2	chr16	15601136	15601142	-	12.1053	6.51e-05	0.244	GCAAACA
GYAAAYA	DREME-2	chr5	16573413	16573419	-	12.1053	6.51e-05	0.244	GCAAACA
GYAAAYA	DREME-2	chr13	20368626	20368632	-	12.1053	6.51e-05	0.244	GCAAACA
GYAAAYA	DREME-2	chrX	22135903	22135909	-	12.1053	6.51e-05	0.244	GCAAACA
GYAAAYA	DREME-2	chrX	22135927	22135933	-	12.1053	6.51e-05	0.244	GCAAACA
GYAAAYA	DREME-2	chr6	24779910	24779916	-	12.1053	6.51e-05	0.244	GCAAACA
GYAAAYA	DREME-2	chr13	25691211	25691217	-	12.1053	6.51e-05	0.244	GCAAACA
GYAAAYA	DREME-2	chr17	26200527	26200533	-	12.1053	6.51e-05	0.244	GCAAACA
GYAAAYA	DREME-2	chr22	26339118	26339124	-	12.1053	6.51e-05	0.244	GCAAACA
GYAAAYA	DREME-2	chr10	28552121	28552127	-	12.1053	6.51e-05	0.244	GCAAACA
GYAAAYA	DREME-2	chr20	31779138	31779144	-	12.1053	6.51e-05	0.244	GCAAACA
GYAAAYA	DREME-2	chr12	32339958	32339964	-	12.1053	6.51e-05	0.244	GCAAACA
GYAAAYA	DREME-2	chr13	33690471	33690477	-	12.1053	6.51e-05	0.244	GCAAACA
GYAAAYA	DREME-2	chr6	33956018	33956024	-	12.1053	6.51e-05	0.244	GCAAACA
GYAAAYA	DREME-2	chr14	37325267	37325273	-	12.1053	6.51e-05	0.244	GCAAACA
GYAAAYA	DREME-2	chr2	43861912	43861918	-	12.1053	6.51e-05	0.244	GCAAACA
GYAAAYA	DREME-2	chr21	46130061	46130067	-	12.1053	6.51e-05	0.244	GCAAACA
GYAAAYA	DREME-2	chr12	46197355	46197361	-	12.1053	6.51e-05	0.244	GCAAACA
GYAAAYA	DREME-2	chr2	47426107	47426113	-	12.1053	6.51e-05	0.244	GCAAACA
GYAAAYA	DREME-2	chr10	48548675	48548681	-	12.1053	6.51e-05	0.244	GCAAACA
GYAAAYA	DREME-2	chr1	49209780	49209786	-	12.1053	6.51e-05	0.244	GCAAACA
GYAAAYA	DREME-2	chr20	49262069	49262075	-	12.1053	6.51e-05	0.244	GCAAACA
GYAAAYA	DREME-2	chr13	53383990	53383996	-	12.1053	6.51e-05	0.244	GCAAACA
GYAAAYA	DREME-2	chr16	54205769	54205775	-	12.1053	6.51e-05	0.244	GCAAACA
GYAAAYA	DREME-2	chr16	54206144	54206150	-	12.1053	6.51e-05	0.244	GCAAACA
GYAAAYA	DREME-2	chr12	54372823	54372829	-	12.1053	6.51e-05	0.244	GCAAACA
GYAAAYA	DREME-2	chr8	55471301	55471307	-	12.1053	6.51e-05	0.244	GCAAACA
GYAAAYA	DREME-2	chr2	56070591	56070597	-	12.1053	6.51e-05	0.244	GCAAACA
GYAAAYA	DREME-2	chr17	57863994	57864000	-	12.1053	6.51e-05	0.244	GCAAACA
GYAAAYA	DREME-2	chr17	57922603	57922609	-	12.1053	6.51e-05	0.244	GCAAACA
GYAAAYA	DREME-2	chr11	60144103	60144109	-	12.1053	6.51e-05	0.244	GCAAACA
GYAAAYA	DREME-2	chr15	60189001	60189007	-	12.1053	6.51e-05	0.244	GCAAACA
GYAAAYA	DREME-2	chr17	61656901	61656907	-	12.1053	6.51e-05	0.244	GCAAACA
GYAAAYA	DREME-2	chr20	61745982	61745988	-	12.1053	6.51e-05	0.244	GCAAACA
GYAAAYA	DREME-2	chr15	63794219	63794225	-	12.1053	6.51e-05	0.244	GCAAACA
GYAAAYA	DREME-2	chr3	64487148	64487154	-	12.1053	6.51e-05	0.244	GCAAACA
GYAAAYA	DREME-2	chr1	68663598	68663604	-	12.1053	6.51e-05	0.244	GCAAACA
GYAAAYA	DREME-2	chr11	76483241	76483247	-	12.1053	6.51e-05	0.244	GCAAACA
GYAAAYA	DREME-2	chr5	76722079	76722085	-	12.1053	6.51e-05	0.244	GCAAACA
GYAAAYA	DREME-2	chr16	78087112	78087118	-	12.1053	6.51e-05	0.244	GCAAACA
GYAAAYA	DREME-2	chr11	80431514	80431520	-	12.1053	6.51e-05	0.244	GCAAACA
GYAAAYA	DREME-2	chr11	80431696	80431702	-	12.1053	6.51e-05	0.244	GCAAACA
GYAAAYA	DREME-2	chr16	84628861	84628867	-	12.1053	6.51e-05	0.244	GCAAACA
GYAAAYA	DREME-2	chr16	84918234	84918240	-	12.1053	6.51e-05	0.244	GCAAACA
GYAAAYA	DREME-2	chr2	85224334	85224340	-	12.1053	6.51e-05	0.244	GCAAACA
GYAAAYA	DREME-2	chr2	85648955	85648961	-	12.1053	6.51e-05	0.244	GCAAACA
GYAAAYA	DREME-2	chr9	90185885	90185891	-	12.1053	6.51e-05	0.244	GCAAACA
GYAAAYA	DREME-2	chr15	90236397	90236403	-	12.1053	6.51e-05	0.244	GCAAACA
GYAAAYA	DREME-2	chr15	92170831	92170837	-	12.1053	6.51e-05	0.244	GCAAACA
GYAAAYA	DREME-2	chr1	94511021	94511027	-	12.1053	6.51e-05	0.244	GCAAACA
GYAAAYA	DREME-2	chr15	96613895	96613901	-	12.1053	6.51e-05	0.244	GCAAACA
GYAAAYA	DREME-2	chr13	97126876	97126882	-	12.1053	6.51e-05	0.244	GCAAACA
GYAAAYA	DREME-2	chr3	100314985	100314991	-	12.1053	6.51e-05	0.244	GCAAACA
GYAAAYA	DREME-2	chr13	100629909	100629915	-	12.1053	6.51e-05	0.244	GCAAACA
GYAAAYA	DREME-2	chr5	101842321	101842327	-	12.1053	6.51e-05	0.244	GCAAACA
GYAAAYA	DREME-2	chr8	102619645	102619651	-	12.1053	6.51e-05	0.244	GCAAACA
GYAAAYA	DREME-2	chr10	106232331	106232337	-	12.1053	6.51e-05	0.244	GCAAACA
GYAAAYA	DREME-2	chr4	108979972	108979978	-	12.1053	6.51e-05	0.244	GCAAACA
GYAAAYA	DREME-2	chr13	109571694	109571700	-	12.1053	6.51e-05	0.244	GCAAACA
GYAAAYA	DREME-2	chr13	110651085	110651091	-	12.1053	6.51e-05	0.244	GCAAACA
GYAAAYA	DREME-2	chr12	117174187	117174193	-	12.1053	6.51e-05	0.244	GCAAACA
GYAAAYA	DREME-2	chr12	118768045	118768051	-	12.1053	6.51e-05	0.244	GCAAACA
GYAAAYA	DREME-2	chr11	120151536	120151542	-	12.1053	6.51e-05	0.244	GCAAACA
GYAAAYA	DREME-2	chr2	121096106	121096112	-	12.1053	6.51e-05	0.244	GCAAACA
GYAAAYA	DREME-2	chr10	121545771	121545777	-	12.1053	6.51e-05	0.244	GCAAACA
GYAAAYA	DREME-2	chr8	122788600	122788606	-	12.1053	6.51e-05	0.244	GCAAACA
GYAAAYA	DREME-2	chr7	122831363	122831369	-	12.1053	6.51e-05	0.244	GCAAACA
GYAAAYA	DREME-2	chr3	124556759	124556765	-	12.1053	6.51e-05	0.244	GCAAACA
GYAAAYA	DREME-2	chr12	124716627	124716633	-	12.1053	6.51e-05	0.244	GCAAACA
GYAAAYA	DREME-2	chr12	124716752	124716758	-	12.1053	6.51e-05	0.244	GCAAACA
GYAAAYA	DREME-2	chr8	125192747	125192753	-	12.1053	6.51e-05	0.244	GCAAACA
GYAAAYA	DREME-2	chr8	128882870	128882876	-	12.1053	6.51e-05	0.244	GCAAACA
GYAAAYA	DREME-2	chr9	130769164	130769170	-	12.1053	6.51e-05	0.244	GCAAACA
GYAAAYA	DREME-2	chr5	132581139	132581145	-	12.1053	6.51e-05	0.244	GCAAACA
GYAAAYA	DREME-2	chr8	142164132	142164138	-	12.1053	6.51e-05	0.244	GCAAACA
GYAAAYA	DREME-2	chrX	143455874	143455880	-	12.1053	6.51e-05	0.244	GCAAACA
GYAAAYA	DREME-2	chrX	152029705	152029711	-	12.1053	6.51e-05	0.244	GCAAACA
GYAAAYA	DREME-2	chr7	155115848	155115854	-	12.1053	6.51e-05	0.244	GCAAACA
GYAAAYA	DREME-2	chr3	156530266	156530272	-	12.1053	6.51e-05	0.244	GCAAACA
GYAAAYA	DREME-2	chr1	180126956	180126962	-	12.1053	6.51e-05	0.244	GCAAACA
GYAAAYA	DREME-2	chr4	186558524	186558530	-	12.1053	6.51e-05	0.244	GCAAACA
GYAAAYA	DREME-2	chr3	189022470	189022476	-	12.1053	6.51e-05	0.244	GCAAACA
GYAAAYA	DREME-2	chr3	193430020	193430026	-	12.1053	6.51e-05	0.244	GCAAACA
GYAAAYA	DREME-2	chr2	224506235	224506241	-	12.1053	6.51e-05	0.244	GCAAACA
GYAAAYA	DREME-2	chr2	226199282	226199288	-	12.1053	6.51e-05	0.244	GCAAACA
GYAAAYA	DREME-2	chr2	226199304	226199310	-	12.1053	6.51e-05	0.244	GCAAACA
GYAAAYA	DREME-2	chr1	230220360	230220366	-	12.1053	6.51e-05	0.244	GCAAACA
GYAAAYA	DREME-2	chr2	235372612	235372618	-	12.1053	6.51e-05	0.244	GCAAACA
GYAAAYA	DREME-2	chr2	237654230	237654236	-	12.1053	6.51e-05	0.244	GCAAACA
