# motif_id	motif_alt_id	sequence_name	start	stop	strand	score	p-value	q-value	matched_sequence
AAGCAAATRCAATARAAACAAASATAA	MEME-1	chr17	78690387	78690413	-	43.4909	4.44e-16	8.79e-12	AAGCAAATGCAATAAAAACAAAGATAA
AAGCAAATRCAATARAAACAAASATAA	MEME-1	chr3	100314824	100314850	-	43.4909	4.44e-16	8.79e-12	AAGCAAATGCAATAAAAACAAAGATAA
AAGCAAATRCAATARAAACAAASATAA	MEME-1	chr5	53039817	53039843	+	43.4909	4.44e-16	8.79e-12	aagcaaatgcaataaaaacaaagataa
AAGCAAATRCAATARAAACAAASATAA	MEME-1	chr7	117565422	117565448	+	41.3545	1.24e-14	1.84e-10	aagcaaattcaatagaaacaaagataa
AAGCAAATRCAATARAAACAAASATAA	MEME-1	chr2	43826964	43826990	+	35.1091	3.47e-12	4.12e-08	aagcaaatacaataaaaacagagataa
AAGCAAATRCAATARAAACAAASATAA	MEME-1	chr9	136608817	136608843	-	28.8273	1.14e-10	1.06e-06	ACACAAGAACAAAACAAACAAACAAAA
AAGCAAATRCAATARAAACAAASATAA	MEME-1	chr14	63545432	63545458	+	28.6364	1.25e-10	1.06e-06	tagcaaataaaatctaggcaaacataa
AAGCAAATRCAATARAAACAAASATAA	MEME-1	chrX	143455930	143455956	-	28.3364	1.46e-10	1.08e-06	ACTGAGATACAATAGAAAGAAAAAAAA
AAGCAAATRCAATARAAACAAASATAA	MEME-1	chr4	24862182	24862208	+	28.1091	1.63e-10	1.08e-06	aagcatatgcaacaaaaacaaagataa
AAGCAAATRCAATARAAACAAASATAA	MEME-1	chr4	131057945	131057971	+	9.77273	2.44e-07	0.00145	accaacaagaaaaaaaaacaaacataa
AAGCAAATRCAATARAAACAAASATAA	MEME-1	chr21	23055964	23055990	-	5.6	9.17e-07	0.00492	TCAAAAGATCAACAATAACAAAGAAAA
AAGCAAATRCAATARAAACAAASATAA	MEME-1	chr13	100629832	100629858	-	5.33636	9.93e-07	0.00492	AAACAAGTGACCAAAAAAAAAAAAAAA
AAGCAAATRCAATARAAACAAASATAA	MEME-1	chr2	5504939	5504965	-	3.57273	1.69e-06	0.00743	AAGGAAAAGATCACATAGCAAAGAAAA
AAGCAAATRCAATARAAACAAASATAA	MEME-1	chr3	133718834	133718860	+	3.44545	1.75e-06	0.00743	AGGCAaaaacaaaacaaaacaaaacaa
AAGCAAATRCAATARAAACAAASATAA	MEME-1	chrX	143455918	143455944	-	1.28182	3.29e-06	0.013	TAGAAAGAAAAAAAAGAAGATAAATAA
AAGCAAATRCAATARAAACAAASATAA	MEME-1	chr1	523935	523961	+	0.754545	3.82e-06	0.0142	AAAGAAACACAACCTAAGCAAAGATTT
AAGCAAATRCAATARAAACAAASATAA	MEME-1	chr9	93713204	93713230	+	0.209091	4.45e-06	0.0155	AGGGAGATGAAATTGAGACTAGAATAA
AAGCAAATRCAATARAAACAAASATAA	MEME-1	chr9	136608821	136608847	-	-0.909091	6.06e-06	0.0188	AAACACACAAGAACAAAACAAACAAAC
AAGCAAATRCAATARAAACAAASATAA	MEME-1	chr6	67445240	67445266	-	-1.12727	6.44e-06	0.0188	AGAGAAATGTAAATTAAAAAAAAAAAA
AAGCAAATRCAATARAAACAAASATAA	MEME-1	chr17	78690217	78690243	-	-1.24545	6.64e-06	0.0188	ACTCAAACAAATCAGCAAGAAAAAAAA
AAGCAAATRCAATARAAACAAASATAA	MEME-1	chr3	100314655	100314681	-	-1.24545	6.64e-06	0.0188	ACTCAAACAAATCAGTAAGAAAAAAAA
AAGCAAATRCAATARAAACAAASATAA	MEME-1	chr6	99195794	99195820	-	-1.69091	7.5e-06	0.0202	CAACAAAATAAATAATGACAAAGGAAG
AAGCAAATRCAATARAAACAAASATAA	MEME-1	chr5	38533740	38533766	-	-2.97273	1.05e-05	0.0272	GAACAGAGACAAAATAAGCAACAAAAT
AAGCAAATRCAATARAAACAAASATAA	MEME-1	chr9	136608825	136608851	-	-4.08182	1.41e-05	0.0317	AAACAAACACACAAGAACAAAACAAAC
AAGCAAATRCAATARAAACAAASATAA	MEME-1	chr17	78690393	78690419	-	-4.11818	1.43e-05	0.0317	ACCCAAAAGCAAATGCAATAAAAACAA
AAGCAAATRCAATARAAACAAASATAA	MEME-1	chr3	100314830	100314856	-	-4.11818	1.43e-05	0.0317	ACCCAAAAGCAAATGCAATAAAAACAA
AAGCAAATRCAATARAAACAAASATAA	MEME-1	chr4	131057949	131057975	+	-4.14545	1.44e-05	0.0317	acaagaaaaaaaaacaaacataattaa
AAGCAAATRCAATARAAACAAASATAA	MEME-1	chr4	24862176	24862202	+	-5.30909	1.94e-05	0.0412	atacaaaagcatatgcaacaaaaacaa
AAGCAAATRCAATARAAACAAASATAA	MEME-1	chr3	65974217	65974243	+	-5.78182	2.19e-05	0.0442	TAGCAGAAACACAACAAAGAACACAAT
AAGCAAATRCAATARAAACAAASATAA	MEME-1	chr3	42538396	42538422	-	-5.87273	2.24e-05	0.0442	GAAAAAAGAAAAATGAAACTAAGAAAA
AAGCAAATRCAATARAAACAAASATAA	MEME-1	chr6	67444924	67444950	-	-6.16364	2.41e-05	0.0442	TCCAAAACAGAAAACAAACATACAAAA
AAGCAAATRCAATARAAACAAASATAA	MEME-1	chr2	43827135	43827161	+	-6.33636	2.52e-05	0.0442	aaacaaatcagtaagaaaaaaacaaac
AAGCAAATRCAATARAAACAAASATAA	MEME-1	chr6	99195806	99195832	-	-6.59091	2.69e-05	0.0442	AAAAAAATTAAACAACAAAATAAATAA
AAGCAAATRCAATARAAACAAASATAA	MEME-1	chr4	131057939	131057965	+	-6.60909	2.7e-05	0.0442	actcaaaccaacaagaaaaaaaaacaa
AAGCAAATRCAATARAAACAAASATAA	MEME-1	chr3	42538401	42538427	-	-6.65455	2.73e-05	0.0442	AACCAGAAAAAAGAAAAATGAAACTAA
AAGCAAATRCAATARAAACAAASATAA	MEME-1	chr4	131057783	131057809	+	-6.68182	2.75e-05	0.0442	cccaaaagcaaattaaaacaaagataa
AAGCAAATRCAATARAAACAAASATAA	MEME-1	chr2	43826958	43826984	+	-6.77273	2.81e-05	0.0442	actcaaaagcaaatacaataaaaacag
AAGCAAATRCAATARAAACAAASATAA	MEME-1	chr14	63545151	63545177	+	-6.79091	2.82e-05	0.0442	ACATAAATGAAAGCAAAACAAAAACCC
AAGCAAATRCAATARAAACAAASATAA	MEME-1	chr4	131057787	131057813	+	-6.95455	2.95e-05	0.0444	aaagcaaattaaaacaaagataaatag
AAGCAAATRCAATARAAACAAASATAA	MEME-1	chr3	100314646	100314672	-	-7.03636	3e-05	0.0444	AATCAGTAAGAAAAAAAACAAACAGTC
AAGCAAATRCAATARAAACAAASATAA	MEME-1	chr7	117565595	117565621	+	-7.21818	3.14e-05	0.0444	aaacaaatgagcaagaaaaaacaatta
AAGCAAATRCAATARAAACAAASATAA	MEME-1	chr18	71509895	71509921	-	-7.30909	3.21e-05	0.0444	TTACAAAAGAGAATGAAAGAATAAAAA
AAGCAAATRCAATARAAACAAASATAA	MEME-1	chr2	138011884	138011910	-	-7.32727	3.22e-05	0.0444	TCTCAAAATACAATATGACAAACATAT
AAGCAAATRCAATARAAACAAASATAA	MEME-1	chr7	117565182	117565208	+	-7.4	3.29e-05	0.0444	aagcaaatgaaaacaaagtggggaaag
AAGCAAATRCAATARAAACAAASATAA	MEME-1	chr2	138011785	138011811	+	-7.73636	3.57e-05	0.0455	GATCATAAATAAAATATCCAAAAATAA
AAGCAAATRCAATARAAACAAASATAA	MEME-1	chr17	78690201	78690227	-	-7.77273	3.6e-05	0.0455	AAGAAAAAAAAATCCCATCAAAAATTG
AAGCAAATRCAATARAAACAAASATAA	MEME-1	chr3	100314651	100314677	-	-7.77273	3.6e-05	0.0455	AAACAAATCAGTAAGAAAAAAAACAAA
AAGCAAATRCAATARAAACAAASATAA	MEME-1	chr5	38534067	38534093	+	-8.07273	3.87e-05	0.0479	AAGCTGGAACACTCGAGGGAGAAAAGA
AAGCAAATRCAATARAAACAAASATAA	MEME-1	chr14	63545244	63545270	-	-8.38182	4.18e-05	0.0489	TGTTCATTTCTATATAAAGAAAGAAAA
AAGCAAATRCAATARAAACAAASATAA	MEME-1	chr17	78690205	78690231	-	-8.39091	4.19e-05	0.0489	CAGCAAGAAAAAAAAATCCCATCAAAA
AAGCAAATRCAATARAAACAAASATAA	MEME-1	chr9	136608806	136608832	-	-8.4	4.2e-05	0.0489	AAACAAACAAACAAAAAACTAGAAAAT
AAGCAAATRCAATARAAACAAASATAA	MEME-1	chr4	24862356	24862382	+	-8.72727	4.54e-05	0.0519	aagcaaatctgcaagaaaaaaacaaat
AAGCAAATRCAATARAAACAAASATAA	MEME-1	chr14	63545582	63545608	+	-9.1	4.97e-05	0.054	taacagatgcagaaaaagcatttaaca
AAGCAAATRCAATARAAACAAASATAA	MEME-1	chr2	43827131	43827157	+	-9.16364	5.04e-05	0.054	actcaaacaaatcagtaagaaaaaaac
AAGCAAATRCAATARAAACAAASATAA	MEME-1	chr7	117565591	117565617	+	-9.16364	5.04e-05	0.054	actcaaacaaatgagcaagaaaaaaca
AAGCAAATRCAATARAAACAAASATAA	MEME-1	chr7	117565607	117565633	+	-9.25455	5.16e-05	0.054	aagaaaaaacaattacatcaaaaattg
AAGCAAATRCAATARAAACAAASATAA	MEME-1	chr2	43826968	43826994	+	-9.27273	5.18e-05	0.054	aaatacaataaaaacagagataaatag
AAGCAAATRCAATARAAACAAASATAA	MEME-1	chr2	43827139	43827165	+	-9.52727	5.5e-05	0.0541	aaatcagtaagaaaaaaacaaacaatt
AAGCAAATRCAATARAAACAAASATAA	MEME-1	chr9	136608813	136608839	-	-9.53636	5.52e-05	0.0541	AAGAACAAAACAAACAAACAAAAAACT
AAGCAAATRCAATARAAACAAASATAA	MEME-1	chr13	76836310	76836336	+	-9.56364	5.55e-05	0.0541	AAAGAGATAACATCAGAGGAAGATAAA
AAGCAAATRCAATARAAACAAASATAA	MEME-1	chr14	34682796	34682822	+	-9.57273	5.56e-05	0.0541	AAGCAGGAGGAAACCAAAAAAACGGAG
AAGCAAATRCAATARAAACAAASATAA	MEME-1	chr4	24861925	24861951	+	-9.69091	5.71e-05	0.0547	actgatcttcaacaaagaaaacaaaaa
AAGCAAATRCAATARAAACAAASATAA	MEME-1	chr13	100629830	100629856	-	-10.1455	6.36e-05	0.0588	ACAAGTGACCAAAAAAAAAAAAAAAAA
AAGCAAATRCAATARAAACAAASATAA	MEME-1	chr6	164129866	164129892	-	-10.1636	6.38e-05	0.0588	AAAAAAAAAAAAGCAAGTCTAAGCAAA
AAGCAAATRCAATARAAACAAASATAA	MEME-1	chr12	77073589	77073615	+	-10.2273	6.49e-05	0.0588	aagcaaactcagaagagacagatgtat
AAGCAAATRCAATARAAACAAASATAA	MEME-1	chr3	133718840	133718866	+	-10.2545	6.53e-05	0.0588	aaacaaaacaaaacaaaacaaaacCCT
AAGCAAATRCAATARAAACAAASATAA	MEME-1	chr3	100314577	100314603	-	-10.5	6.92e-05	0.0614	AAGGAGATATACAAATGGCCAACAAAC
AAGCAAATRCAATARAAACAAASATAA	MEME-1	chrX	143455922	143455948	-	-10.8636	7.53e-05	0.0657	ACAATAGAAAGAAAAAAAAGAAGATAA
AAGCAAATRCAATARAAACAAASATAA	MEME-1	chr9	77463456	77463482	+	-10.9364	7.66e-05	0.0657	aaactgaaacaatggaaggtaaaatgg
AAGCAAATRCAATARAAACAAASATAA	MEME-1	chrX	142490377	142490403	+	-10.9818	7.74e-05	0.0657	CATCAGTAACAATTCAGAGAAAAAGTA
AAGCAAATRCAATARAAACAAASATAA	MEME-1	chr4	131057951	131057977	+	-11.0545	7.87e-05	0.0659	aagaaaaaaaaacaaacataattaaaa
AAGCAAATRCAATARAAACAAASATAA	MEME-1	chr5	38534051	38534077	+	-11.4273	8.58e-05	0.0708	AAAGAAATTAAATACTAAGCTGGAACA
AAGCAAATRCAATARAAACAAASATAA	MEME-1	chr3	30367822	30367848	+	-11.6091	8.95e-05	0.0729	gatgaaaacccaaaaatagaagaaaaa
AAGCAAATRCAATARAAACAAASATAA	MEME-1	chr5	53039811	53039837	+	-11.8091	9.38e-05	0.0741	gcccaaaagcaaatgcaataaaaacaa
AAGCAAATRCAATARAAACAAASATAA	MEME-1	chr13	100629829	100629855	-	-11.8545	9.48e-05	0.0741	CAAGTGACCAAAAAAAAAAAAAAAAAA
AAGCAAATRCAATARAAACAAASATAA	MEME-1	chr4	131057788	131057814	+	-11.8545	9.48e-05	0.0741	aagcaaattaaaacaaagataaatagc
AAGCAAATRCAATARAAACAAASATAA	MEME-1	chr3	133718830	133718856	+	-11.9182	9.61e-05	0.0742	GACAAGGCAaaaacaaaacaaaacaaa
