# motif_id	motif_alt_id	sequence_name	start	stop	strand	score	p-value	q-value	matched_sequence
ACASAGR	DREME-5	chr6	474061	474067	-	12.0921	5.65e-05	0.357	ACACAGG
ACASAGR	DREME-5	chr16	1950410	1950416	-	12.0921	5.65e-05	0.357	ACACAGG
ACASAGR	DREME-5	chr16	1950698	1950704	-	12.0921	5.65e-05	0.357	ACACAGG
ACASAGR	DREME-5	chr1	3571622	3571628	-	12.0921	5.65e-05	0.357	ACACAGG
ACASAGR	DREME-5	chr4	3782327	3782333	-	12.0921	5.65e-05	0.357	ACACAGG
ACASAGR	DREME-5	chr3	4534391	4534397	-	12.0921	5.65e-05	0.357	ACACAGG
ACASAGR	DREME-5	chr3	4786141	4786147	-	12.0921	5.65e-05	0.357	ACACAGG
ACASAGR	DREME-5	chr3	4928761	4928767	-	12.0921	5.65e-05	0.357	ACACAGG
ACASAGR	DREME-5	chr6	7201618	7201624	-	12.0921	5.65e-05	0.357	ACACAGG
ACASAGR	DREME-5	chr1	8971216	8971222	-	12.0921	5.65e-05	0.357	ACACAGG
ACASAGR	DREME-5	chr6	10317555	10317561	-	12.0921	5.65e-05	0.357	ACACAGG
ACASAGR	DREME-5	chr2	11679540	11679546	-	12.0921	5.65e-05	0.357	ACACAGG
ACASAGR	DREME-5	chr2	11679667	11679673	-	12.0921	5.65e-05	0.357	ACACAGG
ACASAGR	DREME-5	chr10	14116493	14116499	-	12.0921	5.65e-05	0.357	ACACAGG
ACASAGR	DREME-5	chr14	23082815	23082821	-	12.0921	5.65e-05	0.357	ACACAGG
ACASAGR	DREME-5	chr2	26234910	26234916	-	12.0921	5.65e-05	0.357	ACACAGG
ACASAGR	DREME-5	chr2	26235332	26235338	-	12.0921	5.65e-05	0.357	ACACAGG
ACASAGR	DREME-5	chr13	26641998	26642004	-	12.0921	5.65e-05	0.357	ACACAGG
ACASAGR	DREME-5	chr10	29311425	29311431	-	12.0921	5.65e-05	0.357	ACACAGG
ACASAGR	DREME-5	chr10	29311477	29311483	-	12.0921	5.65e-05	0.357	ACACAGG
ACASAGR	DREME-5	chr6	33512159	33512165	-	12.0921	5.65e-05	0.357	ACACAGG
ACASAGR	DREME-5	chr10	33562442	33562448	-	12.0921	5.65e-05	0.357	ACACAGG
ACASAGR	DREME-5	chr14	34635307	34635313	-	12.0921	5.65e-05	0.357	ACACAGG
ACASAGR	DREME-5	chr19	35135706	35135712	-	12.0921	5.65e-05	0.357	ACACAGG
ACASAGR	DREME-5	chr11	35412869	35412875	-	12.0921	5.65e-05	0.357	ACACAGG
ACASAGR	DREME-5	chr1	37504387	37504393	-	12.0921	5.65e-05	0.357	ACACAGG
ACASAGR	DREME-5	chr19	39602534	39602540	-	12.0921	5.65e-05	0.357	ACACAGG
ACASAGR	DREME-5	chr21	40693454	40693460	-	12.0921	5.65e-05	0.357	ACACAGG
ACASAGR	DREME-5	chr20	41867189	41867195	-	12.0921	5.65e-05	0.357	ACACAGG
ACASAGR	DREME-5	chr18	45659669	45659675	-	12.0921	5.65e-05	0.357	ACACAGG
ACASAGR	DREME-5	chr18	45660034	45660040	-	12.0921	5.65e-05	0.357	ACACAGG
ACASAGR	DREME-5	chr21	45669380	45669386	-	12.0921	5.65e-05	0.357	ACACAGG
ACASAGR	DREME-5	chr21	47167920	47167926	-	12.0921	5.65e-05	0.357	ACACAGG
ACASAGR	DREME-5	chr19	47428480	47428486	-	12.0921	5.65e-05	0.357	ACACAGG
ACASAGR	DREME-5	chr20	49040017	49040023	-	12.0921	5.65e-05	0.357	ACACAGG
ACASAGR	DREME-5	chr12	52596709	52596715	-	12.0921	5.65e-05	0.357	ACACAGG
ACASAGR	DREME-5	chr3	53810966	53810972	-	12.0921	5.65e-05	0.357	ACACAGG
ACASAGR	DREME-5	chr17	60878048	60878054	-	12.0921	5.65e-05	0.357	ACACAGG
ACASAGR	DREME-5	chr20	61720580	61720586	-	12.0921	5.65e-05	0.357	ACACAGG
ACASAGR	DREME-5	chr3	63898810	63898816	-	12.0921	5.65e-05	0.357	ACACAGG
ACASAGR	DREME-5	chr15	67155302	67155308	-	12.0921	5.65e-05	0.357	ACACAGG
ACASAGR	DREME-5	chr15	67709310	67709316	-	12.0921	5.65e-05	0.357	ACACAGG
ACASAGR	DREME-5	chr11	71136919	71136925	-	12.0921	5.65e-05	0.357	ACACAGG
ACASAGR	DREME-5	chr7	73242176	73242182	-	12.0921	5.65e-05	0.357	ACACAGG
ACASAGR	DREME-5	chr13	74352573	74352579	-	12.0921	5.65e-05	0.357	ACACAGG
ACASAGR	DREME-5	chr16	75098109	75098115	-	12.0921	5.65e-05	0.357	ACACAGG
ACASAGR	DREME-5	chr12	76371512	76371518	-	12.0921	5.65e-05	0.357	ACACAGG
ACASAGR	DREME-5	chr10	77005217	77005223	-	12.0921	5.65e-05	0.357	ACACAGG
ACASAGR	DREME-5	chr12	83079752	83079758	-	12.0921	5.65e-05	0.357	ACACAGG
ACASAGR	DREME-5	chr16	84340777	84340783	-	12.0921	5.65e-05	0.357	ACACAGG
ACASAGR	DREME-5	chr16	84628608	84628614	-	12.0921	5.65e-05	0.357	ACACAGG
ACASAGR	DREME-5	chr2	85648989	85648995	-	12.0921	5.65e-05	0.357	ACACAGG
ACASAGR	DREME-5	chr2	85648998	85649004	-	12.0921	5.65e-05	0.357	ACACAGG
ACASAGR	DREME-5	chr16	85651971	85651977	-	12.0921	5.65e-05	0.357	ACACAGG
ACASAGR	DREME-5	chr16	89970967	89970973	-	12.0921	5.65e-05	0.357	ACACAGG
ACASAGR	DREME-5	chr16	89971073	89971079	-	12.0921	5.65e-05	0.357	ACACAGG
ACASAGR	DREME-5	chr15	90459928	90459934	-	12.0921	5.65e-05	0.357	ACACAGG
ACASAGR	DREME-5	chr15	93210759	93210765	-	12.0921	5.65e-05	0.357	ACACAGG
ACASAGR	DREME-5	chr14	95351388	95351394	-	12.0921	5.65e-05	0.357	ACACAGG
ACASAGR	DREME-5	chr1	97437785	97437791	-	12.0921	5.65e-05	0.357	ACACAGG
ACASAGR	DREME-5	chr9	97581407	97581413	-	12.0921	5.65e-05	0.357	ACACAGG
ACASAGR	DREME-5	chr9	97684782	97684788	-	12.0921	5.65e-05	0.357	ACACAGG
ACASAGR	DREME-5	chr15	99398156	99398162	-	12.0921	5.65e-05	0.357	ACACAGG
ACASAGR	DREME-5	chr15	100016540	100016546	-	12.0921	5.65e-05	0.357	ACACAGG
ACASAGR	DREME-5	chr7	101588362	101588368	-	12.0921	5.65e-05	0.357	ACACAGG
ACASAGR	DREME-5	chr7	101618946	101618952	-	12.0921	5.65e-05	0.357	ACACAGG
ACASAGR	DREME-5	chr9	102195863	102195869	-	12.0921	5.65e-05	0.357	ACACAGG
ACASAGR	DREME-5	chr14	104320252	104320258	-	12.0921	5.65e-05	0.357	ACACAGG
ACASAGR	DREME-5	chr2	105813059	105813065	-	12.0921	5.65e-05	0.357	ACACAGG
ACASAGR	DREME-5	chr13	110651290	110651296	-	12.0921	5.65e-05	0.357	ACACAGG
ACASAGR	DREME-5	chr11	118790242	118790248	-	12.0921	5.65e-05	0.357	ACACAGG
ACASAGR	DREME-5	chr11	120151542	120151548	-	12.0921	5.65e-05	0.357	ACACAGG
ACASAGR	DREME-5	chr12	121198512	121198518	-	12.0921	5.65e-05	0.357	ACACAGG
ACASAGR	DREME-5	chr11	121349039	121349045	-	12.0921	5.65e-05	0.357	ACACAGG
ACASAGR	DREME-5	chr11	121349057	121349063	-	12.0921	5.65e-05	0.357	ACACAGG
ACASAGR	DREME-5	chr11	121349237	121349243	-	12.0921	5.65e-05	0.357	ACACAGG
ACASAGR	DREME-5	chr11	121349269	121349275	-	12.0921	5.65e-05	0.357	ACACAGG
ACASAGR	DREME-5	chr2	129063518	129063524	-	12.0921	5.65e-05	0.357	ACACAGG
ACASAGR	DREME-5	chr8	134781396	134781402	-	12.0921	5.65e-05	0.357	ACACAGG
ACASAGR	DREME-5	chr6	139866804	139866810	-	12.0921	5.65e-05	0.357	ACACAGG
ACASAGR	DREME-5	chr5	145360769	145360775	-	12.0921	5.65e-05	0.357	ACACAGG
ACASAGR	DREME-5	chr5	145912995	145913001	-	12.0921	5.65e-05	0.357	ACACAGG
ACASAGR	DREME-5	chr3	175056839	175056845	-	12.0921	5.65e-05	0.357	ACACAGG
ACASAGR	DREME-5	chr2	189157727	189157733	-	12.0921	5.65e-05	0.357	ACACAGG
ACASAGR	DREME-5	chr3	189497427	189497433	-	12.0921	5.65e-05	0.357	ACACAGG
ACASAGR	DREME-5	chr3	193429980	193429986	-	12.0921	5.65e-05	0.357	ACACAGG
ACASAGR	DREME-5	chr1	211909061	211909067	-	12.0921	5.65e-05	0.357	ACACAGG
ACASAGR	DREME-5	chr1	230220185	230220191	-	12.0921	5.65e-05	0.357	ACACAGG
ACASAGR	DREME-5	chr1	232284974	232284980	-	12.0921	5.65e-05	0.357	ACACAGG
ACASAGR	DREME-5	chr2	237654389	237654395	-	12.0921	5.65e-05	0.357	ACACAGG
ACASAGR	DREME-5	chr7	373646	373652	+	12.0921	5.65e-05	0.357	ACACAGG
ACASAGR	DREME-5	chr2	1235572	1235578	+	12.0921	5.65e-05	0.357	acacagg
ACASAGR	DREME-5	chr5	1516452	1516458	+	12.0921	5.65e-05	0.357	ACACAGG
ACASAGR	DREME-5	chr20	3792037	3792043	+	12.0921	5.65e-05	0.357	ACACAGG
ACASAGR	DREME-5	chr6	7561827	7561833	+	12.0921	5.65e-05	0.357	ACACAGG
ACASAGR	DREME-5	chr3	14269646	14269652	+	12.0921	5.65e-05	0.357	acacagg
ACASAGR	DREME-5	chr6	16146758	16146764	+	12.0921	5.65e-05	0.357	ACACAGG
ACASAGR	DREME-5	chr5	16573488	16573494	+	12.0921	5.65e-05	0.357	ACACAGG
ACASAGR	DREME-5	chr6	16849852	16849858	+	12.0921	5.65e-05	0.357	ACACAGG
ACASAGR	DREME-5	chr19	18491123	18491129	+	12.0921	5.65e-05	0.357	ACACAGG
ACASAGR	DREME-5	chr20	19949222	19949228	+	12.0921	5.65e-05	0.357	ACACAGG
ACASAGR	DREME-5	chr18	20681900	20681906	+	12.0921	5.65e-05	0.357	ACACAGG
ACASAGR	DREME-5	chr10	24831129	24831135	+	12.0921	5.65e-05	0.357	ACACAGG
ACASAGR	DREME-5	chr1	25522419	25522425	+	12.0921	5.65e-05	0.357	ACACAGG
ACASAGR	DREME-5	chr2	27516274	27516280	+	12.0921	5.65e-05	0.357	ACACAGG
ACASAGR	DREME-5	chr2	27516385	27516391	+	12.0921	5.65e-05	0.357	ACACAGG
ACASAGR	DREME-5	chr3	27574997	27575003	+	12.0921	5.65e-05	0.357	ACACAGG
ACASAGR	DREME-5	chr20	31779152	31779158	+	12.0921	5.65e-05	0.357	ACACAGG
ACASAGR	DREME-5	chr18	32629531	32629537	+	12.0921	5.65e-05	0.357	ACACAGG
ACASAGR	DREME-5	chr6	34522727	34522733	+	12.0921	5.65e-05	0.357	ACACAGG
ACASAGR	DREME-5	chr14	34950317	34950323	+	12.0921	5.65e-05	0.357	ACACAGG
ACASAGR	DREME-5	chr19	35135889	35135895	+	12.0921	5.65e-05	0.357	ACACAGG
ACASAGR	DREME-5	chr19	35136064	35136070	+	12.0921	5.65e-05	0.357	ACACAGG
ACASAGR	DREME-5	chr22	36858414	36858420	+	12.0921	5.65e-05	0.357	ACACAGG
ACASAGR	DREME-5	chr21	39008725	39008731	+	12.0921	5.65e-05	0.357	ACACAGG
ACASAGR	DREME-5	chrX	39473657	39473663	+	12.0921	5.65e-05	0.357	ACACAGG
ACASAGR	DREME-5	chrX	39473828	39473834	+	12.0921	5.65e-05	0.357	ACACAGG
ACASAGR	DREME-5	chr17	39560261	39560267	+	12.0921	5.65e-05	0.357	acacagg
ACASAGR	DREME-5	chr15	40377360	40377366	+	12.0921	5.65e-05	0.357	acacagg
ACASAGR	DREME-5	chr15	40391089	40391095	+	12.0921	5.65e-05	0.357	ACACAGG
ACASAGR	DREME-5	chr1	41966761	41966767	+	12.0921	5.65e-05	0.357	acacagg
ACASAGR	DREME-5	chr17	42164547	42164553	+	12.0921	5.65e-05	0.357	ACACAGG
ACASAGR	DREME-5	chr5	42620721	42620727	+	12.0921	5.65e-05	0.357	acacagg
ACASAGR	DREME-5	chr2	43300666	43300672	+	12.0921	5.65e-05	0.357	ACACAGG
ACASAGR	DREME-5	chr21	45616208	45616214	+	12.0921	5.65e-05	0.357	ACACAGG
ACASAGR	DREME-5	chr21	45616330	45616336	+	12.0921	5.65e-05	0.357	ACACAGG
ACASAGR	DREME-5	chr21	46823469	46823475	+	12.0921	5.65e-05	0.357	acacagg
ACASAGR	DREME-5	chr21	46933536	46933542	+	12.0921	5.65e-05	0.357	ACACAGG
ACASAGR	DREME-5	chr21	46933554	46933560	+	12.0921	5.65e-05	0.357	ACACAGG
ACASAGR	DREME-5	chr21	46933591	46933597	+	12.0921	5.65e-05	0.357	ACACAGG
ACASAGR	DREME-5	chr19	47324099	47324105	+	12.0921	5.65e-05	0.357	ACACAGG
ACASAGR	DREME-5	chr20	47377605	47377611	+	12.0921	5.65e-05	0.357	acacagg
ACASAGR	DREME-5	chr7	47515256	47515262	+	12.0921	5.65e-05	0.357	ACACAGG
ACASAGR	DREME-5	chr20	49378179	49378185	+	12.0921	5.65e-05	0.357	acacagg
ACASAGR	DREME-5	chr17	53510402	53510408	+	12.0921	5.65e-05	0.357	ACACAGG
ACASAGR	DREME-5	chr3	53810939	53810945	+	12.0921	5.65e-05	0.357	ACACAGG
ACASAGR	DREME-5	chr17	57425002	57425008	+	12.0921	5.65e-05	0.357	ACACAGG
ACASAGR	DREME-5	chr20	57431262	57431268	+	12.0921	5.65e-05	0.357	ACACAGG
ACASAGR	DREME-5	chr15	60671661	60671667	+	12.0921	5.65e-05	0.357	ACACAGG
ACASAGR	DREME-5	chr15	63754145	63754151	+	12.0921	5.65e-05	0.357	acacagg
ACASAGR	DREME-5	chr15	63793756	63793762	+	12.0921	5.65e-05	0.357	ACACAGG
ACASAGR	DREME-5	chr3	64143051	64143057	+	12.0921	5.65e-05	0.357	ACACAGG
ACASAGR	DREME-5	chr17	65387474	65387480	+	12.0921	5.65e-05	0.357	ACACAGG
ACASAGR	DREME-5	chr3	65565963	65565969	+	12.0921	5.65e-05	0.357	ACACAGG
ACASAGR	DREME-5	chr11	67449573	67449579	+	12.0921	5.65e-05	0.357	acacagg
ACASAGR	DREME-5	chr14	71107928	71107934	+	12.0921	5.65e-05	0.357	ACACAGG
ACASAGR	DREME-5	chr14	74223240	74223246	+	12.0921	5.65e-05	0.357	ACACAGG
ACASAGR	DREME-5	chr11	76483640	76483646	+	12.0921	5.65e-05	0.357	ACACAGG
ACASAGR	DREME-5	chr10	77005078	77005084	+	12.0921	5.65e-05	0.357	ACACAGG
ACASAGR	DREME-5	chr16	82172293	82172299	+	12.0921	5.65e-05	0.357	acacagg
ACASAGR	DREME-5	chr4	83445762	83445768	+	12.0921	5.65e-05	0.357	ACACAGG
ACASAGR	DREME-5	chr1	85763608	85763614	+	12.0921	5.65e-05	0.357	ACACAGG
ACASAGR	DREME-5	chr15	86422363	86422369	+	12.0921	5.65e-05	0.357	ACACAGG
ACASAGR	DREME-5	chr16	88830265	88830271	+	12.0921	5.65e-05	0.357	ACACAGG
ACASAGR	DREME-5	chr16	89572112	89572118	+	12.0921	5.65e-05	0.357	ACACAGG
ACASAGR	DREME-5	chr16	89970914	89970920	+	12.0921	5.65e-05	0.357	aCACAGG
ACASAGR	DREME-5	chr15	93181441	93181447	+	12.0921	5.65e-05	0.357	ACACAGG
ACASAGR	DREME-5	chr15	93289264	93289270	+	12.0921	5.65e-05	0.357	aCACAGG
ACASAGR	DREME-5	chr12	93481183	93481189	+	12.0921	5.65e-05	0.357	ACACAGG
ACASAGR	DREME-5	chr11	95650633	95650639	+	12.0921	5.65e-05	0.357	acacagg
ACASAGR	DREME-5	chr13	98945437	98945443	+	12.0921	5.65e-05	0.357	ACACAGG
ACASAGR	DREME-5	chr3	103156800	103156806	+	12.0921	5.65e-05	0.357	acacagg
ACASAGR	DREME-5	chr6	106582979	106582985	+	12.0921	5.65e-05	0.357	ACACAGG
ACASAGR	DREME-5	chr4	113034180	113034186	+	12.0921	5.65e-05	0.357	ACACAGG
ACASAGR	DREME-5	chr9	114654482	114654488	+	12.0921	5.65e-05	0.357	ACACAGG
ACASAGR	DREME-5	chr12	116940966	116940972	+	12.0921	5.65e-05	0.357	ACACAGG
ACASAGR	DREME-5	chr11	117758673	117758679	+	12.0921	5.65e-05	0.357	ACACAGG
ACASAGR	DREME-5	chr10	119242698	119242704	+	12.0921	5.65e-05	0.357	ACACAGG
ACASAGR	DREME-5	chr12	123560134	123560140	+	12.0921	5.65e-05	0.357	ACACAGG
ACASAGR	DREME-5	chr10	127313424	127313430	+	12.0921	5.65e-05	0.357	ACACAGG
ACASAGR	DREME-5	chr2	128458536	128458542	+	12.0921	5.65e-05	0.357	ACACAGG
ACASAGR	DREME-5	chr11	129723909	129723915	+	12.0921	5.65e-05	0.357	ACACAGG
ACASAGR	DREME-5	chr8	131009111	131009117	+	12.0921	5.65e-05	0.357	acacagg
ACASAGR	DREME-5	chr7	131312465	131312471	+	12.0921	5.65e-05	0.357	ACACAGG
ACASAGR	DREME-5	chr12	132349760	132349766	+	12.0921	5.65e-05	0.357	acacagg
ACASAGR	DREME-5	chrX	132431427	132431433	+	12.0921	5.65e-05	0.357	ACACAGG
ACASAGR	DREME-5	chrX	132431730	132431736	+	12.0921	5.65e-05	0.357	acacaGG
ACASAGR	DREME-5	chr3	133718464	133718470	+	12.0921	5.65e-05	0.357	ACACAGG
ACASAGR	DREME-5	chr9	140376631	140376637	+	12.0921	5.65e-05	0.357	acacagg
ACASAGR	DREME-5	chr5	142974465	142974471	+	12.0921	5.65e-05	0.357	ACACAGG
ACASAGR	DREME-5	chr6	150944326	150944332	+	12.0921	5.65e-05	0.357	ACACAGG
ACASAGR	DREME-5	chr1	169042918	169042924	+	12.0921	5.65e-05	0.357	acacaGG
ACASAGR	DREME-5	chr1	169498230	169498236	+	12.0921	5.65e-05	0.357	ACACAGG
ACASAGR	DREME-5	chr2	171095347	171095353	+	12.0921	5.65e-05	0.357	ACACAGG
ACASAGR	DREME-5	chr3	171848118	171848124	+	12.0921	5.65e-05	0.357	ACACAGG
ACASAGR	DREME-5	chr3	192315313	192315319	+	12.0921	5.65e-05	0.357	ACACAGG
ACASAGR	DREME-5	chr3	193853661	193853667	+	12.0921	5.65e-05	0.357	ACACAGG
ACASAGR	DREME-5	chr2	226336420	226336426	+	12.0921	5.65e-05	0.357	acacagg
ACASAGR	DREME-5	chr2	236954155	236954161	+	12.0921	5.65e-05	0.357	acacagg
