# motif_id	motif_alt_id	sequence_name	start	stop	strand	score	p-value	q-value	matched_sequence
AGTTTAATTAAGTCCCAGCTAT	MEME-2	chr3	100314802	100314823	+	38.4215	1.56e-13	9.89e-09	agtttaattaagtcccagctat
AGTTTAATTAAGTCCCAGCTAT	MEME-2	chr5	53039844	53039865	-	37.3223	4.94e-13	1.57e-08	AGTTTAATTAGGTCCCAGCTAT
AGTTTAATTAAGTCCCAGCTAT	MEME-2	chr4	131057810	131057831	-	36.9091	8.33e-13	1.57e-08	GGTTTAATTAAGTCCCAGCTAT
AGTTTAATTAAGTCCCAGCTAT	MEME-2	chr17	78690365	78690386	+	36.8678	9.89e-13	1.57e-08	agttaaattaagtcccagctat
AGTTTAATTAAGTCCCAGCTAT	MEME-2	chr4	24862209	24862230	-	30.5207	6.04e-11	6.38e-07	AGTTTAATTAAGTCCCATCTAT
AGTTTAATTAAGTCCCAGCTAT	MEME-2	chr7	117565449	117565470	-	30.5207	6.04e-11	6.38e-07	AGTTTAATTAAGTCCAAGCTAT
AGTTTAATTAAGTCCCAGCTAT	MEME-2	chr6	16832330	16832351	+	24.8512	1.35e-09	1.22e-05	AATAGAATCGCGTGCCAGGTAT
AGTTTAATTAAGTCCCAGCTAT	MEME-2	chr2	43826991	43827012	-	15.5041	6.14e-08	0.000487	ACTTTAACTAAGTCCCAACTAT
AGTTTAATTAAGTCCCAGCTAT	MEME-2	chr14	63545650	63545671	-	-1.97521	1.69e-05	0.119	GGTTAAAAAAAGTCCCTTCTGT
AGTTTAATTAAGTCCCAGCTAT	MEME-2	chr7	128073609	128073630	-	-2.75207	2.14e-05	0.136	AATATAACTGGGTGCCAAGGCT
AGTTTAATTAAGTCCCAGCTAT	MEME-2	chr2	5504884	5504905	+	-4.08264	3.24e-05	0.187	AGGAAAATAAAGATCCAGGTTT
AGTTTAATTAAGTCCCAGCTAT	MEME-2	chr13	76836194	76836215	+	-4.40496	3.56e-05	0.188	GCTCAAATCATGTCCCAGGGAA
AGTTTAATTAAGTCCCAGCTAT	MEME-2	chr12	114182807	114182828	-	-7.01653	6.92e-05	0.338	GAGTATATTGTGTGCCTGCTAA
