# motif_id	motif_alt_id	sequence_name	start	stop	strand	score	p-value	q-value	matched_sequence
ATCTTTGTTTTTATTKCATTTGCTTTTGKG	MEME-1	chr5	53039612	53039641	-	48.6	5.38e-18	2.04e-14	ATCTTTGTTTTTATTGCATTTGCTTTTGGG
ATCTTTGTTTTTATTKCATTTGCTTTTGKG	MEME-1	chr17	78690214	78690243	+	48.6	5.38e-18	2.04e-14	atctttgtttttattgcatttgcttttggg
ATCTTTGTTTTTATTKCATTTGCTTTTGKG	MEME-1	chr7	117565267	117565296	-	45.48	5.01e-16	1.27e-12	ATCTTTGTTTCTATTGAATTTGCTTTTGGG
ATCTTTGTTTTTATTKCATTTGCTTTTGKG	MEME-1	chr3	30367373	30367402	-	32.44	1.07e-11	2.04e-08	ATCTTTATTTTTATCTCATTTTGCTCGCTG
ATCTTTGTTTTTATTKCATTTGCTTTTGKG	MEME-1	chr2	43826784	43826813	-	31.832	1.47e-11	2.23e-08	ATCTCTGTTTTTATTGTATTTGCTTTTGAG
ATCTTTGTTTTTATTKCATTTGCTTTTGKG	MEME-1	chr14	63545252	63545281	-	28.768	6.7e-11	8.47e-08	ATGTTTGCCTAGATTTTATTTGCTAGTATT
ATCTTTGTTTTTATTKCATTTGCTTTTGKG	MEME-1	chr4	131057428	131057457	-	1.776	1.43e-06	0.00155	ATCTTTGTTTTAATTTGCTTTTGGGTTCTT
ATCTTTGTTTTTATTKCATTTGCTTTTGKG	MEME-1	chr4	131057434	131057463	-	-1.656	3.8e-06	0.0036	CTATTTATCTTTGTTTTAATTTGCTTTTGG
ATCTTTGTTTTTATTKCATTTGCTTTTGKG	MEME-1	chr4	131057433	131057462	-	-2.376	4.61e-06	0.00388	TATTTATCTTTGTTTTAATTTGCTTTTGGG
ATCTTTGTTTTTATTKCATTTGCTTTTGKG	MEME-1	chr5	53039618	53039647	-	-12.736	6.27e-05	0.0432	CTATTTATCTTTGTTTTTATTGCATTTGCT
ATCTTTGTTTTTATTKCATTTGCTTTTGKG	MEME-1	chr17	78690208	78690237	+	-12.736	6.27e-05	0.0432	ctatttatctttgtttttattgcatttgct
ATCTTTGTTTTTATTKCATTTGCTTTTGKG	MEME-1	chr3	30367422	30367451	-	-13.64	7.7e-05	0.0487	ATCTGTAGTTGTATTGTTATTGGCCTCCGT
