#Query ID	Target ID	Optimal offset	p-value	E-value	q-value	Overlap	Query consensus	Target consensus	Orientation
1	1	0	1.9298e-13	2.89471e-12	5.78941e-12	7	ATAAACA	ATAAACA	+
1	15	0	0.000340379	0.00510569	0.00510569	7	ATAAACA	GTAAACAA	+
1	4	10	0.00290718	0.0436078	0.0290718	7	ATAAACA	AGTCAGCAGAGTAAACAGACA	+
2	2	0	0	0	0	22	TGTTTTTTTTGTTTTTGTTTTT	TGTTTTTTTTGTTTTTGTTTTT	+
3	3	0	6.5861e-44	9.87915e-43	1.97583e-42	30	GAAAAACCCTTCTAGACATTGGCTTAGGCA	GAAAAACCCTTCTAGACATTGGCTTAGGCA	+
4	4	0	0	0	0	21	AGTCAGCAGAGTAAACAGACA	AGTCAGCAGAGTAAACAGACA	+
4	15	-10	0.000450716	0.00676074	0.00676074	8	AGTCAGCAGAGTAAACAGACA	GTAAACAA	+
4	1	-10	0.000913426	0.0137014	0.00913426	7	AGTCAGCAGAGTAAACAGACA	ATAAACA	+
4	2	0	0.0127957	0.191935	0.0959675	21	AGTCAGCAGAGTAAACAGACA	AAAAACAAAAACAAAAAAAACA	-
5	5	0	5.25647e-08	7.8847e-07	1.57694e-06	5	CACGA	CACGA	+
6	6	0	6.89054e-08	1.03358e-06	2.06716e-06	6	AGATAA	AGATAA	+
6	9	22	0.00156915	0.0235372	0.0235372	6	AGATAA	CTGAAACTATAAAAATTCTAGAAGATAACA	+
7	7	0	1.32063e-10	1.98094e-09	3.96189e-09	8	TGAGTCAT	TGAGTCAT	+
8	8	0	5.25647e-08	7.8847e-07	1.57694e-06	5	CACAG	CACAG	+
9	9	0	0	0	0	30	CTGAAACTATAAAAATTCTAGAAGATAACA	CTGAAACTATAAAAATTCTAGAAGATAACA	+
9	6	-22	0.00580738	0.0871107	0.0871107	6	CTGAAACTATAAAAATTCTAGAAGATAACA	AGATAA	+
10	10	0	4.55723e-40	6.83585e-39	1.36717e-38	16	GGTCACGCTGCCCTGA	GGTCACGCTGCCCTGA	+
10	11	1	0.000511929	0.00767894	0.00511929	5	GGTCACGCTGCCCTGA	AGGTCA	+
11	11	0	2.21899e-08	3.32848e-07	6.65696e-07	6	AGGTCA	AGGTCA	+
12	12	0	9.71446e-10	1.45717e-08	2.91434e-08	7	CATTCCT	CATTCCT	+
13	13	0	1.82289e-39	2.73434e-38	5.46868e-38	16	GTGTGTGTGTGTGTGT	GTGTGTGTGTGTGTGT	+
14	14	0	0	0	0	30	AGTGCCTGGCACATGGTAGGTGCTTGATAA	AGTGCCTGGCACATGGTAGGTGCTTGATAA	+
15	15	0	1.68112e-18	2.52167e-17	5.04335e-17	8	GTAAACAA	GTAAACAA	+
15	1	0	0.000405331	0.00607996	0.00607996	7	GTAAACAA	ATAAACA	+
15	4	10	0.00189379	0.0284068	0.0189379	8	GTAAACAA	AGTCAGCAGAGTAAACAGACA	+
