#Query ID	Target ID	Optimal offset	p-value	E-value	q-value	Overlap	Query consensus	Target consensus	Orientation
RYAAAYA	FOXJ2_HUMAN.H11MO.0.C	3	1.32267e-06	0.00101977	0.00114521	7	ATAAACA	TAAATAAACA	-
RYAAAYA	ANDR_HUMAN.H11MO.0.A	1	1.50229e-06	0.00115826	0.00114521	7	ATAAACA	AGCAAACAAAAAAGAACA	-
RYAAAYA	FOXL1_HUMAN.H11MO.0.D	4	2.73471e-05	0.0210846	0.013898	7	ATAAACA	AAAAGTAAACAAACAAACA	-
RYAAAYA	FOXM1_HUMAN.H11MO.0.A	5	4.16147e-05	0.0320849	0.0158617	7	ATAAACA	GCAAAGCAAACA	-
RYAAAYA	FOXA1_HUMAN.H11MO.0.A	5	8.88176e-05	0.0684784	0.0237387	7	ATAAACA	CCAAAGTAAACA	-
RYAAAYA	FOXF1_HUMAN.H11MO.0.D	3	9.34212e-05	0.0720278	0.0237387	7	ATAAACA	AAAATAAACAT	-
RYAAAYA	FOXF2_HUMAN.H11MO.0.D	4	0.000116857	0.0900967	0.0254518	7	ATAAACA	AAAAGTAAACA	-
RYAAAYA	FOXA2_HUMAN.H11MO.0.A	5	0.000173738	0.133952	0.0331107	7	ATAAACA	GCTAAGTAAACA	-
RYAAAYA	FOXG1_HUMAN.H11MO.0.D	8	0.000205515	0.158452	0.0348148	7	ATAAACA	AAAAAAATATAAACAAT	-
RYAAAYA	FOXO4_HUMAN.H11MO.0.C	1	0.000261759	0.201817	0.0399084	7	ATAAACA	AATAAACAA	-
RYAAAYA	FOXP2_HUMAN.H11MO.0.C	1	0.000412	0.317652	0.0544386	7	ATAAACA	TGTAAACAG	-
RYAAAYA	FOXA3_HUMAN.H11MO.0.B	4	0.000437415	0.337247	0.0544386	7	ATAAACA	CAAAGTAAACAAG	-
RYAAAYA	FOXD3_HUMAN.H11MO.0.D	6	0.000470261	0.362571	0.0544386	7	ATAAACA	TGCTAAGTAAACAAA	-
RYAAAYA	TEF_HUMAN.H11MO.0.D	7	0.000499887	0.385413	0.0544386	7	ATAAACA	CATTTACATAAACA	-
RYAAAYA	FOXP1_HUMAN.H11MO.0.A	0	0.000618435	0.476814	0.0628587	7	ATAAACA	ATAAACAAA	-
RYAAAYA	FOXC1_HUMAN.H11MO.0.C	5	0.000666916	0.514192	0.0635497	7	ATAAACA	CTTAAGTAAACAATG	-
RYAAAYA	FOXO3_HUMAN.H11MO.0.B	1	0.000723709	0.55798	0.064905	7	ATAAACA	TGTAAACAAG	-
RYAAAYA	FOXJ3_HUMAN.H11MO.0.A	5	0.000830254	0.640126	0.0703236	7	ATAAACA	AAAAAATAAACAA	-
RYAAAYA	FOXQ1_HUMAN.H11MO.0.C	2	0.00094787	0.730808	0.0760602	7	ATAAACA	AAATAAACAATT	-
RYAAAYA	FOXO6_HUMAN.H11MO.0.D	2	0.0012648	0.975158	0.0951051	7	ATAAACA	ACGTAAACAAGTT	-
HCGTGM	EPAS1_HUMAN.H11MO.0.B	2	0.00114992	0.88659	0.638437	6	TCGTGA	GTACGTGCC	+
HCGTGM	MLX_HUMAN.H11MO.0.D	5	0.00115947	0.893954	0.638437	6	TCGTGA	TGATCACGTGC	+
AGATAW	GATA3_HUMAN.H11MO.0.A	2	0.000303703	0.234155	0.136657	6	AGATAA	AAAGATAAGAA	+
AGATAW	EVI1_HUMAN.H11MO.0.B	6	0.000371362	0.28632	0.136657	6	AGATAA	AAGATAAGATAAGATA	+
AGATAW	GATA6_HUMAN.H11MO.0.A	2	0.000404917	0.312191	0.136657	6	AGATAA	ACAGATAAGATAA	+
AGATAW	GATA1_HUMAN.H11MO.1.A	2	0.000414131	0.319295	0.136657	6	AGATAA	ACAGATAAGAA	+
AGATAW	GATA4_HUMAN.H11MO.0.A	2	0.000443797	0.342167	0.136657	6	AGATAA	ACAGATAAGA	+
AGATAW	GATA2_HUMAN.H11MO.1.A	2	0.000532532	0.410582	0.136657	6	AGATAA	ACAGATAAGAA	+
AGATAW	GATA2_HUMAN.H11MO.0.A	11	0.000708497	0.546251	0.155839	6	AGATAA	CTGGGGGGTGGAGATAAGG	+
AGATAW	GATA1_HUMAN.H11MO.0.A	11	0.000966039	0.744816	0.185926	6	AGATAA	CTGGCGGGGACAGATAAGA	+
TGAGTCAB	BACH1_HUMAN.H11MO.0.A	3	2.30275e-08	1.77542e-05	1.75954e-05	8	TGAGTCAT	TGCTGAGTCATGC	+
TGAGTCAB	FOSB_HUMAN.H11MO.0.A	1	2.33744e-08	1.80217e-05	1.75954e-05	8	TGAGTCAT	ATGAGTCAT	+
TGAGTCAB	BACH2_HUMAN.H11MO.0.A	3	4.67488e-08	3.60433e-05	2.34605e-05	8	TGAGTCAT	TGCTGAGTCAT	+
TGAGTCAB	FOS_HUMAN.H11MO.0.A	1	9.95534e-08	7.67557e-05	3.16626e-05	8	TGAGTCAT	GTGAGTCAC	+
TGAGTCAB	JUNB_HUMAN.H11MO.0.A	2	1.05154e-07	8.10741e-05	3.16626e-05	8	TGAGTCAT	TCTGAGTCACC	+
TGAGTCAB	FOSL1_HUMAN.H11MO.0.A	3	1.31443e-07	0.000101343	3.29819e-05	8	TGAGTCAT	GGATGAGTCACC	+
TGAGTCAB	JUND_HUMAN.H11MO.0.A	2	1.99107e-07	0.000153511	3.74701e-05	8	TGAGTCAT	GATGAGTCATC	+
TGAGTCAB	JUN_HUMAN.H11MO.0.A	2	1.99107e-07	0.000153511	3.74701e-05	8	TGAGTCAT	GATGAGTCATC	+
TGAGTCAB	FOSL2_HUMAN.H11MO.0.A	3	2.48884e-07	0.000191889	4.16335e-05	8	TGAGTCAT	GGATGAGTCATC	+
TGAGTCAB	NFE2_HUMAN.H11MO.0.A	3	1.84778e-06	0.00142464	0.000278188	8	TGAGTCAT	TGCTGAGTCATGC	-
TGAGTCAB	NF2L2_HUMAN.H11MO.0.A	6	2.15574e-06	0.00166208	0.000295048	8	TGAGTCAT	AACTGCTGAGTCAT	+
TGAGTCAB	BATF_HUMAN.H11MO.1.A	2	5.8236e-05	0.0449	0.00730633	8	TGAGTCAT	ATTGAGTCATC	-
TGAGTCAB	MAFK_HUMAN.H11MO.1.A	3	6.62025e-05	0.0510422	0.0076669	8	TGAGTCAT	TGCTGAGTCAGCA	+
TGAGTCAB	MAFB_HUMAN.H11MO.0.B	1	0.000223178	0.17207	0.0240001	8	TGAGTCAT	CTGAGTCAGCA	-
TGAGTCAB	BATF_HUMAN.H11MO.0.A	1	0.0002668	0.205703	0.025813	8	TGAGTCAT	ATGAGTCATATCGAAAGT	-
TGAGTCAB	MAFK_HUMAN.H11MO.0.A	8	0.000300884	0.231981	0.025813	8	TGAGTCAT	AAAATTGCTGAGTCAGCA	+
TGAGTCAB	MAFF_HUMAN.H11MO.0.B	3	0.000514367	0.396577	0.0351997	8	TGAGTCAT	TGCTGAGTCAGCATTTTT	+
TGAGTCAB	MAFG_HUMAN.H11MO.0.A	3	0.000566074	0.436443	0.03551	8	TGAGTCAT	TGCTGAGTCAGCAATTTT	-
TGAGTCAB	ZN554_HUMAN.H11MO.0.C	2	0.000728179	0.561426	0.0406035	8	TGAGTCAT	GCTGAGCCATGTGGGGTGCT	+
TGAGTCAB	MAF_HUMAN.H11MO.0.A	4	0.000805113	0.620742	0.04329	8	TGAGTCAT	TTGCTGAGTCAGCAGATTC	-
CMCAG	HTF4_HUMAN.H11MO.0.A	0	0.000267182	0.205997	0.411995	5	CACAG	CACAGCTGCA	-
CMCAG	ITF2_HUMAN.H11MO.0.C	0	0.000857817	0.661377	0.661377	5	CACAG	CCCAGCTGCC	-
CCTSAGGS	AP2C_HUMAN.H11MO.0.A	4	2.27868e-05	0.0175686	0.020659	8	CCTGAGGC	ATGCCCTGAGGCCA	+
CCTSAGGS	AP2A_HUMAN.H11MO.0.A	4	3.49071e-05	0.0269134	0.020659	8	CCTGAGGC	ATGCCCTGAGGCCAT	+
CCTSAGGS	AP2D_HUMAN.H11MO.0.D	2	0.000989164	0.762645	0.304603	8	CCTGAGGC	CGCCCGAGGCGCGT	+
AKGTCA	NR4A1_HUMAN.H11MO.0.A	2	5.07053e-05	0.0390938	0.03242	6	AGGTCA	AAAGGTCAG	+
AKGTCA	ESR2_HUMAN.H11MO.1.A	0	0.000122671	0.0945794	0.03242	6	AGGTCA	AGGTCAC	+
AKGTCA	RXRB_HUMAN.H11MO.0.C	2	0.000135257	0.104283	0.03242	6	AGGTCA	TGAGGTCACA	+
AKGTCA	THA_HUMAN.H11MO.1.D	3	0.000172234	0.132792	0.03242	6	AGGTCA	TTCAGGTCAG	+
AKGTCA	ERR2_HUMAN.H11MO.0.A	3	0.000183712	0.141642	0.03242	6	AGGTCA	TCAAGGTCA	+
AKGTCA	ERR3_HUMAN.H11MO.0.B	3	0.000183712	0.141642	0.03242	6	AGGTCA	TCAAGGTCA	+
AKGTCA	NR4A2_HUMAN.H11MO.0.C	2	0.000183712	0.141642	0.03242	6	AGGTCA	AAAGGTCAC	+
AKGTCA	NR1H3_HUMAN.H11MO.1.B	2	0.000229635	0.177049	0.03242	6	AGGTCA	AAAGGTCAGA	+
AKGTCA	NR4A3_HUMAN.H11MO.0.D	3	0.000229635	0.177049	0.03242	6	AGGTCA	CAAAGGTCAG	+
AKGTCA	PPARA_HUMAN.H11MO.1.B	2	0.000245327	0.189147	0.03242	6	AGGTCA	AAAGGTCAG	+
AKGTCA	RARG_HUMAN.H11MO.0.B	3	0.000276665	0.213309	0.03242	6	AGGTCA	CCCAGGTCACTCTGACCT	-
AKGTCA	THB_HUMAN.H11MO.1.D	4	0.000306649	0.236427	0.03242	6	AGGTCA	GGTCAGGTCA	+
AKGTCA	NR1D1_HUMAN.H11MO.1.D	6	0.000309999	0.239009	0.03242	6	AGGTCA	AAAAGTAGGTCAAA	+
AKGTCA	RARG_HUMAN.H11MO.1.B	1	0.000324403	0.250115	0.03242	6	AGGTCA	GAGGTCAG	+
AKGTCA	RXRG_HUMAN.H11MO.0.B	6	0.000367391	0.283258	0.03242	6	AGGTCA	GGTCAAAGGTCAC	+
AKGTCA	RARB_HUMAN.H11MO.0.D	1	0.000367968	0.283703	0.03242	6	AGGTCA	GAGGTCAGGGC	+
AKGTCA	PPARD_HUMAN.H11MO.0.D	8	0.000413305	0.318658	0.03242	6	AGGTCA	TAGGACAAAGGTCA	+
AKGTCA	RARA_HUMAN.H11MO.1.A	1	0.000413338	0.318684	0.03242	6	AGGTCA	AAGGTCAGGG	+
AKGTCA	RXRA_HUMAN.H11MO.1.A	3	0.000413338	0.318684	0.03242	6	AGGTCA	CAGAGGTCAG	+
AKGTCA	ERR1_HUMAN.H11MO.0.A	4	0.000459218	0.354057	0.0325882	6	AGGTCA	CTCAAGGTCACACAG	+
AKGTCA	ESR1_HUMAN.H11MO.0.A	0	0.000459218	0.354057	0.0325882	6	AGGTCA	AGGTCACCCTGACCT	+
AKGTCA	NR2C1_HUMAN.H11MO.0.C	6	0.000490594	0.378248	0.0332323	6	AGGTCA	GGCCAGAGGTCAG	+
AKGTCA	PPARG_HUMAN.H11MO.1.A	3	0.000545577	0.42064	0.034216	6	AGGTCA	CAAAGGTCA	+
AKGTCA	THB_HUMAN.H11MO.0.C	11	0.000551036	0.424849	0.034216	6	AGGTCA	GAGGTCAGGTCAGGTCA	+
AKGTCA	NR1H2_HUMAN.H11MO.0.D	10	0.000642846	0.495634	0.0359327	6	AGGTCA	TAAAGGTCAAAGGTCAACG	+
AKGTCA	COT1_HUMAN.H11MO.1.C	4	0.000661259	0.509831	0.0359327	6	AGGTCA	GCAGAGGTCAGGG	+
AKGTCA	COT2_HUMAN.H11MO.0.A	3	0.000661259	0.509831	0.0359327	6	AGGTCA	CAAAGGTCAGAGG	+
AKGTCA	ESR1_HUMAN.H11MO.1.A	2	0.000681925	0.525764	0.0359327	6	AGGTCA	CAAGGTCACC	+
AKGTCA	NR1H4_HUMAN.H11MO.1.B	0	0.00069924	0.539114	0.0359327	6	AGGTCA	AGGTCAGT	+
AKGTCA	NR1H3_HUMAN.H11MO.0.B	13	0.000858382	0.661812	0.0426403	6	AGGTCA	CAGAGGTCACTGCAGGTCA	+
AKGTCA	COT2_HUMAN.H11MO.1.A	8	0.000991725	0.76462	0.047675	6	AGGTCA	GGGGTCAAAGGTCAGGG	+
AKGTCA	NR6A1_HUMAN.H11MO.0.B	7	0.00109086	0.84105	0.0508017	6	AGGTCA	AAGTTCAAGGTCA	+
AKGTCA	COT1_HUMAN.H11MO.0.C	8	0.00129698	0.999973	0.0585707	6	AGGTCA	GGGGTCAGAGGTCAGGG	+
CATTCCW	TEAD1_HUMAN.H11MO.0.A	1	6.69121e-06	0.00515892	0.00515892	7	CATTCCT	ACATTCCAGCCA	+
CATTCCW	TEAD2_HUMAN.H11MO.0.D	3	6.69121e-06	0.00515892	0.00515892	7	CATTCCT	CCACATTCCAGG	+
CATTCCW	TEAD4_HUMAN.H11MO.0.A	1	1.2208e-05	0.00941239	0.00627493	7	CATTCCT	ACATTCCTGGCAT	+
