MOTIF_INDEX	MOTIF_SOURCE	MOTIF_ID	ALT_ID	CONSENSUS	WIDTH	SITES	E-VALUE	E-VALUE_SOURCE	MOST_SIMILAR_MOTIF_SOURCE	MOST_SIMILAR_MOTIF	URL
1	DREME	DCACGC	DREME-1	DCACGC	6	390	5.5e-053	DREME	/Users/filipov4/meme/db/motif_databases/HUMAN/HOCOMOCOv11_full_HUMAN_mono_meme_format.meme	AHR_HUMAN.H11MO.0.B	http://hocomoco.autosome.ru/motif/AHR_HUMAN.H11MO.0.B
2	MEME	GTGTGTGTGYGTGTGT	MEME-1	GTGTGTGTGYGTGTGT	16	53	1.3e-039	MEME	/Users/filipov4/meme/db/motif_databases/HUMAN/HOCOMOCOv11_full_HUMAN_mono_meme_format.meme	EGR2_HUMAN.H11MO.1.A	http://hocomoco.autosome.ru/motif/EGR2_HUMAN.H11MO.1.A
3	MEME	RAAAAAAAMAAAMAAA	MEME-2	RAAAAAAAMAAAMAAA	16	52	5.5e-035	MEME	/Users/filipov4/meme/db/motif_databases/HUMAN/HOCOMOCOv11_full_HUMAN_mono_meme_format.meme	CPEB1_HUMAN.H11MO.0.D	http://hocomoco.autosome.ru/motif/CPEB1_HUMAN.H11MO.0.D
4	MEME	RKCTCMCHGCMMHCYCCNCCHC	MEME-3	RKCTCMCHGCMMHCYCCNCCHC	22	48	4.5e-027	MEME	/Users/filipov4/meme/db/motif_databases/HUMAN/HOCOMOCOv11_full_HUMAN_mono_meme_format.meme	MAZ_HUMAN.H11MO.0.A	http://hocomoco.autosome.ru/motif/MAZ_HUMAN.H11MO.0.A
5	DREME	RYAAAYA	DREME-2	RYAAAYA	7	443	2.5e-026	DREME	/Users/filipov4/meme/db/motif_databases/HUMAN/HOCOMOCOv11_full_HUMAN_mono_meme_format.meme	ANDR_HUMAN.H11MO.0.A	http://hocomoco.autosome.ru/motif/ANDR_HUMAN.H11MO.0.A
6	MEME	TCCAGCCTGGGTSACAGAGYRASAYYCC	MEME-4	TCCAGCCTGGGTSACAGAGYRASAYYCC	28	8	1.1e-013	MEME	/Users/filipov4/meme/db/motif_databases/HUMAN/HOCOMOCOv11_full_HUMAN_mono_meme_format.meme	ZN121_HUMAN.H11MO.0.C	http://hocomoco.autosome.ru/motif/ZN121_HUMAN.H11MO.0.C
7	/Users/filipov4/meme/db/motif_databases/HUMAN/HOCOMOCOv11_full_HUMAN_mono_meme_format.meme	ARNT_HUMAN.H11MO.0.B	 	STACGTGMC	9	1208	3.6e-012	CENTRIMO	 	 	http://hocomoco.autosome.ru/motif/ARNT_HUMAN.H11MO.0.B
8	/Users/filipov4/meme/db/motif_databases/HUMAN/HOCOMOCOv11_full_HUMAN_mono_meme_format.meme	AHR_HUMAN.H11MO.0.B	 	DTYGCGTGM	9	1225	7.3e-011	CENTRIMO	 	 	http://hocomoco.autosome.ru/motif/AHR_HUMAN.H11MO.0.B
9	/Users/filipov4/meme/db/motif_databases/HUMAN/HOCOMOCOv11_full_HUMAN_mono_meme_format.meme	EPAS1_HUMAN.H11MO.0.B	 	VTACGTGMC	9	1177	1.5e-008	CENTRIMO	 	 	http://hocomoco.autosome.ru/motif/EPAS1_HUMAN.H11MO.0.B
10	MEME	CWGGGCWGDGCAGRGM	MEME-5	CWGGGCWGDGCAGRGM	16	35	2.1e-008	MEME	/Users/filipov4/meme/db/motif_databases/HUMAN/HOCOMOCOv11_full_HUMAN_mono_meme_format.meme	ZN331_HUMAN.H11MO.0.C	http://hocomoco.autosome.ru/motif/ZN331_HUMAN.H11MO.0.C
11	DREME	CACGVA	DREME-6	CACGVA	6	122	1.1e-007	DREME	 	 	 
12	DREME	TGACTCR	DREME-3	TGACTCR	7	106	3.1e-007	DREME	/Users/filipov4/meme/db/motif_databases/HUMAN/HOCOMOCOv11_full_HUMAN_mono_meme_format.meme	JUND_HUMAN.H11MO.0.A	http://hocomoco.autosome.ru/motif/JUND_HUMAN.H11MO.0.A
13	MEME	GTGACTCAY	MEME-6	GTGACTCAY	9	57	8.2e-007	MEME	/Users/filipov4/meme/db/motif_databases/HUMAN/HOCOMOCOv11_full_HUMAN_mono_meme_format.meme	FOS_HUMAN.H11MO.0.A	http://hocomoco.autosome.ru/motif/FOS_HUMAN.H11MO.0.A
14	DREME	GAKAA	DREME-4	GAKAA	5	744	8.7e-007	DREME	 	 	 
15	DREME	CCAGGH	DREME-5	CCAGGH	6	460	5.3e-006	DREME	/Users/filipov4/meme/db/motif_databases/HUMAN/HOCOMOCOv11_full_HUMAN_mono_meme_format.meme	HIC2_HUMAN.H11MO.0.D	http://hocomoco.autosome.ru/motif/HIC2_HUMAN.H11MO.0.D
16	MEME	RCAYTNDRYAAATRTTTRCTGA	MEME-7	RCAYTNDRYAAATRTTTRCTGA	22	17	6.8e-005	MEME	/Users/filipov4/meme/db/motif_databases/HUMAN/HOCOMOCOv11_full_HUMAN_mono_meme_format.meme	FOXD2_HUMAN.H11MO.0.D	http://hocomoco.autosome.ru/motif/FOXD2_HUMAN.H11MO.0.D
17	/Users/filipov4/meme/db/motif_databases/HUMAN/HOCOMOCOv11_full_HUMAN_mono_meme_format.meme	GMEB2_HUMAN.H11MO.0.D	 	NBKTACGTVRN	11	964	2.3e-004	CENTRIMO	 	 	http://hocomoco.autosome.ru/motif/GMEB2_HUMAN.H11MO.0.D
18	DREME	CCTCRGG	DREME-7	CCTCRGG	7	88	5.5e-003	DREME	/Users/filipov4/meme/db/motif_databases/HUMAN/HOCOMOCOv11_full_HUMAN_mono_meme_format.meme	AP2C_HUMAN.H11MO.0.A	http://hocomoco.autosome.ru/motif/AP2C_HUMAN.H11MO.0.A
19	/Users/filipov4/meme/db/motif_databases/HUMAN/HOCOMOCOv11_full_HUMAN_mono_meme_format.meme	HIF1A_HUMAN.H11MO.0.C	 	GDACGTGM	8	1286	5.5e-003	CENTRIMO	 	 	http://hocomoco.autosome.ru/motif/HIF1A_HUMAN.H11MO.0.C
20	/Users/filipov4/meme/db/motif_databases/HUMAN/HOCOMOCOv11_full_HUMAN_mono_meme_format.meme	BACH2_HUMAN.H11MO.0.A	 	TGCTGAGTCAB	11	1096	8.1e-003	CENTRIMO	 	 	http://hocomoco.autosome.ru/motif/BACH2_HUMAN.H11MO.0.A
21	/Users/filipov4/meme/db/motif_databases/HUMAN/HOCOMOCOv11_full_HUMAN_mono_meme_format.meme	NRL_HUMAN.H11MO.0.D	 	TGCTGACKYWR	11	1225	3.4e-002	CENTRIMO	 	 	http://hocomoco.autosome.ru/motif/NRL_HUMAN.H11MO.0.D
