# motif_id	motif_alt_id	sequence_name	start	stop	strand	score	p-value	q-value	matched_sequence
GARCCCAGGARRSRGWGGWKGCASTGAGSC	MEME-4	chr20	48759043	48759072	-	43.798	5.17e-18	2.93e-12	GAACCCAGGAGGCGGAGGTTGCAGTGAGCC
GARCCCAGGARRSRGWGGWKGCASTGAGSC	MEME-4	chr11	80432001	80432030	-	43.798	5.17e-18	2.93e-12	GAACCCAGGAGGCGGAGGTTGCAGTGAGCC
GARCCCAGGARRSRGWGGWKGCASTGAGSC	MEME-4	chr17	60938175	60938204	+	42.9192	2.92e-17	1.1e-11	gaacccaggaggcagaggttgcagtgagcc
GARCCCAGGARRSRGWGGWKGCASTGAGSC	MEME-4	chr15	63764900	63764929	+	42.3636	8.47e-17	1.6e-11	gaacccgggaggcggaggttgcagtgagcc
GARCCCAGGARRSRGWGGWKGCASTGAGSC	MEME-4	chr12	122916457	122916486	+	42.3636	8.47e-17	1.6e-11	gaacccgggaggcggaggttgcagtgagcc
GARCCCAGGARRSRGWGGWKGCASTGAGSC	MEME-4	chr5	173249141	173249170	-	42.3636	8.47e-17	1.6e-11	GAACCCGGGAGGCGGAGGTTGCAGTGAGCC
GARCCCAGGARRSRGWGGWKGCASTGAGSC	MEME-4	chr3	40509380	40509409	-	41.4848	3.82e-16	6.17e-11	GAACCCGGGAGGCAGAGGTTGCAGTGAGCC
GARCCCAGGARRSRGWGGWKGCASTGAGSC	MEME-4	chr8	121085206	121085235	+	41.0606	7.48e-16	1.06e-10	gaacccaggaggcggaggttgcagtgagct
GARCCCAGGARRSRGWGGWKGCASTGAGSC	MEME-4	chr2	226105505	226105534	-	40.5152	1.69e-15	2.13e-10	GAACCCGGGAAGCAGAGGTTGCAGTGAGCC
GARCCCAGGARRSRGWGGWKGCASTGAGSC	MEME-4	chr9	128274929	128274958	-	40.202	2.67e-15	2.83e-10	GAACCCGGGAGGCGGAGCTTGCAGTGAGCC
GARCCCAGGARRSRGWGGWKGCASTGAGSC	MEME-4	chr9	128059009	128059038	-	40.1818	2.75e-15	2.83e-10	GAACCCAGGAGGCAGAGGTTGCAGTGAGCT
GARCCCAGGARRSRGWGGWKGCASTGAGSC	MEME-4	chr17	4681820	4681849	+	39.7677	4.85e-15	4.58e-10	gagcccaggaggttgaggatgcagtgagcc
GARCCCAGGARRSRGWGGWKGCASTGAGSC	MEME-4	chr20	49286612	49286641	+	39.6263	5.88e-15	5.12e-10	gaacccgggaggcggaggttgcagtgagct
GARCCCAGGARRSRGWGGWKGCASTGAGSC	MEME-4	chr11	69329291	69329320	+	39.3232	8.83e-15	7.14e-10	gaacccgggaggcagagcttgcagtgagcc
GARCCCAGGARRSRGWGGWKGCASTGAGSC	MEME-4	chr5	67746880	67746909	+	39.0303	1.29e-14	9.26e-10	aaacccgggaggcagaggttgcagtgagcc
GARCCCAGGARRSRGWGGWKGCASTGAGSC	MEME-4	chr12	32828115	32828144	-	39.0202	1.31e-14	9.26e-10	GAACCCGGGAGGCGGAAGTTTCAGTGAGCC
GARCCCAGGARRSRGWGGWKGCASTGAGSC	MEME-4	chr8	48454411	48454440	+	38.8182	1.69e-14	1.13e-09	gaacccgggaggctgaggctgcagtgagcc
GARCCCAGGARRSRGWGGWKGCASTGAGSC	MEME-4	chr5	16573209	16573238	+	38.6465	2.1e-14	1.25e-09	gaacctgggaggcggaggttgcagtgagcc
GARCCCAGGARRSRGWGGWKGCASTGAGSC	MEME-4	chr12	32340524	32340553	+	38.6465	2.1e-14	1.25e-09	gaacctgggaggcggaggttgcagtgagcc
GARCCCAGGARRSRGWGGWKGCASTGAGSC	MEME-4	chr20	49039599	49039628	+	37.8586	5.45e-14	3.09e-09	gaacccaggatggggaggctgcagtgagcc
GARCCCAGGARRSRGWGGWKGCASTGAGSC	MEME-4	chr12	93481025	93481054	+	37.7677	6.07e-14	3.09e-09	gaacctgggaggcagaggttgcagtgagcc
GARCCCAGGARRSRGWGGWKGCASTGAGSC	MEME-4	chrX	122937031	122937060	+	37.7677	6.07e-14	3.09e-09	gaacctgggaggcagaggttgcagtgagcc
GARCCCAGGARRSRGWGGWKGCASTGAGSC	MEME-4	chr12	13036207	13036236	+	37.7374	6.28e-14	3.09e-09	caacccgggaggcagagcttgcagtgagcc
GARCCCAGGARRSRGWGGWKGCASTGAGSC	MEME-4	chr20	50366612	50366641	+	37.404	9.22e-14	4.35e-09	caacccgggaggcggaggttgcggtgagcc
GARCCCAGGARRSRGWGGWKGCASTGAGSC	MEME-4	chr9	97581194	97581223	+	36.202	3.45e-13	1.56e-08	gaacccaggaggccgggcttccagtgagcc
GARCCCAGGARRSRGWGGWKGCASTGAGSC	MEME-4	chr8	117000743	117000772	-	35.8586	4.94e-13	2.15e-08	CAACCCGGGAGGCAGAGCTTTCAGTGAGCC
GARCCCAGGARRSRGWGGWKGCASTGAGSC	MEME-4	chr2	204408690	204408719	+	34.6364	1.68e-12	7.02e-08	gaacctgggtggcagaggttgcagtgagcc
GARCCCAGGARRSRGWGGWKGCASTGAGSC	MEME-4	chr21	43784134	43784163	+	33.9798	3.12e-12	1.26e-07	gaacccaggaggcagaggttgtagtgagcc
GARCCCAGGARRSRGWGGWKGCASTGAGSC	MEME-4	chr14	34949914	34949943	+	33.4444	5.09e-12	1.99e-07	gaacctaggaggtggaggttgcggtgagcc
GARCCCAGGARRSRGWGGWKGCASTGAGSC	MEME-4	chr16	377060	377089	+	33.2222	6.22e-12	2.35e-07	gaacctgggaggtggagcttgcagtgagcc
GARCCCAGGARRSRGWGGWKGCASTGAGSC	MEME-4	chr15	86422040	86422069	+	33.1717	6.51e-12	2.38e-07	ggacctgggaggcagaggttgcagtgagct
GARCCCAGGARRSRGWGGWKGCASTGAGSC	MEME-4	chr9	130769421	130769450	-	32.6465	1.03e-11	3.6e-07	GAACCTGGGAGGTGGAGGTTGCAGTGAGCT
GARCCCAGGARRSRGWGGWKGCASTGAGSC	MEME-4	chr20	49360720	49360749	-	32.6263	1.05e-11	3.6e-07	GAACCCAGGAGGCGGAGGTTGCCGTGAGAC
GARCCCAGGARRSRGWGGWKGCASTGAGSC	MEME-4	chr15	70800064	70800093	+	32.5051	1.17e-11	3.88e-07	gagcctaggaggttgaggttgcagtgagct
GARCCCAGGARRSRGWGGWKGCASTGAGSC	MEME-4	chr2	439177	439206	+	31.5758	2.55e-11	8.23e-07	CAGCCCGGAAGAGAGTAGAGGCAGTGAGAC
GARCCCAGGARRSRGWGGWKGCASTGAGSC	MEME-4	chr1	233005400	233005429	-	30.9697	4.16e-11	1.31e-06	GAACCCGGGAGGCGGAGATTGCAGTAAGCC
GARCCCAGGARRSRGWGGWKGCASTGAGSC	MEME-4	chr6	56593392	56593421	+	30	8.85e-11	2.71e-06	gaatccaggagggagaggttgcagtgagct
GARCCCAGGARRSRGWGGWKGCASTGAGSC	MEME-4	chr5	142625556	142625585	-	29.9596	9.12e-11	2.72e-06	AAGCCCCTGAAGCGGAGGGGGCACTGAGAC
GARCCCAGGARRSRGWGGWKGCASTGAGSC	MEME-4	chr7	101344095	101344124	-	29.8081	1.02e-10	2.97e-06	GAACCCGGGAGGCGAAGGTTGCGGTGAGCC
GARCCCAGGARRSRGWGGWKGCASTGAGSC	MEME-4	chr15	93289560	93289589	-	29.1414	1.68e-10	4.75e-06	GAACACAGGAGGTGGAGGTTGCAATGAGCC
GARCCCAGGARRSRGWGGWKGCASTGAGSC	MEME-4	chr20	43359040	43359069	+	28.9596	1.92e-10	5.29e-06	gaaccggggagacagaggttgtagtgagcc
GARCCCAGGARRSRGWGGWKGCASTGAGSC	MEME-4	chr16	78087253	78087282	-	28.6263	2.44e-10	6.57e-06	AAACCAGGGAGGCAGAAGTTGCAGTGAGCC
GARCCCAGGARRSRGWGGWKGCASTGAGSC	MEME-4	chr11	71856283	71856312	+	28.5253	2.62e-10	6.89e-06	gggcctgggaggcataggttgcagttagcc
GARCCCAGGARRSRGWGGWKGCASTGAGSC	MEME-4	chr19	46696367	46696396	+	28.4545	2.75e-10	7.08e-06	gaacccgagaggtggaagttgcagtgagcc
GARCCCAGGARRSRGWGGWKGCASTGAGSC	MEME-4	chr13	20368464	20368493	-	27.7778	4.42e-10	1.11e-05	AAACCCAGGAGGCAGAAGTTGCAGTGAGTT
GARCCCAGGARRSRGWGGWKGCASTGAGSC	MEME-4	chr6	96644506	96644535	+	27.4848	5.4e-10	1.33e-05	gaacccggaaggcagaggttacagtgagct
GARCCCAGGARRSRGWGGWKGCASTGAGSC	MEME-4	chr9	136608908	136608937	-	27.4242	5.63e-10	1.35e-05	GAACTCGGGAGGTGGAGGTTGCAGTGAGCT
GARCCCAGGARRSRGWGGWKGCASTGAGSC	MEME-4	chr22	43130467	43130496	+	26.5455	1.01e-09	2.38e-05	CAGCCCAGCAAAGCGTGCAGCCACTGTGCC
GARCCCAGGARRSRGWGGWKGCASTGAGSC	MEME-4	chr4	140074507	140074536	+	26.4343	1.09e-09	2.51e-05	gagcctgggaggcagaggttgctgtgagct
GARCCCAGGARRSRGWGGWKGCASTGAGSC	MEME-4	chr11	68111855	68111884	-	26.2121	1.25e-09	2.84e-05	GAACCCGAGAAGTGGAGGTTGCAGTGAGCT
GARCCCAGGARRSRGWGGWKGCASTGAGSC	MEME-4	chr7	101618755	101618784	+	26.1818	1.28e-09	2.84e-05	gagcccaggagttcgaggctgcagtgagct
GARCCCAGGARRSRGWGGWKGCASTGAGSC	MEME-4	chr3	150062659	150062688	-	26.1414	1.31e-09	2.85e-05	GGACCCGGGAGTTGGAGGTTGCAGTCAGCC
GARCCCAGGARRSRGWGGWKGCASTGAGSC	MEME-4	chr16	69757623	69757652	+	25.9596	1.47e-09	3.14e-05	gaatccaggaggcggaggttgcaatgagcc
GARCCCAGGARRSRGWGGWKGCASTGAGSC	MEME-4	chr19	18491607	18491636	+	25.6667	1.77e-09	3.72e-05	gagcccaggaggtcgaggctgcagtgagtg
GARCCCAGGARRSRGWGGWKGCASTGAGSC	MEME-4	chr1	180127065	180127094	+	25.5152	1.95e-09	4.01e-05	GAACCCAGGGGAGGGGAAAGTCACAGAGGG
GARCCCAGGARRSRGWGGWKGCASTGAGSC	MEME-4	chr4	179218844	179218873	-	25.4646	2.01e-09	4.07e-05	GCCCACAGGCAACTGTGCATGCAGACAGCC
GARCCCAGGARRSRGWGGWKGCASTGAGSC	MEME-4	chr2	129063042	129063071	+	25.3131	2.21e-09	4.39e-05	GAACAGAGGCAGAAGAGGAGGGGCCGAGCC
GARCCCAGGARRSRGWGGWKGCASTGAGSC	MEME-4	chr15	93288954	93288983	+	25.0606	2.58e-09	5.04e-05	gaatctgggagatggaggttgcagtgagcc
GARCCCAGGARRSRGWGGWKGCASTGAGSC	MEME-4	chr6	19527458	19527487	-	24.8283	2.98e-09	5.71e-05	GAACCCGGGAGGCAGAGGTCACAGTGAGCC
GARCCCAGGARRSRGWGGWKGCASTGAGSC	MEME-4	chr19	42278907	42278936	-	24.5657	3.49e-09	6.58e-05	GAACCTGGGAGTTGGAGCTTGCAGTGAGCC
GARCCCAGGARRSRGWGGWKGCASTGAGSC	MEME-4	chr17	40295573	40295602	+	24.1717	4.41e-09	8.19e-05	gaatctgggaggcagaggctgcagtgagct
GARCCCAGGARRSRGWGGWKGCASTGAGSC	MEME-4	chr14	34837338	34837367	-	23.899	5.18e-09	9.42e-05	GAGTCCAGGAGGTTGAAGCTGCAGTGAGCT
GARCCCAGGARRSRGWGGWKGCASTGAGSC	MEME-4	chr18	55755024	55755053	+	23.8788	5.24e-09	9.42e-05	gaacctgggaggcggaggttacggtgagct
GARCCCAGGARRSRGWGGWKGCASTGAGSC	MEME-4	chr7	101619331	101619360	+	23.7475	5.66e-09	0.0001	gaacctgggaggtgaagattgcagtgagcc
GARCCCAGGARRSRGWGGWKGCASTGAGSC	MEME-4	chr10	127258105	127258134	+	23.6364	6.04e-09	0.000104	gaacttgggaggcagagattgcagtgagct
GARCCCAGGARRSRGWGGWKGCASTGAGSC	MEME-4	chr8	17663790	17663819	-	23.6263	6.07e-09	0.000104	GAACCTAGGAGGTAGAGGTTGTGGTGAGCC
GARCCCAGGARRSRGWGGWKGCASTGAGSC	MEME-4	chr7	74049684	74049713	-	23.596	6.18e-09	0.000104	GAACCCAGGAGGTGGAGGTCGCAGTAAGCC
GARCCCAGGARRSRGWGGWKGCASTGAGSC	MEME-4	chr5	154080739	154080768	-	23.5657	6.29e-09	0.000105	GGGCCCAGGTAAGGGTAAGGCAAGTGAGGC
GARCCCAGGARRSRGWGGWKGCASTGAGSC	MEME-4	chr12	100543274	100543303	-	23.5152	6.48e-09	0.000106	TCACCCAGGAGGCAGAGGTTGCTGTGAGCC
GARCCCAGGARRSRGWGGWKGCASTGAGSC	MEME-4	chr12	50595599	50595628	+	23.3636	7.07e-09	0.000114	gaatcagggaggcagaggttgcagtgagcc
GARCCCAGGARRSRGWGGWKGCASTGAGSC	MEME-4	chr20	49262733	49262762	-	22.8788	9.31e-09	0.000148	GAGCCTAGGACATTGAGGTTGCAGTGAGCT
GARCCCAGGARRSRGWGGWKGCASTGAGSC	MEME-4	chr11	68111549	68111578	-	22.7778	9.85e-09	0.000154	CTACCCAGCCTGCGGGCGATGCACCCAGGC
GARCCCAGGARRSRGWGGWKGCASTGAGSC	MEME-4	chr21	35816778	35816807	+	22.7677	9.91e-09	0.000154	gagtctgggagggcgaggctgcagtgagct
GARCCCAGGARRSRGWGGWKGCASTGAGSC	MEME-4	chr10	30712900	30712929	-	22.5859	1.1e-08	0.000168	GAACCCAGGAGGCAGAGGTTATAGTGAGCT
GARCCCAGGARRSRGWGGWKGCASTGAGSC	MEME-4	chr12	104614421	104614450	+	22.3434	1.25e-08	0.000189	taatccaggaggcagaggttgcagtgagct
GARCCCAGGARRSRGWGGWKGCASTGAGSC	MEME-4	chr3	131447672	131447701	+	22.0808	1.45e-08	0.000216	gaacccgggaggcggagcttgcagtgaaca
GARCCCAGGARRSRGWGGWKGCASTGAGSC	MEME-4	chr21	43476799	43476828	-	22.0505	1.47e-08	0.000216	ACTCCGAGGAGGCAGAGGTTGGAGAGATGT
GARCCCAGGARRSRGWGGWKGCASTGAGSC	MEME-4	chr7	100996165	100996194	+	21.596	1.88e-08	0.000273	gaactgaggaggcagaggttgcagtgagga
GARCCCAGGARRSRGWGGWKGCASTGAGSC	MEME-4	chr2	208694066	208694095	-	21.4646	2.02e-08	0.000289	CCCAGGAGGAGGCAGAGGGTGCAGTGAGCC
GARCCCAGGARRSRGWGGWKGCASTGAGSC	MEME-4	chr5	133974492	133974521	+	21.3636	2.13e-08	0.000302	gaatctaggaggcagaggttacagtgagcc
GARCCCAGGARRSRGWGGWKGCASTGAGSC	MEME-4	chr12	100542522	100542551	+	21.2727	2.24e-08	0.000313	gaacccaagagatggaggttgtagtgagcc
GARCCCAGGARRSRGWGGWKGCASTGAGSC	MEME-4	chr9	88358909	88358938	-	20.7879	2.88e-08	0.000398	AAGCCTGGGAGGTCAAGGCTGCAGTGAGCC
GARCCCAGGARRSRGWGGWKGCASTGAGSC	MEME-4	chr14	51377242	51377271	-	20.5253	3.31e-08	0.000451	GAGCCTAGGAGGTCAAGGCTGCAGAGAGCT
GARCCCAGGARRSRGWGGWKGCASTGAGSC	MEME-4	chr7	80128769	80128798	-	19.5051	5.54e-08	0.000746	GAGGCCAGGAGGCCAAGGCTGCAGTGAGTC
GARCCCAGGARRSRGWGGWKGCASTGAGSC	MEME-4	chr1	8889332	8889361	+	19.1111	6.73e-08	0.000896	gaaactgggaggcggcgcttgcagtgagcc
GARCCCAGGARRSRGWGGWKGCASTGAGSC	MEME-4	chr20	49039853	49039882	-	18.899	7.46e-08	0.000982	GAAGGCAGAAGGCCGAGTCATCAGCGAGCT
GARCCCAGGARRSRGWGGWKGCASTGAGSC	MEME-4	chr11	118790371	118790400	-	18.4949	9.07e-08	0.00118	GAACACAGGCTGGAGAGGGTTAAGTCTGGT
GARCCCAGGARRSRGWGGWKGCASTGAGSC	MEME-4	chr2	88896204	88896233	+	18.0202	1.14e-07	0.00145	gctgagaggcaagagtggaggcagagagag
GARCCCAGGARRSRGWGGWKGCASTGAGSC	MEME-4	chr3	133705349	133705378	+	18.0101	1.14e-07	0.00145	CAGGGCAGGGAGGGCAGGAGGCACTCAGGC
GARCCCAGGARRSRGWGGWKGCASTGAGSC	MEME-4	chr2	43862433	43862462	-	17.8384	1.24e-07	0.00156	GAGCCAGGAAGGCAGCAGTTGCAGTGAGCT
GARCCCAGGARRSRGWGGWKGCASTGAGSC	MEME-4	chr9	128274758	128274787	-	17.4343	1.5e-07	0.00186	GTCCCCAGGAGGAGGAGCTGGCAGAGAAAT
GARCCCAGGARRSRGWGGWKGCASTGAGSC	MEME-4	chr5	16573922	16573951	-	17.0202	1.81e-07	0.00222	GAACCTGAGAGGAGAAGGTTGCAGTGAGCC
GARCCCAGGARRSRGWGGWKGCASTGAGSC	MEME-4	chr12	122933989	122934018	+	17	1.83e-07	0.00222	gagcacaggagctcaaggctgcagtgagcc
GARCCCAGGARRSRGWGGWKGCASTGAGSC	MEME-4	chr14	69274259	69274288	+	16.4646	2.33e-07	0.0028	GGGCCCAGCTAGGAGTGAGGCGGCCCAGGC
GARCCCAGGARRSRGWGGWKGCASTGAGSC	MEME-4	chr11	123016239	123016268	-	16.0404	2.81e-07	0.00335	GAATCCGGGAGGCGGAGGTTGCATTGAGTC
GARCCCAGGARRSRGWGGWKGCASTGAGSC	MEME-4	chr12	132315524	132315553	-	15.5152	3.54e-07	0.00418	GTGCCCAGGAACCAGGGGCGGGAGGGAGGC
GARCCCAGGARRSRGWGGWKGCASTGAGSC	MEME-4	chr11	9591314	9591343	+	15.4747	3.61e-07	0.00421	tgagcccagaaggggaggttgcagtgagcc
GARCCCAGGARRSRGWGGWKGCASTGAGSC	MEME-4	chr8	131045478	131045507	+	15.3939	3.74e-07	0.00431	gaacccgggaggtggatgttgtggtgagct
GARCCCAGGARRSRGWGGWKGCASTGAGSC	MEME-4	chr22	43130284	43130313	-	15.2323	4.01e-07	0.00453	CCACACAGCCAGCAGAGATGGAGGTCAGAT
GARCCCAGGARRSRGWGGWKGCASTGAGSC	MEME-4	chr5	177508587	177508616	+	15.2323	4.01e-07	0.00453	gaaccagggtgtcggaggttgcagtgtgct
GARCCCAGGARRSRGWGGWKGCASTGAGSC	MEME-4	chr17	76742944	76742973	+	14.8586	4.7e-07	0.00527	gggctcaggaggtcaaggctgcagtgagct
GARCCCAGGARRSRGWGGWKGCASTGAGSC	MEME-4	chr9	97581925	97581954	-	14.697	5.04e-07	0.00559	GAGCCTGGGAGGTGAAAGCTGCAATGAGCC
GARCCCAGGARRSRGWGGWKGCASTGAGSC	MEME-4	chr16	31085657	31085686	+	14.5657	5.33e-07	0.00585	GCGGCTCGGAGGCGGGACAGGCAGTGCTCC
GARCCCAGGARRSRGWGGWKGCASTGAGSC	MEME-4	chr8	37456517	37456546	+	14.1717	6.29e-07	0.00684	AAACTGGGGAAGGGGTGGAGGCGGTGGGCC
GARCCCAGGARRSRGWGGWKGCASTGAGSC	MEME-4	chr13	20368788	20368817	+	14.0303	6.67e-07	0.00719	gagcccaggaggtccaggctgcagtcaact
GARCCCAGGARRSRGWGGWKGCASTGAGSC	MEME-4	chr16	27749584	27749613	+	13.899	7.04e-07	0.00752	gagccagggaaggaggaaggggagacaggg
GARCCCAGGARRSRGWGGWKGCASTGAGSC	MEME-4	chr9	74398104	74398133	+	13.6364	7.85e-07	0.0083	GGCGTGAGGAGGCGGGGCAGCCAGCCAGAC
GARCCCAGGARRSRGWGGWKGCASTGAGSC	MEME-4	chr8	18858673	18858702	-	13.4545	8.46e-07	0.00886	GAGCCTAGGAGGTCAAGGCTGCAGTGAGTT
GARCCCAGGARRSRGWGGWKGCASTGAGSC	MEME-4	chr9	114828628	114828657	+	13.0909	9.8e-07	0.0102	GACCCCAGGAGGGAGACCATAGGGACAGGT
GARCCCAGGARRSRGWGGWKGCASTGAGSC	MEME-4	chr14	75919809	75919838	+	13.0707	9.88e-07	0.0102	GGGCCTAGCCGGCTGGGCAGGCTGAGATCT
GARCCCAGGARRSRGWGGWKGCASTGAGSC	MEME-4	chr7	474965	474994	-	12.9899	1.02e-06	0.0104	TGCCCCAGGAAGGTGGGGGACGACCCAGCC
GARCCCAGGARRSRGWGGWKGCASTGAGSC	MEME-4	chr13	28531309	28531338	-	12.899	1.06e-06	0.0107	GTCCAGAGAAGGTGGGGGCAGCACTTAGGT
GARCCCAGGARRSRGWGGWKGCASTGAGSC	MEME-4	chr15	90459821	90459850	+	12.5657	1.21e-06	0.0121	aacctggggagacagaggttgcagtaagct
GARCCCAGGARRSRGWGGWKGCASTGAGSC	MEME-4	chr7	138575348	138575377	+	12.1919	1.4e-06	0.0139	ACGGTCAGCCAGCTGTGGGTGAACTGAGAC
GARCCCAGGARRSRGWGGWKGCASTGAGSC	MEME-4	chr1	53573872	53573901	-	11.9596	1.54e-06	0.0151	CGACCCAGGTGGAGGCAGTGTGAGTGTGGG
GARCCCAGGARRSRGWGGWKGCASTGAGSC	MEME-4	chr14	101539423	101539452	-	11.6162	1.76e-06	0.0172	ATGCAGTGGAGGGGGACCCAGGAGTGAGCC
GARCCCAGGARRSRGWGGWKGCASTGAGSC	MEME-4	chr10	74032470	74032499	-	11.404	1.91e-06	0.0185	GGGCCCCGGGGGCGGGCAAGGAACCTAACC
GARCCCAGGARRSRGWGGWKGCASTGAGSC	MEME-4	chr12	116828674	116828703	-	11.2828	2e-06	0.0192	GAGCCCAGACTCCTGTCCCTGCACCCAGCT
GARCCCAGGARRSRGWGGWKGCASTGAGSC	MEME-4	chr7	75735586	75735615	+	11.2525	2.02e-06	0.0192	gagcccaggagttcaaggctgcagtgagtc
GARCCCAGGARRSRGWGGWKGCASTGAGSC	MEME-4	chr2	160142829	160142858	+	11.2424	2.03e-06	0.0192	GACCCCAGGCAAGAGGGAGGCCTGGGAGGC
GARCCCAGGARRSRGWGGWKGCASTGAGSC	MEME-4	chr1	3571292	3571321	+	11.1414	2.11e-06	0.0197	TCTCCAGGGCAGGAGGGATGGCAGTGAGGC
GARCCCAGGARRSRGWGGWKGCASTGAGSC	MEME-4	chr15	99398149	99398178	-	11.0808	2.16e-06	0.02	TGGGGGGGGCAGGGGTGGAGGGAGTGAGAG
GARCCCAGGARRSRGWGGWKGCASTGAGSC	MEME-4	chr16	84918419	84918448	-	11.0707	2.17e-06	0.02	CAGCCCCAGAGGCGGTGCTTTGACTCAGTC
GARCCCAGGARRSRGWGGWKGCASTGAGSC	MEME-4	chr6	24879492	24879521	+	10.9192	2.3e-06	0.021	gaacctgggaggtggcggctgccgtgagag
GARCCCAGGARRSRGWGGWKGCASTGAGSC	MEME-4	chr11	8357919	8357948	+	10.8384	2.37e-06	0.0214	AATCAGAGGACACCGTGGGGGCAGTGAGGA
GARCCCAGGARRSRGWGGWKGCASTGAGSC	MEME-4	chr14	101539831	101539860	+	10.7879	2.41e-06	0.0216	TGGCTGGGCAGGGGGAGGGGGCACTCAGCT
GARCCCAGGARRSRGWGGWKGCASTGAGSC	MEME-4	chr7	157794255	157794284	-	10.7778	2.42e-06	0.0216	GCGCCCGTGAGGCTGAAGTGCCGCCCTCCC
GARCCCAGGARRSRGWGGWKGCASTGAGSC	MEME-4	chr1	85763627	85763656	+	10.7475	2.45e-06	0.0217	GAAGGCAAAAGAAGGAGTTGGCAGTCATCC
GARCCCAGGARRSRGWGGWKGCASTGAGSC	MEME-4	chr16	87840997	87841026	+	10.7273	2.47e-06	0.0217	AGGGCCTGGAAGGGGGAGCATCACCCAGGC
GARCCCAGGARRSRGWGGWKGCASTGAGSC	MEME-4	chr1	3571296	3571325	+	10.6364	2.56e-06	0.0223	CAGGGCAGGAGGGATGGCAGTGAGGCAGGC
GARCCCAGGARRSRGWGGWKGCASTGAGSC	MEME-4	chr22	36858066	36858095	+	10.6162	2.58e-06	0.0223	AGGCACCTCTGGTGGTATCGGCACAGAGGC
GARCCCAGGARRSRGWGGWKGCASTGAGSC	MEME-4	chr12	100309317	100309346	+	10.5859	2.61e-06	0.0223	aataacaggcatcagaggtggcacttagcc
GARCCCAGGARRSRGWGGWKGCASTGAGSC	MEME-4	chr10	18899574	18899603	+	10.5354	2.66e-06	0.0226	GATCAGAGCAGGAAGGGCCAGGACTCAGAT
GARCCCAGGARRSRGWGGWKGCASTGAGSC	MEME-4	chr20	31097788	31097817	+	10.4949	2.7e-06	0.0228	GGAGACCTAATGCAGAGGCTGCACAGTGGT
GARCCCAGGARRSRGWGGWKGCASTGAGSC	MEME-4	chr5	159687949	159687978	-	10.4747	2.72e-06	0.0228	CACCCCATGAGGCTGGCCTTGGGGTCATGG
GARCCCAGGARRSRGWGGWKGCASTGAGSC	MEME-4	chr8	48454379	48454408	+	10.202	3.01e-06	0.025	gaactcgggaggctgaggtgggagaattgc
GARCCCAGGARRSRGWGGWKGCASTGAGSC	MEME-4	chr2	105813163	105813192	-	10.1818	3.03e-06	0.025	GGACACAGGAGGCTGGGGGAGGCCAGATGG
GARCCCAGGARRSRGWGGWKGCASTGAGSC	MEME-4	chr15	63752684	63752713	+	10.0808	3.15e-06	0.0258	cagcctagaatgcaggggaatcagcctccc
GARCCCAGGARRSRGWGGWKGCASTGAGSC	MEME-4	chr3	40509349	40509378	+	9.88889	3.38e-06	0.0275	caggctggagtgcagtgggtggggtgatct
GARCCCAGGARRSRGWGGWKGCASTGAGSC	MEME-4	chr3	124556696	124556725	+	9.82828	3.46e-06	0.0279	GGTCAGGGGAAGTAGAGCGTGCAGCGCTGC
GARCCCAGGARRSRGWGGWKGCASTGAGSC	MEME-4	chr3	171847778	171847807	+	9.59596	3.76e-06	0.0302	ggagagggagggagggagggggagagagag
GARCCCAGGARRSRGWGGWKGCASTGAGSC	MEME-4	chr15	101254010	101254039	+	9.49495	3.9e-06	0.0311	CAGCCCAGGCACGATAGGATTCTGCCAGCT
GARCCCAGGARRSRGWGGWKGCASTGAGSC	MEME-4	chr7	138575638	138575667	-	9.37374	4.08e-06	0.0323	GCACAGCCGAAAGCCAGGTGGCAGAGAGCC
GARCCCAGGARRSRGWGGWKGCASTGAGSC	MEME-4	chr8	11219303	11219332	+	9.30303	4.19e-06	0.0329	GCTCATGGGAGAAGTAAGCATCACTCAGCT
GARCCCAGGARRSRGWGGWKGCASTGAGSC	MEME-4	chr6	13873893	13873922	+	9.28283	4.22e-06	0.0329	GGACGTCGGAGGGCAGGGCGGGAGTGAGAT
GARCCCAGGARRSRGWGGWKGCASTGAGSC	MEME-4	chr17	4065106	4065135	+	9.22222	4.31e-06	0.0334	GCTCAGCTTAGGCTGAGCATGCAGTTAGAC
GARCCCAGGARRSRGWGGWKGCASTGAGSC	MEME-4	chr5	150367377	150367406	+	9.07071	4.56e-06	0.0351	caggccatgagacgaaagagggtgccagcc
GARCCCAGGARRSRGWGGWKGCASTGAGSC	MEME-4	chr3	139021012	139021041	-	9.0404	4.61e-06	0.0352	GAACAGAGGGAGGCTATGATGAGCTCAGGC
GARCCCAGGARRSRGWGGWKGCASTGAGSC	MEME-4	chr10	119242850	119242879	-	8.83838	4.95e-06	0.0376	GGCCCCAGCTGGGTGATTGTGCCCTGAGCC
GARCCCAGGARRSRGWGGWKGCASTGAGSC	MEME-4	chr7	3284108	3284137	+	8.79798	5.02e-06	0.0377	CATCCTTGGTGGGGGTCAGGGCACAGAGAT
GARCCCAGGARRSRGWGGWKGCASTGAGSC	MEME-4	chr2	164205736	164205765	-	8.79798	5.02e-06	0.0377	GCGTGTGTGTAGAGGAGGTGGCAGTGAGGG
GARCCCAGGARRSRGWGGWKGCASTGAGSC	MEME-4	chr22	30195011	30195040	-	8.73737	5.13e-06	0.0382	GGTCCCAGCTGTCAGGGTCAGCAGAGTGGC
GARCCCAGGARRSRGWGGWKGCASTGAGSC	MEME-4	chr14	75920029	75920058	+	8.67677	5.25e-06	0.0388	GGGCCTGGCTGGCTGTGTGAGGCCTGAGGC
GARCCCAGGARRSRGWGGWKGCASTGAGSC	MEME-4	chr18	74805254	74805283	+	8.62626	5.34e-06	0.0392	GCAGAGGGAAGGCGGCATGAGGAGAGAGCC
GARCCCAGGARRSRGWGGWKGCASTGAGSC	MEME-4	chr18	72895577	72895606	-	8.61616	5.36e-06	0.0392	CTAGGCAGAAGATGGTGTGGGCAGAGGGGC
GARCCCAGGARRSRGWGGWKGCASTGAGSC	MEME-4	chr1	227002844	227002873	+	8.56566	5.46e-06	0.0396	CCCCCAGGCAGAGGGAAGAGTGACTAAGCC
GARCCCAGGARRSRGWGGWKGCASTGAGSC	MEME-4	chr13	109571620	109571649	-	8.52525	5.54e-06	0.0399	GCACCAAGGTAAGATGCTGTGCAGTGAGGG
GARCCCAGGARRSRGWGGWKGCASTGAGSC	MEME-4	chr21	46823178	46823207	-	8.36364	5.87e-06	0.042	GCTCCCAGGAGGGAGGGGCTGGGGCAGGGC
GARCCCAGGARRSRGWGGWKGCASTGAGSC	MEME-4	chr3	133718884	133718913	+	8.33333	5.93e-06	0.0421	GTGGCCAGGGGACAGCAGAGGGAGAGACAC
GARCCCAGGARRSRGWGGWKGCASTGAGSC	MEME-4	chr12	32827864	32827893	-	8.32323	5.95e-06	0.0421	AGGCAGAGAGAACTGGGGAGGAACTGAAAC
GARCCCAGGARRSRGWGGWKGCASTGAGSC	MEME-4	chr2	11638908	11638937	-	8.23232	6.14e-06	0.0432	TGACAGAGGAGACAAAACGGGCACCCAGCC
GARCCCAGGARRSRGWGGWKGCASTGAGSC	MEME-4	chr22	30195463	30195492	+	8.17172	6.28e-06	0.0439	AGCCCTAGGGAGGGGTAACAGCACAGGGCC
GARCCCAGGARRSRGWGGWKGCASTGAGSC	MEME-4	chr9	102196288	102196317	-	8.10101	6.43e-06	0.0447	GACTCCAGATAGGATAGCCTCCAGTGAGAG
GARCCCAGGARRSRGWGGWKGCASTGAGSC	MEME-4	chr21	45029844	45029873	+	8.06061	6.53e-06	0.045	GGAACCGGAGAGGCTAGAAGTGACCCAGCC
GARCCCAGGARRSRGWGGWKGCASTGAGSC	MEME-4	chr14	93483982	93484011	+	7.9596	6.76e-06	0.0464	GTGCCTCGGAGGCAGCGGCGCCAGCCCGGC
GARCCCAGGARRSRGWGGWKGCASTGAGSC	MEME-4	chr3	131447640	131447669	+	7.76768	7.23e-06	0.0493	ctactcgggaggctgaggcgggagaatggc
GARCCCAGGARRSRGWGGWKGCASTGAGSC	MEME-4	chr12	113683577	113683606	-	7.70707	7.38e-06	0.05	TCACCCAGCAGGCGCAGGGGGCAGCCCGGC
GARCCCAGGARRSRGWGGWKGCASTGAGSC	MEME-4	chr14	77500482	77500511	-	7.60606	7.65e-06	0.0515	GACCGAGGGATGGCGAGGCTGCAGGGAGGG
GARCCCAGGARRSRGWGGWKGCASTGAGSC	MEME-4	chr5	133974356	133974385	+	7.47475	8e-06	0.0536	gaggcgggcagagtttaagaccagcctggc
GARCCCAGGARRSRGWGGWKGCASTGAGSC	MEME-4	chr2	1235463	1235492	+	7.43434	8.12e-06	0.054	CAGCGTGGCTGAGATAGGGTGGAGTCAGTC
GARCCCAGGARRSRGWGGWKGCASTGAGSC	MEME-4	chr19	45245145	45245174	+	7.39394	8.23e-06	0.0545	CAAGGCAGCTGGCAGGGGCGGCGGAGGGGG
GARCCCAGGARRSRGWGGWKGCASTGAGSC	MEME-4	chr3	12487111	12487140	-	7.35354	8.35e-06	0.0549	CAGCGAGAGAGAGAGAGAGTGCACAGAGGT
GARCCCAGGARRSRGWGGWKGCASTGAGSC	MEME-4	chrX	104413159	104413188	+	7.27273	8.58e-06	0.0559	ggggagggaaggaggaagagagagagagag
GARCCCAGGARRSRGWGGWKGCASTGAGSC	MEME-4	chr12	48297898	48297927	+	7.26263	8.61e-06	0.0559	aggaggaggagaaggaggaggaACTGTGAG
GARCCCAGGARRSRGWGGWKGCASTGAGSC	MEME-4	chr14	75920247	75920276	-	7.25253	8.64e-06	0.0559	GAGCACAGGAAGAGTTCCGTGATGCCAGCT
GARCCCAGGARRSRGWGGWKGCASTGAGSC	MEME-4	chr6	7418680	7418709	+	7.18182	8.85e-06	0.0566	caagggagaaagtagtagatgcaatcagat
GARCCCAGGARRSRGWGGWKGCASTGAGSC	MEME-4	chr14	104320333	104320362	-	7.18182	8.85e-06	0.0566	AGGGCCTGGAGGTAGGGTCTTCAGACAGGT
GARCCCAGGARRSRGWGGWKGCASTGAGSC	MEME-4	chr17	38478811	38478840	-	7.08081	9.17e-06	0.0582	GGACCCAGGGGACAGAGGCTCCGGGGGGAG
GARCCCAGGARRSRGWGGWKGCASTGAGSC	MEME-4	chr19	45245263	45245292	+	7.07071	9.2e-06	0.0582	AGAGGCAGAAAGGGGAAGATTAAGTCTTGG
GARCCCAGGARRSRGWGGWKGCASTGAGSC	MEME-4	chr12	49276000	49276029	+	7.05051	9.26e-06	0.0582	GTACTGAGGGGACAGGAGAGACAGAGAGAT
GARCCCAGGARRSRGWGGWKGCASTGAGSC	MEME-4	chr14	75920094	75920123	-	7.0303	9.32e-06	0.0583	GTTCAGGGCGTGCTGAGTTGTCAGTGAGCA
GARCCCAGGARRSRGWGGWKGCASTGAGSC	MEME-4	chr1	204386175	204386204	+	6.9798	9.49e-06	0.059	ggggggaggggagagggaggggagagagaa
GARCCCAGGARRSRGWGGWKGCASTGAGSC	MEME-4	chr12	123560205	123560234	-	6.86869	9.85e-06	0.0609	GAGAGCAGCTTGGAGAGGTGGGAGCCTGGG
GARCCCAGGARRSRGWGGWKGCASTGAGSC	MEME-4	chr4	84469845	84469874	-	6.78788	1.01e-05	0.0623	GTGCCGCTGGAGCAGGGCATGGGGTAAGAC
GARCCCAGGARRSRGWGGWKGCASTGAGSC	MEME-4	chr2	236954237	236954266	+	6.70707	1.04e-05	0.0637	GCCGCCCTGGGGCTGTGGGACCAGCGGGGC
GARCCCAGGARRSRGWGGWKGCASTGAGSC	MEME-4	chrX	24171523	24171552	-	6.65657	1.06e-05	0.0644	GCAGCCAGGGTGAAGAGCAGGCTCAGAGCA
GARCCCAGGARRSRGWGGWKGCASTGAGSC	MEME-4	chr9	15401408	15401437	+	6.63636	1.07e-05	0.0645	gagccctgaaggctgggcagtgagccaagg
GARCCCAGGARRSRGWGGWKGCASTGAGSC	MEME-4	chr22	36858379	36858408	-	6.61616	1.07e-05	0.0646	GCAGCCCTAGGGAGTTGGAGGCAGTGACCT
GARCCCAGGARRSRGWGGWKGCASTGAGSC	MEME-4	chr8	55471127	55471156	+	6.57576	1.09e-05	0.0648	CTCCCTGGGCGGCCTGCACTGCGCAGTGCC
GARCCCAGGARRSRGWGGWKGCASTGAGSC	MEME-4	chr12	52672326	52672355	-	6.57576	1.09e-05	0.0648	CCTCCCAGACAGCAGTCCTTCCACCCTGCA
GARCCCAGGARRSRGWGGWKGCASTGAGSC	MEME-4	chr11	35412597	35412626	-	6.47475	1.13e-05	0.0667	ATCCCCATCCAACAGAAATATAGCAGAGGC
GARCCCAGGARRSRGWGGWKGCASTGAGSC	MEME-4	chr13	95898655	95898684	-	6.44444	1.14e-05	0.0669	CACCTGGGCTGGCGGTGGTGCCCCAGAGGC
GARCCCAGGARRSRGWGGWKGCASTGAGSC	MEME-4	chr10	52271695	52271724	-	6.43434	1.14e-05	0.0669	GATGCCAGGAGATACGGAGATGAGTCAGAC
GARCCCAGGARRSRGWGGWKGCASTGAGSC	MEME-4	chr12	76118835	76118864	+	6.39394	1.16e-05	0.0669	gaggaagggagggaggggagagagagagag
GARCCCAGGARRSRGWGGWKGCASTGAGSC	MEME-4	chr17	29893611	29893640	-	6.37374	1.16e-05	0.0669	TTGCCCAGGCTGGAGTGCAGTGACCCAGTC
GARCCCAGGARRSRGWGGWKGCASTGAGSC	MEME-4	chr19	39602547	39602576	-	6.37374	1.16e-05	0.0669	GGGGAGAGGGCACACAGGGGGCAGACAGCC
GARCCCAGGARRSRGWGGWKGCASTGAGSC	MEME-4	chr8	128883196	128883225	-	6.36364	1.17e-05	0.0669	GAGAGGAGGAGGAGGAGGAGGCAGAAAGGA
GARCCCAGGARRSRGWGGWKGCASTGAGSC	MEME-4	chr1	8889300	8889329	+	6.35354	1.17e-05	0.0669	ctactcaggaggctgaggcaggagaatggc
GARCCCAGGARRSRGWGGWKGCASTGAGSC	MEME-4	chr7	135338240	135338269	+	6.34343	1.18e-05	0.0669	CAGCGGGGAGAGGCTGACATTCAGCCTGAC
GARCCCAGGARRSRGWGGWKGCASTGAGSC	MEME-4	chr20	50366747	50366776	-	6.27273	1.2e-05	0.0682	GATCAGAGGCTGCAGACAGAGCTGTGTGCT
GARCCCAGGARRSRGWGGWKGCASTGAGSC	MEME-4	chr1	204386173	204386202	+	6.25253	1.21e-05	0.0683	gtggggggaggggagagggaggggagagag
GARCCCAGGARRSRGWGGWKGCASTGAGSC	MEME-4	chr16	15601102	15601131	-	6.18182	1.24e-05	0.0696	ACCCAGGGACAGGAGTGGTGGAGGTGATAG
GARCCCAGGARRSRGWGGWKGCASTGAGSC	MEME-4	chr5	66511657	66511686	+	6.16162	1.25e-05	0.0696	ACACCCAAACAACCAAATATTCAGAGAGCC
GARCCCAGGARRSRGWGGWKGCASTGAGSC	MEME-4	chrX	11129788	11129817	-	6.14141	1.26e-05	0.0696	CCGGGTGGAGGAGGGGAGGTCCATTGAGCC
GARCCCAGGARRSRGWGGWKGCASTGAGSC	MEME-4	chr3	23061625	23061654	+	6.13131	1.26e-05	0.0696	gagcacagaagccacagcaggcagggaggg
GARCCCAGGARRSRGWGGWKGCASTGAGSC	MEME-4	chr8	117000645	117000674	+	6.12121	1.27e-05	0.0696	GAGGCCAGGGAGGTGTAGAAAGACCTTGCT
GARCCCAGGARRSRGWGGWKGCASTGAGSC	MEME-4	chr11	69469459	69469488	+	6.0202	1.31e-05	0.0713	catccccgggggtggggacagaatcCAGCC
GARCCCAGGARRSRGWGGWKGCASTGAGSC	MEME-4	chr21	43476790	43476819	-	6.0202	1.31e-05	0.0713	AGGCAGAGGTTGGAGAGATGTGGCTGTGAG
GARCCCAGGARRSRGWGGWKGCASTGAGSC	MEME-4	chr8	67036282	67036311	-	5.9596	1.34e-05	0.0724	GAGCCTGAGTAACCGACGATGTAGTGAGAG
GARCCCAGGARRSRGWGGWKGCASTGAGSC	MEME-4	chr5	134977560	134977589	-	5.90909	1.36e-05	0.0732	CAGGCTCTGGGGGTGGAAGAGGAGTGAGAT
GARCCCAGGARRSRGWGGWKGCASTGAGSC	MEME-4	chr3	175056702	175056731	+	5.89899	1.36e-05	0.0732	CTGCACAGAAGGGAGGGAAGGCAGCAAAGT
GARCCCAGGARRSRGWGGWKGCASTGAGSC	MEME-4	chr11	9124971	9125000	-	5.87879	1.37e-05	0.0733	AAGGCTGGAGTGCAGTGGCTCAAGCTATCC
GARCCCAGGARRSRGWGGWKGCASTGAGSC	MEME-4	chr15	67224549	67224578	+	5.85859	1.38e-05	0.0735	GGGGGTGGCGAGCTCGGGGTGCAGCCAGGC
GARCCCAGGARRSRGWGGWKGCASTGAGSC	MEME-4	chr8	37455994	37456023	-	5.81818	1.4e-05	0.0741	CTGGCCTTGAGGGAGGGGTGCAGGTGTGGC
GARCCCAGGARRSRGWGGWKGCASTGAGSC	MEME-4	chr5	1516502	1516531	-	5.74747	1.43e-05	0.0754	CTACCCTGGAGGGGTTAGATCCACCTTTCT
GARCCCAGGARRSRGWGGWKGCASTGAGSC	MEME-4	chr4	24765139	24765168	-	5.73737	1.44e-05	0.0754	GAACCCGGGAGGCAGAGCTTGAGCACTCCA
GARCCCAGGARRSRGWGGWKGCASTGAGSC	MEME-4	chr12	100309610	100309639	-	5.70707	1.45e-05	0.0758	GAAGATAGGAGAGAGTCATGGAACAGATTC
GARCCCAGGARRSRGWGGWKGCASTGAGSC	MEME-4	chr15	101253961	101253990	-	5.66667	1.47e-05	0.0759	GGGCAGGGCCGGCCAAGGTGAGAGCCAGGC
GARCCCAGGARRSRGWGGWKGCASTGAGSC	MEME-4	chr19	36222576	36222605	+	5.64646	1.48e-05	0.0759	GGAGATGGCAAGGAGCGAGTGGGGAGAGGC
GARCCCAGGARRSRGWGGWKGCASTGAGSC	MEME-4	chr12	76118831	76118860	+	5.64646	1.48e-05	0.0759	ggaggaggaagggagggaggggagagagag
GARCCCAGGARRSRGWGGWKGCASTGAGSC	MEME-4	chr3	171847776	171847805	+	5.63636	1.49e-05	0.0759	ggggagagggagggagggagggggagagag
GARCCCAGGARRSRGWGGWKGCASTGAGSC	MEME-4	chr1	230220054	230220083	+	5.63636	1.49e-05	0.0759	agggccgaggaggggacctgtgggcgaggc
GARCCCAGGARRSRGWGGWKGCASTGAGSC	MEME-4	chr11	17043307	17043336	+	5.61616	1.5e-05	0.076	cctcacatcccagcttgcaggcagtcaggc
GARCCCAGGARRSRGWGGWKGCASTGAGSC	MEME-4	chr9	128059665	128059694	+	5.59596	1.51e-05	0.0762	aaggccagaagagggattaggaagttatat
GARCCCAGGARRSRGWGGWKGCASTGAGSC	MEME-4	chr11	35412962	35412991	+	5.51515	1.55e-05	0.0778	ccacccacctgggcaagaagtcacagagct
GARCCCAGGARRSRGWGGWKGCASTGAGSC	MEME-4	chr5	77995940	77995969	-	5.49495	1.56e-05	0.0778	GAACAGTGAGAGCTGTGATGACACTCAGGC
GARCCCAGGARRSRGWGGWKGCASTGAGSC	MEME-4	chr14	24912155	24912184	+	5.48485	1.56e-05	0.0778	CAAGCGAGGTGGGAGGGATTAGACCGATGG
GARCCCAGGARRSRGWGGWKGCASTGAGSC	MEME-4	chr3	124556508	124556537	+	5.47475	1.57e-05	0.0778	CCACAGAGGTGGATTTAAAGTCAGACATGT
GARCCCAGGARRSRGWGGWKGCASTGAGSC	MEME-4	chr1	230220310	230220339	+	5.46465	1.57e-05	0.0778	GTTGCTAGGTGAGGGAGATGAGGCTGAGAC
GARCCCAGGARRSRGWGGWKGCASTGAGSC	MEME-4	chr17	36442830	36442859	+	5.43434	1.59e-05	0.0783	GGGCAGAGCAGAGCTAGGTGGAGATGTGAC
GARCCCAGGARRSRGWGGWKGCASTGAGSC	MEME-4	chr1	204386148	204386177	+	5.37374	1.62e-05	0.0795	aaggggagaggagggggacaggagtgtggg
GARCCCAGGARRSRGWGGWKGCASTGAGSC	MEME-4	chr17	73641788	73641817	+	5.33333	1.64e-05	0.0801	acgcccatgatagttaagaACGACTGTTCT
GARCCCAGGARRSRGWGGWKGCASTGAGSC	MEME-4	chr14	75920259	75920288	-	5.32323	1.65e-05	0.0801	GCCCAGAGCCGGGAGCACAGGAAGAGTTCC
GARCCCAGGARRSRGWGGWKGCASTGAGSC	MEME-4	chrX	104413153	104413182	+	5.25253	1.69e-05	0.0816	agagagggggagggaaggaggaagagagag
GARCCCAGGARRSRGWGGWKGCASTGAGSC	MEME-4	chr9	114828737	114828766	+	5.24242	1.69e-05	0.0816	CAGCACAGAGAGTGGCAACAGAAGCCAGGC
GARCCCAGGARRSRGWGGWKGCASTGAGSC	MEME-4	chr5	132580869	132580898	+	5.22222	1.7e-05	0.0817	CATCAGGGGAGCCTTGGGTGGAAGCCAGGG
GARCCCAGGARRSRGWGGWKGCASTGAGSC	MEME-4	chr2	11638783	11638812	+	5.18182	1.73e-05	0.0825	GCTGCTGGGCAGCTGGGCAGCCTGCCTGCC
GARCCCAGGARRSRGWGGWKGCASTGAGSC	MEME-4	chr13	36287943	36287972	-	5.0303	1.81e-05	0.0859	GGAGGCCGAAGGGAGAGGATCGCTTGAGGC
GARCCCAGGARRSRGWGGWKGCASTGAGSC	MEME-4	chr8	127559728	127559757	-	5.0303	1.81e-05	0.0859	GAGGCAAGAAGAAGCAGGAACAAGAGAGGC
GARCCCAGGARRSRGWGGWKGCASTGAGSC	MEME-4	chr18	74805252	74805281	+	4.92929	1.87e-05	0.0884	CAGCAGAGGGAAGGCGGCATGAGGAGAGAG
GARCCCAGGARRSRGWGGWKGCASTGAGSC	MEME-4	chr12	104571971	104572000	+	4.90909	1.89e-05	0.0886	CCTCCCAGCCTGGGTTCCAGCCACAGAGAA
GARCCCAGGARRSRGWGGWKGCASTGAGSC	MEME-4	chr22	30194935	30194964	-	4.88889	1.9e-05	0.0888	GGGGCCCTCTGGGCTGGCACGCAGAGAGAC
GARCCCAGGARRSRGWGGWKGCASTGAGSC	MEME-4	chr12	116310419	116310448	+	4.86869	1.91e-05	0.0889	AAACCAAGACTGCCTTGGGGAAACTGAGCC
GARCCCAGGARRSRGWGGWKGCASTGAGSC	MEME-4	chr12	3458863	3458892	+	4.85859	1.92e-05	0.0889	ACCCACAGCAGGAGGGGACAGCTCTGAGAG
GARCCCAGGARRSRGWGGWKGCASTGAGSC	MEME-4	chr20	51952753	51952782	+	4.84848	1.92e-05	0.0889	GAGGGCATCAGGAAGAGAAAGTACACTGCC
GARCCCAGGARRSRGWGGWKGCASTGAGSC	MEME-4	chr11	82611466	82611495	+	4.77778	1.97e-05	0.0906	GCGGGTGGGAGGGCGAAAAGGAGGCCAGCA
GARCCCAGGARRSRGWGGWKGCASTGAGSC	MEME-4	chr8	117850002	117850031	+	4.68687	2.03e-05	0.0929	tatcccagggaagatatcaatcagtcagcc
GARCCCAGGARRSRGWGGWKGCASTGAGSC	MEME-4	chr8	120451403	120451432	+	4.64646	2.05e-05	0.0937	aagggtggcaaagaaaggcttcagtgagag
GARCCCAGGARRSRGWGGWKGCASTGAGSC	MEME-4	chr2	239924818	239924847	+	4.61616	2.07e-05	0.0942	GTGCCCAGAAGAGCTGAAGGGCTGGGAGCT
GARCCCAGGARRSRGWGGWKGCASTGAGSC	MEME-4	chr11	68111567	68111596	+	4.55556	2.11e-05	0.095	CAGGCTGGGTAGGGGTGGAGCCTGGGTGGC
GARCCCAGGARRSRGWGGWKGCASTGAGSC	MEME-4	chr3	40509344	40509373	+	4.54545	2.12e-05	0.095	tcgcccaggctggagtgcagtgggtggggt
GARCCCAGGARRSRGWGGWKGCASTGAGSC	MEME-4	chr17	4090802	4090831	-	4.52525	2.13e-05	0.095	CAGCACTGCAGAAGGGCCTGGAACACTGGC
GARCCCAGGARRSRGWGGWKGCASTGAGSC	MEME-4	chr1	227002802	227002831	+	4.52525	2.13e-05	0.095	GGGCTGGCAAGACAGTGAGAGCAGAGAGCT
GARCCCAGGARRSRGWGGWKGCASTGAGSC	MEME-4	chr12	50595908	50595937	+	4.51515	2.14e-05	0.095	GCATCTGTGAGGAGGAGCTGGCAGCTAGCA
GARCCCAGGARRSRGWGGWKGCASTGAGSC	MEME-4	chr1	51794995	51795024	+	4.51515	2.14e-05	0.095	GAGCCcagaacaggaaaggaacagccagcc
GARCCCAGGARRSRGWGGWKGCASTGAGSC	MEME-4	chr3	25623905	25623934	+	4.47475	2.17e-05	0.0959	GCAGCCACCCAGCAGGGCCTGGAGCCTTCC
GARCCCAGGARRSRGWGGWKGCASTGAGSC	MEME-4	chr5	1516597	1516626	-	4.43434	2.2e-05	0.0964	ATGCACAGACAGTGGGGATGCCGCCGGGCT
GARCCCAGGARRSRGWGGWKGCASTGAGSC	MEME-4	chr12	76371791	76371820	-	4.43434	2.2e-05	0.0964	AAACACAGGAGGGATTTTCTTCACATAGAG
GARCCCAGGARRSRGWGGWKGCASTGAGSC	MEME-4	chr1	235109603	235109632	-	4.41414	2.21e-05	0.0966	GAGCACAGACTGGTCTGTGTGCTGTTAGCC
GARCCCAGGARRSRGWGGWKGCASTGAGSC	MEME-4	chr8	37456007	37456036	-	4.40404	2.22e-05	0.0966	GGGGAGAGGAAGCCTGGCCTTGAGGGAGGG
GARCCCAGGARRSRGWGGWKGCASTGAGSC	MEME-4	chr15	96614071	96614100	-	4.29293	2.3e-05	0.0997	CTGGAGAGCCGGTGGCACTGGGAGTCAGCT
GARCCCAGGARRSRGWGGWKGCASTGAGSC	MEME-4	chr13	36288622	36288651	+	4.27273	2.31e-05	0.0999	ggggctaggtgactggggagaaagcttgct
GARCCCAGGARRSRGWGGWKGCASTGAGSC	MEME-4	chr22	26339091	26339120	-	4.24242	2.34e-05	0.1	CAGGCCAAGGAGCTGGGCTGGGAGCCAGGA
GARCCCAGGARRSRGWGGWKGCASTGAGSC	MEME-4	chr16	75593990	75594019	+	4.23232	2.34e-05	0.1	gagcccaagagttagaggttgcagtaagca
GARCCCAGGARRSRGWGGWKGCASTGAGSC	MEME-4	chr2	239925408	239925437	+	4.19192	2.37e-05	0.101	AGAAGCCGGCGATGTGGGGGCAACTGAGGC
GARCCCAGGARRSRGWGGWKGCASTGAGSC	MEME-4	chr18	72895801	72895830	+	4.18182	2.38e-05	0.101	GGCCCCATGCGTGCGAGGGTACACACATGC
GARCCCAGGARRSRGWGGWKGCASTGAGSC	MEME-4	chr19	39602284	39602313	+	4.16162	2.4e-05	0.102	gaggctctgagcaggtgaaggaagtgatcg
GARCCCAGGARRSRGWGGWKGCASTGAGSC	MEME-4	chr2	235372422	235372451	-	4.12121	2.43e-05	0.103	ACACCGAGGTGGCATAAGTAGGCCCGTGGT
GARCCCAGGARRSRGWGGWKGCASTGAGSC	MEME-4	chr1	181103906	181103935	-	4.09091	2.45e-05	0.103	AGACAGAGGAAAGATGCGGGTCACATAGCA
GARCCCAGGARRSRGWGGWKGCASTGAGSC	MEME-4	chr12	15942754	15942783	-	4.08081	2.46e-05	0.103	GGGCAGGGGTTACGAGCTGTGCAGCCAGAC
GARCCCAGGARRSRGWGGWKGCASTGAGSC	MEME-4	chr12	113683967	113683996	-	4.08081	2.46e-05	0.103	GAGGACGGGAAGGAGTGGAAAGAAACAGCT
GARCCCAGGARRSRGWGGWKGCASTGAGSC	MEME-4	chr5	150367293	150367322	+	4.07071	2.47e-05	0.103	atgcatggagaacagtgctggcagagaagg
GARCCCAGGARRSRGWGGWKGCASTGAGSC	MEME-4	chr10	28552552	28552581	+	4.0404	2.49e-05	0.103	CAAGCCAGGAGGAAGGGGAGGGATCTTGGA
GARCCCAGGARRSRGWGGWKGCASTGAGSC	MEME-4	chr17	65634334	65634363	+	3.9899	2.53e-05	0.105	ATACCCGCAAGGCTGAGTTGGCAGTTTTGG
GARCCCAGGARRSRGWGGWKGCASTGAGSC	MEME-4	chr1	3571497	3571526	+	3.93939	2.57e-05	0.106	GCTGAGGGCCGAGAGAGGAGCCGCACACCC
GARCCCAGGARRSRGWGGWKGCASTGAGSC	MEME-4	chr3	42538670	42538699	-	3.84848	2.65e-05	0.108	AATTCCTGAGGGGGGTGAGGCCACTTAGCC
GARCCCAGGARRSRGWGGWKGCASTGAGSC	MEME-4	chr8	142299263	142299292	+	3.83838	2.65e-05	0.108	GGCCAGGGCGAGAGCAGAAGGGGCAGAGGC
GARCCCAGGARRSRGWGGWKGCASTGAGSC	MEME-4	chr2	239924837	239924866	-	3.82828	2.66e-05	0.108	GCACTGAGGCAGTGGTGACAGCTCCCAGCC
GARCCCAGGARRSRGWGGWKGCASTGAGSC	MEME-4	chr7	155115857	155115886	-	3.80808	2.68e-05	0.109	GAAACCCAGGTGCCGTGGAGGAAGAGAGAG
GARCCCAGGARRSRGWGGWKGCASTGAGSC	MEME-4	chr12	122192902	122192931	+	3.77778	2.7e-05	0.109	gggcaggagaagctgtgtctggagactggt
GARCCCAGGARRSRGWGGWKGCASTGAGSC	MEME-4	chr5	173314680	173314709	+	3.77778	2.7e-05	0.109	GCACCTGGGAGACTGCACCAGATGCGAGCC
GARCCCAGGARRSRGWGGWKGCASTGAGSC	MEME-4	chr19	24065282	24065311	+	3.76768	2.71e-05	0.109	gaggagaagaggaggaagaggaggagagga
GARCCCAGGARRSRGWGGWKGCASTGAGSC	MEME-4	chr6	45678584	45678613	-	3.74747	2.73e-05	0.109	CTGGACAGTAGGAGGGGAGGGGGCTGAGAG
GARCCCAGGARRSRGWGGWKGCASTGAGSC	MEME-4	chr7	74050248	74050277	-	3.73737	2.74e-05	0.109	CACAGGGTGCAGAGGGAATGGCACACAGCC
GARCCCAGGARRSRGWGGWKGCASTGAGSC	MEME-4	chr3	8692964	8692993	-	3.67677	2.79e-05	0.111	CCTCCCCGCTTGCTGAGATAGCCGAGAGAT
GARCCCAGGARRSRGWGGWKGCASTGAGSC	MEME-4	chr19	42278460	42278489	-	3.66667	2.8e-05	0.111	AGGAAGGGCAGGCTGAGAAGGAAGATAGAG
GARCCCAGGARRSRGWGGWKGCASTGAGSC	MEME-4	chr19	36222705	36222734	+	3.63636	2.83e-05	0.112	CAGGGTCGGGGACCTGGGAGGCATAGTGGC
GARCCCAGGARRSRGWGGWKGCASTGAGSC	MEME-4	chr22	26339325	26339354	-	3.59596	2.86e-05	0.113	CCAGATTGCAAATAGGGCAGCCAGTGAGGG
GARCCCAGGARRSRGWGGWKGCASTGAGSC	MEME-4	chr2	237654650	237654679	-	3.57576	2.88e-05	0.113	AGAGCTGGGTGGCAGACAGGCCACTGGTGC
GARCCCAGGARRSRGWGGWKGCASTGAGSC	MEME-4	chr14	51377359	51377388	-	3.52525	2.93e-05	0.114	CAGCCTGGGCAGCATAGGGAGACCCCATAC
GARCCCAGGARRSRGWGGWKGCASTGAGSC	MEME-4	chr10	106232505	106232534	-	3.45455	2.99e-05	0.116	GAAGGGAGAAAAAGTTGTTGGAACTGAGGA
GARCCCAGGARRSRGWGGWKGCASTGAGSC	MEME-4	chr17	38478659	38478688	-	3.43434	3.01e-05	0.117	GGGGAGAGGGAACAGCCAGAGGACCCAGCC
GARCCCAGGARRSRGWGGWKGCASTGAGSC	MEME-4	chr22	46084956	46084985	-	3.41414	3.03e-05	0.117	CTACATAGATGGGAGAGAAAGGAGAGGGGG
GARCCCAGGARRSRGWGGWKGCASTGAGSC	MEME-4	chr17	57425442	57425471	+	3.39394	3.05e-05	0.117	agagatagggaagctgagggtcagagtggt
GARCCCAGGARRSRGWGGWKGCASTGAGSC	MEME-4	chr7	74049716	74049745	-	3.36364	3.08e-05	0.118	CTACTCCGGAGGCTGAGGCAGGAGAATGGC
GARCCCAGGARRSRGWGGWKGCASTGAGSC	MEME-4	chr17	25897509	25897538	-	3.33333	3.11e-05	0.118	GTACAGTGGTGGGTGTGGAGGAATAGAGGT
GARCCCAGGARRSRGWGGWKGCASTGAGSC	MEME-4	chr11	118790391	118790420	-	3.33333	3.11e-05	0.118	CCCCATCTCAGGTCTGGGAGGAACACAGGC
GARCCCAGGARRSRGWGGWKGCASTGAGSC	MEME-4	chr3	4786543	4786572	-	3.31313	3.13e-05	0.118	ACAGAGAGGGAGGAAGGGAGGGAGGGAGGC
GARCCCAGGARRSRGWGGWKGCASTGAGSC	MEME-4	chr14	101539850	101539879	-	3.31313	3.13e-05	0.118	GAGCGGGGGAGTGAGGCCAAGCTGAGTGCC
GARCCCAGGARRSRGWGGWKGCASTGAGSC	MEME-4	chr1	27867153	27867182	+	3.29293	3.15e-05	0.119	ggagatggggtaggaaagggccacccaggc
GARCCCAGGARRSRGWGGWKGCASTGAGSC	MEME-4	chr10	28552548	28552577	+	3.25253	3.19e-05	0.119	CAACCAAGCCAGGAGGAAGGGGAGGGATCT
GARCCCAGGARRSRGWGGWKGCASTGAGSC	MEME-4	chr8	128882477	128882506	+	3.25253	3.19e-05	0.119	acagggagaaggccatgtgaccacagaggc
GARCCCAGGARRSRGWGGWKGCASTGAGSC	MEME-4	chr2	236954277	236954306	+	3.25253	3.19e-05	0.119	GTGGAGGGGCAGGAGACAGTGCAGAGGTCT
GARCCCAGGARRSRGWGGWKGCASTGAGSC	MEME-4	chr8	37456347	37456376	+	3.23232	3.21e-05	0.119	GAGCCCAGGAGGGGGTGCCCAGGGACTGAT
GARCCCAGGARRSRGWGGWKGCASTGAGSC	MEME-4	chr22	24199017	24199046	-	3.21212	3.23e-05	0.12	GGGCACTTGGAGTTGAGGAACCACAGAGTC
GARCCCAGGARRSRGWGGWKGCASTGAGSC	MEME-4	chr3	187467919	187467948	-	3.20202	3.24e-05	0.12	AACGGCAGCGGGTGGACCAGCCACCCTGAG
GARCCCAGGARRSRGWGGWKGCASTGAGSC	MEME-4	chr1	20864833	20864862	-	3.18182	3.26e-05	0.12	AGACACCTGCAGCTCACCAGGCTGTGAGCC
GARCCCAGGARRSRGWGGWKGCASTGAGSC	MEME-4	chr8	142299283	142299312	+	3.14141	3.3e-05	0.121	GGGCAGAGGCGGGGATGGCGGGGGAGTGCA
GARCCCAGGARRSRGWGGWKGCASTGAGSC	MEME-4	chr4	3782435	3782464	-	3.13131	3.31e-05	0.121	GAGGTCACACAGGGGGGACAGGACAGAGCC
GARCCCAGGARRSRGWGGWKGCASTGAGSC	MEME-4	chr21	43476307	43476336	-	3.10101	3.34e-05	0.122	ACCCGGGGGAGGGAATAGGACCAGAGATAC
GARCCCAGGARRSRGWGGWKGCASTGAGSC	MEME-4	chr8	127559864	127559893	+	3.10101	3.34e-05	0.122	AAGGGCAGGGAAGGGGTGATCAGGTGATCT
GARCCCAGGARRSRGWGGWKGCASTGAGSC	MEME-4	chr3	4786081	4786110	+	3.08081	3.36e-05	0.122	ACTGCCAGGCAGAGGATTGGTCAGTCTTCC
GARCCCAGGARRSRGWGGWKGCASTGAGSC	MEME-4	chr1	204386177	204386206	+	3.06061	3.38e-05	0.122	ggggaggggagagggaggggagagagaagg
GARCCCAGGARRSRGWGGWKGCASTGAGSC	MEME-4	chr9	97581875	97581904	-	3.0404	3.4e-05	0.123	CAGCCTGGGTGACAGAGTGAGATCCTATCC
GARCCCAGGARRSRGWGGWKGCASTGAGSC	MEME-4	chr16	80649653	80649682	-	3.0303	3.41e-05	0.123	CAGGAGGGGCTGGGGCGGAGGGTCAGAGCT
GARCCCAGGARRSRGWGGWKGCASTGAGSC	MEME-4	chr5	144822415	144822444	+	3	3.44e-05	0.123	aatccatggaaacaggacatgaagctagac
GARCCCAGGARRSRGWGGWKGCASTGAGSC	MEME-4	chr14	96561899	96561928	-	2.9899	3.46e-05	0.123	GTACACAGCTAATGGGGGACCGGCTCATCC
GARCCCAGGARRSRGWGGWKGCASTGAGSC	MEME-4	chr17	45579690	45579719	-	2.9798	3.47e-05	0.123	AGGCAGAGCAGAGCTAGGTGGAGATGTGAC
GARCCCAGGARRSRGWGGWKGCASTGAGSC	MEME-4	chr10	3524397	3524426	-	2.9697	3.48e-05	0.123	ACACACAGGGAGATGGCAGATCACTTTTCC
GARCCCAGGARRSRGWGGWKGCASTGAGSC	MEME-4	chr21	43476309	43476338	-	2.9596	3.49e-05	0.123	TGACCCGGGGGAGGGAATAGGACCAGAGAT
GARCCCAGGARRSRGWGGWKGCASTGAGSC	MEME-4	chr8	96222423	96222452	-	2.94949	3.5e-05	0.123	GCAGCTGGCAAATAAGAGGTCCAGTGTGCT
GARCCCAGGARRSRGWGGWKGCASTGAGSC	MEME-4	chr13	25691557	25691586	-	2.92929	3.52e-05	0.124	CAGCCCGGGAGGACAGGAAAGAGCCGAGCA
GARCCCAGGARRSRGWGGWKGCASTGAGSC	MEME-4	chr11	39015887	39015916	-	2.90909	3.54e-05	0.124	GGAGGCCGAGGGGGGAGGATCACCTGATGT
GARCCCAGGARRSRGWGGWKGCASTGAGSC	MEME-4	chr3	150063011	150063040	+	2.85859	3.6e-05	0.125	AAGCAGGTCTGACAGGATCTGCAGCTTTCC
GARCCCAGGARRSRGWGGWKGCASTGAGSC	MEME-4	chr10	74033045	74033074	+	2.84848	3.61e-05	0.125	ACAGCCAGGATGGGCAGGTGGGGCCTTGGG
GARCCCAGGARRSRGWGGWKGCASTGAGSC	MEME-4	chrX	78094809	78094838	+	2.84848	3.61e-05	0.125	gtttatgtaaaaatgtagattcactgagcc
GARCCCAGGARRSRGWGGWKGCASTGAGSC	MEME-4	chr1	145455533	145455562	-	2.84848	3.61e-05	0.125	GAGGGTGGGGAGGAAGGGAGTGACTTAGGG
GARCCCAGGARRSRGWGGWKGCASTGAGSC	MEME-4	chr6	129018507	129018536	+	2.82828	3.63e-05	0.125	taggagatgagagggtgagaggagacaggg
GARCCCAGGARRSRGWGGWKGCASTGAGSC	MEME-4	chr20	3792748	3792777	+	2.77778	3.69e-05	0.126	AAGCATAGGGCGGGGAGGGAGCTCTCAGGG
GARCCCAGGARRSRGWGGWKGCASTGAGSC	MEME-4	chr19	18867758	18867787	-	2.76768	3.7e-05	0.126	GAACGCCGGCTGAATGGGTTTCTGCTTGGC
GARCCCAGGARRSRGWGGWKGCASTGAGSC	MEME-4	chr20	49361163	49361192	-	2.76768	3.7e-05	0.126	GGAGGGAGGGAGGGAGGGAGGGAGTCAGGA
GARCCCAGGARRSRGWGGWKGCASTGAGSC	MEME-4	chr12	76372157	76372186	-	2.73737	3.73e-05	0.127	ACCCCCAGCCAGCAGGGTAAGGGTTCAGAT
GARCCCAGGARRSRGWGGWKGCASTGAGSC	MEME-4	chrX	152065001	152065030	+	2.72727	3.74e-05	0.127	AACCCCAAGAAGAAAAGGATGAGGACAGCT
GARCCCAGGARRSRGWGGWKGCASTGAGSC	MEME-4	chr1	150254335	150254364	+	2.70707	3.77e-05	0.127	AGAAAGGGGTGGGGGAGGTGAAACAGAGAC
GARCCCAGGARRSRGWGGWKGCASTGAGSC	MEME-4	chr2	217657089	217657118	-	2.70707	3.77e-05	0.127	TAACCAATCTTGCAGTCGGGGCAGTCAGCT
GARCCCAGGARRSRGWGGWKGCASTGAGSC	MEME-4	chr21	45616028	45616057	+	2.69697	3.78e-05	0.127	gcacctggagggtggaggccggggtgcggc
GARCCCAGGARRSRGWGGWKGCASTGAGSC	MEME-4	chr6	13873333	13873362	+	2.68687	3.79e-05	0.127	gggcacagagaaaagaccatgaggacatag
GARCCCAGGARRSRGWGGWKGCASTGAGSC	MEME-4	chr14	95523027	95523056	-	2.65657	3.83e-05	0.128	GGGCGCTGGCGGCTCTCCAGGCTGTGAGGC
GARCCCAGGARRSRGWGGWKGCASTGAGSC	MEME-4	chr17	60938639	60938668	+	2.64646	3.84e-05	0.128	AATCAGGGCAGAGGGAATGGGGGCAGAAAC
GARCCCAGGARRSRGWGGWKGCASTGAGSC	MEME-4	chr5	1516372	1516401	+	2.62626	3.86e-05	0.128	GGACAGGTCTAGCCTGGGATGTGCTGAGCT
GARCCCAGGARRSRGWGGWKGCASTGAGSC	MEME-4	chr9	97545868	97545897	+	2.61616	3.87e-05	0.128	AGACCCAAGCAGTGGAGAAGGAGGCCAGGA
GARCCCAGGARRSRGWGGWKGCASTGAGSC	MEME-4	chr8	128878097	128878126	+	2.61616	3.87e-05	0.128	AGTCCAAGGGAAATGTCCTTTGAGTGTGGC
GARCCCAGGARRSRGWGGWKGCASTGAGSC	MEME-4	chr21	46823156	46823185	+	2.60606	3.89e-05	0.128	GGCCACAGGTGGGCTGGCACCCGCCCTGCC
GARCCCAGGARRSRGWGGWKGCASTGAGSC	MEME-4	chr8	131045321	131045350	+	2.57576	3.92e-05	0.129	aggccgaggcgggcggatcacctgagatcg
GARCCCAGGARRSRGWGGWKGCASTGAGSC	MEME-4	chr13	109571595	109571624	-	2.54545	3.96e-05	0.129	GAGGGAAGGTGGGGCAGGAAGGGCCCAGCC
GARCCCAGGARRSRGWGGWKGCASTGAGSC	MEME-4	chr8	131009298	131009327	+	2.53535	3.97e-05	0.129	ggagggagggagggagggagggagggaggg
GARCCCAGGARRSRGWGGWKGCASTGAGSC	MEME-4	chr8	131009302	131009331	+	2.53535	3.97e-05	0.129	ggagggagggagggagggagggagggaggg
GARCCCAGGARRSRGWGGWKGCASTGAGSC	MEME-4	chr8	52684046	52684075	-	2.52525	3.98e-05	0.129	CTGGTCAGGGAGCAGGGTCAGGAGCCATCC
GARCCCAGGARRSRGWGGWKGCASTGAGSC	MEME-4	chr3	139021688	139021717	+	2.52525	3.98e-05	0.129	ccccccgttctaagttgcagtgactgaggc
GARCCCAGGARRSRGWGGWKGCASTGAGSC	MEME-4	chr11	118799368	118799397	-	2.51515	4e-05	0.129	CCAGACCTCTGACTGACAGTGCCCTGAGCC
GARCCCAGGARRSRGWGGWKGCASTGAGSC	MEME-4	chr7	105709468	105709497	+	2.50505	4.01e-05	0.129	aaagacagaaaagcaagataggagacaggg
GARCCCAGGARRSRGWGGWKGCASTGAGSC	MEME-4	chr17	66374365	66374394	+	2.47475	4.04e-05	0.13	GAGCAGATGAAAGAGAGAAGGCGGTCAATG
GARCCCAGGARRSRGWGGWKGCASTGAGSC	MEME-4	chr10	74004187	74004216	-	2.47475	4.04e-05	0.13	GCCCAGGGCAAAAGGGAGGAGAAGCCATAT
GARCCCAGGARRSRGWGGWKGCASTGAGSC	MEME-4	chrX	11129562	11129591	+	2.43434	4.09e-05	0.131	GCCCGGGGGAGGGCTTAGGTGCAGAAGGGC
GARCCCAGGARRSRGWGGWKGCASTGAGSC	MEME-4	chr15	39420700	39420729	-	2.43434	4.09e-05	0.131	CACCACAGAAGGAGGAAGGGGAGGCTTGTT
GARCCCAGGARRSRGWGGWKGCASTGAGSC	MEME-4	chr12	124716593	124716622	-	2.42424	4.11e-05	0.131	GGGCACAGGTGGAGGGCCCAGGAGACACGT
GARCCCAGGARRSRGWGGWKGCASTGAGSC	MEME-4	chr20	49360877	49360906	-	2.40404	4.13e-05	0.131	AGGCCGAGGTGGGCGGATTACCAGAGGTCG
GARCCCAGGARRSRGWGGWKGCASTGAGSC	MEME-4	chr3	13236832	13236861	+	2.39394	4.14e-05	0.131	caccagaggccggagaggatacagagaaac
GARCCCAGGARRSRGWGGWKGCASTGAGSC	MEME-4	chr12	104614389	104614418	+	2.39394	4.14e-05	0.131	ctactcaggaggctgaggcaggagaattgc
GARCCCAGGARRSRGWGGWKGCASTGAGSC	MEME-4	chr5	98937939	98937968	+	2.37374	4.17e-05	0.131	cagcctgggcgatggtgaaagatcttatct
GARCCCAGGARRSRGWGGWKGCASTGAGSC	MEME-4	chr3	189022648	189022677	-	2.35354	4.2e-05	0.132	GGAGGAGGCGGGCGGGCGATGGGGAGAGAG
GARCCCAGGARRSRGWGGWKGCASTGAGSC	MEME-4	chr16	87840834	87840863	-	2.32323	4.23e-05	0.132	GAACCGCGCCTCCAGGGGTGGCTCACAGGG
GARCCCAGGARRSRGWGGWKGCASTGAGSC	MEME-4	chr2	239925063	239925092	-	2.31313	4.25e-05	0.132	TGGGAGGGAGAGGGCAAGATTCACTGAGGC
GARCCCAGGARRSRGWGGWKGCASTGAGSC	MEME-4	chr8	37456203	37456232	+	2.29293	4.27e-05	0.133	GCTGCCCTGGGGCCCAACAGCCACAGAGAG
GARCCCAGGARRSRGWGGWKGCASTGAGSC	MEME-4	chr11	71211958	71211987	+	2.28283	4.29e-05	0.133	CAGGGCAGGAGAGGGAGCTGCCCCAGCTCT
GARCCCAGGARRSRGWGGWKGCASTGAGSC	MEME-4	chr7	44673669	44673698	-	2.27273	4.3e-05	0.133	CCTCAGCTCCAAGGGAGCTGGCAGTGGGAG
GARCCCAGGARRSRGWGGWKGCASTGAGSC	MEME-4	chr12	32828147	32828176	-	2.23232	4.35e-05	0.134	CCACTCGGGAGGCTGAGGCAGGAGAATTGC
GARCCCAGGARRSRGWGGWKGCASTGAGSC	MEME-4	chr17	25897296	25897325	+	2.21212	4.38e-05	0.135	AGGGCTGGCTGGTGGTGGGTTGAGATGGCC
GARCCCAGGARRSRGWGGWKGCASTGAGSC	MEME-4	chr14	69274250	69274279	+	2.19192	4.41e-05	0.135	CTGCACTTGGGGCCCAGCTAGGAGTGAGGC
GARCCCAGGARRSRGWGGWKGCASTGAGSC	MEME-4	chr12	116310806	116310835	+	2.19192	4.41e-05	0.135	GGAGTTATAAAGGTGTTGGGGCAGTGAGCT
GARCCCAGGARRSRGWGGWKGCASTGAGSC	MEME-4	chr11	129716979	129717008	+	2.18182	4.42e-05	0.135	AGGGTGGGGAAGAGGGAGAGGCTGTGAGAG
GARCCCAGGARRSRGWGGWKGCASTGAGSC	MEME-4	chr15	99344049	99344078	+	2.16162	4.45e-05	0.135	AGGCCCAGAAGGGGGAGGAGAGGGCTTGTG
GARCCCAGGARRSRGWGGWKGCASTGAGSC	MEME-4	chr8	101018153	101018182	-	2.11111	4.51e-05	0.137	GTATGGGGCAGGGGGAGATTGTAGAGTGAC
GARCCCAGGARRSRGWGGWKGCASTGAGSC	MEME-4	chr12	48297883	48297912	+	2.09091	4.54e-05	0.137	aagaggaggaggaggaggaggaggagaagg
GARCCCAGGARRSRGWGGWKGCASTGAGSC	MEME-4	chr6	36288297	36288326	+	2.07071	4.57e-05	0.138	gcagctggatgggccagcgtgcactCTGGT
GARCCCAGGARRSRGWGGWKGCASTGAGSC	MEME-4	chr12	132315866	132315895	-	2.06061	4.58e-05	0.138	CCCCACCTCCTACAGAAGATCAAGGGAGCT
GARCCCAGGARRSRGWGGWKGCASTGAGSC	MEME-4	chr15	86422049	86422078	+	2.0303	4.63e-05	0.138	aggcagaggttgcagtgagctgagacatgc
GARCCCAGGARRSRGWGGWKGCASTGAGSC	MEME-4	chr4	183666462	183666491	+	2.0303	4.63e-05	0.138	CTCCCCAGGATACTGAGCGTGCAAAGCTCT
GARCCCAGGARRSRGWGGWKGCASTGAGSC	MEME-4	chr14	27429559	27429588	-	1.9798	4.7e-05	0.14	TCAGCGAGGTGAGGTAAATATAAGTGTGCC
GARCCCAGGARRSRGWGGWKGCASTGAGSC	MEME-4	chr14	77513122	77513151	+	1.9697	4.71e-05	0.14	ccacacttaatgaagtggattcagttatcg
GARCCCAGGARRSRGWGGWKGCASTGAGSC	MEME-4	chr16	59512715	59512744	+	1.92929	4.77e-05	0.142	aagcctgggaaacgtagtcttctgtatgcc
GARCCCAGGARRSRGWGGWKGCASTGAGSC	MEME-4	chr5	9712740	9712769	-	1.86869	4.85e-05	0.143	CAAGCCAGCAGGCTGGAAATTCAGGTATGA
GARCCCAGGARRSRGWGGWKGCASTGAGSC	MEME-4	chr20	31097271	31097300	-	1.86869	4.85e-05	0.143	CCACCCAGGCTGGAGTGCAGTGGCCCAATC
GARCCCAGGARRSRGWGGWKGCASTGAGSC	MEME-4	chr3	12487005	12487034	-	1.85859	4.87e-05	0.143	CTGGCTGGCCAGGTGGCCATGAAGAAAGGC
GARCCCAGGARRSRGWGGWKGCASTGAGSC	MEME-4	chr22	43130687	43130716	+	1.84848	4.88e-05	0.143	GAGCCTGGAAGGATGACACGGGCCCCTGCT
GARCCCAGGARRSRGWGGWKGCASTGAGSC	MEME-4	chr8	102504819	102504848	+	1.84848	4.88e-05	0.143	GGCGCGAGCGGGCGAGCGAGCGAGAGTGGT
GARCCCAGGARRSRGWGGWKGCASTGAGSC	MEME-4	chr3	158490094	158490123	+	1.83838	4.9e-05	0.143	GAGCCCAGGGACTAAAGAGTGCAGTGGGGG
GARCCCAGGARRSRGWGGWKGCASTGAGSC	MEME-4	chr1	31862668	31862697	-	1.78788	4.97e-05	0.145	AGACCCTGGAACCACTGGGTTCACAGTGCC
GARCCCAGGARRSRGWGGWKGCASTGAGSC	MEME-4	chr7	47515641	47515670	-	1.78788	4.97e-05	0.145	TGTCCTGTGAAGGTGAGTTGGCAGTGCGGT
GARCCCAGGARRSRGWGGWKGCASTGAGSC	MEME-4	chrX	152064417	152064446	+	1.77778	4.99e-05	0.145	AGGGCCTGGCAGCCTGGCAGGGAGGGAGGG
GARCCCAGGARRSRGWGGWKGCASTGAGSC	MEME-4	chr13	106179602	106179631	+	1.76768	5e-05	0.145	AAGCATATCAGGAAGCAGATTGACTGATAT
GARCCCAGGARRSRGWGGWKGCASTGAGSC	MEME-4	chr11	120151270	120151299	-	1.75758	5.02e-05	0.145	CAGCCTGGTATGGTAGAAAGTCAGACAGGC
GARCCCAGGARRSRGWGGWKGCASTGAGSC	MEME-4	chr5	1516329	1516358	+	1.74747	5.03e-05	0.145	GTCCTGGGGCCACTGACTGGGCAGACAGCC
GARCCCAGGARRSRGWGGWKGCASTGAGSC	MEME-4	chr14	51377900	51377929	-	1.73737	5.05e-05	0.145	ACAGCCAGATGGGCAAGAAGCCAGTGTCCC
GARCCCAGGARRSRGWGGWKGCASTGAGSC	MEME-4	chr12	116828718	116828747	+	1.70707	5.09e-05	0.146	CTTCACTGTGAGCAGAGAGAGCAGAGAGCT
GARCCCAGGARRSRGWGGWKGCASTGAGSC	MEME-4	chr6	13873810	13873839	-	1.67677	5.14e-05	0.146	GCGAAGAGCCAGCAGGACCGCAGGCCAGGC
GARCCCAGGARRSRGWGGWKGCASTGAGSC	MEME-4	chr17	57923970	57923999	+	1.67677	5.14e-05	0.146	CTACCTATGTAAGCAAAGAGTCAGCCATCT
GARCCCAGGARRSRGWGGWKGCASTGAGSC	MEME-4	chr2	160142837	160142866	+	1.67677	5.14e-05	0.146	GCAAGAGGGAGGCCTGGGAGGCAGGGAGCT
GARCCCAGGARRSRGWGGWKGCASTGAGSC	MEME-4	chr7	138575798	138575827	-	1.66667	5.16e-05	0.146	GAACACAGAGGAGGGGGGCACCCCATTTGC
GARCCCAGGARRSRGWGGWKGCASTGAGSC	MEME-4	chr15	93210488	93210517	+	1.65657	5.17e-05	0.146	CAGCAGGGCAGAGCTAAGCAGGCCACAGAC
GARCCCAGGARRSRGWGGWKGCASTGAGSC	MEME-4	chr5	166025337	166025366	+	1.62626	5.22e-05	0.147	AGGCCAAGGTGGGAAACCAGGGACCCAGGT
GARCCCAGGARRSRGWGGWKGCASTGAGSC	MEME-4	chr21	46130045	46130074	+	1.60606	5.25e-05	0.148	GAGCAGGGGAGGGAGAAAGGCTGGCGCTGC
GARCCCAGGARRSRGWGGWKGCASTGAGSC	MEME-4	chr16	15601356	15601385	-	1.59596	5.27e-05	0.148	GGAGACAGCAAAGCATGAAGGCACAGACGT
GARCCCAGGARRSRGWGGWKGCASTGAGSC	MEME-4	chr12	132315281	132315310	+	1.59596	5.27e-05	0.148	GAGCCGGGGCTGGAGGGGAGGGCCCGCCCC
GARCCCAGGARRSRGWGGWKGCASTGAGSC	MEME-4	chr15	75872124	75872153	+	1.58586	5.28e-05	0.148	CAGGCCAGGATGCTTAGGTGGAAGGAATCG
GARCCCAGGARRSRGWGGWKGCASTGAGSC	MEME-4	chr3	72031757	72031786	+	1.56566	5.31e-05	0.148	gaggccatcagggcaggctgggggtgagaa
GARCCCAGGARRSRGWGGWKGCASTGAGSC	MEME-4	chr14	49946271	49946300	+	1.55556	5.33e-05	0.148	cagcacctacgctgtagctggcacatagcg
GARCCCAGGARRSRGWGGWKGCASTGAGSC	MEME-4	chr17	59296937	59296966	-	1.52525	5.38e-05	0.149	AGCAGCAGAAAGCTGAAATAGCACAGTGAT
GARCCCAGGARRSRGWGGWKGCASTGAGSC	MEME-4	chr13	26345420	26345449	-	1.49495	5.43e-05	0.15	GTAAACAGGCAGGTGTGCGTGGGGCCGGCC
GARCCCAGGARRSRGWGGWKGCASTGAGSC	MEME-4	chr16	377028	377057	+	1.48485	5.44e-05	0.15	ctactcgggagcctgaggcagaagactggc
GARCCCAGGARRSRGWGGWKGCASTGAGSC	MEME-4	chr4	24765171	24765200	-	1.48485	5.44e-05	0.15	CTACTCGGGAGGCTGAGTCAGGAGAATGGC
GARCCCAGGARRSRGWGGWKGCASTGAGSC	MEME-4	chr11	76484200	76484229	-	1.48485	5.44e-05	0.15	GACCCAGGGAGGGAGGGCAAGCATTGGGGG
GARCCCAGGARRSRGWGGWKGCASTGAGSC	MEME-4	chr3	101893310	101893339	+	1.45455	5.49e-05	0.15	GCTGACAGAAGGCAGAAGGTGGAAAAAGGG
GARCCCAGGARRSRGWGGWKGCASTGAGSC	MEME-4	chr6	170440278	170440307	-	1.44444	5.51e-05	0.15	GTGGGCGTGGGTGGGGAGGTGGAGCCTGGC
GARCCCAGGARRSRGWGGWKGCASTGAGSC	MEME-4	chr21	38444375	38444404	-	1.43434	5.52e-05	0.15	GAGCACGGTGGAGAGACATTGAAACCAGAC
GARCCCAGGARRSRGWGGWKGCASTGAGSC	MEME-4	chr19	39602254	39602283	+	1.43434	5.52e-05	0.15	ccacggtgaggactttgggtggagccaggg
GARCCCAGGARRSRGWGGWKGCASTGAGSC	MEME-4	chr4	7943196	7943225	+	1.42424	5.54e-05	0.15	CAGCGCCAGCTGGGGTGCTGTCTGAGTGGC
GARCCCAGGARRSRGWGGWKGCASTGAGSC	MEME-4	chr19	36222549	36222578	+	1.41414	5.56e-05	0.15	GTGCAAAGCCTGCAGCAGAGGCAGAGAGGA
GARCCCAGGARRSRGWGGWKGCASTGAGSC	MEME-4	chr20	50366801	50366830	-	1.40404	5.57e-05	0.15	CAGGCCTGGGGGAGGTGAATGGTGTCTGCT
GARCCCAGGARRSRGWGGWKGCASTGAGSC	MEME-4	chr12	32828088	32828117	+	1.39394	5.59e-05	0.15	caggctggaatgcggtgacgtgattttggc
GARCCCAGGARRSRGWGGWKGCASTGAGSC	MEME-4	chr5	66511736	66511765	+	1.39394	5.59e-05	0.15	TGACCCGGCTGGGCAGGGTGGCTGTGAGCT
GARCCCAGGARRSRGWGGWKGCASTGAGSC	MEME-4	chr21	46131861	46131890	-	1.37374	5.62e-05	0.151	GGTCCTAAAAGGCGGTGAGCCCAGGGAGCC
GARCCCAGGARRSRGWGGWKGCASTGAGSC	MEME-4	chr9	15401106	15401135	-	1.35354	5.66e-05	0.151	GAGGCCAGCCTGGGCAACATAGAGAGATCT
GARCCCAGGARRSRGWGGWKGCASTGAGSC	MEME-4	chr1	230220432	230220461	-	1.35354	5.66e-05	0.151	CAGCTGAAGGAGAGTAGGAGGGAGCCAGGG
GARCCCAGGARRSRGWGGWKGCASTGAGSC	MEME-4	chr15	52363936	52363965	-	1.34343	5.67e-05	0.151	CAACCCAGCAAGGAGAACAGGGAAGCAGTT
GARCCCAGGARRSRGWGGWKGCASTGAGSC	MEME-4	chr13	36288344	36288373	-	1.32323	5.71e-05	0.151	GGGGACAGCAGGAGCTATTTTAACTGTGGT
GARCCCAGGARRSRGWGGWKGCASTGAGSC	MEME-4	chr11	118790215	118790244	+	1.32323	5.71e-05	0.151	GCAGGCGGGAGAGAGGCTGGTGGCTGGGCT
GARCCCAGGARRSRGWGGWKGCASTGAGSC	MEME-4	chr8	55471121	55471150	-	1.31313	5.73e-05	0.151	GCGCAGTGCAGGCCGCCCAGGGAGACAGGG
GARCCCAGGARRSRGWGGWKGCASTGAGSC	MEME-4	chr16	87840870	87840899	+	1.29293	5.76e-05	0.152	GCAGGGAGGGAGGAGGGCAGGGAGGTTGGG
GARCCCAGGARRSRGWGGWKGCASTGAGSC	MEME-4	chr5	144822427	144822456	+	1.29293	5.76e-05	0.152	caggacatgaagctagacaaccggttagac
GARCCCAGGARRSRGWGGWKGCASTGAGSC	MEME-4	chr21	45616149	45616178	+	1.27273	5.79e-05	0.152	CTGGCTGGAGGGCACTAGTGGCACTCTGGG
GARCCCAGGARRSRGWGGWKGCASTGAGSC	MEME-4	chr17	65634308	65634337	+	1.23232	5.86e-05	0.153	CTGCAGAGGCCACAGGCAGTGCGGCCATAC
GARCCCAGGARRSRGWGGWKGCASTGAGSC	MEME-4	chr15	101253985	101254014	+	1.23232	5.86e-05	0.153	CTGCCCAGGTGCCTGCCGGTGCCGCCAGCC
GARCCCAGGARRSRGWGGWKGCASTGAGSC	MEME-4	chr1	227002780	227002809	+	1.21212	5.9e-05	0.154	GGGCCGAGGGAAGGGAGAAGAAGGGCTGGC
GARCCCAGGARRSRGWGGWKGCASTGAGSC	MEME-4	chr1	37504514	37504543	+	1.20202	5.92e-05	0.154	AAGCCCAGCGAAGGTTGCGTCACCTTAGAT
GARCCCAGGARRSRGWGGWKGCASTGAGSC	MEME-4	chr14	95523028	95523057	+	1.20202	5.92e-05	0.154	CCTCACAGCCTGGAGAGCCGCCAGCGCCCC
GARCCCAGGARRSRGWGGWKGCASTGAGSC	MEME-4	chr3	53190312	53190341	-	1.17172	5.97e-05	0.154	TGAGAGGGGAAGAGGGAGAGTCACCGAAAC
GARCCCAGGARRSRGWGGWKGCASTGAGSC	MEME-4	chr3	73729932	73729961	-	1.17172	5.97e-05	0.154	CTCCCCTTATAGAAGAGAGAGCAGTGTGCT
GARCCCAGGARRSRGWGGWKGCASTGAGSC	MEME-4	chr14	93483952	93483981	-	1.17172	5.97e-05	0.154	TGGCCTTGCAGGTGGTGGTGGCCGCGTGCC
GARCCCAGGARRSRGWGGWKGCASTGAGSC	MEME-4	chr20	50366857	50366886	-	1.13131	6.04e-05	0.155	GGGCCCAGGAGAATGAGTCATCAGCCCACG
GARCCCAGGARRSRGWGGWKGCASTGAGSC	MEME-4	chr16	87840598	87840627	+	1.13131	6.04e-05	0.155	GTGCAGCTGGGGCAGAGCTGCCGTTGATGT
GARCCCAGGARRSRGWGGWKGCASTGAGSC	MEME-4	chr12	100543247	100543276	+	1.12121	6.06e-05	0.155	caggctggagtgcagtggcgcaatctaggc
GARCCCAGGARRSRGWGGWKGCASTGAGSC	MEME-4	chr14	51377904	51377933	-	1.11111	6.08e-05	0.155	GGGGACAGCCAGATGGGCAAGAAGCCAGTG
GARCCCAGGARRSRGWGGWKGCASTGAGSC	MEME-4	chr11	82611506	82611535	-	1.11111	6.08e-05	0.155	GCGGAGCTGCAGGCTGGGCAGGGCTTAGCC
GARCCCAGGARRSRGWGGWKGCASTGAGSC	MEME-4	chr1	41966483	41966512	+	1.10101	6.09e-05	0.155	GGACACACAAAAGGGTGCTTGAACCCAGTG
GARCCCAGGARRSRGWGGWKGCASTGAGSC	MEME-4	chr7	75735627	75735656	+	1.07071	6.15e-05	0.156	actgcacgcaggcctgggtggcagagtgag
GARCCCAGGARRSRGWGGWKGCASTGAGSC	MEME-4	chr21	46130036	46130065	+	1.06061	6.17e-05	0.156	GGGGTCCTCGAGCAGGGGAGGGAGAAAGGC
GARCCCAGGARRSRGWGGWKGCASTGAGSC	MEME-4	chr1	20864782	20864811	-	1.0303	6.22e-05	0.156	AGGGCCAGAGGAGGGGATTTTGAGGTTGGC
GARCCCAGGARRSRGWGGWKGCASTGAGSC	MEME-4	chr6	13873645	13873674	+	1.0202	6.24e-05	0.156	GAAGAGAGGAAGCAAGCTAACCGGAGAGAG
GARCCCAGGARRSRGWGGWKGCASTGAGSC	MEME-4	chr17	29893851	29893880	-	1.0202	6.24e-05	0.156	CATCACCAGACACAGAAGGAGGAGAGAGGG
GARCCCAGGARRSRGWGGWKGCASTGAGSC	MEME-4	chr1	44855924	44855953	+	1.0202	6.24e-05	0.156	agggagagaagagaggggttggaTACTTCC
GARCCCAGGARRSRGWGGWKGCASTGAGSC	MEME-4	chr10	74032964	74032993	+	1.0202	6.24e-05	0.156	GGGAGCAGTTGGAAGTGGAAGCAGATAGGG
GARCCCAGGARRSRGWGGWKGCASTGAGSC	MEME-4	chr5	159687784	159687813	-	1.0202	6.24e-05	0.156	GAGGAGGGGATGGGGAAGGGTGCTCCAGGC
GARCCCAGGARRSRGWGGWKGCASTGAGSC	MEME-4	chr5	17306705	17306734	+	1.0101	6.26e-05	0.156	GCCCCCTGGAGAGCTGGCTTACAGCCTGCT
GARCCCAGGARRSRGWGGWKGCASTGAGSC	MEME-4	chr8	18858705	18858734	-	0.989899	6.3e-05	0.157	CTACCTGGAAGACTGAGGAGGGAGGATTGC
GARCCCAGGARRSRGWGGWKGCASTGAGSC	MEME-4	chr12	93480993	93481022	+	0.959596	6.35e-05	0.158	ctactcgggaggctgaggcaggagaattgc
GARCCCAGGARRSRGWGGWKGCASTGAGSC	MEME-4	chr2	121096101	121096130	+	0.949495	6.37e-05	0.158	GCTGACAGGTGGAGGGTTGAGGACAGTGCC
GARCCCAGGARRSRGWGGWKGCASTGAGSC	MEME-4	chr3	20085167	20085196	+	0.919192	6.43e-05	0.158	GAGTGCAGGAATCTTAACCTGGAGAGTGAC
GARCCCAGGARRSRGWGGWKGCASTGAGSC	MEME-4	chr17	60501735	60501764	+	0.919192	6.43e-05	0.158	GAGGCCAGGGAACCGCGGCCGCCCAGATCC
GARCCCAGGARRSRGWGGWKGCASTGAGSC	MEME-4	chr2	160142586	160142615	+	0.89899	6.47e-05	0.159	CCTGCCTTGGGGTAGGGGGGGCGGTGTGGG
GARCCCAGGARRSRGWGGWKGCASTGAGSC	MEME-4	chr19	36222567	36222596	+	0.868687	6.52e-05	0.16	AGGCAGAGAGGAGATGGCAAGGAGCGAGTG
GARCCCAGGARRSRGWGGWKGCASTGAGSC	MEME-4	chr2	239925079	239925108	-	0.868687	6.52e-05	0.16	AAACCCAGGAGGCGAGTGGGAGGGAGAGGG
GARCCCAGGARRSRGWGGWKGCASTGAGSC	MEME-4	chr4	3782269	3782298	+	0.858586	6.54e-05	0.16	CCAGCCGGCAGGAGGATGGGGCACCTCTGC
GARCCCAGGARRSRGWGGWKGCASTGAGSC	MEME-4	chr17	66374846	66374875	-	0.848485	6.56e-05	0.16	TTTTCCAGACAGAGGAGCAGTCAGTTAGGG
GARCCCAGGARRSRGWGGWKGCASTGAGSC	MEME-4	chr9	32701940	32701969	+	0.838384	6.58e-05	0.16	ctccagatgatggcaaccctgcagctagcc
GARCCCAGGARRSRGWGGWKGCASTGAGSC	MEME-4	chr21	45029465	45029494	+	0.838384	6.58e-05	0.16	AGGCAGGGGGAGGCCAGGAAGAAAAGAGGC
GARCCCAGGARRSRGWGGWKGCASTGAGSC	MEME-4	chr22	37908713	37908742	-	0.818182	6.62e-05	0.16	GGGGTCAGGCAGGAGGCCCTGGTGTGTGGC
GARCCCAGGARRSRGWGGWKGCASTGAGSC	MEME-4	chr10	106095148	106095177	-	0.79798	6.66e-05	0.161	AGGCAGAGAGCGAGTGGAAGGAGGTGAGAC
GARCCCAGGARRSRGWGGWKGCASTGAGSC	MEME-4	chr20	3792491	3792520	+	0.787879	6.68e-05	0.161	AACCCTGGGAGGACTGCCAGGCTCTGAGTC
GARCCCAGGARRSRGWGGWKGCASTGAGSC	MEME-4	chr3	156530400	156530429	-	0.767677	6.72e-05	0.162	CTGCAGGGGAGACGTGCAAATAGATGAGCC
GARCCCAGGARRSRGWGGWKGCASTGAGSC	MEME-4	chr19	15183990	15184019	+	0.737374	6.78e-05	0.162	cagtcttgcaagcctactctggactgagcc
GARCCCAGGARRSRGWGGWKGCASTGAGSC	MEME-4	chr5	67746947	67746976	-	0.727273	6.8e-05	0.162	GAGGGGGGAGGGTGGGGGGTGGAGTTTCAC
GARCCCAGGARRSRGWGGWKGCASTGAGSC	MEME-4	chr8	37456522	37456551	+	0.707071	6.84e-05	0.162	GGGGAAGGGGTGGAGGCGGTGGGCCCAGGC
GARCCCAGGARRSRGWGGWKGCASTGAGSC	MEME-4	chr5	67845200	67845229	+	0.69697	6.86e-05	0.162	CAGCCGCTGTAGGAGGCAGGCCTGTCAGAT
GARCCCAGGARRSRGWGGWKGCASTGAGSC	MEME-4	chr14	88934456	88934485	+	0.69697	6.86e-05	0.162	GGCCCCGTAAGAAATTGTGGGAGCTTAGAT
GARCCCAGGARRSRGWGGWKGCASTGAGSC	MEME-4	chr19	18491387	18491416	+	0.686869	6.88e-05	0.162	AAGCAGAGCCAGGCGAGTggccagatgtgg
GARCCCAGGARRSRGWGGWKGCASTGAGSC	MEME-4	chr2	66782399	66782428	-	0.686869	6.88e-05	0.162	GGGGGGTGGAGAGAGACGAGAGAGAGAGAG
GARCCCAGGARRSRGWGGWKGCASTGAGSC	MEME-4	chr12	67989513	67989542	-	0.686869	6.88e-05	0.162	AGACAGAGGAAGCTGAGGAGGCAAATCTAT
GARCCCAGGARRSRGWGGWKGCASTGAGSC	MEME-4	chr7	101343731	101343760	+	0.676768	6.9e-05	0.162	GTGGGGGGCCTGGGGAGAAGGGACTGGTGT
GARCCCAGGARRSRGWGGWKGCASTGAGSC	MEME-4	chr3	103157143	103157172	-	0.676768	6.9e-05	0.162	AGGCCTAGGAGTGTGGGAGATCAGTCAGTG
GARCCCAGGARRSRGWGGWKGCASTGAGSC	MEME-4	chr12	125215394	125215423	+	0.676768	6.9e-05	0.162	GAGGCCAGGAAACTGTGAGGCAGAAAAGCG
GARCCCAGGARRSRGWGGWKGCASTGAGSC	MEME-4	chr6	128919645	128919674	-	0.666667	6.92e-05	0.162	CAGCACAGTCAACAGAAGATCCTGATAACC
GARCCCAGGARRSRGWGGWKGCASTGAGSC	MEME-4	chr5	173234066	173234095	+	0.656566	6.94e-05	0.163	CTGCCCAGCAACTAGACCCTTCAGCTAGCA
GARCCCAGGARRSRGWGGWKGCASTGAGSC	MEME-4	chr2	11638704	11638733	+	0.646465	6.96e-05	0.163	GGGGCAGTGAGGTGGGGACGTGGGTCAGGG
GARCCCAGGARRSRGWGGWKGCASTGAGSC	MEME-4	chr12	104571958	104571987	-	0.636364	6.98e-05	0.163	GAACCCAGGCTGGGAGGAAGTGGGCTGGGT
GARCCCAGGARRSRGWGGWKGCASTGAGSC	MEME-4	chr7	122831241	122831270	+	0.626263	7e-05	0.163	CTTGCCAGCATAACATGGATCCAGTCATCT
GARCCCAGGARRSRGWGGWKGCASTGAGSC	MEME-4	chr20	49039938	49039967	-	0.616162	7.02e-05	0.163	GGAGGCATGAGTCAGAGTGTGCTCTCAGGG
GARCCCAGGARRSRGWGGWKGCASTGAGSC	MEME-4	chr3	4786547	4786576	-	0.606061	7.04e-05	0.163	GGAGACAGAGAGGGAGGAAGGGAGGGAGGG
GARCCCAGGARRSRGWGGWKGCASTGAGSC	MEME-4	chr7	44673660	44673689	-	0.606061	7.04e-05	0.163	CAAGGGAGCTGGCAGTGGGAGGAGTGGGGA
GARCCCAGGARRSRGWGGWKGCASTGAGSC	MEME-4	chr17	57863978	57864007	-	0.59596	7.06e-05	0.163	ATGAAGGGGAGGGGGAATTTTCAGAGAAGT
GARCCCAGGARRSRGWGGWKGCASTGAGSC	MEME-4	chr2	85224807	85224836	+	0.555556	7.14e-05	0.164	AAGGCCTTGGGGTTGAGGGAGCACTTAGca
GARCCCAGGARRSRGWGGWKGCASTGAGSC	MEME-4	chr5	166026103	166026132	-	0.555556	7.14e-05	0.164	GACCATGGGAAAGTGAATGGCAGGTGTTAG
GARCCCAGGARRSRGWGGWKGCASTGAGSC	MEME-4	chr2	71975047	71975076	+	0.535354	7.19e-05	0.165	taacacatgtagcgtgcttagaagagtgcc
GARCCCAGGARRSRGWGGWKGCASTGAGSC	MEME-4	chr7	138575640	138575669	-	0.535354	7.19e-05	0.165	GGGCACAGCCGAAAGCCAGGTGGCAGAGAG
GARCCCAGGARRSRGWGGWKGCASTGAGSC	MEME-4	chr20	61745921	61745950	+	0.515152	7.23e-05	0.165	GGCTCTGGGCAGGTGGGGTTCCGCTGGGCT
GARCCCAGGARRSRGWGGWKGCASTGAGSC	MEME-4	chr2	71974605	71974634	-	0.505051	7.25e-05	0.165	CCACAGCTGTAATCTAGAAACAGGTGAGCC
GARCCCAGGARRSRGWGGWKGCASTGAGSC	MEME-4	chr4	183665999	183666028	-	0.505051	7.25e-05	0.165	GTACACAGAAAGCAGACATGAAACACTTCT
GARCCCAGGARRSRGWGGWKGCASTGAGSC	MEME-4	chr11	82611610	82611639	-	0.494949	7.27e-05	0.165	CCTCGGGGATGGGGGCGGAGTGGCTGTGGT
GARCCCAGGARRSRGWGGWKGCASTGAGSC	MEME-4	chrX	11129474	11129503	+	0.454545	7.36e-05	0.167	AggcggcggcggcggcggcggcggcgTGAA
GARCCCAGGARRSRGWGGWKGCASTGAGSC	MEME-4	chr11	70634577	70634606	-	0.434343	7.4e-05	0.167	GTGGACAGCAGGAGTGCGCTGGACAAAGGG
GARCCCAGGARRSRGWGGWKGCASTGAGSC	MEME-4	chr5	123935163	123935192	+	0.424242	7.42e-05	0.168	AAGCCACGGGAACCGTGTGTGATGTGAGAT
GARCCCAGGARRSRGWGGWKGCASTGAGSC	MEME-4	chr14	77371758	77371787	+	0.414141	7.44e-05	0.168	aaacataaaatacaggccgagcacagtggc
GARCCCAGGARRSRGWGGWKGCASTGAGSC	MEME-4	chr5	16573236	16573265	-	0.40404	7.46e-05	0.168	CAGGCTGGAGTGCAGTGGTGCGATCTTGGC
GARCCCAGGARRSRGWGGWKGCASTGAGSC	MEME-4	chr12	113683773	113683802	+	0.393939	7.49e-05	0.168	TTTCCGATGTGGCGTGCAAAGCAGCCAGCT
GARCCCAGGARRSRGWGGWKGCASTGAGSC	MEME-4	chr10	52271967	52271996	+	0.383838	7.51e-05	0.168	GACGCAGGACAGAAGGAGATGGTGTGAGGG
GARCCCAGGARRSRGWGGWKGCASTGAGSC	MEME-4	chr14	44786097	44786126	-	0.373737	7.53e-05	0.168	GACCACAGATAACTGAAACTGCACAAAGTG
GARCCCAGGARRSRGWGGWKGCASTGAGSC	MEME-4	chr3	11817021	11817050	+	0.353535	7.57e-05	0.168	CTGCACTGGTGGAAGTAACTTAACTCAGAT
GARCCCAGGARRSRGWGGWKGCASTGAGSC	MEME-4	chr11	120151496	120151525	+	0.353535	7.57e-05	0.168	GAGGCTTGCCAGCAGAGATGGTAGAGATAG
GARCCCAGGARRSRGWGGWKGCASTGAGSC	MEME-4	chr3	183483031	183483060	-	0.353535	7.57e-05	0.168	CAAAGCAGAAATCAGTAAAGCCACATATCC
GARCCCAGGARRSRGWGGWKGCASTGAGSC	MEME-4	chr1	227002905	227002934	-	0.353535	7.57e-05	0.168	GGTGCGAGGCTGATGGGAAATGAGCAAGCT
GARCCCAGGARRSRGWGGWKGCASTGAGSC	MEME-4	chr1	204386368	204386397	+	0.323232	7.64e-05	0.169	CCTGCTAGAGGGCAGAGGGAGGCCAGATCT
GARCCCAGGARRSRGWGGWKGCASTGAGSC	MEME-4	chr3	32625662	32625691	-	0.313131	7.66e-05	0.169	ATTCAGAGATGGAGGAAGAGGGAGGAAGGC
GARCCCAGGARRSRGWGGWKGCASTGAGSC	MEME-4	chr2	208694016	208694045	-	0.30303	7.68e-05	0.17	CAGCCTGGGTGACAGAGTGAGACCCTATCT
GARCCCAGGARRSRGWGGWKGCASTGAGSC	MEME-4	chr14	101539630	101539659	-	0.292929	7.71e-05	0.17	TGACCAAGCGGAGGCTGGCAGCAGCGAGGC
GARCCCAGGARRSRGWGGWKGCASTGAGSC	MEME-4	chr6	132144550	132144579	+	0.272727	7.75e-05	0.17	AGTCAACTGCTGCTGTGATGGCACTTTGCC
GARCCCAGGARRSRGWGGWKGCASTGAGSC	MEME-4	chr3	187468149	187468178	-	0.252525	7.8e-05	0.171	GTGGAGATGTGAATGGAAAAGTACCGAGCC
GARCCCAGGARRSRGWGGWKGCASTGAGSC	MEME-4	chr8	18858698	18858727	-	0.242424	7.82e-05	0.171	GAAGACTGAGGAGGGAGGATTGCTTGAGCC
GARCCCAGGARRSRGWGGWKGCASTGAGSC	MEME-4	chr10	30712762	30712791	-	0.232323	7.84e-05	0.171	GAGCACACACTGTGTTCCAGGGACTCTGCT
GARCCCAGGARRSRGWGGWKGCASTGAGSC	MEME-4	chr20	43359008	43359037	+	0.232323	7.84e-05	0.171	ctactcaggaggctgaggcacgagaattgc
GARCCCAGGARRSRGWGGWKGCASTGAGSC	MEME-4	chr16	27749844	27749873	+	0.212121	7.89e-05	0.172	AAGCATGGAAGGAAGAGAGTTGAACCTGCG
GARCCCAGGARRSRGWGGWKGCASTGAGSC	MEME-4	chr12	3458980	3459009	+	0.191919	7.93e-05	0.172	CCACAGCAGAGGCTGGGAAAGCCCAGTGCC
GARCCCAGGARRSRGWGGWKGCASTGAGSC	MEME-4	chr21	41816949	41816978	+	0.191919	7.93e-05	0.172	ggccccaggagattctgtgtctggtgaggg
GARCCCAGGARRSRGWGGWKGCASTGAGSC	MEME-4	chr7	475952	475981	+	0.181818	7.96e-05	0.172	GGACACAGCCGGGTGTGGAACAGCAGCCCC
GARCCCAGGARRSRGWGGWKGCASTGAGSC	MEME-4	chr17	65633982	65634011	+	0.141414	8.05e-05	0.174	GGGTGGGGGTGGGGGAGGAATTAGTGTGAT
GARCCCAGGARRSRGWGGWKGCASTGAGSC	MEME-4	chr5	104246859	104246888	-	0.131313	8.07e-05	0.174	GCAAGCAGATGACAGTGAATGCTGTGTTAC
GARCCCAGGARRSRGWGGWKGCASTGAGSC	MEME-4	chr16	87840825	87840854	-	0.121212	8.1e-05	0.174	CTCCAGGGGTGGCTCACAGGGGAGCCTGCC
GARCCCAGGARRSRGWGGWKGCASTGAGSC	MEME-4	chr1	204386133	204386162	+	0.10101	8.14e-05	0.175	ggggggaggagagggaaggggagaggaggg
GARCCCAGGARRSRGWGGWKGCASTGAGSC	MEME-4	chr20	50366580	50366609	+	0.0909091	8.17e-05	0.175	ctacttgggaggctgaggcgggagaattgc
GARCCCAGGARRSRGWGGWKGCASTGAGSC	MEME-4	chr2	85648718	85648747	-	0.0909091	8.17e-05	0.175	CACGCTATGTAAATGGGCAGCCACTGTGTC
GARCCCAGGARRSRGWGGWKGCASTGAGSC	MEME-4	chr6	36288542	36288571	+	0.0707071	8.21e-05	0.175	ACCCGGAGACCACAGGGAATGGAATCAGCC
GARCCCAGGARRSRGWGGWKGCASTGAGSC	MEME-4	chr11	71211763	71211792	+	0.0707071	8.21e-05	0.175	GGGTCTGGAAAGCTGGGACTCAGGCCAGGT
GARCCCAGGARRSRGWGGWKGCASTGAGSC	MEME-4	chr2	88896184	88896213	+	0.0707071	8.21e-05	0.175	accacaaggaaagtgaacaggctgagaggc
GARCCCAGGARRSRGWGGWKGCASTGAGSC	MEME-4	chr3	176121695	176121724	+	0.0606061	8.24e-05	0.175	AACTCCATGAAAGGGGAGTGTGAATGATCT
GARCCCAGGARRSRGWGGWKGCASTGAGSC	MEME-4	chr12	13036870	13036899	+	0.0505051	8.26e-05	0.175	ggaggccgaagcgggtggatcacctgaggt
GARCCCAGGARRSRGWGGWKGCASTGAGSC	MEME-4	chr7	101343736	101343765	+	0.0505051	8.26e-05	0.175	GGGCCTGGGGAGAAGGGACTGGTGTGACCT
GARCCCAGGARRSRGWGGWKGCASTGAGSC	MEME-4	chr10	77005380	77005409	+	0.020202	8.33e-05	0.176	CAGGGCAGGGGGGCGGGGGTGCTGCCTCAC
GARCCCAGGARRSRGWGGWKGCASTGAGSC	MEME-4	chr10	28552610	28552639	+	0.010101	8.36e-05	0.176	GATGGCAGGGGAGGGGCAGAGAGGAGCGGC
GARCCCAGGARRSRGWGGWKGCASTGAGSC	MEME-4	chr8	37456019	37456048	-	-0.010101	8.41e-05	0.176	TTGCGTGTGCTGGGGGAGAGGAAGCCTGGC
GARCCCAGGARRSRGWGGWKGCASTGAGSC	MEME-4	chr5	132576189	132576218	+	-0.010101	8.41e-05	0.176	AGGCCTGGAAGAGGGAGTTGGAGGCATGAG
GARCCCAGGARRSRGWGGWKGCASTGAGSC	MEME-4	chr1	42255462	42255491	+	-0.020202	8.43e-05	0.176	agtcaccggctgggttgggaccagacagtt
GARCCCAGGARRSRGWGGWKGCASTGAGSC	MEME-4	chr6	13873853	13873882	+	-0.030303	8.45e-05	0.176	ACTCGCAGGGTGATGGGCAGGGACTTGGCG
GARCCCAGGARRSRGWGGWKGCASTGAGSC	MEME-4	chr1	119022080	119022109	-	-0.030303	8.45e-05	0.176	CCACCCTTGTGGCTGGGAAATGACTGGGCT
GARCCCAGGARRSRGWGGWKGCASTGAGSC	MEME-4	chr14	75919868	75919897	+	-0.040404	8.48e-05	0.176	GGGGGTGGGGGAGTGGGGAGGGACTGCAGC
GARCCCAGGARRSRGWGGWKGCASTGAGSC	MEME-4	chr5	134977450	134977479	-	-0.040404	8.48e-05	0.176	GAGCCCCAGAGACAGATACTGCACATGGAC
GARCCCAGGARRSRGWGGWKGCASTGAGSC	MEME-4	chr12	104613845	104613874	-	-0.0505051	8.5e-05	0.177	CTGCCCAGAAATAGGTGATTTGACGCTGGC
GARCCCAGGARRSRGWGGWKGCASTGAGSC	MEME-4	chr8	142164580	142164609	+	-0.0606061	8.53e-05	0.177	ACTCCCAAAAAGCAGTACATGCAGTGTTTG
GARCCCAGGARRSRGWGGWKGCASTGAGSC	MEME-4	chr8	128883182	128883211	-	-0.0909091	8.6e-05	0.178	GAGGAGGCAGAAAGGAGACGTGACTGTGGC
GARCCCAGGARRSRGWGGWKGCASTGAGSC	MEME-4	chr8	142299207	142299236	+	-0.0909091	8.6e-05	0.178	GGGCCTGGGGAAGAGGATGATCGGAGAAGG
GARCCCAGGARRSRGWGGWKGCASTGAGSC	MEME-4	chr14	101539591	101539620	+	-0.10101	8.63e-05	0.178	GGGCAGAGGCCAGAGCCCGGCGGCAGAGCC
GARCCCAGGARRSRGWGGWKGCASTGAGSC	MEME-4	chr20	19765740	19765769	-	-0.131313	8.7e-05	0.179	AGGCAGGGGACAGCGTGTGGGTGGTTAGCC
GARCCCAGGARRSRGWGGWKGCASTGAGSC	MEME-4	chr15	93210789	93210818	+	-0.131313	8.7e-05	0.179	ATTCCCAGGCAGAGCTCGGGCCTCTGAGGG
GARCCCAGGARRSRGWGGWKGCASTGAGSC	MEME-4	chr17	65387426	65387455	-	-0.141414	8.73e-05	0.179	GGGGCGGGGGAACAGTCTTTGGAGATTAGC
GARCCCAGGARRSRGWGGWKGCASTGAGSC	MEME-4	chr11	67449711	67449740	+	-0.141414	8.73e-05	0.179	caggacgtgaagctagacaaccggttagac
GARCCCAGGARRSRGWGGWKGCASTGAGSC	MEME-4	chr6	125523198	125523227	-	-0.191919	8.85e-05	0.181	GACCCATGCCTACTGGGACTGCAGCCAGAT
GARCCCAGGARRSRGWGGWKGCASTGAGSC	MEME-4	chr8	102517391	102517420	-	-0.212121	8.9e-05	0.181	GGGGAGGGGAGGGCCAGTTGGGAGTGGGAG
GARCCCAGGARRSRGWGGWKGCASTGAGSC	MEME-4	chr2	129063141	129063170	-	-0.212121	8.9e-05	0.181	CTGCCTGGAGAACAAGGGCCTCAGCCAGCC
GARCCCAGGARRSRGWGGWKGCASTGAGSC	MEME-4	chr5	174758106	174758135	+	-0.212121	8.9e-05	0.181	GATGCCGGATGAGGGCAGCAGCATTGAGAG
GARCCCAGGARRSRGWGGWKGCASTGAGSC	MEME-4	chr6	33955981	33956010	-	-0.232323	8.95e-05	0.181	GGTGGCCCAGGGAGGGGAGGCCACACAGCC
GARCCCAGGARRSRGWGGWKGCASTGAGSC	MEME-4	chr14	75919803	75919832	-	-0.232323	8.95e-05	0.181	CAGCCTGCCCAGCCGGCTAGGCCCATAGCC
GARCCCAGGARRSRGWGGWKGCASTGAGSC	MEME-4	chr5	38831576	38831605	-	-0.252525	9.01e-05	0.182	GAGGGTGGGTGGGGTAGGGGGTGGTCTTGC
GARCCCAGGARRSRGWGGWKGCASTGAGSC	MEME-4	chr1	119022094	119022123	+	-0.262626	9.03e-05	0.182	ccagccacaagggtggccctggcgtgagac
GARCCCAGGARRSRGWGGWKGCASTGAGSC	MEME-4	chr14	34950566	34950595	-	-0.272727	9.06e-05	0.182	AGGGGCCTCAGGGTGGGTCAGAGGAGAGCT
GARCCCAGGARRSRGWGGWKGCASTGAGSC	MEME-4	chr15	75872159	75872188	-	-0.272727	9.06e-05	0.182	CAGCCAGTAAGGAGGGAGAGAGAGGGAGGC
GARCCCAGGARRSRGWGGWKGCASTGAGSC	MEME-4	chr1	43672638	43672667	-	-0.292929	9.11e-05	0.183	AAGCACGGGAAGCTGTCCCTGCAGATCCGT
GARCCCAGGARRSRGWGGWKGCASTGAGSC	MEME-4	chr10	127258073	127258102	+	-0.313131	9.16e-05	0.183	ctactcgggaggctgaggcagaagaattgc
GARCCCAGGARRSRGWGGWKGCASTGAGSC	MEME-4	chr8	131009314	131009343	+	-0.313131	9.16e-05	0.183	ggagggagggagggagggaaggagggaggg
GARCCCAGGARRSRGWGGWKGCASTGAGSC	MEME-4	chr17	4681916	4681945	+	-0.353535	9.27e-05	0.184	ACACACACGAAAGCAAGAAGCAAGACAGCT
GARCCCAGGARRSRGWGGWKGCASTGAGSC	MEME-4	chr6	47012796	47012825	+	-0.353535	9.27e-05	0.184	AGTCCTGGGAGAAAGAAAATGCAAACAGAA
GARCCCAGGARRSRGWGGWKGCASTGAGSC	MEME-4	chr16	50431131	50431160	+	-0.353535	9.27e-05	0.184	CAGGCTgaggagcagagtttacaccctgcc
GARCCCAGGARRSRGWGGWKGCASTGAGSC	MEME-4	chr15	70800520	70800549	+	-0.353535	9.27e-05	0.184	GGAGGGAGCTAAGGTTAATGTGGGTGATGT
GARCCCAGGARRSRGWGGWKGCASTGAGSC	MEME-4	chr13	36289019	36289048	-	-0.373737	9.32e-05	0.184	CATCATATGGCCCAGGGGTTTGAGTGAGCT
GARCCCAGGARRSRGWGGWKGCASTGAGSC	MEME-4	chr1	53573843	53573872	-	-0.373737	9.32e-05	0.184	GGCGGCAGGTTGGAGGAAGAGCAGGCATGC
GARCCCAGGARRSRGWGGWKGCASTGAGSC	MEME-4	chr4	6752692	6752721	+	-0.383838	9.35e-05	0.184	ccagggggctgggctgggcggggcagtgct
GARCCCAGGARRSRGWGGWKGCASTGAGSC	MEME-4	chr15	63793754	63793783	-	-0.383838	9.35e-05	0.184	CATCCCAGGGAGCCCTGATGGTGACGAGCC
GARCCCAGGARRSRGWGGWKGCASTGAGSC	MEME-4	chr16	64512168	64512197	+	-0.393939	9.37e-05	0.184	ATACCTCCCTGTCTGTGGATGCACTGAGAG
GARCCCAGGARRSRGWGGWKGCASTGAGSC	MEME-4	chr21	35816828	35816857	+	-0.40404	9.4e-05	0.184	cagcctgggtgagagagccagaccctatct
GARCCCAGGARRSRGWGGWKGCASTGAGSC	MEME-4	chr2	201508744	201508773	-	-0.40404	9.4e-05	0.184	TTGCATGGCAAAAGGAACAGTCAGCCAGCA
GARCCCAGGARRSRGWGGWKGCASTGAGSC	MEME-4	chr1	204386118	204386147	+	-0.414141	9.43e-05	0.185	gaagaatggaagaagggggggaggagaggg
GARCCCAGGARRSRGWGGWKGCASTGAGSC	MEME-4	chr10	33562441	33562470	+	-0.424242	9.45e-05	0.185	AAGCCCAGGATCCTGAGTTTGCAAATTTCG
GARCCCAGGARRSRGWGGWKGCASTGAGSC	MEME-4	chr3	12487128	12487157	-	-0.434343	9.48e-05	0.185	ACGCAGAGAGAGAGAGACAGCGAGAGAGAG
GARCCCAGGARRSRGWGGWKGCASTGAGSC	MEME-4	chr2	175450265	175450294	+	-0.434343	9.48e-05	0.185	GGGCGGCGGGGGTGCTGGAGGGGGAGGGAC
GARCCCAGGARRSRGWGGWKGCASTGAGSC	MEME-4	chr2	201508728	201508757	-	-0.444444	9.51e-05	0.185	ACAGTCAGCCAGCAGAGTAAACAGACATCC
GARCCCAGGARRSRGWGGWKGCASTGAGSC	MEME-4	chr19	24065226	24065255	+	-0.474747	9.59e-05	0.186	aaaggaaggaaaaggaggaagaggagagga
GARCCCAGGARRSRGWGGWKGCASTGAGSC	MEME-4	chr1	87258561	87258590	+	-0.474747	9.59e-05	0.186	GCTGAGGGAAGCTTTAGGGTGGAGAGTGGC
GARCCCAGGARRSRGWGGWKGCASTGAGSC	MEME-4	chr12	49276414	49276443	+	-0.484848	9.62e-05	0.186	CTTTCCAGCAGCCTGAGGTGGAGCAGAGAG
GARCCCAGGARRSRGWGGWKGCASTGAGSC	MEME-4	chr9	136609044	136609073	-	-0.484848	9.62e-05	0.186	GATCACCTGAGGTCAGGAGACCAGCCTGGC
GARCCCAGGARRSRGWGGWKGCASTGAGSC	MEME-4	chr8	102619627	102619656	-	-0.494949	9.64e-05	0.186	GAGGGGTGCAGGCTGTGGAATAAGCAAGGT
GARCCCAGGARRSRGWGGWKGCASTGAGSC	MEME-4	chr3	8692628	8692657	+	-0.505051	9.67e-05	0.186	GCTCCTGGCAGGCAAGGAGAACAGAGTGGC
GARCCCAGGARRSRGWGGWKGCASTGAGSC	MEME-4	chr17	76370575	76370604	-	-0.505051	9.67e-05	0.186	GAGCTTGGGAAGTGGGGAGTGCTGATTGGT
GARCCCAGGARRSRGWGGWKGCASTGAGSC	MEME-4	chr9	138287567	138287596	-	-0.505051	9.67e-05	0.186	GGAGGCCTCAGAGGGTCAAGTGAGTCACAC
GARCCCAGGARRSRGWGGWKGCASTGAGSC	MEME-4	chr1	51795340	51795369	-	-0.525253	9.73e-05	0.186	GACTGCTGGGAGGTTGCTGGGCAGAGAGCC
GARCCCAGGARRSRGWGGWKGCASTGAGSC	MEME-4	chr2	236954515	236954544	+	-0.525253	9.73e-05	0.186	AAGCAGAGGGTGGTGAGCATGGGGCCCTGG
GARCCCAGGARRSRGWGGWKGCASTGAGSC	MEME-4	chr21	45029559	45029588	+	-0.535354	9.75e-05	0.186	GGGGAGGTGAAAAGAGGGGAGAAGAGTGCC
GARCCCAGGARRSRGWGGWKGCASTGAGSC	MEME-4	chr3	12486209	12486238	-	-0.545455	9.78e-05	0.186	GGCAGGAGGGGGCGGTGGCAGCAGCCCGGG
GARCCCAGGARRSRGWGGWKGCASTGAGSC	MEME-4	chr20	15042166	15042195	-	-0.565657	9.84e-05	0.187	GATCCCAGGAAATATCAGCACGGGAGTGGG
GARCCCAGGARRSRGWGGWKGCASTGAGSC	MEME-4	chr15	40377600	40377629	+	-0.565657	9.84e-05	0.187	tgggccagagaaacttatcttcagtgtggc
GARCCCAGGARRSRGWGGWKGCASTGAGSC	MEME-4	chr17	61657034	61657063	-	-0.565657	9.84e-05	0.187	GGTGGGGGCTACCGGCAGAGCCACCGAGGC
GARCCCAGGARRSRGWGGWKGCASTGAGSC	MEME-4	chr1	70819618	70819647	+	-0.575758	9.87e-05	0.187	GCTCGGGGAAGGAGAGAGGTGGAGAGGGGC
GARCCCAGGARRSRGWGGWKGCASTGAGSC	MEME-4	chr15	86422066	86422095	-	-0.59596	9.92e-05	0.187	CAGGCTGGAGTGCAGTGGCATGTCTCAGCT
GARCCCAGGARRSRGWGGWKGCASTGAGSC	MEME-4	chr22	36858438	36858467	+	-0.606061	9.95e-05	0.187	CAGAGCAGGAGGAGGTGGTGGCAGGGACCA
GARCCCAGGARRSRGWGGWKGCASTGAGSC	MEME-4	chrX	129169591	129169620	-	-0.606061	9.95e-05	0.187	CATGAAAGATGGGCTGCTTGCCAGTGAGAC
GARCCCAGGARRSRGWGGWKGCASTGAGSC	MEME-4	chr20	46927726	46927755	+	-0.616162	9.98e-05	0.188	CTTCAGGGGAGACTGAAGAGTCCCAAATGC
