# motif_id	motif_alt_id	sequence_name	start	stop	strand	score	p-value	q-value	matched_sequence
WRGSTGGGR	MEME-3	chr15	45402336	45402344	+	14.3034	1.61e-06	0.0552	AGGGTGGGG
WRGSTGGGR	MEME-3	chr3	197391559	197391567	+	14.2135	3.22e-06	0.0552	TGGGTGGGG
WRGSTGGGR	MEME-3	chr15	75054467	75054475	+	14.0562	7.58e-06	0.0788	tgggtggga
WRGSTGGGR	MEME-3	chr13	111252586	111252594	+	13.8652	9.19e-06	0.0788	aggctgggg
WRGSTGGGR	MEME-3	chr15	40377381	40377389	-	13.618	1.52e-05	0.0967	TGGCTGGGA
WRGSTGGGR	MEME-3	chr9	77463438	77463446	+	12.7753	2.25e-05	0.0967	aaggtggga
WRGSTGGGR	MEME-3	chr6	164129592	164129600	-	12.4494	2.98e-05	0.0967	AGGGTGAGG
WRGSTGGGR	MEME-3	chr9	22124729	22124737	+	12.4494	2.98e-05	0.0967	AGGGTGAGG
WRGSTGGGR	MEME-3	chr19	28916278	28916286	+	12.2921	4.01e-05	0.0967	AGGGTGAGA
WRGSTGGGR	MEME-3	chr17	78690252	78690260	-	12.2472	4.3e-05	0.0967	TAGCTGGGA
WRGSTGGGR	MEME-3	chr3	100314614	100314622	-	12.2472	4.3e-05	0.0967	TAGCTGGGA
WRGSTGGGR	MEME-3	chr5	53039695	53039703	+	12.2472	4.3e-05	0.0967	tagctggga
WRGSTGGGR	MEME-3	chr4	131057511	131057519	+	12.2472	4.3e-05	0.0967	tagctggga
WRGSTGGGR	MEME-3	chr9	136608867	136608875	+	12.2472	4.3e-05	0.0967	tagctggga
WRGSTGGGR	MEME-3	chr3	65974051	65974059	+	12.2247	4.52e-05	0.0967	AGGGTGGAG
WRGSTGGGR	MEME-3	chr11	102323719	102323727	+	12.191	4.98e-05	0.0967	AGGGAGGGG
WRGSTGGGR	MEME-3	chr10	9391405	9391413	+	12.1348	5.19e-05	0.0967	tgggtggag
WRGSTGGGR	MEME-3	chr5	14187816	14187824	+	12.1011	5.35e-05	0.0967	TGGGAGGGG
WRGSTGGGR	MEME-3	chr1	153651033	153651041	+	12.1011	5.35e-05	0.0967	TGGGAGGGG
WRGSTGGGR	MEME-3	chr18	71509907	71509915	-	12.0337	5.87e-05	0.0968	AGGGAGGGA
WRGSTGGGR	MEME-3	chr9	136608852	136608860	-	12.0112	6.09e-05	0.0968	AGGCTGAGG
WRGSTGGGR	MEME-3	chr16	78330978	78330986	-	11.9438	6.6e-05	0.0968	TGGGAGGGA
WRGSTGGGR	MEME-3	chr1	153651049	153651057	+	11.9438	6.6e-05	0.0968	TGGGAGGGA
WRGSTGGGR	MEME-3	chr14	34682439	34682447	-	11.7865	7.33e-05	0.0968	AGGCTGGAG
WRGSTGGGR	MEME-3	chr5	38533832	38533840	-	11.7865	7.33e-05	0.0968	AGGCTGGAG
WRGSTGGGR	MEME-3	chr9	136608782	136608790	+	11.7865	7.33e-05	0.0968	aggctggag
WRGSTGGGR	MEME-3	chr3	197391825	197391833	-	11.7528	7.79e-05	0.099	AGGCAGGGG
WRGSTGGGR	MEME-3	chr15	40377405	40377413	+	11.6292	8.46e-05	0.103	aggctggaa
WRGSTGGGR	MEME-3	chr2	223843399	223843407	-	11.5955	8.68e-05	0.103	AGGCAGGGA
WRGSTGGGR	MEME-3	chr19	28916236	28916244	+	11.0787	9.49e-05	0.109	AAGGTGAGG
