# motif_id	motif_alt_id	sequence_name	start	stop	strand	score	p-value	q-value	matched_sequence
AAAMAAARWAAAWAAA	MEME-3	chr12	93480807	93480822	+	21.9457	3.43e-09	3.83e-05	aaaaaaaataaataaa
AAAMAAARWAAAWAAA	MEME-3	chr7	30387515	30387530	+	21.6848	4.37e-09	3.83e-05	aaaaaaaaaaaaaaaa
AAAMAAARWAAAWAAA	MEME-3	chr7	30387516	30387531	+	21.6848	4.37e-09	3.83e-05	aaaaaaaaaaaaaaaa
AAAMAAARWAAAWAAA	MEME-3	chr7	30387517	30387532	+	21.6848	4.37e-09	3.83e-05	aaaaaaaaaaaaaaaa
AAAMAAARWAAAWAAA	MEME-3	chr7	30387518	30387533	+	21.6848	4.37e-09	3.83e-05	aaaaaaaaaaaaaaaa
AAAMAAARWAAAWAAA	MEME-3	chr7	30387519	30387534	+	21.6848	4.37e-09	3.83e-05	aaaaaaaaaaaaaaaa
AAAMAAARWAAAWAAA	MEME-3	chr21	35816734	35816749	+	21.6848	4.37e-09	3.83e-05	aaaaaaaaaaaaaaaa
AAAMAAARWAAAWAAA	MEME-3	chr21	35816735	35816750	+	21.6848	4.37e-09	3.83e-05	aaaaaaaaaaaaaaaa
AAAMAAARWAAAWAAA	MEME-3	chr20	46927900	46927915	+	21.6848	4.37e-09	3.83e-05	AAAAAAAAAAAAAAAA
AAAMAAARWAAAWAAA	MEME-3	chr20	46927901	46927916	+	21.6848	4.37e-09	3.83e-05	AAAAAAAAAAAAAAAA
AAAMAAARWAAAWAAA	MEME-3	chr12	48297920	48297935	+	21.6848	4.37e-09	3.83e-05	aaaaaaaaaaaaaaaa
AAAMAAARWAAAWAAA	MEME-3	chr12	48297921	48297936	+	21.6848	4.37e-09	3.83e-05	aaaaaaaaaaaaaaaa
AAAMAAARWAAAWAAA	MEME-3	chr12	48297922	48297937	+	21.6848	4.37e-09	3.83e-05	aaaaaaaaaaaaaaaa
AAAMAAARWAAAWAAA	MEME-3	chr12	48297923	48297938	+	21.6848	4.37e-09	3.83e-05	aaaaaaaaaaaaaaaa
AAAMAAARWAAAWAAA	MEME-3	chr12	48297924	48297939	+	21.6848	4.37e-09	3.83e-05	aaaaaaaaaaaaaaaa
AAAMAAARWAAAWAAA	MEME-3	chr12	48297925	48297940	+	21.6848	4.37e-09	3.83e-05	aaaaaaaaaaaaaaaa
AAAMAAARWAAAWAAA	MEME-3	chr12	48297926	48297941	+	21.6848	4.37e-09	3.83e-05	aaaaaaaaaaaaaaaa
AAAMAAARWAAAWAAA	MEME-3	chr12	48297927	48297942	+	21.6848	4.37e-09	3.83e-05	aaaaaaaaaaaaaaaa
AAAMAAARWAAAWAAA	MEME-3	chr12	48297928	48297943	+	21.6848	4.37e-09	3.83e-05	aaaaaaaaaaaaaaaa
AAAMAAARWAAAWAAA	MEME-3	chr12	48297929	48297944	+	21.6848	4.37e-09	3.83e-05	aaaaaaaaaaaaaaaa
AAAMAAARWAAAWAAA	MEME-3	chr12	52672150	52672165	-	21.6848	4.37e-09	3.83e-05	AAAAAAAAAAAAAAAA
AAAMAAARWAAAWAAA	MEME-3	chr3	60945048	60945063	-	21.6848	4.37e-09	3.83e-05	AAAAAAAAAAAAAAAA
AAAMAAARWAAAWAAA	MEME-3	chr3	60945049	60945064	-	21.6848	4.37e-09	3.83e-05	AAAAAAAAAAAAAAAA
AAAMAAARWAAAWAAA	MEME-3	chr11	69329322	69329337	+	21.6848	4.37e-09	3.83e-05	aaaaaaaaaaaaaaaa
AAAMAAARWAAAWAAA	MEME-3	chr11	69329323	69329338	+	21.6848	4.37e-09	3.83e-05	aaaaaaaaaaaaaaaa
AAAMAAARWAAAWAAA	MEME-3	chr13	100629654	100629669	-	21.6848	4.37e-09	3.83e-05	AAAAAAAAAAAAAAAA
AAAMAAARWAAAWAAA	MEME-3	chr13	100629655	100629670	-	21.6848	4.37e-09	3.83e-05	AAAAAAAAAAAAAAAA
AAAMAAARWAAAWAAA	MEME-3	chr13	100629656	100629671	-	21.6848	4.37e-09	3.83e-05	AAAAAAAAAAAAAAAA
AAAMAAARWAAAWAAA	MEME-3	chr7	100995821	100995836	+	21.6848	4.37e-09	3.83e-05	aaaaaaaaaaaaaaaa
AAAMAAARWAAAWAAA	MEME-3	chr7	100995822	100995837	+	21.6848	4.37e-09	3.83e-05	aaaaaaaaaaaaaaaa
AAAMAAARWAAAWAAA	MEME-3	chr7	100995823	100995838	+	21.6848	4.37e-09	3.83e-05	aaaaaaaaaaaaaaaa
AAAMAAARWAAAWAAA	MEME-3	chr7	100995824	100995839	+	21.6848	4.37e-09	3.83e-05	aaaaaaaaaaaaaaaa
AAAMAAARWAAAWAAA	MEME-3	chr7	100995825	100995840	+	21.6848	4.37e-09	3.83e-05	aaaaaaaaaaaaaaaa
AAAMAAARWAAAWAAA	MEME-3	chr7	100995826	100995841	+	21.6848	4.37e-09	3.83e-05	aaaaaaaaaaaaaaaa
AAAMAAARWAAAWAAA	MEME-3	chr7	100995827	100995842	+	21.6848	4.37e-09	3.83e-05	aaaaaaaaaaaaaaaa
AAAMAAARWAAAWAAA	MEME-3	chr8	102516978	102516993	+	21.6848	4.37e-09	3.83e-05	AAAAAAAAAAAAAAAA
AAAMAAARWAAAWAAA	MEME-3	chr11	123015985	123016000	-	21.6848	4.37e-09	3.83e-05	AAAAAAAAAAAAAAAA
AAAMAAARWAAAWAAA	MEME-3	chr11	123015986	123016001	-	21.6848	4.37e-09	3.83e-05	AAAAAAAAAAAAAAAA
AAAMAAARWAAAWAAA	MEME-3	chr11	123015987	123016002	-	21.6848	4.37e-09	3.83e-05	AAAAAAAAAAAAAAAA
AAAMAAARWAAAWAAA	MEME-3	chr11	123015988	123016003	-	21.6848	4.37e-09	3.83e-05	AAAAAAAAAAAAAAAA
AAAMAAARWAAAWAAA	MEME-3	chr11	123015989	123016004	-	21.6848	4.37e-09	3.83e-05	AAAAAAAAAAAAAAAA
AAAMAAARWAAAWAAA	MEME-3	chr11	123015990	123016005	-	21.6848	4.37e-09	3.83e-05	AAAAAAAAAAAAAAAA
AAAMAAARWAAAWAAA	MEME-3	chr11	123015991	123016006	-	21.6848	4.37e-09	3.83e-05	AAAAAAAAAAAAAAAA
AAAMAAARWAAAWAAA	MEME-3	chr11	123015992	123016007	-	21.6848	4.37e-09	3.83e-05	AAAAAAAAAAAAAAAA
AAAMAAARWAAAWAAA	MEME-3	chr11	123015993	123016008	-	21.6848	4.37e-09	3.83e-05	AAAAAAAAAAAAAAAA
AAAMAAARWAAAWAAA	MEME-3	chr11	123015994	123016009	-	21.6848	4.37e-09	3.83e-05	AAAAAAAAAAAAAAAA
AAAMAAARWAAAWAAA	MEME-3	chr11	123015995	123016010	-	21.6848	4.37e-09	3.83e-05	AAAAAAAAAAAAAAAA
AAAMAAARWAAAWAAA	MEME-3	chr11	123015996	123016011	-	21.6848	4.37e-09	3.83e-05	AAAAAAAAAAAAAAAA
AAAMAAARWAAAWAAA	MEME-3	chr10	127258111	127258126	+	21.6848	4.37e-09	3.83e-05	aaaaaaaaaaaaaaaa
AAAMAAARWAAAWAAA	MEME-3	chr10	127258112	127258127	+	21.6848	4.37e-09	3.83e-05	aaaaaaaaaaaaaaaa
AAAMAAARWAAAWAAA	MEME-3	chr2	204408696	204408711	+	21.6848	4.37e-09	3.83e-05	aaaaaaaaaaaaaaaa
AAAMAAARWAAAWAAA	MEME-3	chr2	204408697	204408712	+	21.6848	4.37e-09	3.83e-05	aaaaaaaaaaaaaaaa
AAAMAAARWAAAWAAA	MEME-3	chr2	204408698	204408713	+	21.6848	4.37e-09	3.83e-05	aaaaaaaaaaaaaaaa
AAAMAAARWAAAWAAA	MEME-3	chr2	184673953	184673968	-	20.8152	2.12e-08	0.000182	AAACAAAGTAAATAAA
AAAMAAARWAAAWAAA	MEME-3	chr8	48454253	48454268	-	20.7283	2.27e-08	0.000182	AAAAAAAAAAAAGAAA
AAAMAAARWAAAWAAA	MEME-3	chr3	60945044	60945059	-	20.7283	2.27e-08	0.000182	AAAAAAAAAAAAGAAA
AAAMAAARWAAAWAAA	MEME-3	chr7	100995831	100995846	+	20.7283	2.27e-08	0.000182	aaaaaaaaaaaagaaa
AAAMAAARWAAAWAAA	MEME-3	chr8	121085012	121085027	+	20.7283	2.27e-08	0.000182	aaaaaaaaaaaagaaa
AAAMAAARWAAAWAAA	MEME-3	chr13	110651229	110651244	-	20.5652	2.74e-08	0.000216	AAAAAGAAAAAAAAAA
AAAMAAARWAAAWAAA	MEME-3	chr11	69329385	69329400	+	20.5217	2.98e-08	0.000223	aaaataaataaataaa
AAAMAAARWAAAWAAA	MEME-3	chr12	93480811	93480826	+	20.5217	2.98e-08	0.000223	aaaataaataaataaa
AAAMAAARWAAAWAAA	MEME-3	chr2	208693920	208693935	-	20.5217	2.98e-08	0.000223	AAAATAAATAAATAAA
AAAMAAARWAAAWAAA	MEME-3	chrX	143455821	143455836	-	20.4022	3.54e-08	0.000261	AAAAAAAGAAGATAAA
AAAMAAARWAAAWAAA	MEME-3	chr7	30387520	30387535	+	20.1739	4.55e-08	0.00029	aaaaaaaaaaaaaaaG
AAAMAAARWAAAWAAA	MEME-3	chr21	35816736	35816751	+	20.1739	4.55e-08	0.00029	aaaaaaaaaaaaaaaG
AAAMAAARWAAAWAAA	MEME-3	chr20	46927902	46927917	+	20.1739	4.55e-08	0.00029	AAAAAAAAAAAAAAAG
AAAMAAARWAAAWAAA	MEME-3	chr8	48454256	48454271	-	20.1739	4.55e-08	0.00029	AAAAAAAAAAAAAAAG
AAAMAAARWAAAWAAA	MEME-3	chr3	60945047	60945062	-	20.1739	4.55e-08	0.00029	AAAAAAAAAAAAAAAG
AAAMAAARWAAAWAAA	MEME-3	chr11	69329324	69329339	+	20.1739	4.55e-08	0.00029	aaaaaaaaaaaaaaag
AAAMAAARWAAAWAAA	MEME-3	chr13	100629653	100629668	-	20.1739	4.55e-08	0.00029	AAAAAAAAAAAAAAAG
AAAMAAARWAAAWAAA	MEME-3	chr7	100995828	100995843	+	20.1739	4.55e-08	0.00029	aaaaaaaaaaaaaaag
AAAMAAARWAAAWAAA	MEME-3	chr8	102516979	102516994	+	20.1739	4.55e-08	0.00029	AAAAAAAAAAAAAAAG
AAAMAAARWAAAWAAA	MEME-3	chr2	204408699	204408714	+	20.1739	4.55e-08	0.00029	aaaaaaaaaaaaaaaG
AAAMAAARWAAAWAAA	MEME-3	chr3	60945042	60945057	-	20	5.6e-08	0.000352	AAAAAAAAAAGAAAAA
AAAMAAARWAAAWAAA	MEME-3	chr11	71856291	71856306	+	19.4022	1.19e-07	0.000735	aaaaaaagaagaaaaa
AAAMAAARWAAAWAAA	MEME-3	chr11	71856286	71856301	+	19.2174	1.44e-07	0.000883	aaaaaaaaaaaagaag
AAAMAAARWAAAWAAA	MEME-3	chr1	27866558	27866573	+	18.9891	1.79e-07	0.00105	AAAAAAAAAAAAACAA
AAAMAAARWAAAWAAA	MEME-3	chr12	122934033	122934048	+	18.9891	1.79e-07	0.00105	aaaaaaaaaaaaacaa
AAAMAAARWAAAWAAA	MEME-3	chr2	197451314	197451329	+	18.9891	1.79e-07	0.00105	aaaaaaaaaaaaacaa
AAAMAAARWAAAWAAA	MEME-3	chr16	70779817	70779832	+	18.9565	1.84e-07	0.00107	AAACAAAAAAGATAAG
AAAMAAARWAAAWAAA	MEME-3	chr7	131312506	131312521	-	18.6739	2.52e-07	0.00144	AAAGTAAATAAATAAA
AAAMAAARWAAAWAAA	MEME-3	chr12	48297930	48297945	+	18.5978	2.7e-07	0.00148	aaaaaaaaaaaaaaaT
AAAMAAARWAAAWAAA	MEME-3	chr10	127258113	127258128	+	18.5978	2.7e-07	0.00148	aaaaaaaaaaaaaaat
AAAMAAARWAAAWAAA	MEME-3	chr8	17663697	17663712	-	18.5978	2.7e-07	0.00148	AAAAAAAAAAAAAAAT
AAAMAAARWAAAWAAA	MEME-3	chr18	45659596	45659611	-	18.5978	2.7e-07	0.00148	AAAAAAAAAAAAAAAT
AAAMAAARWAAAWAAA	MEME-3	chr7	101343838	101343853	-	18.5109	2.89e-07	0.00156	AAAATAAAATAAAAAA
AAAMAAARWAAAWAAA	MEME-3	chr12	48297915	48297930	+	18.413	3.2e-07	0.00171	aaagtaaaaaaaaaaa
AAAMAAARWAAAWAAA	MEME-3	chr13	74167526	74167541	+	18.3261	3.5e-07	0.00185	AAAAAGGAAAAATAAA
AAAMAAARWAAAWAAA	MEME-3	chr14	101874808	101874823	+	17.9457	4.96e-07	0.00259	AAACAAAAAAAATCAG
AAAMAAARWAAAWAAA	MEME-3	chr11	69329392	69329407	+	17.9348	5.02e-07	0.00259	ataaataaaaaataaG
AAAMAAARWAAAWAAA	MEME-3	chr7	30387514	30387529	+	17.7826	5.78e-07	0.00283	Taaaaaaaaaaaaaaa
AAAMAAARWAAAWAAA	MEME-3	chr12	48297919	48297934	+	17.7826	5.78e-07	0.00283	taaaaaaaaaaaaaaa
AAAMAAARWAAAWAAA	MEME-3	chr7	100995820	100995835	+	17.7826	5.78e-07	0.00283	taaaaaaaaaaaaaaa
AAAMAAARWAAAWAAA	MEME-3	chr8	48454257	48454272	-	17.7826	5.78e-07	0.00283	TAAAAAAAAAAAAAAA
AAAMAAARWAAAWAAA	MEME-3	chr3	60945050	60945065	-	17.7826	5.78e-07	0.00283	TAAAAAAAAAAAAAAA
AAAMAAARWAAAWAAA	MEME-3	chr12	48297911	48297926	+	17.7283	6.06e-07	0.00292	aagaaaagtaaaaaaa
AAAMAAARWAAAWAAA	MEME-3	chr3	73730018	73730033	-	17.7174	6.15e-07	0.00292	AAACAAAATAAAACAA
AAAMAAARWAAAWAAA	MEME-3	chrX	104413202	104413217	-	17.7174	6.15e-07	0.00292	ATAGAAAAAAAAAAAA
AAAMAAARWAAAWAAA	MEME-3	chr15	99343527	99343542	+	17.6848	6.4e-07	0.00299	ATTAAAAAAAAATAAA
AAAMAAARWAAAWAAA	MEME-3	chr11	9124801	9124816	+	17.663	6.5e-07	0.00299	aaaaaaaataaaataa
AAAMAAARWAAAWAAA	MEME-3	chr7	101343834	101343849	-	17.663	6.5e-07	0.00299	TAAAATAAAAAATAAA
AAAMAAARWAAAWAAA	MEME-3	chr11	123015982	123015997	-	17.4783	7.54e-07	0.00343	AAAAAAAAAAAAACAG
AAAMAAARWAAAWAAA	MEME-3	chr12	54372875	54372890	+	17.4457	7.76e-07	0.00348	AAAAAAAAAAAAGTAA
AAAMAAARWAAAWAAA	MEME-3	chr1	27866560	27866575	+	17.4348	7.85e-07	0.00348	AAAAAAAAAAACAAAA
AAAMAAARWAAAWAAA	MEME-3	chr2	197451316	197451331	+	17.4348	7.85e-07	0.00348	aaaaaaaaaaacaaaa
AAAMAAARWAAAWAAA	MEME-3	chr20	50366511	50366526	+	17.3913	8.09e-07	0.00355	ataataaaataaTAAA
AAAMAAARWAAAWAAA	MEME-3	chr17	65387162	65387177	+	17.3696	8.26e-07	0.00355	AAGAAAAAAAAATCAA
AAAMAAARWAAAWAAA	MEME-3	chrX	143455826	143455841	-	17.3696	8.26e-07	0.00355	AAAGAAAAAAAAGAAG
AAAMAAARWAAAWAAA	MEME-3	chrX	44809993	44810008	-	17.3261	8.57e-07	0.00366	AAAAAGGAAAAAAAAA
AAAMAAARWAAAWAAA	MEME-3	chr11	9124806	9124821	+	17.2826	8.97e-07	0.00379	aaataaaataaataaa
AAAMAAARWAAAWAAA	MEME-3	chr8	101017596	101017611	-	17.2391	9.28e-07	0.00389	AAACAATGAAGAAAAA
AAAMAAARWAAAWAAA	MEME-3	chrX	143455830	143455845	-	17.1196	1.03e-06	0.00426	ATAGAAAGAAAAAAAA
AAAMAAARWAAAWAAA	MEME-3	chr8	48454263	48454278	-	17.087	1.05e-06	0.00434	AAAGATTAAAAAAAAA
AAAMAAARWAAAWAAA	MEME-3	chr4	56264782	56264797	-	17.0543	1.08e-06	0.0044	AAAATTAGTTAATAAA
AAAMAAARWAAAWAAA	MEME-3	chr5	5335481	5335496	+	16.9891	1.13e-06	0.00454	AAAGTAAATAGATAAA
AAAMAAARWAAAWAAA	MEME-3	chr2	121095792	121095807	-	16.9891	1.13e-06	0.00454	AAGAAGAAAAAAGAAA
AAAMAAARWAAAWAAA	MEME-3	chr20	15843074	15843089	-	16.9348	1.18e-06	0.00471	AATAAGAAATAATAAA
AAAMAAARWAAAWAAA	MEME-3	chr8	48454251	48454266	-	16.913	1.21e-06	0.00472	AAAAAAAAAAGAAAAT
AAAMAAARWAAAWAAA	MEME-3	chr8	17663694	17663709	-	16.9022	1.22e-06	0.00472	AAAAAAAAAAAATCAT
AAAMAAARWAAAWAAA	MEME-3	chr2	39769562	39769577	-	16.8913	1.23e-06	0.00472	AAAAAAAAAAAAATAG
AAAMAAARWAAAWAAA	MEME-3	chr18	45659594	45659609	-	16.8913	1.23e-06	0.00472	AAAAAAAAAAAAATAG
AAAMAAARWAAAWAAA	MEME-3	chrX	143455817	143455832	-	16.8587	1.26e-06	0.00479	AAAGAAGATAAATAAA
AAAMAAARWAAAWAAA	MEME-3	chr8	121085018	121085033	+	16.7609	1.36e-06	0.0051	aaaaaagaaagaaaaa
AAAMAAARWAAAWAAA	MEME-3	chr17	57425007	57425022	-	16.7609	1.36e-06	0.0051	AAAAAAGAAAGAAAAA
AAAMAAARWAAAWAAA	MEME-3	chr11	69329388	69329403	+	16.6957	1.44e-06	0.00529	ataaataaataaaaaa
AAAMAAARWAAAWAAA	MEME-3	chr8	48454259	48454274	-	16.6848	1.45e-06	0.00529	ATTAAAAAAAAAAAAA
AAAMAAARWAAAWAAA	MEME-3	chr3	60945052	60945067	-	16.6848	1.45e-06	0.00529	ATTAAAAAAAAAAAAA
AAAMAAARWAAAWAAA	MEME-3	chr20	43359023	43359038	+	16.6196	1.53e-06	0.00529	taaataaataaataaa
AAAMAAARWAAAWAAA	MEME-3	chr20	43359027	43359042	+	16.6196	1.53e-06	0.00529	taaataaataaataaa
AAAMAAARWAAAWAAA	MEME-3	chr20	43359031	43359046	+	16.6196	1.53e-06	0.00529	taaataaataaataaa
AAAMAAARWAAAWAAA	MEME-3	chr20	43359035	43359050	+	16.6196	1.53e-06	0.00529	taaataaataaataaa
AAAMAAARWAAAWAAA	MEME-3	chr20	49039550	49039565	+	16.6196	1.53e-06	0.00529	taaataaataaataaa
AAAMAAARWAAAWAAA	MEME-3	chr15	90461161	90461176	-	16.6196	1.53e-06	0.00529	TAAATAAATAAATAAA
AAAMAAARWAAAWAAA	MEME-3	chr15	90461165	90461180	-	16.6196	1.53e-06	0.00529	TAAATAAATAAATAAA
AAAMAAARWAAAWAAA	MEME-3	chr7	74049847	74049862	+	16.5217	1.65e-06	0.0056	aaaaAAAAAAAAGCAG
AAAMAAARWAAAWAAA	MEME-3	chr8	48454262	48454277	-	16.5217	1.65e-06	0.0056	AAGATTAAAAAAAAAA
AAAMAAARWAAAWAAA	MEME-3	chr13	100629650	100629665	-	16.5217	1.65e-06	0.0056	AAAAAAAAAAAAGCAG
AAAMAAARWAAAWAAA	MEME-3	chr7	101343830	101343845	-	16.3587	1.85e-06	0.00622	ATAAAAAATAAAGAAG
AAAMAAARWAAAWAAA	MEME-3	chr8	55470950	55470965	-	16.3043	1.93e-06	0.00645	AAACAAAGAAACAAAA
AAAMAAARWAAAWAAA	MEME-3	chr7	74049844	74049859	+	16.2717	1.98e-06	0.00657	taaaaaaAAAAAAAAG
AAAMAAARWAAAWAAA	MEME-3	chr2	197451310	197451325	+	16.2391	2.03e-06	0.00669	aaccaaaaaaaaaaaa
AAAMAAARWAAAWAAA	MEME-3	chr11	39016007	39016022	+	16.2174	2.06e-06	0.0067	AAAAAATAATAATAAT
AAAMAAARWAAAWAAA	MEME-3	chr7	131312500	131312515	-	16.2174	2.06e-06	0.0067	AATAAATAAAAAGAAA
AAAMAAARWAAAWAAA	MEME-3	chr10	127258114	127258129	+	16.1739	2.14e-06	0.0068	aaaaaaaaaaaaaata
AAAMAAARWAAAWAAA	MEME-3	chr2	39769563	39769578	-	16.1739	2.14e-06	0.0068	AAAAAAAAAAAAAATA
AAAMAAARWAAAWAAA	MEME-3	chr18	45659595	45659610	-	16.1739	2.14e-06	0.0068	AAAAAAAAAAAAAATA
AAAMAAARWAAAWAAA	MEME-3	chr21	43783427	43783442	-	16.0435	2.35e-06	0.00743	AAAGTGAATAAATAAG
AAAMAAARWAAAWAAA	MEME-3	chr17	53510605	53510620	+	15.9891	2.45e-06	0.00769	AAGCTTAAAAAAAAAA
AAAMAAARWAAAWAAA	MEME-3	chr2	204408702	204408717	+	15.9348	2.54e-06	0.00786	aaaaaaaaaaaaGTAG
AAAMAAARWAAAWAAA	MEME-3	chr16	64511962	64511977	-	15.9348	2.54e-06	0.00786	AAAAATTATTAATAAG
AAAMAAARWAAAWAAA	MEME-3	chr6	7975587	7975602	+	15.8152	2.76e-06	0.00839	AACAAAAAAAAAGAAA
AAAMAAARWAAAWAAA	MEME-3	chr2	99099417	99099432	-	15.8043	2.78e-06	0.00839	AAAAAATGAAAAGCAA
AAAMAAARWAAAWAAA	MEME-3	chr20	46927872	46927887	+	15.7935	2.8e-06	0.00839	AAAATAAGATTATAAA
AAAMAAARWAAAWAAA	MEME-3	chr6	56593251	56593266	+	15.7935	2.8e-06	0.00839	aaaaataattaattaa
AAAMAAARWAAAWAAA	MEME-3	chr11	9587379	9587394	-	15.7935	2.8e-06	0.00839	ATACAAGAAAAAAAAA
AAAMAAARWAAAWAAA	MEME-3	chr9	130769182	130769197	-	15.7717	2.84e-06	0.00847	AAAATATATATATAAA
AAAMAAARWAAAWAAA	MEME-3	chr3	20085018	20085033	+	15.663	3.08e-06	0.00883	ttaaaaaaaaaaaaaa
AAAMAAARWAAAWAAA	MEME-3	chr7	30387513	30387528	+	15.663	3.08e-06	0.00883	TTaaaaaaaaaaaaaa
AAAMAAARWAAAWAAA	MEME-3	chr7	74049843	74049858	+	15.663	3.08e-06	0.00883	ttaaaaaaAAAAAAAA
AAAMAAARWAAAWAAA	MEME-3	chr2	39769565	39769580	-	15.663	3.08e-06	0.00883	TTAAAAAAAAAAAAAA
AAAMAAARWAAAWAAA	MEME-3	chr8	48454258	48454273	-	15.663	3.08e-06	0.00883	TTAAAAAAAAAAAAAA
AAAMAAARWAAAWAAA	MEME-3	chr3	60945051	60945066	-	15.663	3.08e-06	0.00883	TTAAAAAAAAAAAAAA
AAAMAAARWAAAWAAA	MEME-3	chr3	73730008	73730023	-	15.6196	3.17e-06	0.00903	AAACAAAATAAAATAG
AAAMAAARWAAAWAAA	MEME-3	chr11	69329384	69329399	+	15.5326	3.37e-06	0.00944	aaaaataaataaataa
AAAMAAARWAAAWAAA	MEME-3	chr12	93480810	93480825	+	15.5326	3.37e-06	0.00944	aaaaataaataaataa
AAAMAAARWAAAWAAA	MEME-3	chr2	208693921	208693936	-	15.5326	3.37e-06	0.00944	AAAAATAAATAAATAA
AAAMAAARWAAAWAAA	MEME-3	chr12	32339837	32339852	+	15.5	3.45e-06	0.0096	taaattaataaataaa
AAAMAAARWAAAWAAA	MEME-3	chr7	27824073	27824088	-	15.4565	3.55e-06	0.00981	AAAATGAGAAAAAAAT
AAAMAAARWAAAWAAA	MEME-3	chr20	50366503	50366518	+	15.4022	3.68e-06	0.0101	taaaaataataataaa
AAAMAAARWAAAWAAA	MEME-3	chr4	164225453	164225468	-	15.337	3.83e-06	0.0105	AAAATATGAAAAACAA
AAAMAAARWAAAWAAA	MEME-3	chrX	22135650	22135665	-	15.3152	3.89e-06	0.0106	AAACTGAGAAAAACAA
AAAMAAARWAAAWAAA	MEME-3	chr10	33587491	33587506	-	15.2717	4.01e-06	0.0108	AAACTAAGTATAAAAA
AAAMAAARWAAAWAAA	MEME-3	chr11	9124805	9124820	+	15.2283	4.12e-06	0.0111	aaaataaaataaataa
AAAMAAARWAAAWAAA	MEME-3	chr2	205204558	205204573	+	15.2065	4.18e-06	0.0112	ataaatagaagagaaa
AAAMAAARWAAAWAAA	MEME-3	chr4	44159849	44159864	+	15.1304	4.41e-06	0.0117	AAGCAGAGAAGAAAAA
AAAMAAARWAAAWAAA	MEME-3	chr20	50366497	50366512	+	15.087	4.54e-06	0.012	aataaataaaaataat
AAAMAAARWAAAWAAA	MEME-3	chrX	132431418	132431433	-	15.0761	4.57e-06	0.012	AAACATAATTAAGAAG
AAAMAAARWAAAWAAA	MEME-3	chrX	122936940	122936955	-	15.0652	4.61e-06	0.012	TTAAAAAGAAAAAAAA
AAAMAAARWAAAWAAA	MEME-3	chr2	208133683	208133698	+	14.9783	4.88e-06	0.0127	AAAGTAAATAAAACAA
AAAMAAARWAAAWAAA	MEME-3	chr2	161086249	161086264	+	14.9022	5.12e-06	0.0132	AAAAATTGATGAAAAA
AAAMAAARWAAAWAAA	MEME-3	chr15	63753988	63754003	+	14.8913	5.16e-06	0.0133	aaactaaaataaaaat
AAAMAAARWAAAWAAA	MEME-3	chr17	57425003	57425018	-	14.8696	5.22e-06	0.0133	AAGAAAGAAAAAGAAA
AAAMAAARWAAAWAAA	MEME-3	chr8	121085022	121085037	+	14.8696	5.22e-06	0.0133	aagaaagaaaaagaaa
AAAMAAARWAAAWAAA	MEME-3	chr1	168721424	168721439	-	14.8478	5.29e-06	0.0134	TAACAGAGAAGATAAA
AAAMAAARWAAAWAAA	MEME-3	chr11	9124808	9124823	+	14.8152	5.4e-06	0.0135	ataaaataaataaaaa
AAAMAAARWAAAWAAA	MEME-3	chr12	64994167	64994182	-	14.8152	5.4e-06	0.0135	AAGAAAAAAAACAAAA
AAAMAAARWAAAWAAA	MEME-3	chr2	114564221	114564236	-	14.7826	5.51e-06	0.0137	AAAGAATGTAAATAAT
AAAMAAARWAAAWAAA	MEME-3	chr11	19629279	19629294	-	14.7391	5.66e-06	0.014	AAGAATAATAAAGAAG
AAAMAAARWAAAWAAA	MEME-3	chr3	20085019	20085034	+	14.6957	5.81e-06	0.0142	taaaaaaaaaaaaaat
AAAMAAARWAAAWAAA	MEME-3	chr2	39769564	39769579	-	14.6957	5.81e-06	0.0142	TAAAAAAAAAAAAAAT
AAAMAAARWAAAWAAA	MEME-3	chr6	96644449	96644464	+	14.6739	5.9e-06	0.0143	AATGAAAGAAGAAAAA
AAAMAAARWAAAWAAA	MEME-3	chr13	33693897	33693912	+	14.663	5.94e-06	0.0144	AAAAAGAATAAAGCAG
AAAMAAARWAAAWAAA	MEME-3	chr7	101343835	101343850	-	14.6522	5.98e-06	0.0144	ATAAAATAAAAAATAA
AAAMAAARWAAAWAAA	MEME-3	chr17	76743002	76743017	+	14.6413	6.02e-06	0.0144	aaataataataataaa
AAAMAAARWAAAWAAA	MEME-3	chr18	45659600	45659615	-	14.6304	6.06e-06	0.0145	TAGCAAAAAAAAAAAA
AAAMAAARWAAAWAAA	MEME-3	chr10	32250332	32250347	+	14.6087	6.15e-06	0.0146	aaaaaaagaagaatag
AAAMAAARWAAAWAAA	MEME-3	chr13	110651230	110651245	-	14.5435	6.42e-06	0.0151	TAAAAAGAAAAAAAAA
AAAMAAARWAAAWAAA	MEME-3	chr8	119890457	119890472	-	14.4783	6.69e-06	0.0157	AACCTAAGTAAATAAA
AAAMAAARWAAAWAAA	MEME-3	chr14	88934529	88934544	+	14.4565	6.78e-06	0.0158	aaacaaaattaaacag
AAAMAAARWAAAWAAA	MEME-3	chr11	10416221	10416236	-	14.4348	6.86e-06	0.0159	AAAGAATGTTGATAAA
AAAMAAARWAAAWAAA	MEME-3	chr7	30387509	30387524	+	14.413	6.95e-06	0.0161	AATGTTaaaaaaaaaa
AAAMAAARWAAAWAAA	MEME-3	chr12	48297916	48297931	+	14.4022	7.01e-06	0.0161	aagtaaaaaaaaaaaa
AAAMAAARWAAAWAAA	MEME-3	chr7	101343849	101343864	-	14.3587	7.19e-06	0.0165	AAAAATAAAATAAAAT
AAAMAAARWAAAWAAA	MEME-3	chr20	49262231	49262246	-	14.2935	7.48e-06	0.017	AAGATGTGAAAAAAAA
AAAMAAARWAAAWAAA	MEME-3	chr17	60501797	60501812	-	14.2391	7.7e-06	0.0175	AAACTATATATAAAAA
AAAMAAARWAAAWAAA	MEME-3	chr10	117469752	117469767	+	14.2065	7.86e-06	0.0177	ATAATAAATAGAAAAG
AAAMAAARWAAAWAAA	MEME-3	chr3	42538337	42538352	-	14.163	8.06e-06	0.018	AACCAGAAAAAAGAAA
AAAMAAARWAAAWAAA	MEME-3	chr7	27824166	27824181	+	14.163	8.06e-06	0.018	AATGTATATAAATAAA
AAAMAAARWAAAWAAA	MEME-3	chr17	53510609	53510624	+	14.1522	8.12e-06	0.0181	TTAAAAAAAAAAAAAG
AAAMAAARWAAAWAAA	MEME-3	chr2	208693918	208693933	-	14.0543	8.6e-06	0.0188	AATAAATAAATAAAAA
AAAMAAARWAAAWAAA	MEME-3	chr11	69329387	69329402	+	14.0543	8.6e-06	0.0188	aataaataaataaaaa
AAAMAAARWAAAWAAA	MEME-3	chr10	33587482	33587497	-	14.0217	8.78e-06	0.0188	ATAAAAAGATGAAAAG
AAAMAAARWAAAWAAA	MEME-3	chr3	100314620	100314635	-	14.0109	8.83e-06	0.0188	AAACAAAGATAAATAG
AAAMAAARWAAAWAAA	MEME-3	chr2	201508626	201508641	-	14.0109	8.83e-06	0.0188	AAACAAAGATAAATAG
AAAMAAARWAAAWAAA	MEME-3	chr20	50338662	50338677	+	14.0109	8.83e-06	0.0188	aaacaaagataaatag
AAAMAAARWAAAWAAA	MEME-3	chr20	50366495	50366510	+	14.0109	8.83e-06	0.0188	aaaataaataaaaata
AAAMAAARWAAAWAAA	MEME-3	chr15	50507865	50507880	+	14.0109	8.83e-06	0.0188	aaacaaagataaatag
AAAMAAARWAAAWAAA	MEME-3	chr3	148179904	148179919	+	14.0109	8.83e-06	0.0188	aaacaaagataaatag
AAAMAAARWAAAWAAA	MEME-3	chr3	163566932	163566947	+	14.0109	8.83e-06	0.0188	aaacaaagataaatag
AAAMAAARWAAAWAAA	MEME-3	chr11	39016004	39016019	+	13.9457	9.17e-06	0.0194	TAAAAAAAATAATAAT
AAAMAAARWAAAWAAA	MEME-3	chr3	53552842	53552857	-	13.9022	9.41e-06	0.0196	AAGAAAAAAAAAGCAG
AAAMAAARWAAAWAAA	MEME-3	chr6	96644454	96644469	+	13.9022	9.41e-06	0.0196	AAGAAGAAAAAAGAAT
AAAMAAARWAAAWAAA	MEME-3	chr13	53383681	53383696	-	13.8913	9.48e-06	0.0196	TAAATGAGATAATAAA
AAAMAAARWAAAWAAA	MEME-3	chr3	20085022	20085037	+	13.8913	9.48e-06	0.0196	aaaaaaaaaaaattta
AAAMAAARWAAAWAAA	MEME-3	chr11	69329391	69329406	+	13.8913	9.48e-06	0.0196	aataaataaaaaataa
AAAMAAARWAAAWAAA	MEME-3	chr12	123095258	123095273	-	13.837	9.77e-06	0.0201	AAGCATGGTAAATAAA
AAAMAAARWAAAWAAA	MEME-3	chr13	97126445	97126460	+	13.7826	1.01e-05	0.0207	AATGTTTAAAAATAAA
AAAMAAARWAAAWAAA	MEME-3	chr3	73730026	73730041	-	13.6848	1.06e-05	0.0217	ATAAAATAAAACAAAA
AAAMAAARWAAAWAAA	MEME-3	chr20	50366507	50366522	+	13.663	1.08e-05	0.0219	aataataataaaataa
AAAMAAARWAAAWAAA	MEME-3	chrX	104413201	104413216	-	13.6522	1.08e-05	0.0219	TAGAAAAAAAAAAAAG
AAAMAAARWAAAWAAA	MEME-3	chr18	45659646	45659661	+	13.587	1.12e-05	0.0226	AAACAAAAATTAACAA
AAAMAAARWAAAWAAA	MEME-3	chr11	69469658	69469673	+	13.5761	1.13e-05	0.0227	TAGGAAAATAAATAAA
AAAMAAARWAAAWAAA	MEME-3	chr7	101343839	101343854	-	13.5435	1.15e-05	0.023	TAAAATAAAATAAAAA
AAAMAAARWAAAWAAA	MEME-3	chr1	3571295	3571310	-	13.4457	1.22e-05	0.0242	ATAAATAAATACTAAA
AAAMAAARWAAAWAAA	MEME-3	chr15	90461162	90461177	-	13.413	1.24e-05	0.0242	ATAAATAAATAAATAA
AAAMAAARWAAAWAAA	MEME-3	chr20	43359026	43359041	+	13.413	1.24e-05	0.0242	ataaataaataaataa
AAAMAAARWAAAWAAA	MEME-3	chr20	43359030	43359045	+	13.413	1.24e-05	0.0242	ataaataaataaataa
AAAMAAARWAAAWAAA	MEME-3	chr20	43359034	43359049	+	13.413	1.24e-05	0.0242	ataaataaataaataa
AAAMAAARWAAAWAAA	MEME-3	chr4	186558552	186558567	-	13.3152	1.31e-05	0.0253	AAAGAAAAATGAAAAT
AAAMAAARWAAAWAAA	MEME-3	chr8	102516974	102516989	+	13.3152	1.31e-05	0.0253	TAGGAAAAAAAAAAAA
AAAMAAARWAAAWAAA	MEME-3	chr3	64486956	64486971	+	13.2391	1.36e-05	0.0263	ATGCTTTAAAAATAAA
AAAMAAARWAAAWAAA	MEME-3	chr7	101343837	101343852	-	13.1957	1.4e-05	0.0268	AAATAAAATAAAAAAT
AAAMAAARWAAAWAAA	MEME-3	chr20	50366500	50366515	+	13.1848	1.4e-05	0.0269	aaataaaaataataat
AAAMAAARWAAAWAAA	MEME-3	chr1	169042850	169042865	+	13.163	1.42e-05	0.027	ATACATAGAAGAGAAG
AAAMAAARWAAAWAAA	MEME-3	chr11	17042831	17042846	-	13.1196	1.45e-05	0.0276	TAAATGAAAATATAAA
AAAMAAARWAAAWAAA	MEME-3	chr7	52900558	52900573	+	13.0978	1.47e-05	0.0276	ATAAATTGAATAAAAA
AAAMAAARWAAAWAAA	MEME-3	chr3	60945114	60945129	-	13.087	1.48e-05	0.0276	AAAAAGAAATGAGAAT
AAAMAAARWAAAWAAA	MEME-3	chr3	20085020	20085035	+	13.087	1.48e-05	0.0276	aaaaaaaaaaaaaatt
AAAMAAARWAAAWAAA	MEME-3	chr12	48297931	48297946	+	13.087	1.48e-05	0.0276	aaaaaaaaaaaaaaTT
AAAMAAARWAAAWAAA	MEME-3	chr1	217730000	217730015	+	13.0761	1.49e-05	0.0276	aaaatagataaatcag
AAAMAAARWAAAWAAA	MEME-3	chr3	32625375	32625390	-	13.0652	1.5e-05	0.0276	AATAATAGTAAAATAA
AAAMAAARWAAAWAAA	MEME-3	chr7	30387505	30387520	+	13.0652	1.5e-05	0.0276	TAAAAATGTTaaaaaa
AAAMAAARWAAAWAAA	MEME-3	chr3	32625371	32625386	-	13.0326	1.52e-05	0.0278	ATAGTAAAATAAAAAG
AAAMAAARWAAAWAAA	MEME-3	chrX	122936939	122936954	-	13.0326	1.52e-05	0.0278	TAAAAAGAAAAAAAAG
AAAMAAARWAAAWAAA	MEME-3	chr9	77463378	77463393	-	13.0109	1.54e-05	0.0278	AAAGATTAAATAGAAA
AAAMAAARWAAAWAAA	MEME-3	chr7	101343842	101343857	-	13	1.55e-05	0.0278	AAATAAAATAAAATAA
AAAMAAARWAAAWAAA	MEME-3	chr7	101343843	101343858	-	13	1.55e-05	0.0278	AAAATAAAATAAAATA
AAAMAAARWAAAWAAA	MEME-3	chr7	101343847	101343862	-	13	1.55e-05	0.0278	AAATAAAATAAAATAA
AAAMAAARWAAAWAAA	MEME-3	chr7	101343848	101343863	-	13	1.55e-05	0.0278	AAAATAAAATAAAATA
AAAMAAARWAAAWAAA	MEME-3	chr1	27866553	27866568	+	12.9783	1.57e-05	0.028	AAGTTAAAAAAAAAAA
AAAMAAARWAAAWAAA	MEME-3	chr5	131721276	131721291	+	12.9457	1.59e-05	0.0284	AAGCATAGATTATAAA
AAAMAAARWAAAWAAA	MEME-3	chr2	208133727	208133742	-	12.913	1.62e-05	0.0287	ATGCTTAAAAAAGAAA
AAAMAAARWAAAWAAA	MEME-3	chr15	99343530	99343545	+	12.913	1.62e-05	0.0287	AAAAAAAAATAAAATG
AAAMAAARWAAAWAAA	MEME-3	chr12	48297932	48297947	+	12.8913	1.64e-05	0.0289	aaaaaaaaaaaaaTTA
AAAMAAARWAAAWAAA	MEME-3	chrX	52963699	52963714	+	12.8587	1.67e-05	0.0293	AAGGAGGAAAAAAAAA
AAAMAAARWAAAWAAA	MEME-3	chr2	85224084	85224099	-	12.8152	1.71e-05	0.0298	AAAATGGAAAAAAAAT
AAAMAAARWAAAWAAA	MEME-3	chr3	20085017	20085032	+	12.7826	1.74e-05	0.0302	tttaaaaaaaaaaaaa
AAAMAAARWAAAWAAA	MEME-3	chr3	65565997	65566012	+	12.7826	1.74e-05	0.0302	AATAAAAAAAAATATG
AAAMAAARWAAAWAAA	MEME-3	chr19	28916202	28916217	-	12.7283	1.79e-05	0.0309	AAAGAAAATAAAATAT
AAAMAAARWAAAWAAA	MEME-3	chr8	119890682	119890697	-	12.7065	1.81e-05	0.0311	AAATAATGAAAATAAT
AAAMAAARWAAAWAAA	MEME-3	chr3	174987903	174987918	-	12.6957	1.82e-05	0.0312	AAATATAAAAAATCAG
AAAMAAARWAAAWAAA	MEME-3	chr1	27866559	27866574	+	12.6739	1.84e-05	0.0313	AAAAAAAAAAAACAAA
AAAMAAARWAAAWAAA	MEME-3	chr2	197451315	197451330	+	12.6739	1.84e-05	0.0313	aaaaaaaaaaaacaaa
AAAMAAARWAAAWAAA	MEME-3	chr12	48297937	48297952	+	12.663	1.85e-05	0.0313	aaaaaaaaTTACTTAA
AAAMAAARWAAAWAAA	MEME-3	chr12	93480813	93480828	+	12.5435	1.96e-05	0.0331	aataaataaataaaag
AAAMAAARWAAAWAAA	MEME-3	chr11	9124802	9124817	+	12.5326	1.97e-05	0.0331	aaaaaaataaaataaa
AAAMAAARWAAAWAAA	MEME-3	chr11	69329389	69329404	+	12.5326	1.97e-05	0.0331	taaataaataaaaaat
AAAMAAARWAAAWAAA	MEME-3	chr3	31198623	31198638	+	12.4457	2.06e-05	0.0345	aagaaaagaaaatatg
AAAMAAARWAAAWAAA	MEME-3	chr11	131566675	131566690	+	12.413	2.1e-05	0.0349	TAACTTAGAAAATCAA
AAAMAAARWAAAWAAA	MEME-3	chr10	74003875	74003890	-	12.3696	2.14e-05	0.0356	TAAATAAATAACTAAA
AAAMAAARWAAAWAAA	MEME-3	chr13	48630307	48630322	-	12.3261	2.19e-05	0.036	AAGAAATGAAAATATA
AAAMAAARWAAAWAAA	MEME-3	chr3	174987906	174987921	-	12.3261	2.19e-05	0.036	TAAAAATATAAAAAAT
AAAMAAARWAAAWAAA	MEME-3	chr12	76017880	76017895	+	12.3261	2.19e-05	0.036	aaggtgagataaaaaa
AAAMAAARWAAAWAAA	MEME-3	chr3	78662412	78662427	+	12.3043	2.21e-05	0.0362	ATAAAGTATAGATAAT
AAAMAAARWAAAWAAA	MEME-3	chr2	39769569	39769584	-	12.2935	2.22e-05	0.0362	ATTGTTAAAAAAAAAA
AAAMAAARWAAAWAAA	MEME-3	chr16	54205820	54205835	+	12.2935	2.22e-05	0.0362	AAGGAAGAAAGAAAAA
AAAMAAARWAAAWAAA	MEME-3	chr5	145360972	145360987	-	12.2609	2.26e-05	0.0367	AAAAATAATTTAACAA
AAAMAAARWAAAWAAA	MEME-3	chr1	169042835	169042850	+	12.2283	2.3e-05	0.0371	AAAATATAAATAATAA
AAAMAAARWAAAWAAA	MEME-3	chr10	19501348	19501363	-	12.1739	2.36e-05	0.038	AAACTTTGAAAAACAG
AAAMAAARWAAAWAAA	MEME-3	chr5	166025472	166025487	-	12.1087	2.44e-05	0.0391	TAACAGAATAAAATAA
AAAMAAARWAAAWAAA	MEME-3	chr1	169042836	169042851	+	12.0652	2.49e-05	0.0397	AAATATAAATAATAAT
AAAMAAARWAAAWAAA	MEME-3	chr7	41188326	41188341	+	12.0435	2.51e-05	0.04	AAACAAAACAAATAAA
AAAMAAARWAAAWAAA	MEME-3	chr4	164225451	164225466	-	12.0109	2.55e-05	0.0405	AATATGAAAAACAAAA
AAAMAAARWAAAWAAA	MEME-3	chr4	2331781	2331796	+	11.9891	2.58e-05	0.0408	aaCATGGAAAAATAAA
AAAMAAARWAAAWAAA	MEME-3	chr3	171847864	171847879	-	11.9783	2.59e-05	0.0409	AAGCAGAGATAAAAAT
AAAMAAARWAAAWAAA	MEME-3	chr5	16815460	16815475	-	11.9674	2.61e-05	0.0409	AATAAATGTTTATAAA
AAAMAAARWAAAWAAA	MEME-3	chr11	9124804	9124819	+	11.9348	2.65e-05	0.0413	aaaaataaaataaata
AAAMAAARWAAAWAAA	MEME-3	chr10	127258116	127258131	+	11.9348	2.65e-05	0.0413	aaaaaaaaaaaataca
AAAMAAARWAAAWAAA	MEME-3	chr13	48630310	48630325	-	11.9239	2.66e-05	0.0414	ATAAAGAAATGAAAAT
AAAMAAARWAAAWAAA	MEME-3	chrX	122936945	122936960	-	11.8913	2.7e-05	0.0419	AAATTTTAAAAAGAAA
AAAMAAARWAAAWAAA	MEME-3	chr4	56264883	56264898	+	11.8804	2.72e-05	0.042	AACCAGGAAAAAAAAA
AAAMAAARWAAAWAAA	MEME-3	chr6	16832113	16832128	+	11.8478	2.76e-05	0.0425	aaggagaaaaacaaaa
AAAMAAARWAAAWAAA	MEME-3	chr9	130769102	130769117	+	11.837	2.78e-05	0.0426	atacagagaagattag
AAAMAAARWAAAWAAA	MEME-3	chr11	9587378	9587393	-	11.75	2.89e-05	0.0442	TACAAGAAAAAAAAAA
AAAMAAARWAAAWAAA	MEME-3	chr20	58628261	58628276	+	11.6848	2.98e-05	0.0454	AAAGAGGAAAAATTAG
AAAMAAARWAAAWAAA	MEME-3	chr8	55470854	55470869	+	11.6739	3e-05	0.0455	AAATAATGAATAAAAA
AAAMAAARWAAAWAAA	MEME-3	chr7	74049810	74049825	+	11.6413	3.04e-05	0.0461	attctgtgtaaataaa
AAAMAAARWAAAWAAA	MEME-3	chr12	44919828	44919843	+	11.6196	3.07e-05	0.0463	aaaaaaaaaatcacaa
AAAMAAARWAAAWAAA	MEME-3	chr1	27866563	27866578	+	11.5761	3.13e-05	0.0469	AAAAAAAACAAAAAAA
AAAMAAARWAAAWAAA	MEME-3	chr15	99343529	99343544	+	11.5761	3.13e-05	0.0469	TAAAAAAAAATAAAAT
AAAMAAARWAAAWAAA	MEME-3	chr2	197451319	197451334	+	11.5761	3.13e-05	0.0469	aaaaaaaacaaaaaaa
AAAMAAARWAAAWAAA	MEME-3	chr2	197451320	197451335	+	11.5326	3.2e-05	0.0476	aaaaaaacaaaaaaaa
AAAMAAARWAAAWAAA	MEME-3	chr5	144822122	144822137	+	11.5217	3.21e-05	0.0477	atacagagataagaat
AAAMAAARWAAAWAAA	MEME-3	chr9	130769169	130769184	-	11.4891	3.26e-05	0.0483	AAAATAAAATAAAATG
AAAMAAARWAAAWAAA	MEME-3	chr10	127258119	127258134	+	11.4783	3.28e-05	0.0484	aaaaaaaaatacacag
AAAMAAARWAAAWAAA	MEME-3	chr8	18858462	18858477	-	11.4348	3.34e-05	0.049	TATCTAAAAAAAAAAG
AAAMAAARWAAAWAAA	MEME-3	chr2	208693922	208693937	-	11.4239	3.36e-05	0.049	AAAAAATAAATAAATA
AAAMAAARWAAAWAAA	MEME-3	chr11	69329383	69329398	+	11.4239	3.36e-05	0.049	aaaaaataaataaata
AAAMAAARWAAAWAAA	MEME-3	chr12	93480809	93480824	+	11.4239	3.36e-05	0.049	aaaaaataaataaata
AAAMAAARWAAAWAAA	MEME-3	chr7	100995833	100995848	+	11.4022	3.39e-05	0.0492	aaaaaaaaaagaaatt
AAAMAAARWAAAWAAA	MEME-3	chr11	123015984	123015999	-	11.3913	3.41e-05	0.0492	AAAAAAAAAAAAAAAC
AAAMAAARWAAAWAAA	MEME-3	chr2	197451321	197451336	+	11.3913	3.41e-05	0.0492	aaaaaacaaaaaaaaa
AAAMAAARWAAAWAAA	MEME-3	chrX	24171102	24171117	-	11.3804	3.43e-05	0.0493	ATACAAAGAAGATTAT
AAAMAAARWAAAWAAA	MEME-3	chr1	27866561	27866576	+	11.3587	3.46e-05	0.0495	AAAAAAAAAACAAAAA
AAAMAAARWAAAWAAA	MEME-3	chr2	197451317	197451332	+	11.3587	3.46e-05	0.0495	aaaaaaaaaacaaaaa
AAAMAAARWAAAWAAA	MEME-3	chr8	129164775	129164790	-	11.2935	3.57e-05	0.0505	TTAAAAAGAAGATAAT
AAAMAAARWAAAWAAA	MEME-3	chr8	125150414	125150429	+	11.2935	3.57e-05	0.0505	ttacaaggaaaaaaaa
AAAMAAARWAAAWAAA	MEME-3	chr7	30387525	30387540	+	11.2826	3.58e-05	0.0505	aaaaaaaaaaGATCTG
AAAMAAARWAAAWAAA	MEME-3	chr20	50366510	50366525	+	11.2826	3.58e-05	0.0505	aataataaaataaTAA
AAAMAAARWAAAWAAA	MEME-3	chr1	27866562	27866577	+	11.2717	3.6e-05	0.0505	AAAAAAAAACAAAAAA
AAAMAAARWAAAWAAA	MEME-3	chr2	197451318	197451333	+	11.2717	3.6e-05	0.0505	aaaaaaaaacaaaaaa
AAAMAAARWAAAWAAA	MEME-3	chr3	25623894	25623909	-	11.2609	3.62e-05	0.0505	AAGAAGGATTAAGAAA
AAAMAAARWAAAWAAA	MEME-3	chr2	208693924	208693939	-	11.25	3.64e-05	0.0505	CAAAAAAATAAATAAA
AAAMAAARWAAAWAAA	MEME-3	chr6	56593255	56593270	+	11.25	3.64e-05	0.0505	ataattaattaaataa
AAAMAAARWAAAWAAA	MEME-3	chr11	69329381	69329396	+	11.25	3.64e-05	0.0505	Caaaaaaataaataaa
AAAMAAARWAAAWAAA	MEME-3	chr11	63332575	63332590	+	11.2283	3.67e-05	0.0507	TAAAAGGAAAGATAAG
AAAMAAARWAAAWAAA	MEME-3	chr6	8083510	8083525	+	11.2174	3.69e-05	0.0507	AAAAATAAATAATATT
AAAMAAARWAAAWAAA	MEME-3	chr8	48454254	48454269	-	11.1957	3.73e-05	0.0507	AAAAAAAAAAAAAGAA
AAAMAAARWAAAWAAA	MEME-3	chr3	60945045	60945060	-	11.1957	3.73e-05	0.0507	AAAAAAAAAAAAAGAA
AAAMAAARWAAAWAAA	MEME-3	chr11	71856285	71856300	+	11.1957	3.73e-05	0.0507	aaaaaaaaaaaaagaa
AAAMAAARWAAAWAAA	MEME-3	chr7	100995830	100995845	+	11.1957	3.73e-05	0.0507	aaaaaaaaaaaaagaa
AAAMAAARWAAAWAAA	MEME-3	chr8	55470855	55470870	+	11.1848	3.75e-05	0.0507	AATAATGAATAAAAAG
AAAMAAARWAAAWAAA	MEME-3	chr6	16832326	16832341	-	11.1739	3.77e-05	0.0507	AAACAGTAATGATTAG
AAAMAAARWAAAWAAA	MEME-3	chrX	23815601	23815616	-	11.1739	3.77e-05	0.0507	TAGAAAGAATAATAAA
AAAMAAARWAAAWAAA	MEME-3	chrX	24171013	24171028	-	11.1739	3.77e-05	0.0507	AATGTGGAAAAAAAAA
AAAMAAARWAAAWAAA	MEME-3	chr14	44786022	44786037	+	11.163	3.78e-05	0.0508	attcataaattataaa
AAAMAAARWAAAWAAA	MEME-3	chr14	38654692	38654707	+	11.1087	3.87e-05	0.0519	aagataaaataatcat
AAAMAAARWAAAWAAA	MEME-3	chr4	44159787	44159802	+	11.0978	3.89e-05	0.052	AAAGAGAGAAAAAATG
AAAMAAARWAAAWAAA	MEME-3	chrX	24171150	24171165	-	11.0761	3.93e-05	0.0524	TAAGAGTGAAAAAAAG
AAAMAAARWAAAWAAA	MEME-3	chr8	17663698	17663713	-	10.9891	4.08e-05	0.0525	CAAAAAAAAAAAAAAA
AAAMAAARWAAAWAAA	MEME-3	chr18	45659597	45659612	-	10.9891	4.08e-05	0.0525	CAAAAAAAAAAAAAAA
AAAMAAARWAAAWAAA	MEME-3	chr12	52672151	52672166	-	10.9891	4.08e-05	0.0525	CAAAAAAAAAAAAAAA
AAAMAAARWAAAWAAA	MEME-3	chr13	100629657	100629672	-	10.9891	4.08e-05	0.0525	CAAAAAAAAAAAAAAA
AAAMAAARWAAAWAAA	MEME-3	chr11	123015997	123016012	-	10.9891	4.08e-05	0.0525	CAAAAAAAAAAAAAAA
AAAMAAARWAAAWAAA	MEME-3	chr21	35816733	35816748	+	10.9891	4.08e-05	0.0525	caaaaaaaaaaaaaaa
AAAMAAARWAAAWAAA	MEME-3	chr20	46927899	46927914	+	10.9891	4.08e-05	0.0525	CAAAAAAAAAAAAAAA
AAAMAAARWAAAWAAA	MEME-3	chr11	69329321	69329336	+	10.9891	4.08e-05	0.0525	caaaaaaaaaaaaaaa
AAAMAAARWAAAWAAA	MEME-3	chr8	102516977	102516992	+	10.9891	4.08e-05	0.0525	GAAAAAAAAAAAAAAA
AAAMAAARWAAAWAAA	MEME-3	chr10	127258110	127258125	+	10.9891	4.08e-05	0.0525	caaaaaaaaaaaaaaa
AAAMAAARWAAAWAAA	MEME-3	chr2	204408695	204408710	+	10.9891	4.08e-05	0.0525	caaaaaaaaaaaaaaa
AAAMAAARWAAAWAAA	MEME-3	chr21	43783456	43783471	-	10.9783	4.1e-05	0.0525	AAAATTTAATAATCAT
AAAMAAARWAAAWAAA	MEME-3	chr8	48454252	48454267	-	10.9565	4.14e-05	0.0525	AAAAAAAAAAAGAAAA
AAAMAAARWAAAWAAA	MEME-3	chr3	60945043	60945058	-	10.9565	4.14e-05	0.0525	AAAAAAAAAAAGAAAA
AAAMAAARWAAAWAAA	MEME-3	chr8	48454255	48454270	-	10.9348	4.18e-05	0.0525	AAAAAAAAAAAAAAGA
AAAMAAARWAAAWAAA	MEME-3	chr3	60945046	60945061	-	10.9348	4.18e-05	0.0525	AAAAAAAAAAAAAAGA
AAAMAAARWAAAWAAA	MEME-3	chr11	123015983	123015998	-	10.9348	4.18e-05	0.0525	AAAAAAAAAAAAAACA
AAAMAAARWAAAWAAA	MEME-3	chr7	30387521	30387536	+	10.9348	4.18e-05	0.0525	aaaaaaaaaaaaaaGA
AAAMAAARWAAAWAAA	MEME-3	chr11	69329325	69329340	+	10.9348	4.18e-05	0.0525	aaaaaaaaaaaaaaga
AAAMAAARWAAAWAAA	MEME-3	chr7	100995829	100995844	+	10.9348	4.18e-05	0.0525	aaaaaaaaaaaaaaga
AAAMAAARWAAAWAAA	MEME-3	chr8	102516980	102516995	+	10.9348	4.18e-05	0.0525	AAAAAAAAAAAAAAGA
AAAMAAARWAAAWAAA	MEME-3	chr20	15843089	15843104	-	10.9239	4.2e-05	0.0526	ATGCTATATAAATCAA
AAAMAAARWAAAWAAA	MEME-3	chr9	130769173	130769188	-	10.8804	4.28e-05	0.0535	ATATAAAATAAAATAA
AAAMAAARWAAAWAAA	MEME-3	chr7	30387510	30387525	+	10.8587	4.32e-05	0.0538	ATGTTaaaaaaaaaaa
AAAMAAARWAAAWAAA	MEME-3	chr12	64994168	64994183	-	10.8261	4.38e-05	0.054	AAAGAAAAAAAACAAA
AAAMAAARWAAAWAAA	MEME-3	chr3	133704996	133705011	-	10.8261	4.38e-05	0.054	AAACAAAAAACAAAAA
AAAMAAARWAAAWAAA	MEME-3	chr3	133705003	133705018	-	10.8261	4.38e-05	0.054	AAACAAAAAACAAAAA
AAAMAAARWAAAWAAA	MEME-3	chr9	134622601	134622616	+	10.8261	4.38e-05	0.054	taccaaaaaaaaaaag
AAAMAAARWAAAWAAA	MEME-3	chr11	48071581	48071596	-	10.7935	4.44e-05	0.0545	AATAAAGAAAGAAAAT
AAAMAAARWAAAWAAA	MEME-3	chr3	40459303	40459318	-	10.7826	4.46e-05	0.0545	ATACATAGATAATCAT
AAAMAAARWAAAWAAA	MEME-3	chr11	129716227	129716242	+	10.7826	4.46e-05	0.0545	atgcttaaaaaaaaat
AAAMAAARWAAAWAAA	MEME-3	chr2	161086078	161086093	+	10.7826	4.46e-05	0.0545	ATTGTTAAAAAAAAAG
AAAMAAARWAAAWAAA	MEME-3	chr12	122934030	122934045	+	10.75	4.53e-05	0.0552	ttcaaaaaaaaaaaaa
AAAMAAARWAAAWAAA	MEME-3	chr8	129152010	129152025	-	10.7174	4.59e-05	0.0557	ATTCAAAGATAAAAAT
AAAMAAARWAAAWAAA	MEME-3	chr20	58628291	58628306	-	10.6957	4.64e-05	0.0561	AATCTTAAATAAATAA
AAAMAAARWAAAWAAA	MEME-3	chrX	23815598	23815613	-	10.6739	4.68e-05	0.0565	AAAGAATAATAAACAT
AAAMAAARWAAAWAAA	MEME-3	chr6	7975586	7975601	+	10.663	4.7e-05	0.0565	AAACAAAAAAAAAGAA
AAAMAAARWAAAWAAA	MEME-3	chr13	74167525	74167540	+	10.663	4.7e-05	0.0565	TAAAAAGGAAAAATAA
AAAMAAARWAAAWAAA	MEME-3	chr11	39015891	39015906	-	10.6522	4.73e-05	0.0566	AAGCAAAGTTAAATAG
AAAMAAARWAAAWAAA	MEME-3	chr17	57425009	57425024	-	10.6196	4.79e-05	0.0569	AAAAAAAAGAAAGAAA
AAAMAAARWAAAWAAA	MEME-3	chr8	121085016	121085031	+	10.6196	4.79e-05	0.0569	aaaaaaaagaaagaaa
AAAMAAARWAAAWAAA	MEME-3	chr6	170440068	170440083	+	10.6196	4.79e-05	0.0569	ATGGAATGTAAAAAAG
AAAMAAARWAAAWAAA	MEME-3	chr22	46307707	46307722	+	10.6087	4.81e-05	0.0571	AAGAATAAAAACAAAT
AAAMAAARWAAAWAAA	MEME-3	chr7	112921500	112921515	-	10.587	4.86e-05	0.0575	AAAAAAAAAGGATAAA
AAAMAAARWAAAWAAA	MEME-3	chr13	97126618	97126633	+	10.5543	4.92e-05	0.0581	AAACAAAATATAGCAT
AAAMAAARWAAAWAAA	MEME-3	chr10	117469677	117469692	-	10.5217	4.99e-05	0.0586	AAACAAAGTAAATAAC
AAAMAAARWAAAWAAA	MEME-3	chr11	9124800	9124815	+	10.5217	4.99e-05	0.0586	taaaaaaaataaaata
AAAMAAARWAAAWAAA	MEME-3	chr7	101343844	101343859	-	10.4565	5.13e-05	0.0596	TAAAATAAAATAAAAT
AAAMAAARWAAAWAAA	MEME-3	chr9	130769170	130769185	-	10.4565	5.13e-05	0.0596	TAAAATAAAATAAAAT
AAAMAAARWAAAWAAA	MEME-3	chr8	52683767	52683782	+	10.4565	5.13e-05	0.0596	TTAGAGGAAAAATAAA
AAAMAAARWAAAWAAA	MEME-3	chr18	71509814	71509829	-	10.4457	5.15e-05	0.0596	TAAAAAAGTTACAAAA
AAAMAAARWAAAWAAA	MEME-3	chr12	54372876	54372891	+	10.4457	5.15e-05	0.0596	AAAAAAAAAAAGTAAG
AAAMAAARWAAAWAAA	MEME-3	chr5	145360779	145360794	+	10.4457	5.15e-05	0.0596	aaatttaaataattaa
AAAMAAARWAAAWAAA	MEME-3	chrX	143455829	143455844	-	10.413	5.22e-05	0.0603	TAGAAAGAAAAAAAAG
AAAMAAARWAAAWAAA	MEME-3	chr11	39016000	39016015	+	10.3913	5.27e-05	0.0607	ATGGTAAAAAAAATAA
AAAMAAARWAAAWAAA	MEME-3	chr8	119890674	119890689	-	10.3696	5.32e-05	0.061	AAAATAATTAAATAAA
AAAMAAARWAAAWAAA	MEME-3	chr17	57425008	57425023	-	10.3587	5.34e-05	0.061	AAAAAAAGAAAGAAAA
AAAMAAARWAAAWAAA	MEME-3	chr8	121085017	121085032	+	10.3587	5.34e-05	0.061	aaaaaaagaaagaaaa
AAAMAAARWAAAWAAA	MEME-3	chr2	172903138	172903153	-	10.337	5.39e-05	0.0614	AACAAATGAAAAACAG
AAAMAAARWAAAWAAA	MEME-3	chr20	43359038	43359053	+	10.3261	5.42e-05	0.0616	ataaataaataaatat
AAAMAAARWAAAWAAA	MEME-3	chr11	71856289	71856304	+	10.3152	5.44e-05	0.0617	aaaaaaaaagaagaaa
AAAMAAARWAAAWAAA	MEME-3	chr7	80128349	80128364	+	10.2826	5.51e-05	0.0624	AAACAAAGAAACTATG
AAAMAAARWAAAWAAA	MEME-3	chr11	9587375	9587390	-	10.2717	5.54e-05	0.0625	AAGAAAAAAAAAATTA
AAAMAAARWAAAWAAA	MEME-3	chr5	16573286	16573301	+	10.25	5.59e-05	0.0629	AAAATTAATTTAATAA
AAAMAAARWAAAWAAA	MEME-3	chrX	44809992	44810007	-	10.2391	5.62e-05	0.0629	AAAAGGAAAAAAAAAA
AAAMAAARWAAAWAAA	MEME-3	chr12	48297914	48297929	+	10.2391	5.62e-05	0.0629	aaaagtaaaaaaaaaa
AAAMAAARWAAAWAAA	MEME-3	chr19	51574223	51574238	+	10.2283	5.64e-05	0.0631	ttgctgaataaataaa
AAAMAAARWAAAWAAA	MEME-3	chr1	97437587	97437602	+	10.2174	5.67e-05	0.0632	TAAGTGAATTGATAAA
AAAMAAARWAAAWAAA	MEME-3	chr12	116827844	116827859	-	10.1957	5.71e-05	0.0636	AAAGACAATAAATAAA
AAAMAAARWAAAWAAA	MEME-3	chr7	52900555	52900570	+	10.1848	5.74e-05	0.0637	AAGATAAATTGAATAA
AAAMAAARWAAAWAAA	MEME-3	chr2	99099415	99099430	-	10.1196	5.9e-05	0.0653	AAAATGAAAAGCAAAT
AAAMAAARWAAAWAAA	MEME-3	chr11	123015754	123015769	-	10.0652	6.03e-05	0.0664	AATATAGAAATAGAAA
AAAMAAARWAAAWAAA	MEME-3	chr4	2331784	2331799	+	10.0652	6.03e-05	0.0664	ATGGAAAAATAAATAA
AAAMAAARWAAAWAAA	MEME-3	chr1	119021870	119021885	+	10.0109	6.16e-05	0.0677	taaCAATATTTAAAAA
AAAMAAARWAAAWAAA	MEME-3	chr6	26055452	26055467	+	9.96739	6.27e-05	0.0687	TTAATATAAAGAGAAA
AAAMAAARWAAAWAAA	MEME-3	chr20	50366499	50366514	+	9.95652	6.29e-05	0.0687	taaataaaaataataa
AAAMAAARWAAAWAAA	MEME-3	chr7	55008669	55008684	+	9.95652	6.29e-05	0.0687	aatcagtgaagaataa
AAAMAAARWAAAWAAA	MEME-3	chr7	98760471	98760486	+	9.86957	6.52e-05	0.0709	ATTCTTTGAAAAAAAG
AAAMAAARWAAAWAAA	MEME-3	chr13	110651228	110651243	-	9.84783	6.57e-05	0.0712	AAAAGAAAAAAAAAAG
AAAMAAARWAAAWAAA	MEME-3	chr5	145360979	145360994	-	9.84783	6.57e-05	0.0712	TATGAGAAAAAATAAT
AAAMAAARWAAAWAAA	MEME-3	chr2	121095736	121095751	-	9.82609	6.63e-05	0.0717	ATGAAGAAATACAAAA
AAAMAAARWAAAWAAA	MEME-3	chr3	20085021	20085036	+	9.80435	6.69e-05	0.072	aaaaaaaaaaaaattt
AAAMAAARWAAAWAAA	MEME-3	chr19	46696195	46696210	+	9.80435	6.69e-05	0.072	aaacaaagaaaaaaca
AAAMAAARWAAAWAAA	MEME-3	chr12	123095245	123095260	-	9.77174	6.77e-05	0.0727	AAACAGGAAAAAAATG
AAAMAAARWAAAWAAA	MEME-3	chr3	60945041	60945056	-	9.76087	6.8e-05	0.0727	AAAAAAAAAGAAAAAG
AAAMAAARWAAAWAAA	MEME-3	chr3	73730082	73730097	-	9.76087	6.8e-05	0.0727	AACAAATGTAAAGAAT
AAAMAAARWAAAWAAA	MEME-3	chr21	43783429	43783444	-	9.70652	6.95e-05	0.0741	AAAAAGTGAATAAATA
AAAMAAARWAAAWAAA	MEME-3	chr8	102516981	102516996	+	9.68478	7.01e-05	0.0746	AAAAAAAAAAAAAGAG
AAAMAAARWAAAWAAA	MEME-3	chr3	73730012	73730027	-	9.65217	7.11e-05	0.0747	AATAAAACAAAATAAA
AAAMAAARWAAAWAAA	MEME-3	chr3	73730022	73730037	-	9.65217	7.11e-05	0.0747	AATAAAACAAAATAAA
AAAMAAARWAAAWAAA	MEME-3	chr7	101343841	101343856	-	9.65217	7.11e-05	0.0747	AATAAAATAAAATAAA
AAAMAAARWAAAWAAA	MEME-3	chr7	101343846	101343861	-	9.65217	7.11e-05	0.0747	AATAAAATAAAATAAA
AAAMAAARWAAAWAAA	MEME-3	chr2	88895648	88895663	+	9.65217	7.11e-05	0.0747	taaataagtaaattat
AAAMAAARWAAAWAAA	MEME-3	chr11	9590256	9590271	+	9.6413	7.14e-05	0.0749	AAATTTTAAAAATCAG
AAAMAAARWAAAWAAA	MEME-3	chr14	44785991	44786006	+	9.58696	7.29e-05	0.0763	aatattgaatgaaaaa
AAAMAAARWAAAWAAA	MEME-3	chr8	55470858	55470873	+	9.57609	7.32e-05	0.0765	AATGAATAAAAAGTAG
AAAMAAARWAAAWAAA	MEME-3	chr1	245966265	245966280	-	9.56522	7.35e-05	0.0766	AATGAAGAAAGAGAAG
AAAMAAARWAAAWAAA	MEME-3	chr15	52363684	52363699	-	9.55435	7.38e-05	0.0768	AATTAAGGATAATAAA
AAAMAAARWAAAWAAA	MEME-3	chr20	43359022	43359037	+	9.51087	7.51e-05	0.0777	ttaaataaataaataa
AAAMAAARWAAAWAAA	MEME-3	chr11	71856288	71856303	+	9.51087	7.51e-05	0.0777	aaaaaaaaaagaagaa
AAAMAAARWAAAWAAA	MEME-3	chr16	75593983	75593998	+	9.47826	7.6e-05	0.0786	gaaaaaaaaaaaaaaG
AAAMAAARWAAAWAAA	MEME-3	chr13	67694965	67694980	-	9.46739	7.63e-05	0.0787	AAGATGAAAAGATTAT
AAAMAAARWAAAWAAA	MEME-3	chr8	121085013	121085028	+	9.44565	7.7e-05	0.0792	aaaaaaaaaaagaaag
AAAMAAARWAAAWAAA	MEME-3	chr9	77463461	77463476	-	9.43478	7.73e-05	0.0793	AAAGAAGGTTTAGAAA
AAAMAAARWAAAWAAA	MEME-3	chr7	101343850	101343865	-	9.32609	8.06e-05	0.0823	AAAAAATAAAATAAAA
AAAMAAARWAAAWAAA	MEME-3	chr19	46696196	46696211	+	9.32609	8.06e-05	0.0823	aacaaagaaaaaacag
AAAMAAARWAAAWAAA	MEME-3	chr5	154080557	154080572	-	9.31522	8.09e-05	0.0825	AAACAAAAAACAAAAG
AAAMAAARWAAAWAAA	MEME-3	chr11	19629284	19629299	-	9.29348	8.16e-05	0.0828	ATAGTAAGAATAATAA
AAAMAAARWAAAWAAA	MEME-3	chrX	44809983	44809998	-	9.29348	8.16e-05	0.0828	AAAAAAAGGAGAAAAA
AAAMAAARWAAAWAAA	MEME-3	chrX	44809914	44809929	-	9.27174	8.23e-05	0.0833	ATTATTTGAAGAGAAA
AAAMAAARWAAAWAAA	MEME-3	chr8	121085014	121085029	+	9.25	8.29e-05	0.0838	aaaaaaaaaagaaaga
AAAMAAARWAAAWAAA	MEME-3	chr12	6885007	6885022	+	9.23913	8.33e-05	0.084	AAAAAAGAATACTCAG
AAAMAAARWAAAWAAA	MEME-3	chrX	44809942	44809957	-	9.22826	8.36e-05	0.084	ATGAATTAAAGAATAA
AAAMAAARWAAAWAAA	MEME-3	chr8	131008893	131008908	+	9.22826	8.36e-05	0.084	TTAAAAGAAAGAAAAG
AAAMAAARWAAAWAAA	MEME-3	chr2	142015313	142015328	-	9.21739	8.4e-05	0.0842	AAGCATAAATGCTAAG
AAAMAAARWAAAWAAA	MEME-3	chr3	139021225	139021240	+	9.16304	8.57e-05	0.0857	TATGTAAAAAAAGAAG
AAAMAAARWAAAWAAA	MEME-3	chr8	119862262	119862277	-	9.1413	8.65e-05	0.0863	ATTTAATATAAATAAG
AAAMAAARWAAAWAAA	MEME-3	chr12	48297933	48297948	+	9.1087	8.75e-05	0.0871	aaaaaaaaaaaaTTAC
AAAMAAARWAAAWAAA	MEME-3	chr20	50366504	50366519	+	9.09783	8.79e-05	0.0873	aaaaataataataaaa
AAAMAAARWAAAWAAA	MEME-3	chr1	53573244	53573259	+	9.07609	8.86e-05	0.0878	tacaaaagaagaaaag
AAAMAAARWAAAWAAA	MEME-3	chr7	27824061	27824076	-	9.05435	8.93e-05	0.0884	AAATTTTAAAAATTAG
AAAMAAARWAAAWAAA	MEME-3	chr3	4928777	4928792	+	9.04348	8.97e-05	0.0885	aacaaatGTAACTAAG
AAAMAAARWAAAWAAA	MEME-3	chr2	56070480	56070495	-	9.03261	9.01e-05	0.0887	AAACAAGGAATAGCAG
AAAMAAARWAAAWAAA	MEME-3	chr22	26338861	26338876	-	9.02174	9.04e-05	0.0888	ATTGTAAATAAAGCAA
AAAMAAARWAAAWAAA	MEME-3	chr13	109571411	109571426	-	9.01087	9.08e-05	0.0888	AAGCAATATTTATTAA
AAAMAAARWAAAWAAA	MEME-3	chr4	2331780	2331795	+	9.01087	9.08e-05	0.0888	taaCATGGAAAAATAA
AAAMAAARWAAAWAAA	MEME-3	chr18	71509859	71509874	+	9	9.11e-05	0.0888	AAACTAAAAAATAAAA
AAAMAAARWAAAWAAA	MEME-3	chr6	129017797	129017812	+	9	9.11e-05	0.0888	TTCAATTAAAAATAAA
AAAMAAARWAAAWAAA	MEME-3	chr3	42538331	42538346	-	8.95652	9.26e-05	0.0901	AAAAAAGAAAAATGAA
AAAMAAARWAAAWAAA	MEME-3	chrX	44809930	44809945	-	8.94565	9.3e-05	0.0903	ATAAAAGATTGATCAG
AAAMAAARWAAAWAAA	MEME-3	chrX	44809939	44809954	-	8.91304	9.41e-05	0.0906	AATTAAAGAATAAAAG
AAAMAAARWAAAWAAA	MEME-3	chrX	122936943	122936958	-	8.91304	9.41e-05	0.0906	ATTTTAAAAAGAAAAA
AAAMAAARWAAAWAAA	MEME-3	chr11	71856296	71856311	+	8.91304	9.41e-05	0.0906	aagaagaaaaactcat
AAAMAAARWAAAWAAA	MEME-3	chr3	139021230	139021245	+	8.91304	9.41e-05	0.0906	AAAAAAAGAAGAAGAA
AAAMAAARWAAAWAAA	MEME-3	chr10	114875398	114875413	+	8.90217	9.45e-05	0.0908	AAGTTAAAAATAGAAA
AAAMAAARWAAAWAAA	MEME-3	chr3	42538330	42538345	-	8.88043	9.53e-05	0.0912	AAAAAGAAAAATGAAA
AAAMAAARWAAAWAAA	MEME-3	chr11	9590417	9590432	-	8.86957	9.57e-05	0.0912	ATAATTTAATGAAAAT
AAAMAAARWAAAWAAA	MEME-3	chr12	48297918	48297933	+	8.86957	9.57e-05	0.0912	gtaaaaaaaaaaaaaa
AAAMAAARWAAAWAAA	MEME-3	chr7	100995819	100995834	+	8.86957	9.57e-05	0.0912	ctaaaaaaaaaaaaaa
AAAMAAARWAAAWAAA	MEME-3	chr5	131721280	131721295	+	8.8587	9.6e-05	0.0913	ATAGATTATAAATTAT
AAAMAAARWAAAWAAA	MEME-3	chr9	130769180	130769195	-	8.80435	9.8e-05	0.0928	AATATATATATAAAAT
AAAMAAARWAAAWAAA	MEME-3	chr16	54205824	54205839	+	8.80435	9.8e-05	0.0928	AAGAAAGAAAAAAATG
AAAMAAARWAAAWAAA	MEME-3	chr1	217729996	217730011	+	8.79348	9.84e-05	0.093	ttccaaaatagataaa
AAAMAAARWAAAWAAA	MEME-3	chr2	161086253	161086268	+	8.78261	9.88e-05	0.0932	ATTGATGAAAAATCAA
AAAMAAARWAAAWAAA	MEME-3	chr5	16815456	16815471	-	8.76087	9.95e-05	0.0937	AATGTTTATAAAATAA
AAAMAAARWAAAWAAA	MEME-3	chr17	57425004	57425019	-	8.75	9.99e-05	0.0937	AAAGAAAGAAAAAGAA
AAAMAAARWAAAWAAA	MEME-3	chr8	121085021	121085036	+	8.75	9.99e-05	0.0937	aaagaaagaaaaagaa
