# motif_id	motif_alt_id	sequence_name	start	stop	strand	score	p-value	q-value	matched_sequence
CCCAAAAGCAAATGCAATAAAAACAAAGAT	MEME-1	chr5	53039712	53039741	+	51.3529	6.49e-18	4.4e-14	cccaaaagcaaatgcaataaaaacaaagat
CCCAAAAGCAAATGCAATAAAAACAAAGAT	MEME-1	chr17	78690314	78690343	-	51.3529	6.49e-18	4.4e-14	CCCAAAAGCAAATGCAATAAAAACAAAGAT
CCCAAAAGCAAATGCAATAAAAACAAAGAT	MEME-1	chr7	117565367	117565396	+	48.2353	3.35e-16	1.51e-12	cccaaaagcaaattcaatagaaacaaagat
CCCAAAAGCAAATGCAATAAAAACAAAGAT	MEME-1	chr3	30367473	30367502	+	35.7563	7.23e-13	2.45e-09	cagcgagcaaaatgagataaaaataaagat
CCCAAAAGCAAATGCAATAAAAACAAAGAT	MEME-1	chr2	43826884	43826913	+	29.7143	1.33e-11	3.62e-08	ctcaaaagcaaatacaataaaaacagagat
CCCAAAAGCAAATGCAATAAAAACAAAGAT	MEME-1	chr4	24862077	24862106	+	27.3361	3.71e-11	8.39e-08	tacaaaagcatatgcaacaaaaacaaagat
CCCAAAAGCAAATGCAATAAAAACAAAGAT	MEME-1	chr4	131057690	131057719	+	2.57983	2.89e-07	0.000559	ctcaaaccaacaagaaaaaaaaacaaacat
CCCAAAAGCAAATGCAATAAAAACAAAGAT	MEME-1	chr4	131057528	131057557	+	-1.21849	8.53e-07	0.00145	aagaacccaaaagcaaattaaaacaaagat
CCCAAAAGCAAATGCAATAAAAACAAAGAT	MEME-1	chr4	131057534	131057563	+	-8.2521	5.73e-06	0.00863	ccaaaagcaaattaaaacaaagataaatag
CCCAAAAGCAAATGCAATAAAAACAAAGAT	MEME-1	chr4	131057533	131057562	+	-10.3361	9.57e-06	0.013	cccaaaagcaaattaaaacaaagataaata
CCCAAAAGCAAATGCAATAAAAACAAAGAT	MEME-1	chr5	38533660	38533689	+	-17.521	5.36e-05	0.0661	TAGAAAAAAAGAGTTGAGAAAAGTAAAGCT
CCCAAAAGCAAATGCAATAAAAACAAAGAT	MEME-1	chr5	38533748	38533777	+	-18.3109	6.41e-05	0.0677	CCCCCAACCCCTCTCTATATACATAAATAT
CCCAAAAGCAAATGCAATAAAAACAAAGAT	MEME-1	chr3	30367522	30367551	+	-18.3193	6.49e-05	0.0677	acggaggccaataacaatacaactacagat
CCCAAAAGCAAATGCAATAAAAACAAAGAT	MEME-1	chr17	78690320	78690349	-	-18.9916	7.6e-05	0.0724	CAAGAACCCAAAAGCAAATGCAATAAAAAC
CCCAAAAGCAAATGCAATAAAAACAAAGAT	MEME-1	chr4	131057696	131057725	+	-19.4622	8.46e-05	0.0724	ccaacaagaaaaaaaaacaaacataattaa
CCCAAAAGCAAATGCAATAAAAACAAAGAT	MEME-1	chr17	78690140	78690169	-	-19.5294	8.55e-05	0.0724	AACTCAAACAAATCAGCAAGAAAAAAAAAT
