# motif_id	motif_alt_id	sequence_name	start	stop	strand	score	p-value	q-value	matched_sequence
AGGTSAC	DREME-8	chr18	499301	499307	-	13.1829	5.63e-05	0.562	AGGTGAC
AGGTSAC	DREME-8	chr1	1690677	1690683	-	13.1829	5.63e-05	0.562	AGGTGAC
AGGTSAC	DREME-8	chr17	4090390	4090396	-	13.1829	5.63e-05	0.562	AGGTGAC
AGGTSAC	DREME-8	chr1	7020594	7020600	-	13.1829	5.63e-05	0.562	AGGTGAC
AGGTSAC	DREME-8	chr10	7330358	7330364	-	13.1829	5.63e-05	0.562	AGGTGAC
AGGTSAC	DREME-8	chr3	8498473	8498479	-	13.1829	5.63e-05	0.562	AGGTGAC
AGGTSAC	DREME-8	chr3	8498630	8498636	-	13.1829	5.63e-05	0.562	AGGTGAC
AGGTSAC	DREME-8	chr11	9125448	9125454	-	13.1829	5.63e-05	0.562	AGGTGAC
AGGTSAC	DREME-8	chr3	9191364	9191370	-	13.1829	5.63e-05	0.562	AGGTGAC
AGGTSAC	DREME-8	chr8	10532656	10532662	-	13.1829	5.63e-05	0.562	AGGTGAC
AGGTSAC	DREME-8	chr6	16849779	16849785	-	13.1829	5.63e-05	0.562	AGGTGAC
AGGTSAC	DREME-8	chr10	17332321	17332327	-	13.1829	5.63e-05	0.562	AGGTGAC
AGGTSAC	DREME-8	chr1	17886635	17886641	-	13.1829	5.63e-05	0.562	AGGTGAC
AGGTSAC	DREME-8	chr19	18867558	18867564	-	13.1829	5.63e-05	0.562	AGGTGAC
AGGTSAC	DREME-8	chr20	19005635	19005641	-	13.1829	5.63e-05	0.562	AGGTGAC
AGGTSAC	DREME-8	chr20	19028387	19028393	-	13.1829	5.63e-05	0.562	AGGTGAC
AGGTSAC	DREME-8	chr14	27429874	27429880	-	13.1829	5.63e-05	0.562	AGGTGAC
AGGTSAC	DREME-8	chr13	28531306	28531312	-	13.1829	5.63e-05	0.562	AGGTGAC
AGGTSAC	DREME-8	chr2	30441151	30441157	-	13.1829	5.63e-05	0.562	AGGTGAC
AGGTSAC	DREME-8	chr6	33956695	33956701	-	13.1829	5.63e-05	0.562	AGGTGAC
AGGTSAC	DREME-8	chr1	37504532	37504538	-	13.1829	5.63e-05	0.562	AGGTGAC
AGGTSAC	DREME-8	chr17	37926351	37926357	-	13.1829	5.63e-05	0.562	AGGTGAC
AGGTSAC	DREME-8	chrX	40033562	40033568	-	13.1829	5.63e-05	0.562	AGGTGAC
AGGTSAC	DREME-8	chr21	43477573	43477579	-	13.1829	5.63e-05	0.562	AGGTGAC
AGGTSAC	DREME-8	chr14	44786291	44786297	-	13.1829	5.63e-05	0.562	AGGTGAC
AGGTSAC	DREME-8	chr6	45678351	45678357	-	13.1829	5.63e-05	0.562	AGGTGAC
AGGTSAC	DREME-8	chr21	46172987	46172993	-	13.1829	5.63e-05	0.562	AGGTGAC
AGGTSAC	DREME-8	chr3	46707328	46707334	-	13.1829	5.63e-05	0.562	AGGTGAC
AGGTSAC	DREME-8	chr22	46847374	46847380	-	13.1829	5.63e-05	0.562	AGGTGAC
AGGTSAC	DREME-8	chr7	46926583	46926589	-	13.1829	5.63e-05	0.562	AGGTGAC
AGGTSAC	DREME-8	chr20	48782841	48782847	-	13.1829	5.63e-05	0.562	AGGTGAC
AGGTSAC	DREME-8	chr20	50077114	50077120	-	13.1829	5.63e-05	0.562	AGGTGAC
AGGTSAC	DREME-8	chr20	50077358	50077364	-	13.1829	5.63e-05	0.562	AGGTGAC
AGGTSAC	DREME-8	chr12	50595861	50595867	-	13.1829	5.63e-05	0.562	AGGTGAC
AGGTSAC	DREME-8	chr15	51070531	51070537	-	13.1829	5.63e-05	0.562	AGGTGAC
AGGTSAC	DREME-8	chr15	51147300	51147306	-	13.1829	5.63e-05	0.562	AGGTGAC
AGGTSAC	DREME-8	chr15	51659238	51659244	-	13.1829	5.63e-05	0.562	AGGTGAC
AGGTSAC	DREME-8	chr1	51795237	51795243	-	13.1829	5.63e-05	0.562	AGGTGAC
AGGTSAC	DREME-8	chr7	52900875	52900881	-	13.1829	5.63e-05	0.562	AGGTGAC
AGGTSAC	DREME-8	chr13	53383629	53383635	-	13.1829	5.63e-05	0.562	AGGTGAC
AGGTSAC	DREME-8	chr14	55800601	55800607	-	13.1829	5.63e-05	0.562	AGGTGAC
AGGTSAC	DREME-8	chr11	60709748	60709754	-	13.1829	5.63e-05	0.562	AGGTGAC
AGGTSAC	DREME-8	chr17	60828611	60828617	-	13.1829	5.63e-05	0.562	AGGTGAC
AGGTSAC	DREME-8	chr17	60828728	60828734	-	13.1829	5.63e-05	0.562	AGGTGAC
AGGTSAC	DREME-8	chr17	60868255	60868261	-	13.1829	5.63e-05	0.562	AGGTGAC
AGGTSAC	DREME-8	chr1	68663400	68663406	-	13.1829	5.63e-05	0.562	AGGTGAC
AGGTSAC	DREME-8	chr15	69588955	69588961	-	13.1829	5.63e-05	0.562	AGGTGAC
AGGTSAC	DREME-8	chr16	72882748	72882754	-	13.1829	5.63e-05	0.562	AGGTGAC
AGGTSAC	DREME-8	chr15	75017860	75017866	-	13.1829	5.63e-05	0.562	AGGTGAC
AGGTSAC	DREME-8	chr11	76484311	76484317	-	13.1829	5.63e-05	0.562	AGGTGAC
AGGTSAC	DREME-8	chr16	78086933	78086939	-	13.1829	5.63e-05	0.562	AGGTGAC
AGGTSAC	DREME-8	chr5	80467569	80467575	-	13.1829	5.63e-05	0.562	AGGTGAC
AGGTSAC	DREME-8	chr5	80467695	80467701	-	13.1829	5.63e-05	0.562	AGGTGAC
AGGTSAC	DREME-8	chr8	80712062	80712068	-	13.1829	5.63e-05	0.562	AGGTGAC
AGGTSAC	DREME-8	chr16	82172154	82172160	-	13.1829	5.63e-05	0.562	AGGTGAC
AGGTSAC	DREME-8	chr16	84130616	84130622	-	13.1829	5.63e-05	0.562	AGGTGAC
AGGTSAC	DREME-8	chr9	84202590	84202596	-	13.1829	5.63e-05	0.562	AGGTGAC
AGGTSAC	DREME-8	chr16	84340927	84340933	-	13.1829	5.63e-05	0.562	AGGTGAC
AGGTSAC	DREME-8	chr2	85648869	85648875	-	13.1829	5.63e-05	0.562	AGGTGAC
AGGTSAC	DREME-8	chr2	85649060	85649066	-	13.1829	5.63e-05	0.562	AGGTGAC
AGGTSAC	DREME-8	chr16	85651545	85651551	-	13.1829	5.63e-05	0.562	AGGTGAC
AGGTSAC	DREME-8	chr16	85652163	85652169	-	13.1829	5.63e-05	0.562	AGGTGAC
AGGTSAC	DREME-8	chr16	88829972	88829978	-	13.1829	5.63e-05	0.562	AGGTGAC
AGGTSAC	DREME-8	chr12	89078818	89078824	-	13.1829	5.63e-05	0.562	AGGTGAC
AGGTSAC	DREME-8	chr14	93483867	93483873	-	13.1829	5.63e-05	0.562	AGGTGAC
AGGTSAC	DREME-8	chr14	95522965	95522971	-	13.1829	5.63e-05	0.562	AGGTGAC
AGGTSAC	DREME-8	chr9	97545387	97545393	-	13.1829	5.63e-05	0.562	AGGTGAC
AGGTSAC	DREME-8	chr10	98049678	98049684	-	13.1829	5.63e-05	0.562	AGGTGAC
AGGTSAC	DREME-8	chr13	98945668	98945674	-	13.1829	5.63e-05	0.562	AGGTGAC
AGGTSAC	DREME-8	chr7	100996010	100996016	-	13.1829	5.63e-05	0.562	AGGTGAC
AGGTSAC	DREME-8	chr12	101346286	101346292	-	13.1829	5.63e-05	0.562	AGGTGAC
AGGTSAC	DREME-8	chr7	101588065	101588071	-	13.1829	5.63e-05	0.562	AGGTGAC
AGGTSAC	DREME-8	chr3	101893639	101893645	-	13.1829	5.63e-05	0.562	AGGTGAC
AGGTSAC	DREME-8	chr9	102196392	102196398	-	13.1829	5.63e-05	0.562	AGGTGAC
AGGTSAC	DREME-8	chr7	105715106	105715112	-	13.1829	5.63e-05	0.562	AGGTGAC
AGGTSAC	DREME-8	chr2	106778629	106778635	-	13.1829	5.63e-05	0.562	AGGTGAC
AGGTSAC	DREME-8	chrX	106916242	106916248	-	13.1829	5.63e-05	0.562	AGGTGAC
AGGTSAC	DREME-8	chr1	109496174	109496180	-	13.1829	5.63e-05	0.562	AGGTGAC
AGGTSAC	DREME-8	chr7	112122342	112122348	-	13.1829	5.63e-05	0.562	AGGTGAC
AGGTSAC	DREME-8	chr12	116941112	116941118	-	13.1829	5.63e-05	0.562	AGGTGAC
AGGTSAC	DREME-8	chr10	120767133	120767139	-	13.1829	5.63e-05	0.562	AGGTGAC
AGGTSAC	DREME-8	chr12	122186697	122186703	-	13.1829	5.63e-05	0.562	AGGTGAC
AGGTSAC	DREME-8	chr3	127310170	127310176	-	13.1829	5.63e-05	0.562	AGGTGAC
AGGTSAC	DREME-8	chrX	129299519	129299525	-	13.1829	5.63e-05	0.562	AGGTGAC
AGGTSAC	DREME-8	chrX	129300316	129300322	-	13.1829	5.63e-05	0.562	AGGTGAC
AGGTSAC	DREME-8	chr11	131566839	131566845	-	13.1829	5.63e-05	0.562	AGGTGAC
AGGTSAC	DREME-8	chr9	138287448	138287454	-	13.1829	5.63e-05	0.562	AGGTGAC
AGGTSAC	DREME-8	chr7	138575761	138575767	-	13.1829	5.63e-05	0.562	AGGTGAC
AGGTSAC	DREME-8	chr7	140677487	140677493	-	13.1829	5.63e-05	0.562	AGGTGAC
AGGTSAC	DREME-8	chr8	145030886	145030892	-	13.1829	5.63e-05	0.562	AGGTGAC
AGGTSAC	DREME-8	chr2	150990397	150990403	-	13.1829	5.63e-05	0.562	AGGTGAC
AGGTSAC	DREME-8	chrX	152064512	152064518	-	13.1829	5.63e-05	0.562	AGGTGAC
AGGTSAC	DREME-8	chr5	154080897	154080903	-	13.1829	5.63e-05	0.562	AGGTGAC
AGGTSAC	DREME-8	chr3	156534670	156534676	-	13.1829	5.63e-05	0.562	AGGTGAC
AGGTSAC	DREME-8	chr1	169498673	169498679	-	13.1829	5.63e-05	0.562	AGGTGAC
AGGTSAC	DREME-8	chr6	170341810	170341816	-	13.1829	5.63e-05	0.562	AGGTGAC
AGGTSAC	DREME-8	chr5	177508020	177508026	-	13.1829	5.63e-05	0.562	AGGTGAC
AGGTSAC	DREME-8	chr3	193552375	193552381	-	13.1829	5.63e-05	0.562	AGGTGAC
AGGTSAC	DREME-8	chr1	201987705	201987711	-	13.1829	5.63e-05	0.562	AGGTGAC
AGGTSAC	DREME-8	chr1	227002970	227002976	-	13.1829	5.63e-05	0.562	AGGTGAC
AGGTSAC	DREME-8	chr1	233004556	233004562	-	13.1829	5.63e-05	0.562	AGGTGAC
AGGTSAC	DREME-8	chr2	233476179	233476185	-	13.1829	5.63e-05	0.562	AGGTGAC
AGGTSAC	DREME-8	chr2	1235246	1235252	+	13.1829	5.63e-05	0.562	AGGTGAC
AGGTSAC	DREME-8	chr10	1332517	1332523	+	13.1829	5.63e-05	0.562	AGGTGAC
AGGTSAC	DREME-8	chr5	1516157	1516163	+	13.1829	5.63e-05	0.562	AGGTGAC
AGGTSAC	DREME-8	chr5	1516456	1516462	+	13.1829	5.63e-05	0.562	AGGTGAC
AGGTSAC	DREME-8	chr7	1960378	1960384	+	13.1829	5.63e-05	0.562	aggtgac
AGGTSAC	DREME-8	chr4	2331860	2331866	+	13.1829	5.63e-05	0.562	aggtgac
AGGTSAC	DREME-8	chr7	6035364	6035370	+	13.1829	5.63e-05	0.562	AGGTGAC
AGGTSAC	DREME-8	chr12	6884991	6884997	+	13.1829	5.63e-05	0.562	AGGTGAC
AGGTSAC	DREME-8	chr19	7717140	7717146	+	13.1829	5.63e-05	0.562	AGGTGAC
AGGTSAC	DREME-8	chr6	10317531	10317537	+	13.1829	5.63e-05	0.562	AGGTGAC
AGGTSAC	DREME-8	chr6	13873253	13873259	+	13.1829	5.63e-05	0.562	aggtgac
AGGTSAC	DREME-8	chr6	16992856	16992862	+	13.1829	5.63e-05	0.562	AGGTGAC
AGGTSAC	DREME-8	chr1	17738603	17738609	+	13.1829	5.63e-05	0.562	AGGTGAC
AGGTSAC	DREME-8	chr19	18491590	18491596	+	13.1829	5.63e-05	0.562	aggtgac
AGGTSAC	DREME-8	chr22	24198861	24198867	+	13.1829	5.63e-05	0.562	aggtgac
AGGTSAC	DREME-8	chr6	24879765	24879771	+	13.1829	5.63e-05	0.562	AGGTGAC
AGGTSAC	DREME-8	chr2	25301391	25301397	+	13.1829	5.63e-05	0.562	AGGTGAC
AGGTSAC	DREME-8	chr4	26320716	26320722	+	13.1829	5.63e-05	0.562	AGGTGAC
AGGTSAC	DREME-8	chr13	26345346	26345352	+	13.1829	5.63e-05	0.562	aggtgac
AGGTSAC	DREME-8	chr10	29414108	29414114	+	13.1829	5.63e-05	0.562	AGGTGAC
AGGTSAC	DREME-8	chr22	30195062	30195068	+	13.1829	5.63e-05	0.562	AGGTGAC
AGGTSAC	DREME-8	chr2	30440940	30440946	+	13.1829	5.63e-05	0.562	AGGTGAC
AGGTSAC	DREME-8	chr13	36288628	36288634	+	13.1829	5.63e-05	0.562	aggtgac
AGGTSAC	DREME-8	chr2	38323090	38323096	+	13.1829	5.63e-05	0.562	AGGTGAC
AGGTSAC	DREME-8	chr14	38655062	38655068	+	13.1829	5.63e-05	0.562	AGGTGAC
AGGTSAC	DREME-8	chr17	38708012	38708018	+	13.1829	5.63e-05	0.562	AGGTGAC
AGGTSAC	DREME-8	chr21	41817245	41817251	+	13.1829	5.63e-05	0.562	AGGTGAC
AGGTSAC	DREME-8	chr2	43861869	43861875	+	13.1829	5.63e-05	0.562	AGGTGAC
AGGTSAC	DREME-8	chr7	44673385	44673391	+	13.1829	5.63e-05	0.562	AGGTGAC
AGGTSAC	DREME-8	chr21	45030053	45030059	+	13.1829	5.63e-05	0.562	aggtgac
AGGTSAC	DREME-8	chr11	45951714	45951720	+	13.1829	5.63e-05	0.562	AGGTGAC
AGGTSAC	DREME-8	chr21	46129718	46129724	+	13.1829	5.63e-05	0.562	AGGTGAC
AGGTSAC	DREME-8	chr21	46131714	46131720	+	13.1829	5.63e-05	0.562	AGGTGAC
AGGTSAC	DREME-8	chr2	46391549	46391555	+	13.1829	5.63e-05	0.562	AGGTGAC
AGGTSAC	DREME-8	chr12	48298299	48298305	+	13.1829	5.63e-05	0.562	AGGTGAC
AGGTSAC	DREME-8	chr3	50642580	50642586	+	13.1829	5.63e-05	0.562	AGGTGAC
AGGTSAC	DREME-8	chr15	51070586	51070592	+	13.1829	5.63e-05	0.562	AGGTGAC
AGGTSAC	DREME-8	chr15	51146701	51146707	+	13.1829	5.63e-05	0.562	aggtgac
AGGTSAC	DREME-8	chr1	51795545	51795551	+	13.1829	5.63e-05	0.562	AGGTGAC
AGGTSAC	DREME-8	chr13	53384474	53384480	+	13.1829	5.63e-05	0.562	AGGTGAC
AGGTSAC	DREME-8	chr8	55471689	55471695	+	13.1829	5.63e-05	0.562	AGGTGAC
AGGTSAC	DREME-8	chr18	55755517	55755523	+	13.1829	5.63e-05	0.562	aggtgac
AGGTSAC	DREME-8	chr20	58707505	58707511	+	13.1829	5.63e-05	0.562	aggtgac
AGGTSAC	DREME-8	chr17	60868213	60868219	+	13.1829	5.63e-05	0.562	AGGTGAC
AGGTSAC	DREME-8	chr20	61720849	61720855	+	13.1829	5.63e-05	0.562	AGGTGAC
AGGTSAC	DREME-8	chr11	63332582	63332588	+	13.1829	5.63e-05	0.562	AGGTGAC
AGGTSAC	DREME-8	chr17	66375105	66375111	+	13.1829	5.63e-05	0.562	AGGTGAC
AGGTSAC	DREME-8	chr16	68036891	68036897	+	13.1829	5.63e-05	0.562	AGGTGAC
AGGTSAC	DREME-8	chr2	71347460	71347466	+	13.1829	5.63e-05	0.562	AGGTGAC
AGGTSAC	DREME-8	chr4	73218432	73218438	+	13.1829	5.63e-05	0.562	aggtgac
AGGTSAC	DREME-8	chr3	73518594	73518600	+	13.1829	5.63e-05	0.562	AGGTGAC
AGGTSAC	DREME-8	chr10	74091513	74091519	+	13.1829	5.63e-05	0.562	AGGTGAC
AGGTSAC	DREME-8	chr14	76032767	76032773	+	13.1829	5.63e-05	0.562	AGGTGAC
AGGTSAC	DREME-8	chr14	76032899	76032905	+	13.1829	5.63e-05	0.562	AGGTGAC
AGGTSAC	DREME-8	chr17	78734535	78734541	+	13.1829	5.63e-05	0.562	AGGTGAC
AGGTSAC	DREME-8	chr8	80711856	80711862	+	13.1829	5.63e-05	0.562	AGGTGAC
AGGTSAC	DREME-8	chr4	83445986	83445992	+	13.1829	5.63e-05	0.562	aggtgac
AGGTSAC	DREME-8	chr4	83446250	83446256	+	13.1829	5.63e-05	0.562	AGGTGAC
AGGTSAC	DREME-8	chr9	83718651	83718657	+	13.1829	5.63e-05	0.562	AGGTGAC
AGGTSAC	DREME-8	chr16	84628842	84628848	+	13.1829	5.63e-05	0.562	AGGTGAC
AGGTSAC	DREME-8	chr13	93978310	93978316	+	13.1829	5.63e-05	0.562	AGGTGAC
AGGTSAC	DREME-8	chr14	95523090	95523096	+	13.1829	5.63e-05	0.562	AGGTGAC
AGGTSAC	DREME-8	chr13	95898719	95898725	+	13.1829	5.63e-05	0.562	AGGTGAC
AGGTSAC	DREME-8	chr13	97126573	97126579	+	13.1829	5.63e-05	0.562	AGGTGAC
AGGTSAC	DREME-8	chr1	97438202	97438208	+	13.1829	5.63e-05	0.562	AGGTGAC
AGGTSAC	DREME-8	chr9	97810924	97810930	+	13.1829	5.63e-05	0.562	AGGTGAC
AGGTSAC	DREME-8	chr13	98945969	98945975	+	13.1829	5.63e-05	0.562	AGGTGAC
AGGTSAC	DREME-8	chr6	100624023	100624029	+	13.1829	5.63e-05	0.562	AGGTGAC
AGGTSAC	DREME-8	chr7	101652616	101652622	+	13.1829	5.63e-05	0.562	AGGTGAC
AGGTSAC	DREME-8	chr3	101892889	101892895	+	13.1829	5.63e-05	0.562	aggtgac
AGGTSAC	DREME-8	chr12	105050656	105050662	+	13.1829	5.63e-05	0.562	AGGTGAC
AGGTSAC	DREME-8	chr10	105650153	105650159	+	13.1829	5.63e-05	0.562	AGGTGAC
AGGTSAC	DREME-8	chr7	105709889	105709895	+	13.1829	5.63e-05	0.562	AGGTGAC
AGGTSAC	DREME-8	chr2	105760162	105760168	+	13.1829	5.63e-05	0.562	AGGTGAC
AGGTSAC	DREME-8	chr3	107646161	107646167	+	13.1829	5.63e-05	0.562	AGGTGAC
AGGTSAC	DREME-8	chr13	109571890	109571896	+	13.1829	5.63e-05	0.562	AGGTGAC
AGGTSAC	DREME-8	chr9	110007983	110007989	+	13.1829	5.63e-05	0.562	AGGTGAC
AGGTSAC	DREME-8	chr12	115912674	115912680	+	13.1829	5.63e-05	0.562	AGGTGAC
AGGTSAC	DREME-8	chr12	116828389	116828395	+	13.1829	5.63e-05	0.562	aggtgac
AGGTSAC	DREME-8	chr11	118186030	118186036	+	13.1829	5.63e-05	0.562	aggtgac
AGGTSAC	DREME-8	chr11	118790550	118790556	+	13.1829	5.63e-05	0.562	AGGTGAC
AGGTSAC	DREME-8	chr2	121154570	121154576	+	13.1829	5.63e-05	0.562	AGGTGAC
AGGTSAC	DREME-8	chr12	125401346	125401352	+	13.1829	5.63e-05	0.562	AGGTGAC
AGGTSAC	DREME-8	chr10	127258280	127258286	+	13.1829	5.63e-05	0.562	aggtgac
AGGTSAC	DREME-8	chr11	129724313	129724319	+	13.1829	5.63e-05	0.562	AGGTGAC
AGGTSAC	DREME-8	chr11	129724882	129724888	+	13.1829	5.63e-05	0.562	AGGTGAC
AGGTSAC	DREME-8	chr9	131084898	131084904	+	13.1829	5.63e-05	0.562	AGGTGAC
AGGTSAC	DREME-8	chr5	137566927	137566933	+	13.1829	5.63e-05	0.562	AGGTGAC
AGGTSAC	DREME-8	chr7	138575334	138575340	+	13.1829	5.63e-05	0.562	AGGTGAC
AGGTSAC	DREME-8	chr1	147806418	147806424	+	13.1829	5.63e-05	0.562	AGGTGAC
AGGTSAC	DREME-8	chr7	148903382	148903388	+	13.1829	5.63e-05	0.562	AGGTGAC
AGGTSAC	DREME-8	chr2	149876894	149876900	+	13.1829	5.63e-05	0.562	AGGTGAC
AGGTSAC	DREME-8	chrX	152064293	152064299	+	13.1829	5.63e-05	0.562	aggtgac
AGGTSAC	DREME-8	chr2	171673453	171673459	+	13.1829	5.63e-05	0.562	AGGTGAC
AGGTSAC	DREME-8	chr5	173909845	173909851	+	13.1829	5.63e-05	0.562	AGGTGAC
AGGTSAC	DREME-8	chr3	176121177	176121183	+	13.1829	5.63e-05	0.562	aggtgac
AGGTSAC	DREME-8	chr5	177517861	177517867	+	13.1829	5.63e-05	0.562	aggtgac
AGGTSAC	DREME-8	chr2	205838578	205838584	+	13.1829	5.63e-05	0.562	AGGTGAC
AGGTSAC	DREME-8	chr2	220434391	220434397	+	13.1829	5.63e-05	0.562	AGGTGAC
AGGTSAC	DREME-8	chr1	232736583	232736589	+	13.1829	5.63e-05	0.562	AGGTGAC
