prim_db	prim_id	prim_alt	prim_cons	sec_db	sec_id	sec_alt	sec_cons	trim_left	trim_right	red_db	red_id	red_alt	E-value	gap	orient	count	total	adj_p-value	p-value
dreme.xml	TGACTCA	DREME-3	TGACTCA	JASPAR2018_CORE_non-redundant	MA0358.1	PUT3	CCCGGGAW	0	2	.	.	.	1.03e+00	5	0	4	37	6.20e-08	5.58e-07
dreme.xml	TGACTCA	DREME-3	TGACTCA	JASPAR2018_CORE_non-redundant	MA0358.1	PUT3	CCCGGGAW	0	2	.	.	.	1.03e+00	5	8	5	37	6.29e-07	5.66e-06
dreme.xml	TGACTCA	DREME-3	TGACTCA	JASPAR2018_CORE_non-redundant	MA0358.1	PUT3	CCCGGGAW	0	2	.	.	.	1.03e+00	5	4	4	37	9.47e-07	8.53e-06
dreme.xml	TGACTCA	DREME-3	TGACTCA	JASPAR2018_CORE_non-redundant	MA0358.1	PUT3	CCCGGGAW	0	2	.	.	.	1.03e+00	5	5	4	37	9.47e-07	8.53e-06
dreme.xml	TGACTCA	DREME-3	TGACTCA	JASPAR2018_CORE_non-redundant	MA0722.1	VAX1	YTAATTAH	0	1	.	.	.	1.28e+00	33	5	6	87	7.73e-08	6.96e-07
dreme.xml	TGACTCA	DREME-3	TGACTCA	JASPAR2018_CORE_non-redundant	MA0722.1	VAX1	YTAATTAH	0	1	.	.	.	1.28e+00	33	0	4	87	2.00e-06	1.80e-05
dreme.xml	TGACTCA	DREME-3	TGACTCA	JASPAR2018_CORE_non-redundant	MA0722.1	VAX1	YTAATTAH	0	1	.	.	.	1.28e+00	32	1	4	87	2.00e-06	1.80e-05
dreme.xml	TGACTCA	DREME-3	TGACTCA	JASPAR2018_CORE_non-redundant	MA0722.1	VAX1	YTAATTAH	0	1	.	.	.	1.28e+00	33	8	6	87	3.89e-06	3.50e-05
dreme.xml	TGACTCA	DREME-3	TGACTCA	JASPAR2018_CORE_non-redundant	MA1125.1	ZNF384	DNWMAAAAAAAA	4	0	.	.	.	1.56e+00	137	5	9	280	9.49e-08	8.54e-07
dreme.xml	TGACTCA	DREME-3	TGACTCA	JASPAR2018_CORE_non-redundant	MA1125.1	ZNF384	DNWMAAAAAAAA	4	0	.	.	.	1.56e+00	137	8	10	280	3.91e-06	3.51e-05
dreme.xml	TGACTCA	DREME-3	TGACTCA	JASPAR2018_CORE_non-redundant	MA0932.1	AHL12	AAWWWWTT	0	0	.	.	.	6.33e+00	20	1	5	127	3.86e-07	3.48e-06
dreme.xml	TGACTCA	DREME-3	TGACTCA	JASPAR2018_CORE_non-redundant	MA0190.1	Gsc	TAATCC	0	0	.	.	.	8.39e+00	6	2	4	62	5.06e-07	4.55e-06
dreme.xml	TGACTCA	DREME-3	TGACTCA	JASPAR2018_CORE_non-redundant	MA0891.1	GSC2	NYTAATCCBH	2	2	.	.	.	8.39e+00	6	2	4	62	5.06e-07	4.55e-06
##
# Detailed descriptions of columns in this file:
#
# prim_db:	The name of the database (file name) that contains the primary motif.
# prim_id:	A name for the primary motif that is unique in the motif database file.
# prim_alt:	An alternate name of the primary motif that may be provided
#		in the motif database file.
# prim_cons:	A consensus sequence computed from the primary motif (see doc/motif-consensus.html).
# sec_db:	The name of the database (file name) that contains the secondary motif.
# sec_id:	A name for the motif that is unique in the motif database file.
# sec_alt:	An alternate name of the secondary motif that may be provided
#		in the motif database file.
# sec_cons:	A consensus sequence computed from the secondary motif (see doc/motif-consensus.html).
# trim_left:	Number of positions trimmed from left of secondary motif
# trim_right:	Number of positions trimmed from right of secondary motif
# If the next three fields are not blank, the motif is redundant with a more significant ('parent') motif.
# red_db:	The database (file name) that contains the parent motif.
# red_id:	A name for the parent motif that is unique in the motif database file.
# red_alt:	An alternate name of the parent motif that may be provided
#		in the motif database file.
# E-value:	The expected number motifs that would have least one
#		spacing as enriched as the best spacing for this secondary.
#		The E-value is the best spacing p-value multiplied by the number of motifs in the
#		input database(s).
# gap:		The distance between the edge of the primary and the (trimmed) secondary motif.
# orient:	The (combination) of quadrants for which occurrences
#		of this spacing are combined.
# count:	The number of occurrences of the secondary motif with the
#		given spacing and orientation to the primary motif.
# total:	The total number of occurrences of the secondary motif within the
#		margins around the best primary motif occurrence.
# adj_p-value:	The p-value of the gap and orientation, adjusted for
#		nine combinations of quadrants times the number of gaps tested
#		(as controlled by the -range switch).
# p-value:	The p-value of the gap and orientation adjusted only for the number of gaps tested.
