********************************************************************************
MEME - Motif discovery tool
********************************************************************************
MEME version 4.12.0 (Release date: Tue Jun 27 16:22:50 2017 -0700)

For further information on how to interpret these results or to get
a copy of the MEME software please access http://meme-suite.org .

This file may be used as input to the MAST algorithm for searching
sequence databases for matches to groups of motifs.  MAST is available
for interactive use and downloading at http://meme-suite.org .
********************************************************************************


********************************************************************************
REFERENCE
********************************************************************************
If you use this program in your research, please cite:

Timothy L. Bailey and Charles Elkan,
"Fitting a mixture model by expectation maximization to discover
motifs in biopolymers", Proceedings of the Second International
Conference on Intelligent Systems for Molecular Biology, pp. 28-36,
AAAI Press, Menlo Park, California, 1994.
********************************************************************************


********************************************************************************
TRAINING SET
********************************************************************************
DATAFILE= results/AHRpeaks_not-in-DHSs-noAHREs.bed.fa/jaspar/seqs-centered
ALPHABET= ACGT
Sequence name            Weight Length  Sequence name            Weight Length  
-------------            ------ ------  -------------            ------ ------  
chr11:102323700-10232414 1.0000    100  chr6:473950-474699       1.0000    100  
chr5:14187700-14188249   1.0000    100  chr14:51331750-51332699  1.0000    100  
chr3:133718450-133718949 1.0000    100  chr3:42538300-42538749   1.0000    100  
chr3:197391550-197391999 1.0000    100  chr3:100314500-100315199 1.0000    100  
chr5:42620500-42620999   1.0000    100  chr6:164129450-164129999 1.0000    100  
chr9:136608600-136609099 1.0000    100  chr13:111252450-11125309 1.0000    100  
chrX:143455700-143456199 1.0000    100  chr14:34682250-34682949  1.0000    100  
chr9:77463250-77463649   1.0000    100  chrX:142490150-142490549 1.0000    100  
chr1:523900-524399       1.0000    100  chr9:22124600-22125049   1.0000    100  
chr13:100629600-10063024 1.0000    100  chr13:76836050-76836549  1.0000    100  
chr6:171042750-171043199 1.0000    100  chr2:142015050-142015599 1.0000    100  
chr11:86289250-86289799  1.0000    100  chr18:71509800-71510299  1.0000    100  
chr19:24065200-24065649  1.0000    100  chr15:40377300-40377849  1.0000    100  
chr19:28916200-28916699  1.0000    100  chr6:67444900-67445299   1.0000    100  
chr2:5504450-5505199     1.0000    100  chr1:153650950-153651299 1.0000    100  
chr6:16832050-16832599   1.0000    100  chr6:26257300-26257949   1.0000    100  
chr6:10317300-10318049   1.0000    100  chr12:114182450-11418309 1.0000    100  
chr18:32629450-32630099  1.0000    100  chr6:44826100-44826549   1.0000    100  
chr12:115912450-11591299 1.0000    100  chr6:16992350-16992899   1.0000    100  
********************************************************************************

********************************************************************************
COMMAND LINE SUMMARY
********************************************************************************
This information can also be useful in the event you wish to report a
problem with the MEME software.

command: meme results/AHRpeaks_not-in-DHSs-noAHREs.bed.fa/jaspar/seqs-centered -oc results/AHRpeaks_not-in-DHSs-noAHREs.bed.fa/jaspar/meme_out -mod zoops -nmotifs 7 -minw 5 -maxw 30 -bfile results/AHRpeaks_not-in-DHSs-noAHREs.bed.fa/jaspar/background -dna -revcomp -nostatus 

model:  mod=         zoops    nmotifs=         7    evt=           inf
object function=  E-value of product of p-values
width:  minw=            5    maxw=           30
width:  wg=             11    ws=              1    endgaps=       yes
nsites: minsites=        2    maxsites=       38    wnsites=       0.8
theta:  spmap=         uni    spfuzz=        0.5
global: substring=     yes    branching=      no    wbranch=        no
em:     prior=   dirichlet    b=            0.01    maxiter=        50
        distance=    1e-05
data:   n=            3800    N=              38    shuffle=        -1
strands: + -
sample: seed=            0    ctfrac=         -1    maxwords=       -1
Letter frequencies in dataset:
A 0.276 C 0.224 G 0.224 T 0.276 
Background letter frequencies (from results/AHRpeaks_not-in-DHSs-noAHREs.bed.fa/jaspar/background):
A 0.281 C 0.219 G 0.219 T 0.281 
********************************************************************************


********************************************************************************
MOTIF SAGGCACGCACRCASACASAC MEME-1	width =  21  sites =   4  llr = 96  E-value = 4.7e-001
********************************************************************************
--------------------------------------------------------------------------------
	Motif SAGGCACGCACRCASACASAC MEME-1 Description
--------------------------------------------------------------------------------
Simplified        A  :a:::a:3:a:5:a:8:a:8:
pos.-specific     C  5:3:a:a:8:a:a:5:a:5:8
probability       G  5:8a:::83::5::53::533
matrix            T  :::::::::::::::::::::

         bits    2.2    ** *   * *   *    
                 2.0    ** *   * *   *    
                 1.8  * ****  ** **  **   
                 1.5  * ****  ** **  **   
Relative         1.3  ********** **  **  *
Entropy          1.1 *********************
(34.5 bits)      0.9 *********************
                 0.7 *********************
                 0.4 *********************
                 0.2 *********************
                 0.0 ---------------------

Multilevel           CAGGCACGCACACACACACAC
consensus            G C    AG  G  GG  GGG
sequence                                  
                                          
--------------------------------------------------------------------------------

--------------------------------------------------------------------------------
	Motif SAGGCACGCACRCASACASAC MEME-1 sites sorted by position p-value
--------------------------------------------------------------------------------
Sequence name            Strand  Start   P-value                    Site       
-------------            ------  ----- ---------            ---------------------
chr6:171042750-171043199     -     51  1.47e-12 AGAAAAGACT GAGGCACGCACACAGACAGAC ACACCCACCC
chr1:523900-524399           +     80  1.47e-12 AGAAAAGATT GAGGcacgcacacagacagac           
chr3:197391550-197391999     -     55  1.35e-11 CCGCCACACC CAGGCACGGACGCACGCACAC ACTCCACACG
chr6:26257300-26257949       -     21  6.80e-11 CAGGGAATGT CACGCACACACGCACACACGG ATGTTCAAAG
--------------------------------------------------------------------------------

--------------------------------------------------------------------------------
	Motif SAGGCACGCACRCASACASAC MEME-1 block diagrams
--------------------------------------------------------------------------------
SEQUENCE NAME            POSITION P-VALUE  MOTIF DIAGRAM
-------------            ----------------  -------------
chr6:171042750-171043199          1.5e-12  50_[-1]_29
chr1:523900-524399                1.5e-12  79_[+1]
chr3:197391550-197391999          1.4e-11  54_[-1]_25
chr6:26257300-26257949            6.8e-11  20_[-1]_59
--------------------------------------------------------------------------------

--------------------------------------------------------------------------------
	Motif SAGGCACGCACRCASACASAC MEME-1 in BLOCKS format
--------------------------------------------------------------------------------
BL   MOTIF SAGGCACGCACRCASACASAC width=21 seqs=4
chr6:171042750-171043199 (   51) GAGGCACGCACACAGACAGAC  1 
chr1:523900-524399       (   80) GAGGCACGCACACAGACAGAC  1 
chr3:197391550-197391999 (   55) CAGGCACGGACGCACGCACAC  1 
chr6:26257300-26257949   (   21) CACGCACACACGCACACACGG  1 
//

--------------------------------------------------------------------------------

--------------------------------------------------------------------------------
	Motif SAGGCACGCACRCASACASAC MEME-1 position-specific scoring matrix
--------------------------------------------------------------------------------
log-odds matrix: alength= 4 w= 21 n= 3040 bayes= 10.3057 E= 4.7e-001 
  -865    119    119   -865 
   183   -865   -865   -865 
  -865     19    177   -865 
  -865   -865    219   -865 
  -865    219   -865   -865 
   183   -865   -865   -865 
  -865    219   -865   -865 
   -17   -865    177   -865 
  -865    177     19   -865 
   183   -865   -865   -865 
  -865    219   -865   -865 
    83   -865    119   -865 
  -865    219   -865   -865 
   183   -865   -865   -865 
  -865    119    119   -865 
   141   -865     19   -865 
  -865    219   -865   -865 
   183   -865   -865   -865 
  -865    119    119   -865 
   141   -865     19   -865 
  -865    177     19   -865 
--------------------------------------------------------------------------------

--------------------------------------------------------------------------------
	Motif SAGGCACGCACRCASACASAC MEME-1 position-specific probability matrix
--------------------------------------------------------------------------------
letter-probability matrix: alength= 4 w= 21 nsites= 4 E= 4.7e-001 
 0.000000  0.500000  0.500000  0.000000 
 1.000000  0.000000  0.000000  0.000000 
 0.000000  0.250000  0.750000  0.000000 
 0.000000  0.000000  1.000000  0.000000 
 0.000000  1.000000  0.000000  0.000000 
 1.000000  0.000000  0.000000  0.000000 
 0.000000  1.000000  0.000000  0.000000 
 0.250000  0.000000  0.750000  0.000000 
 0.000000  0.750000  0.250000  0.000000 
 1.000000  0.000000  0.000000  0.000000 
 0.000000  1.000000  0.000000  0.000000 
 0.500000  0.000000  0.500000  0.000000 
 0.000000  1.000000  0.000000  0.000000 
 1.000000  0.000000  0.000000  0.000000 
 0.000000  0.500000  0.500000  0.000000 
 0.750000  0.000000  0.250000  0.000000 
 0.000000  1.000000  0.000000  0.000000 
 1.000000  0.000000  0.000000  0.000000 
 0.000000  0.500000  0.500000  0.000000 
 0.750000  0.000000  0.250000  0.000000 
 0.000000  0.750000  0.250000  0.000000 
--------------------------------------------------------------------------------

--------------------------------------------------------------------------------
	Motif SAGGCACGCACRCASACASAC MEME-1 regular expression
--------------------------------------------------------------------------------
[CG]A[GC]GCAC[GA][CG]AC[AG]CA[CG][AG]CA[CG][AG][CG]
--------------------------------------------------------------------------------




Time  1.01 secs.

********************************************************************************


********************************************************************************
MOTIF CCWGCCT MEME-2	width =   7  sites =  13  llr = 116  E-value = 1.3e+001
********************************************************************************
--------------------------------------------------------------------------------
	Motif CCWGCCT MEME-2 Description
--------------------------------------------------------------------------------
Simplified        A  ::5::::
pos.-specific     C  aa::8a:
probability       G  :::a2::
matrix            T  ::5:::a

         bits    2.2 ** * * 
                 2.0 ** * * 
                 1.8 ** * **
                 1.5 ** * **
Relative         1.3 ** ****
Entropy          1.1 ** ****
(12.8 bits)      0.9 *******
                 0.7 *******
                 0.4 *******
                 0.2 *******
                 0.0 -------

Multilevel           CCAGCCT
consensus              T G  
sequence                    
                            
--------------------------------------------------------------------------------

--------------------------------------------------------------------------------
	Motif CCWGCCT MEME-2 sites sorted by position p-value
--------------------------------------------------------------------------------
Sequence name            Strand  Start   P-value             Site
-------------            ------  ----- ---------            -------
chr15:40377300-40377849      -      7  3.98e-05 GGAGTCTCTT CCAGCCT GAAGGC    
chr14:34682250-34682949      +     93  3.98e-05 CTTCAGAGCT CCAGCCT G         
chr13:111252450-11125309     -      3  3.98e-05 TGTGCACTTG CCAGCCT GC        
chr9:136608600-136609099     -     84  3.98e-05 CCACTGCACT CCAGCCT GCGTGACGGG
chr3:197391550-197391999     -     92  3.98e-05         TG CCAGCCT CACCACCCGC
chr11:102323700-10232414     +     71  3.98e-05 CTCGCGTGAC CCAGCCT AAGGGGGAAG
chr6:10317300-10318049       -     41  7.96e-05 GCGGCCTCTG CCTGCCT CCTTCCAGTT
chr6:16832050-16832599       -     93  7.96e-05          T CCTGCCT TGATACATAT
chr9:22124600-22125049       +     17  7.96e-05 ACAAGTGTGG CCTGCCT TCAAGATAGG
chr3:42538300-42538749       +     65  7.96e-05 TGTGTTTTGT CCTGCCT ACAGTATCTC
chr6:473950-474699           -     25  1.19e-04 TCTGAGCTTC CCAGGCT CGGTCATGGT
chr19:24065200-24065649      +     47  1.59e-04 taggggtctg cctggct ctagtggcca
chr14:51331750-51332699      -     82  1.59e-04 CTTCACATGG CCTGGCT TAGCATGCAA
--------------------------------------------------------------------------------

--------------------------------------------------------------------------------
	Motif CCWGCCT MEME-2 block diagrams
--------------------------------------------------------------------------------
SEQUENCE NAME            POSITION P-VALUE  MOTIF DIAGRAM
-------------            ----------------  -------------
chr15:40377300-40377849             4e-05  6_[-2]_87
chr14:34682250-34682949             4e-05  92_[+2]_1
chr13:111252450-11125309            4e-05  2_[-2]_91
chr9:136608600-136609099            4e-05  83_[-2]_10
chr3:197391550-197391999            4e-05  91_[-2]_2
chr11:102323700-10232414            4e-05  70_[+2]_23
chr6:10317300-10318049              8e-05  40_[-2]_53
chr6:16832050-16832599              8e-05  92_[-2]_1
chr9:22124600-22125049              8e-05  16_[+2]_77
chr3:42538300-42538749              8e-05  64_[+2]_29
chr6:473950-474699                0.00012  24_[-2]_69
chr19:24065200-24065649           0.00016  46_[+2]_47
chr14:51331750-51332699           0.00016  81_[-2]_12
--------------------------------------------------------------------------------

--------------------------------------------------------------------------------
	Motif CCWGCCT MEME-2 in BLOCKS format
--------------------------------------------------------------------------------
BL   MOTIF CCWGCCT width=7 seqs=13
chr15:40377300-40377849  (    7) CCAGCCT  1 
chr14:34682250-34682949  (   93) CCAGCCT  1 
chr13:111252450-11125309 (    3) CCAGCCT  1 
chr9:136608600-136609099 (   84) CCAGCCT  1 
chr3:197391550-197391999 (   92) CCAGCCT  1 
chr11:102323700-10232414 (   71) CCAGCCT  1 
chr6:10317300-10318049   (   41) CCTGCCT  1 
chr6:16832050-16832599   (   93) CCTGCCT  1 
chr9:22124600-22125049   (   17) CCTGCCT  1 
chr3:42538300-42538749   (   65) CCTGCCT  1 
chr6:473950-474699       (   25) CCAGGCT  1 
chr19:24065200-24065649  (   47) CCTGGCT  1 
chr14:51331750-51332699  (   82) CCTGGCT  1 
//

--------------------------------------------------------------------------------

--------------------------------------------------------------------------------
	Motif CCWGCCT MEME-2 position-specific scoring matrix
--------------------------------------------------------------------------------
log-odds matrix: alength= 4 w= 7 n= 3572 bayes= 8.62895 E= 1.3e+001 
 -1035    219  -1035  -1035 
 -1035    219  -1035  -1035 
    94  -1035  -1035     72 
 -1035  -1035    219  -1035 
 -1035    181      7  -1035 
 -1035    219  -1035  -1035 
 -1035  -1035  -1035    183 
--------------------------------------------------------------------------------

--------------------------------------------------------------------------------
	Motif CCWGCCT MEME-2 position-specific probability matrix
--------------------------------------------------------------------------------
letter-probability matrix: alength= 4 w= 7 nsites= 13 E= 1.3e+001 
 0.000000  1.000000  0.000000  0.000000 
 0.000000  1.000000  0.000000  0.000000 
 0.538462  0.000000  0.000000  0.461538 
 0.000000  0.000000  1.000000  0.000000 
 0.000000  0.769231  0.230769  0.000000 
 0.000000  1.000000  0.000000  0.000000 
 0.000000  0.000000  0.000000  1.000000 
--------------------------------------------------------------------------------

--------------------------------------------------------------------------------
	Motif CCWGCCT MEME-2 regular expression
--------------------------------------------------------------------------------
CC[AT]G[CG]CT
--------------------------------------------------------------------------------




Time  2.06 secs.

********************************************************************************


********************************************************************************
MOTIF GGGARGGRGRGA MEME-3	width =  12  sites =  13  llr = 139  E-value = 8.2e-001
********************************************************************************
--------------------------------------------------------------------------------
	Motif GGGARGGRGRGA MEME-3 Description
--------------------------------------------------------------------------------
Simplified        A  ::2a511424:8
pos.-specific     C  1::::2:::1::
probability       G  9a8:3686849:
matrix            T  ::::221::212

         bits    2.2  *          
                 2.0  *          
                 1.8 ** *      * 
                 1.5 ** *    * * 
Relative         1.3 ****  * * **
Entropy          1.1 ****  *** **
(15.4 bits)      0.9 ****  *** **
                 0.7 **** **** **
                 0.4 ********* **
                 0.2 ************
                 0.0 ------------

Multilevel           GGGAAGGGGAGA
consensus              A G  A G  
sequence                         
                                 
--------------------------------------------------------------------------------

--------------------------------------------------------------------------------
	Motif GGGARGGRGRGA MEME-3 sites sorted by position p-value
--------------------------------------------------------------------------------
Sequence name            Strand  Start   P-value                Site  
-------------            ------  ----- ---------            ------------
chr18:71509800-71510299      -      5  2.97e-07 TTAAACATTA GGGAGGGAGAGA TTTG      
chr14:34682250-34682949      +     51  8.95e-07 CTTTTTTGTG GGGAGGGGGCGA ATCTGATGCC
chr5:14187700-14188249       +     19  1.28e-06 TGAGACTTAT GGGAGGGGAGGA AGGAATTATT
chr1:153650950-153651299     +      2  2.19e-06          T GGGAGGGAGGGT TCGGAGCTTG
chr11:102323700-10232414     +     82  2.71e-06 CAGCCTAAGG GGGAAGTGGAGA AAAACAG   
chr6:171042750-171043199     -     89  3.27e-06          . GGGATTGGGAGA GAAATTCAGA
chr1:523900-524399           +     51  3.27e-06 AAGAGAGACG GGGATTGGGAGA GAAATTCAGA
chr6:164129450-164129999     +     26  3.82e-06 ACTTTTGTCA CGGAAGGAGGGA TGGAGACCTC
chr12:115912450-11591299     -     39  7.12e-06 TTGAACTTAA GGGAAGGGGTTA GGTGAGGAAG
chr3:42538300-42538749       -     78  8.14e-06 CAGAGATTCT GGAAAAGGGAGA TACTGTAGGC
chr13:100629600-10063024     -     17  1.33e-05 GGAAGAAGGT GGAAACGGGGGT AGTGGGAAAG
chr2:5504450-5505199         +      2  1.51e-05          A GGGAACAAGGGA GTGGTCACGC
chr6:16992350-16992899       -     85  2.31e-05       CTTT GGAAAGGAATGA GGTGTTCCAT
--------------------------------------------------------------------------------

--------------------------------------------------------------------------------
	Motif GGGARGGRGRGA MEME-3 block diagrams
--------------------------------------------------------------------------------
SEQUENCE NAME            POSITION P-VALUE  MOTIF DIAGRAM
-------------            ----------------  -------------
chr18:71509800-71510299             3e-07  4_[-3]_84
chr14:34682250-34682949             9e-07  50_[+3]_38
chr5:14187700-14188249            1.3e-06  18_[+3]_70
chr1:153650950-153651299          2.2e-06  1_[+3]_87
chr11:102323700-10232414          2.7e-06  81_[+3]_7
chr6:171042750-171043199          3.3e-06  88_[-3]
chr1:523900-524399                3.3e-06  50_[+3]_38
chr6:164129450-164129999          3.8e-06  25_[+3]_63
chr12:115912450-11591299          7.1e-06  38_[-3]_50
chr3:42538300-42538749            8.1e-06  77_[-3]_11
chr13:100629600-10063024          1.3e-05  16_[-3]_72
chr2:5504450-5505199              1.5e-05  1_[+3]_87
chr6:16992350-16992899            2.3e-05  84_[-3]_4
--------------------------------------------------------------------------------

--------------------------------------------------------------------------------
	Motif GGGARGGRGRGA MEME-3 in BLOCKS format
--------------------------------------------------------------------------------
BL   MOTIF GGGARGGRGRGA width=12 seqs=13
chr18:71509800-71510299  (    5) GGGAGGGAGAGA  1 
chr14:34682250-34682949  (   51) GGGAGGGGGCGA  1 
chr5:14187700-14188249   (   19) GGGAGGGGAGGA  1 
chr1:153650950-153651299 (    2) GGGAGGGAGGGT  1 
chr11:102323700-10232414 (   82) GGGAAGTGGAGA  1 
chr6:171042750-171043199 (   89) GGGATTGGGAGA  1 
chr1:523900-524399       (   51) GGGATTGGGAGA  1 
chr6:164129450-164129999 (   26) CGGAAGGAGGGA  1 
chr12:115912450-11591299 (   39) GGGAAGGGGTTA  1 
chr3:42538300-42538749   (   78) GGAAAAGGGAGA  1 
chr13:100629600-10063024 (   17) GGAAACGGGGGT  1 
chr2:5504450-5505199     (    2) GGGAACAAGGGA  1 
chr6:16992350-16992899   (   85) GGAAAGGAATGA  1 
//

--------------------------------------------------------------------------------

--------------------------------------------------------------------------------
	Motif GGGARGGRGRGA MEME-3 position-specific scoring matrix
--------------------------------------------------------------------------------
log-odds matrix: alength= 4 w= 12 n= 3382 bayes= 8.54989 E= 8.2e-001 
 -1035   -151    207  -1035 
 -1035  -1035    219  -1035 
   -28  -1035    181  -1035 
   183  -1035  -1035  -1035 
    94  -1035     49    -87 
  -187    -51    149    -87 
  -187  -1035    195   -187 
    45  -1035    149  -1035 
   -87  -1035    195  -1035 
    45   -151     81    -87 
 -1035  -1035    207   -187 
   159  -1035  -1035    -87 
--------------------------------------------------------------------------------

--------------------------------------------------------------------------------
	Motif GGGARGGRGRGA MEME-3 position-specific probability matrix
--------------------------------------------------------------------------------
letter-probability matrix: alength= 4 w= 12 nsites= 13 E= 8.2e-001 
 0.000000  0.076923  0.923077  0.000000 
 0.000000  0.000000  1.000000  0.000000 
 0.230769  0.000000  0.769231  0.000000 
 1.000000  0.000000  0.000000  0.000000 
 0.538462  0.000000  0.307692  0.153846 
 0.076923  0.153846  0.615385  0.153846 
 0.076923  0.000000  0.846154  0.076923 
 0.384615  0.000000  0.615385  0.000000 
 0.153846  0.000000  0.846154  0.000000 
 0.384615  0.076923  0.384615  0.153846 
 0.000000  0.000000  0.923077  0.076923 
 0.846154  0.000000  0.000000  0.153846 
--------------------------------------------------------------------------------

--------------------------------------------------------------------------------
	Motif GGGARGGRGRGA MEME-3 regular expression
--------------------------------------------------------------------------------
GG[GA]A[AG]GG[GA]G[AG]GA
--------------------------------------------------------------------------------




Time  3.07 secs.

********************************************************************************


********************************************************************************
MOTIF GGCCRGCYGGAG MEME-4	width =  12  sites =   6  llr = 76  E-value = 4.3e+003
********************************************************************************
--------------------------------------------------------------------------------
	Motif GGCCRGCYGGAG MEME-4 Description
--------------------------------------------------------------------------------
Simplified        A  :2::7:222:a:
pos.-specific     C  ::8a:275:::2
probability       G  a82:38::8a:8
matrix            T  ::::::23::::

         bits    2.2 *  *     *  
                 2.0 *  *     *  
                 1.8 *  *     ** 
                 1.5 **** *  ****
Relative         1.3 **** *  ****
Entropy          1.1 ******  ****
(18.4 bits)      0.9 ******* ****
                 0.7 ************
                 0.4 ************
                 0.2 ************
                 0.0 ------------

Multilevel           GGCCAGCCGGAG
consensus                G  T    
sequence                         
                                 
--------------------------------------------------------------------------------

--------------------------------------------------------------------------------
	Motif GGCCRGCYGGAG MEME-4 sites sorted by position p-value
--------------------------------------------------------------------------------
Sequence name            Strand  Start   P-value                Site  
-------------            ------  ----- ---------            ------------
chr6:164129450-164129999     +     60  6.14e-08 CCTTTTGCAT GGCCAGCTGGAG CCCCAGGTGT
chr1:523900-524399           +     10  1.07e-07  CTGGCCAGA GGCCAGCAGGAG GGAAACACCG
chr1:153650950-153651299     +     66  3.77e-07 CGGAGACTTG GGCCGGCCGGAC GCCCCTTCTG
chr6:473950-474699           +     86  1.61e-06 TTGCACCTCG GACCACCCGGAG TCC       
chr11:102323700-10232414     +     42  1.86e-06 AAGGAGTCCT GGGCGGTCGGAG CTTTCCCCTC
chr3:133718450-133718949     -     72  2.73e-06 CTTCGGTGAT GGCCAGATAGAG ATAAAATTCC
--------------------------------------------------------------------------------

--------------------------------------------------------------------------------
	Motif GGCCRGCYGGAG MEME-4 block diagrams
--------------------------------------------------------------------------------
SEQUENCE NAME            POSITION P-VALUE  MOTIF DIAGRAM
-------------            ----------------  -------------
chr6:164129450-164129999          6.1e-08  59_[+4]_29
chr1:523900-524399                1.1e-07  9_[+4]_79
chr1:153650950-153651299          3.8e-07  65_[+4]_23
chr6:473950-474699                1.6e-06  85_[+4]_3
chr11:102323700-10232414          1.9e-06  41_[+4]_47
chr3:133718450-133718949          2.7e-06  71_[-4]_17
--------------------------------------------------------------------------------

--------------------------------------------------------------------------------
	Motif GGCCRGCYGGAG MEME-4 in BLOCKS format
--------------------------------------------------------------------------------
BL   MOTIF GGCCRGCYGGAG width=12 seqs=6
chr6:164129450-164129999 (   60) GGCCAGCTGGAG  1 
chr1:523900-524399       (   10) GGCCAGCAGGAG  1 
chr1:153650950-153651299 (   66) GGCCGGCCGGAC  1 
chr6:473950-474699       (   86) GACCACCCGGAG  1 
chr11:102323700-10232414 (   42) GGGCGGTCGGAG  1 
chr3:133718450-133718949 (   72) GGCCAGATAGAG  1 
//

--------------------------------------------------------------------------------

--------------------------------------------------------------------------------
	Motif GGCCRGCYGGAG MEME-4 position-specific scoring matrix
--------------------------------------------------------------------------------
log-odds matrix: alength= 4 w= 12 n= 3382 bayes= 10.237 E= 4.3e+003 
  -923   -923    219   -923 
   -75   -923    193   -923 
  -923    193    -39   -923 
  -923    219   -923   -923 
   125   -923     60   -923 
  -923    -39    193   -923 
   -75    160   -923    -75 
   -75    119   -923     25 
   -75   -923    193   -923 
  -923   -923    219   -923 
   183   -923   -923   -923 
  -923    -39    193   -923 
--------------------------------------------------------------------------------

--------------------------------------------------------------------------------
	Motif GGCCRGCYGGAG MEME-4 position-specific probability matrix
--------------------------------------------------------------------------------
letter-probability matrix: alength= 4 w= 12 nsites= 6 E= 4.3e+003 
 0.000000  0.000000  1.000000  0.000000 
 0.166667  0.000000  0.833333  0.000000 
 0.000000  0.833333  0.166667  0.000000 
 0.000000  1.000000  0.000000  0.000000 
 0.666667  0.000000  0.333333  0.000000 
 0.000000  0.166667  0.833333  0.000000 
 0.166667  0.666667  0.000000  0.166667 
 0.166667  0.500000  0.000000  0.333333 
 0.166667  0.000000  0.833333  0.000000 
 0.000000  0.000000  1.000000  0.000000 
 1.000000  0.000000  0.000000  0.000000 
 0.000000  0.166667  0.833333  0.000000 
--------------------------------------------------------------------------------

--------------------------------------------------------------------------------
	Motif GGCCRGCYGGAG MEME-4 regular expression
--------------------------------------------------------------------------------
GGCC[AG]GC[CT]GGAG
--------------------------------------------------------------------------------




Time  4.00 secs.

********************************************************************************


********************************************************************************
MOTIF YTTWWTTTRTTKRAYTTSYTWTTKWKTTTT MEME-5	width =  30  sites =   7  llr = 141  E-value = 6.4e+003
********************************************************************************
--------------------------------------------------------------------------------
	Motif YTTWWTTTRTTKRAYTTSYTWTTKWKTTTT MEME-5 Description
--------------------------------------------------------------------------------
Simplified        A  ::13311:3::147:::11:43::31::::
pos.-specific     C  4111::::1::11:6:134:1:::::111:
probability       G  ::1:1::16:144::::41:1::414:1:1
matrix            T  69666999:a93:34a913a37a6649799

         bits    2.2                               
                 2.0                               
                 1.8          *     *   *  *       
                 1.5          *     *   *  *       
Relative         1.3  *   *** **    **  *  *   * **
Entropy          1.1 **   *** **   ***  *  **  * **
(29.0 bits)      0.9 **   *** **  ****  * ***  ****
                 0.7 **   ****** *****  * ***  ****
                 0.4 ** ******** *****  * *********
                 0.2 ******************** *********
                 0.0 ------------------------------

Multilevel           TTTTTTTTGTTGAACTTGCTATTTTGTTTT
consensus            C  AA   A  TGTT  CT TA GAT    
sequence                                           
                                                   
--------------------------------------------------------------------------------

--------------------------------------------------------------------------------
	Motif YTTWWTTTRTTKRAYTTSYTWTTKWKTTTT MEME-5 sites sorted by position p-value
--------------------------------------------------------------------------------
Sequence name            Strand  Start   P-value                         Site           
-------------            ------  ----- ---------            ------------------------------
chr5:42620500-42620999       +     47  2.21e-13 ggtaggAATT CTTCatttgttggacttgctaatttttttt ggtgtaaata
chr9:136608600-136609099     +     19  4.26e-11 ttttctagtt ttttgtttgtttgttttgttcttgtgtgtt tgtttttttg
chr3:100314500-100315199     +     32  1.04e-10 ctatttatct ttgtttttattgcatttgcttttgggttct tggtcatgaa
chrX:143455700-143456199     +     14  3.00e-10 ctttctgagg ctctatttatttatcttcttttttttcttt ctattgtatc
chr9:77463250-77463649       +     15  4.86e-10 ccataaattg ctttttttctgggattttctatttaatctt tttggcccat
chr6:44826100-44826549       -     28  5.16e-09 TGCCAACAGT TTTATATGGTTCAACTTAGTAATTATTTTG ATCTGTTATC
chr3:42538300-42538749       +     33  5.16e-09 TCTGGTGGCA TCAATTATGTTAAACTCCATGTTGTGTTTT GTCCTGCCTA
--------------------------------------------------------------------------------

--------------------------------------------------------------------------------
	Motif YTTWWTTTRTTKRAYTTSYTWTTKWKTTTT MEME-5 block diagrams
--------------------------------------------------------------------------------
SEQUENCE NAME            POSITION P-VALUE  MOTIF DIAGRAM
-------------            ----------------  -------------
chr5:42620500-42620999            2.2e-13  46_[+5]_24
chr9:136608600-136609099          4.3e-11  18_[+5]_52
chr3:100314500-100315199            1e-10  31_[+5]_39
chrX:143455700-143456199            3e-10  13_[+5]_57
chr9:77463250-77463649            4.9e-10  14_[+5]_56
chr6:44826100-44826549            5.2e-09  27_[-5]_43
chr3:42538300-42538749            5.2e-09  32_[+5]_38
--------------------------------------------------------------------------------

--------------------------------------------------------------------------------
	Motif YTTWWTTTRTTKRAYTTSYTWTTKWKTTTT MEME-5 in BLOCKS format
--------------------------------------------------------------------------------
BL   MOTIF YTTWWTTTRTTKRAYTTSYTWTTKWKTTTT width=30 seqs=7
chr5:42620500-42620999   (   47) CTTCATTTGTTGGACTTGCTAATTTTTTTT  1 
chr9:136608600-136609099 (   19) TTTTGTTTGTTTGTTTTGTTCTTGTGTGTT  1 
chr3:100314500-100315199 (   32) TTGTTTTTATTGCATTTGCTTTTGGGTTCT  1 
chrX:143455700-143456199 (   14) CTCTATTTATTTATCTTCTTTTTTTTCTTT  1 
chr9:77463250-77463649   (   15) CTTTTTTTCTGGGATTTTCTATTTAATCTT  1 
chr6:44826100-44826549   (   28) TTTATATGGTTCAACTTAGTAATTATTTTG  1 
chr3:42538300-42538749   (   33) TCAATTATGTTAAACTCCATGTTGTGTTTT  1 
//

--------------------------------------------------------------------------------

--------------------------------------------------------------------------------
	Motif YTTWWTTTRTTKRAYTTSYTWTTKWKTTTT MEME-5 position-specific scoring matrix
--------------------------------------------------------------------------------
log-odds matrix: alength= 4 w= 30 n= 2698 bayes= 8.43002 E= 6.4e+003 
  -945     97   -945    102 
  -945    -62   -945    161 
   -97    -62    -62    102 
     2    -62   -945    102 
     2   -945    -62    102 
   -97   -945   -945    161 
   -97   -945   -945    161 
  -945   -945    -62    161 
     2    -62    138   -945 
  -945   -945   -945    183 
  -945   -945    -62    161 
   -97    -62     97      2 
    61    -62     97   -945 
   135   -945   -945      2 
  -945    138   -945     61 
  -945   -945   -945    183 
  -945    -62   -945    161 
   -97     38     97    -97 
   -97     97    -62      2 
  -945   -945   -945    183 
    61    -62    -62      2 
     2   -945   -945    135 
  -945   -945   -945    183 
  -945   -945     97    102 
     2   -945    -62    102 
   -97   -945     97     61 
  -945    -62   -945    161 
  -945    -62    -62    135 
  -945    -62   -945    161 
  -945   -945    -62    161 
--------------------------------------------------------------------------------

--------------------------------------------------------------------------------
	Motif YTTWWTTTRTTKRAYTTSYTWTTKWKTTTT MEME-5 position-specific probability matrix
--------------------------------------------------------------------------------
letter-probability matrix: alength= 4 w= 30 nsites= 7 E= 6.4e+003 
 0.000000  0.428571  0.000000  0.571429 
 0.000000  0.142857  0.000000  0.857143 
 0.142857  0.142857  0.142857  0.571429 
 0.285714  0.142857  0.000000  0.571429 
 0.285714  0.000000  0.142857  0.571429 
 0.142857  0.000000  0.000000  0.857143 
 0.142857  0.000000  0.000000  0.857143 
 0.000000  0.000000  0.142857  0.857143 
 0.285714  0.142857  0.571429  0.000000 
 0.000000  0.000000  0.000000  1.000000 
 0.000000  0.000000  0.142857  0.857143 
 0.142857  0.142857  0.428571  0.285714 
 0.428571  0.142857  0.428571  0.000000 
 0.714286  0.000000  0.000000  0.285714 
 0.000000  0.571429  0.000000  0.428571 
 0.000000  0.000000  0.000000  1.000000 
 0.000000  0.142857  0.000000  0.857143 
 0.142857  0.285714  0.428571  0.142857 
 0.142857  0.428571  0.142857  0.285714 
 0.000000  0.000000  0.000000  1.000000 
 0.428571  0.142857  0.142857  0.285714 
 0.285714  0.000000  0.000000  0.714286 
 0.000000  0.000000  0.000000  1.000000 
 0.000000  0.000000  0.428571  0.571429 
 0.285714  0.000000  0.142857  0.571429 
 0.142857  0.000000  0.428571  0.428571 
 0.000000  0.142857  0.000000  0.857143 
 0.000000  0.142857  0.142857  0.714286 
 0.000000  0.142857  0.000000  0.857143 
 0.000000  0.000000  0.142857  0.857143 
--------------------------------------------------------------------------------

--------------------------------------------------------------------------------
	Motif YTTWWTTTRTTKRAYTTSYTWTTKWKTTTT MEME-5 regular expression
--------------------------------------------------------------------------------
[TC]TT[TA][TA]TTT[GA]TT[GT][AG][AT][CT]TT[GC][CT]T[AT][TA]T[TG][TA][GT]TTTT
--------------------------------------------------------------------------------




Time  4.91 secs.

********************************************************************************


********************************************************************************
MOTIF GWGCTGGACMCGAGACA MEME-6	width =  17  sites =   4  llr = 73  E-value = 1.2e+004
********************************************************************************
--------------------------------------------------------------------------------
	Motif GWGCTGGACMCGAGACA MEME-6 Description
--------------------------------------------------------------------------------
Simplified        A  :53:3::8:53:8:83a
pos.-specific     C  :::8::::a58:3:38:
probability       G  a:83:aa3:::a:a:::
matrix            T  :5::8::::::::::::

         bits    2.2 *    ** *  * *   
                 2.0 *    ** *  * *   
                 1.8 *    ** *  * *  *
                 1.5 *    ** *  * *  *
Relative         1.3 * ** ** * ** * **
Entropy          1.1 * ***************
(26.4 bits)      0.9 *****************
                 0.7 *****************
                 0.4 *****************
                 0.2 *****************
                 0.0 -----------------

Multilevel           GAGCTGGACACGAGACA
consensus             TAGA  G CA C CA 
sequence                              
                                      
--------------------------------------------------------------------------------

--------------------------------------------------------------------------------
	Motif GWGCTGGACMCGAGACA MEME-6 sites sorted by position p-value
--------------------------------------------------------------------------------
Sequence name            Strand  Start   P-value                  Site     
-------------            ------  ----- ---------            -----------------
chr6:164129450-164129999     -     79  5.26e-10      CCCAC GAGCTGGACACGCGACA CCTGGGGCTC
chr11:86289250-86289799      +     66  1.25e-09 CGGGGTGCCA GAACTGGACACGAGACA ACCAAGGACA
chr1:153650950-153651299     -     22  5.69e-09 GGAGGGAACC GTGGAGGACCCGAGCCA AGCTCCGAAC
chr15:40377300-40377849      +     73  8.96e-09 atttagggct gtgctgggccagagaaa cttatcttca
--------------------------------------------------------------------------------

--------------------------------------------------------------------------------
	Motif GWGCTGGACMCGAGACA MEME-6 block diagrams
--------------------------------------------------------------------------------
SEQUENCE NAME            POSITION P-VALUE  MOTIF DIAGRAM
-------------            ----------------  -------------
chr6:164129450-164129999          5.3e-10  78_[-6]_5
chr11:86289250-86289799           1.2e-09  65_[+6]_18
chr1:153650950-153651299          5.7e-09  21_[-6]_62
chr15:40377300-40377849             9e-09  72_[+6]_11
--------------------------------------------------------------------------------

--------------------------------------------------------------------------------
	Motif GWGCTGGACMCGAGACA MEME-6 in BLOCKS format
--------------------------------------------------------------------------------
BL   MOTIF GWGCTGGACMCGAGACA width=17 seqs=4
chr6:164129450-164129999 (   79) GAGCTGGACACGCGACA  1 
chr11:86289250-86289799  (   66) GAACTGGACACGAGACA  1 
chr1:153650950-153651299 (   22) GTGGAGGACCCGAGCCA  1 
chr15:40377300-40377849  (   73) GTGCTGGGCCAGAGAAA  1 
//

--------------------------------------------------------------------------------

--------------------------------------------------------------------------------
	Motif GWGCTGGACMCGAGACA MEME-6 position-specific scoring matrix
--------------------------------------------------------------------------------
log-odds matrix: alength= 4 w= 17 n= 3192 bayes= 10.3761 E= 1.2e+004 
  -865   -865    219   -865 
    83   -865   -865     83 
   -17   -865    177   -865 
  -865    177     19   -865 
   -17   -865   -865    141 
  -865   -865    219   -865 
  -865   -865    219   -865 
   141   -865     19   -865 
  -865    219   -865   -865 
    83    119   -865   -865 
   -17    177   -865   -865 
  -865   -865    219   -865 
   141     19   -865   -865 
  -865   -865    219   -865 
   141     19   -865   -865 
   -17    177   -865   -865 
   183   -865   -865   -865 
--------------------------------------------------------------------------------

--------------------------------------------------------------------------------
	Motif GWGCTGGACMCGAGACA MEME-6 position-specific probability matrix
--------------------------------------------------------------------------------
letter-probability matrix: alength= 4 w= 17 nsites= 4 E= 1.2e+004 
 0.000000  0.000000  1.000000  0.000000 
 0.500000  0.000000  0.000000  0.500000 
 0.250000  0.000000  0.750000  0.000000 
 0.000000  0.750000  0.250000  0.000000 
 0.250000  0.000000  0.000000  0.750000 
 0.000000  0.000000  1.000000  0.000000 
 0.000000  0.000000  1.000000  0.000000 
 0.750000  0.000000  0.250000  0.000000 
 0.000000  1.000000  0.000000  0.000000 
 0.500000  0.500000  0.000000  0.000000 
 0.250000  0.750000  0.000000  0.000000 
 0.000000  0.000000  1.000000  0.000000 
 0.750000  0.250000  0.000000  0.000000 
 0.000000  0.000000  1.000000  0.000000 
 0.750000  0.250000  0.000000  0.000000 
 0.250000  0.750000  0.000000  0.000000 
 1.000000  0.000000  0.000000  0.000000 
--------------------------------------------------------------------------------

--------------------------------------------------------------------------------
	Motif GWGCTGGACMCGAGACA MEME-6 regular expression
--------------------------------------------------------------------------------
G[AT][GA][CG][TA]GG[AG]C[AC][CA]G[AC]G[AC][CA]A
--------------------------------------------------------------------------------




Time  5.74 secs.

********************************************************************************


********************************************************************************
MOTIF GTAYCTSWGTSTGRGT MEME-7	width =  16  sites =   3  llr = 57  E-value = 7.6e+004
********************************************************************************
--------------------------------------------------------------------------------
	Motif GTAYCTSWGTSTGRGT MEME-7 Description
--------------------------------------------------------------------------------
Simplified        A  ::a::::3:::::7::
pos.-specific     C  :::3a:3:::7:::::
probability       G  a:::::7:a:3:a3a:
matrix            T  :a:7:a:7:a:a:::a

         bits    2.2 *   *   *   * * 
                 2.0 *   *   *   * * 
                 1.8 *** **  ** ** **
                 1.5 *** **  ** ** **
Relative         1.3 *** *** ***** **
Entropy          1.1 ******* ********
(27.5 bits)      0.9 ****************
                 0.7 ****************
                 0.4 ****************
                 0.2 ****************
                 0.0 ----------------

Multilevel           GTATCTGTGTCTGAGT
consensus               C  CA  G  G  
sequence                             
                                     
--------------------------------------------------------------------------------

--------------------------------------------------------------------------------
	Motif GTAYCTSWGTSTGRGT MEME-7 sites sorted by position p-value
--------------------------------------------------------------------------------
Sequence name            Strand  Start   P-value                  Site    
-------------            ------  ----- ---------            ----------------
chr19:24065200-24065649      -      5  6.75e-10 CTAACACTGT GTACCTGTGTCTGAGT ACTC      
chr6:171042750-171043199     +     29  2.45e-09 ctttgaatcc gtatctgtgtgtgggt gggtgtgtct
chrX:143455700-143456199     +     49  3.65e-09 tctttctatt gtatctcagtctgagt aatctcaatt
--------------------------------------------------------------------------------

--------------------------------------------------------------------------------
	Motif GTAYCTSWGTSTGRGT MEME-7 block diagrams
--------------------------------------------------------------------------------
SEQUENCE NAME            POSITION P-VALUE  MOTIF DIAGRAM
-------------            ----------------  -------------
chr19:24065200-24065649           6.8e-10  4_[-7]_80
chr6:171042750-171043199          2.5e-09  28_[+7]_56
chrX:143455700-143456199          3.7e-09  48_[+7]_36
--------------------------------------------------------------------------------

--------------------------------------------------------------------------------
	Motif GTAYCTSWGTSTGRGT MEME-7 in BLOCKS format
--------------------------------------------------------------------------------
BL   MOTIF GTAYCTSWGTSTGRGT width=16 seqs=3
chr19:24065200-24065649  (    5) GTACCTGTGTCTGAGT  1 
chr6:171042750-171043199 (   29) GTATCTGTGTGTGGGT  1 
chrX:143455700-143456199 (   49) GTATCTCAGTCTGAGT  1 
//

--------------------------------------------------------------------------------

--------------------------------------------------------------------------------
	Motif GTAYCTSWGTSTGRGT MEME-7 position-specific scoring matrix
--------------------------------------------------------------------------------
log-odds matrix: alength= 4 w= 16 n= 3230 bayes= 9.72962 E= 7.6e+004 
  -823   -823    219   -823 
  -823   -823   -823    183 
   183   -823   -823   -823 
  -823     60   -823    124 
  -823    219   -823   -823 
  -823   -823   -823    183 
  -823     60    160   -823 
    25   -823   -823    124 
  -823   -823    219   -823 
  -823   -823   -823    183 
  -823    160     60   -823 
  -823   -823   -823    183 
  -823   -823    219   -823 
   124   -823     60   -823 
  -823   -823    219   -823 
  -823   -823   -823    183 
--------------------------------------------------------------------------------

--------------------------------------------------------------------------------
	Motif GTAYCTSWGTSTGRGT MEME-7 position-specific probability matrix
--------------------------------------------------------------------------------
letter-probability matrix: alength= 4 w= 16 nsites= 3 E= 7.6e+004 
 0.000000  0.000000  1.000000  0.000000 
 0.000000  0.000000  0.000000  1.000000 
 1.000000  0.000000  0.000000  0.000000 
 0.000000  0.333333  0.000000  0.666667 
 0.000000  1.000000  0.000000  0.000000 
 0.000000  0.000000  0.000000  1.000000 
 0.000000  0.333333  0.666667  0.000000 
 0.333333  0.000000  0.000000  0.666667 
 0.000000  0.000000  1.000000  0.000000 
 0.000000  0.000000  0.000000  1.000000 
 0.000000  0.666667  0.333333  0.000000 
 0.000000  0.000000  0.000000  1.000000 
 0.000000  0.000000  1.000000  0.000000 
 0.666667  0.000000  0.333333  0.000000 
 0.000000  0.000000  1.000000  0.000000 
 0.000000  0.000000  0.000000  1.000000 
--------------------------------------------------------------------------------

--------------------------------------------------------------------------------
	Motif GTAYCTSWGTSTGRGT MEME-7 regular expression
--------------------------------------------------------------------------------
GTA[TC]CT[GC][TA]GT[CG]TG[AG]GT
--------------------------------------------------------------------------------




Time  6.55 secs.

********************************************************************************


********************************************************************************
SUMMARY OF MOTIFS
********************************************************************************

--------------------------------------------------------------------------------
	Combined block diagrams: non-overlapping sites with p-value < 0.0001
--------------------------------------------------------------------------------
SEQUENCE NAME            COMBINED P-VALUE  MOTIF DIAGRAM
-------------            ----------------  -------------
chr11:102323700-10232414         2.32e-06  41_[+4(1.86e-06)]_17_[+2(3.98e-05)]_\
    4_[+3(2.71e-06)]_7
chr6:473950-474699               5.79e-03  85_[+4(1.61e-06)]_3
chr5:14187700-14188249           4.43e-02  18_[+3(1.28e-06)]_70
chr14:51331750-51332699          6.01e-01  100
chr3:133718450-133718949         1.54e-03  71_[-4(2.73e-06)]_17
chr3:42538300-42538749           5.67e-08  32_[+5(5.16e-09)]_2_[+2(7.96e-05)]_\
    6_[-3(8.14e-06)]_11
chr3:197391550-197391999         7.21e-08  17_[-1(3.74e-06)]_16_[-1(1.35e-11)]_\
    16_[-2(3.98e-05)]_2
chr3:100314500-100315199         2.21e-05  31_[+5(1.04e-10)]_39
chr5:42620500-42620999           9.99e-07  46_[+5(2.21e-13)]_24
chr6:164129450-164129999         8.88e-11  25_[+3(3.82e-06)]_22_[+4(6.14e-08)]_\
    7_[-6(5.26e-10)]_5
chr9:136608600-136609099         3.45e-09  18_[+5(4.26e-11)]_35_[-2(3.98e-05)]_\
    10
chr13:111252450-11125309         8.99e-04  2_[-2(3.98e-05)]_28_[-2(3.98e-05)]_\
    56
chrX:143455700-143456199         6.38e-09  13_[+5(3.00e-10)]_5_[+7(3.65e-09)]_\
    36
chr14:34682250-34682949          2.23e-03  50_[+3(8.95e-07)]_30_[+2(3.98e-05)]_\
    1
chr9:77463250-77463649           1.35e-04  14_[+5(4.86e-10)]_56
chrX:142490150-142490549         6.06e-01  100
chr1:523900-524399               8.66e-15  9_[+4(1.07e-07)]_29_[+3(3.27e-06)]_\
    17_[+1(1.47e-12)]
chr9:22124600-22125049           2.51e-01  16_[+2(7.96e-05)]_77
chr13:100629600-10063024         7.67e-02  16_[-3(1.33e-05)]_72
chr13:76836050-76836549          1.64e-03  55_[-7(1.49e-05)]_29
chr6:171042750-171043199         3.69e-14  6_[-1(9.98e-06)]_1_[+7(2.45e-09)]_6_\
    [-1(1.47e-12)]_17_[-3(3.27e-06)]
chr2:142015050-142015599         8.92e-01  100
chr11:86289250-86289799          1.46e-04  65_[+6(1.25e-09)]_18
chr18:71509800-71510299          1.36e-02  4_[-3(2.97e-07)]_61_[-3(7.80e-05)]_\
    11
chr19:24065200-24065649          5.65e-06  4_[-7(6.75e-10)]_80
chr15:40377300-40377849          1.64e-05  6_[-2(3.98e-05)]_59_[+6(8.96e-09)]_\
    11
chr19:28916200-28916699          4.99e-02  100
chr6:67444900-67445299           5.36e-01  100
chr2:5504450-5505199             1.10e-02  1_[+3(1.51e-05)]_87
chr1:153650950-153651299         4.48e-09  1_[+3(2.19e-06)]_8_[-6(5.69e-09)]_\
    27_[+4(3.77e-07)]_23
chr6:16832050-16832599           1.47e-01  92_[-2(7.96e-05)]_1
chr6:26257300-26257949           9.39e-06  20_[-1(6.80e-11)]_59
chr6:10317300-10318049           3.39e-02  40_[-2(7.96e-05)]_53
chr12:114182450-11418309         8.04e-01  100
chr18:32629450-32630099          5.65e-01  100
chr6:44826100-44826549           6.18e-03  27_[-5(5.16e-09)]_43
chr12:115912450-11591299         8.61e-02  38_[-3(7.12e-06)]_50
chr6:16992350-16992899           8.96e-02  84_[-3(2.31e-05)]_4
--------------------------------------------------------------------------------

********************************************************************************


********************************************************************************
Stopped because requested number of motifs (7) found.
********************************************************************************

CPU: Sudins-iMac.local

********************************************************************************
