# motif_id	motif_alt_id	sequence_name	start	stop	strand	score	p-value	q-value	matched_sequence
CTTGGTCATGAAATYCTTGCCTAAGSCAA	MEME-2	chr2	43826903	43826931	-	51.05	7.24e-18	2.84e-13	CTTGGTCATGAAATCCTTGCCTAAGCCAA
CTTGGTCATGAAATYCTTGCCTAAGSCAA	MEME-2	chr3	100314758	100314786	+	50.5	1.79e-17	3.51e-13	cttggtcatgaaattcttgcctaagccaa
CTTGGTCATGAAATYCTTGCCTAAGSCAA	MEME-2	chr7	117565386	117565414	-	50.0417	4.74e-17	6.21e-13	CTTGGTCATGAAATCCTTGCCTAGGGCAA
CTTGGTCATGAAATYCTTGCCTAAGSCAA	MEME-2	chr4	131057552	131057580	-	44.3833	4.38e-15	4.22e-11	CTTGGTCACGAAATCCTTGCCTAAGCCAA
CTTGGTCATGAAATYCTTGCCTAAGSCAA	MEME-2	chr5	53039731	53039759	-	43.9667	5.38e-15	4.22e-11	CTTGGTCATGAAATCCTTGCCTAAGCCGA
CTTGGTCATGAAATYCTTGCCTAAGSCAA	MEME-2	chr21	23055613	23055641	+	38.125	2.26e-13	1.48e-09	TTTAGGCAAGCAAGTCTCCCCTCAGGCAA
CTTGGTCATGAAATYCTTGCCTAAGSCAA	MEME-2	chr17	78690396	78690424	+	21.6167	3.04e-10	1.7e-06	cttgctcatgagatccttgcctaaaccag
CTTGGTCATGAAATYCTTGCCTAAGSCAA	MEME-2	chr4	24862096	24862124	-	15.525	3.27e-09	1.6e-05	CCTGGTCATGATGTATTTGCCTAAGCCAA
CTTGGTCATGAAATYCTTGCCTAAGSCAA	MEME-2	chr21	23055495	23055523	+	-4.10833	1.56e-06	0.00682	TTTGGTGCAGAAATGTTTACCTAGGAAAA
CTTGGTCATGAAATYCTTGCCTAAGSCAA	MEME-2	chr3	100314754	100314782	-	-11.4917	1.05e-05	0.0412	CTTAGGCAAGAATTTCATGACCAAGAACC
CTTGGTCATGAAATYCTTGCCTAAGSCAA	MEME-2	chr13	111252632	111252660	+	-12.675	1.48e-05	0.0528	ttggctcatgcaatcatgcaggctggcaa
CTTGGTCATGAAATYCTTGCCTAAGSCAA	MEME-2	chr14	51332042	51332070	+	-16.2333	3.15e-05	0.103	TGAAGATAATGAAGTCCCGCCTCGGGCTA
CTTGGTCATGAAATYCTTGCCTAAGSCAA	MEME-2	chr2	43826907	43826935	+	-18.1583	5.06e-05	0.132	cttaggcaaggatttcatgaccaagaact
CTTGGTCATGAAATYCTTGCCTAAGSCAA	MEME-2	chr5	53039735	53039763	+	-18.1583	5.06e-05	0.132	cttaggcaaggatttcatgaccaagagcc
CTTGGTCATGAAATYCTTGCCTAAGSCAA	MEME-2	chr4	131057556	131057584	+	-18.1583	5.06e-05	0.132	cttaggcaaggatttcgtgaccaagaacc
CTTGGTCATGAAATYCTTGCCTAAGSCAA	MEME-2	chr14	51331816	51331844	-	-18.3167	5.42e-05	0.133	TATTTGCATGCATTCATTTACAAAGACAA
CTTGGTCATGAAATYCTTGCCTAAGSCAA	MEME-2	chr13	100629915	100629943	+	-18.75	6.03e-05	0.139	CTTGTTCTTTGACTTCTCCTGTCCAGCAA
CTTGGTCATGAAATYCTTGCCTAAGSCAA	MEME-2	chr2	43826678	43826706	+	-19.7417	7.58e-05	0.165	tatggccaactgagcttcgacaaagcaaa
CTTGGTCATGAAATYCTTGCCTAAGSCAA	MEME-2	chr2	5504818	5504846	+	-20.4667	8.98e-05	0.186	CTTTGCTATGTGATCTTTTCCTTATGCAC
