# motif_id	motif_alt_id	sequence_name	start	stop	strand	score	p-value	q-value	matched_sequence
AAGCAAATRCAATARAAACAAASATAA	MEME-1	chr17	78690262	78690288	-	43.6216	3.98e-16	4.1e-12	AAGCAAATGCAATAAAAACAAAGATAA
AAGCAAATRCAATARAAACAAASATAA	MEME-1	chr3	100314624	100314650	-	43.6216	3.98e-16	4.1e-12	AAGCAAATGCAATAAAAACAAAGATAA
AAGCAAATRCAATARAAACAAASATAA	MEME-1	chr5	53039667	53039693	+	43.6216	3.98e-16	4.1e-12	aagcaaatgcaataaaaacaaagataa
AAGCAAATRCAATARAAACAAASATAA	MEME-1	chr7	117565322	117565348	+	41.4865	1.11e-14	8.6e-11	aagcaaattcaatagaaacaaagataa
AAGCAAATRCAATARAAACAAASATAA	MEME-1	chr2	43826839	43826865	+	35.2523	3.07e-12	1.9e-08	aagcaaatacaataaaaacagagataa
AAGCAAATRCAATARAAACAAASATAA	MEME-1	chr9	136608717	136608743	-	28.9459	1.03e-10	5e-07	ACACAAGAACAAAACAAACAAACAAAA
AAGCAAATRCAATARAAACAAASATAA	MEME-1	chr14	63545307	63545333	+	28.7477	1.13e-10	5e-07	tagcaaataaaatctaggcaaacataa
AAGCAAATRCAATARAAACAAASATAA	MEME-1	chrX	143455830	143455856	-	28.4955	1.29e-10	5e-07	ACTGAGATACAATAGAAAGAAAAAAAA
AAGCAAATRCAATARAAACAAASATAA	MEME-1	chr4	24862032	24862058	+	28.1982	1.5e-10	5.15e-07	aagcatatgcaacaaaaacaaagataa
AAGCAAATRCAATARAAACAAASATAA	MEME-1	chr4	131057645	131057671	+	9.90991	2.21e-07	0.000683	accaacaagaaaaaaaaacaaacataa
AAGCAAATRCAATARAAACAAASATAA	MEME-1	chr13	100629657	100629683	-	5.4955	8.93e-07	0.00251	AAACAAGTGACCAAAAAAAAAAAAAAA
AAGCAAATRCAATARAAACAAASATAA	MEME-1	chr2	5504714	5504740	-	3.62162	1.57e-06	0.00405	AAGGAAAAGATCACATAGCAAAGAAAA
AAGCAAATRCAATARAAACAAASATAA	MEME-1	chrX	143455818	143455844	-	1.44144	2.97e-06	0.00707	TAGAAAGAAAAAAAAGAAGATAAATAA
AAGCAAATRCAATARAAACAAASATAA	MEME-1	chr9	93713004	93713030	+	0.252252	4.16e-06	0.00919	AGGGAGATGAAATTGAGACTAGAATAA
AAGCAAATRCAATARAAACAAASATAA	MEME-1	chr9	136608721	136608747	-	-0.792793	5.55e-06	0.0114	AAACACACAAGAACAAAACAAACAAAC
AAGCAAATRCAATARAAACAAASATAA	MEME-1	chr6	99195769	99195795	-	-1.58559	6.89e-06	0.0133	CAACAAAATAAATAATGACAAAGGAAG
AAGCAAATRCAATARAAACAAASATAA	MEME-1	chr5	38533665	38533691	-	-2.89189	9.76e-06	0.0177	GAACAGAGACAAAATAAGCAACAAAAT
AAGCAAATRCAATARAAACAAASATAA	MEME-1	chr9	136608725	136608751	-	-3.98198	1.3e-05	0.0195	AAACAAACACACAAGAACAAAACAAAC
AAGCAAATRCAATARAAACAAASATAA	MEME-1	chr4	131057649	131057675	+	-4	1.31e-05	0.0195	acaagaaaaaaaaacaaacataattaa
AAGCAAATRCAATARAAACAAASATAA	MEME-1	chr17	78690268	78690294	-	-4.04505	1.33e-05	0.0195	ACCCAAAAGCAAATGCAATAAAAACAA
AAGCAAATRCAATARAAACAAASATAA	MEME-1	chr3	100314630	100314656	-	-4.04505	1.33e-05	0.0195	ACCCAAAAGCAAATGCAATAAAAACAA
AAGCAAATRCAATARAAACAAASATAA	MEME-1	chr4	24862026	24862052	+	-5.24324	1.81e-05	0.0254	atacaaaagcatatgcaacaaaaacaa
AAGCAAATRCAATARAAACAAASATAA	MEME-1	chr3	65974192	65974218	+	-5.72072	2.04e-05	0.0265	TAGCAGAAACACAACAAAGAACACAAT
AAGCAAATRCAATARAAACAAASATAA	MEME-1	chr3	42538321	42538347	-	-5.75676	2.06e-05	0.0265	GAAAAAAGAAAAATGAAACTAAGAAAA
AAGCAAATRCAATARAAACAAASATAA	MEME-1	chr6	99195781	99195807	-	-6.38739	2.42e-05	0.0277	AAAAAAATTAAACAACAAAATAAATAA
AAGCAAATRCAATARAAACAAASATAA	MEME-1	chr4	131057639	131057665	+	-6.47748	2.47e-05	0.0277	actcaaaccaacaagaaaaaaaaacaa
AAGCAAATRCAATARAAACAAASATAA	MEME-1	chr3	42538326	42538352	-	-6.5045	2.49e-05	0.0277	AACCAGAAAAAAGAAAAATGAAACTAA
AAGCAAATRCAATARAAACAAASATAA	MEME-1	chr4	131057483	131057509	+	-6.57658	2.53e-05	0.0277	cccaaaagcaaattaaaacaaagataa
AAGCAAATRCAATARAAACAAASATAA	MEME-1	chr2	43826833	43826859	+	-6.67568	2.6e-05	0.0277	actcaaaagcaaatacaataaaaacag
AAGCAAATRCAATARAAACAAASATAA	MEME-1	chr4	131057487	131057513	+	-6.81081	2.69e-05	0.0277	aaagcaaattaaaacaaagataaatag
AAGCAAATRCAATARAAACAAASATAA	MEME-1	chr2	138011734	138011760	-	-7.24324	2.99e-05	0.0298	TCTCAAAATACAATATGACAAACATAT
AAGCAAATRCAATARAAACAAASATAA	MEME-1	chr2	138011635	138011661	+	-7.6036	3.27e-05	0.0316	GATCATAAATAAAATATCCAAAAATAA
AAGCAAATRCAATARAAACAAASATAA	MEME-1	chr9	136608706	136608732	-	-8.25225	3.83e-05	0.0359	AAACAAACAAACAAAAAACTAGAAAAT
AAGCAAATRCAATARAAACAAASATAA	MEME-1	chr2	43826843	43826869	+	-9.13514	4.75e-05	0.0431	aaatacaataaaaacagagataaatag
AAGCAAATRCAATARAAACAAASATAA	MEME-1	chr9	136608713	136608739	-	-9.41441	5.07e-05	0.044	AAGAACAAAACAAACAAACAAAAAACT
AAGCAAATRCAATARAAACAAASATAA	MEME-1	chr13	76836210	76836236	+	-9.45946	5.12e-05	0.044	AAAGAGATAACATCAGAGGAAGATAAA
AAGCAAATRCAATARAAACAAASATAA	MEME-1	chr13	100629655	100629681	-	-10.018	5.85e-05	0.0489	ACAAGTGACCAAAAAAAAAAAAAAAAA
AAGCAAATRCAATARAAACAAASATAA	MEME-1	chr12	77073339	77073365	+	-10.2072	6.12e-05	0.0498	aagcaaactcagaagagacagatgtat
AAGCAAATRCAATARAAACAAASATAA	MEME-1	chrX	143455822	143455848	-	-10.7387	6.93e-05	0.0534	ACAATAGAAAGAAAAAAAAGAAGATAA
AAGCAAATRCAATARAAACAAASATAA	MEME-1	chr9	77463406	77463432	+	-10.8919	7.19e-05	0.0534	aaactgaaacaatggaaggtaaaatgg
AAGCAAATRCAATARAAACAAASATAA	MEME-1	chr4	131057651	131057677	+	-10.8919	7.19e-05	0.0534	aagaaaaaaaaacaaacataattaaaa
AAGCAAATRCAATARAAACAAASATAA	MEME-1	chrX	142490327	142490353	+	-10.9369	7.26e-05	0.0534	CATCAGTAACAATTCAGAGAAAAAGTA
AAGCAAATRCAATARAAACAAASATAA	MEME-1	chr13	100629654	100629680	-	-11.7027	8.67e-05	0.0603	CAAGTGACCAAAAAAAAAAAAAAAAAA
AAGCAAATRCAATARAAACAAASATAA	MEME-1	chr5	53039661	53039687	+	-11.7568	8.78e-05	0.0603	gcccaaaagcaaatgcaataaaaacaa
AAGCAAATRCAATARAAACAAASATAA	MEME-1	chr4	131057488	131057514	+	-11.7568	8.78e-05	0.0603	aagcaaattaaaacaaagataaatagc
AAGCAAATRCAATARAAACAAASATAA	MEME-1	chr9	93712752	93712778	+	-11.982	9.25e-05	0.0622	AAATAAGGCCAATAAGAATAACAAAAA
