********************************************************************************
MEME - Motif discovery tool
********************************************************************************
MEME version 4.12.0 (Release date: Tue Jun 27 16:22:50 2017 -0700)

For further information on how to interpret these results or to get
a copy of the MEME software please access http://meme-suite.org .

This file may be used as input to the MAST algorithm for searching
sequence databases for matches to groups of motifs.  MAST is available
for interactive use and downloading at http://meme-suite.org .
********************************************************************************


********************************************************************************
REFERENCE
********************************************************************************
If you use this program in your research, please cite:

Timothy L. Bailey and Charles Elkan,
"Fitting a mixture model by expectation maximization to discover
motifs in biopolymers", Proceedings of the Second International
Conference on Intelligent Systems for Molecular Biology, pp. 28-36,
AAAI Press, Menlo Park, California, 1994.
********************************************************************************


********************************************************************************
TRAINING SET
********************************************************************************
DATAFILE= results/AHRpeaks_not-in-DHSs-withAHREs.bed-299.fa/jaspar/seqs-centered
ALPHABET= ACGT
Sequence name            Weight Length  Sequence name            Weight Length  
-------------            ------ ------  -------------            ------ ------  
chr4:131057400-131058299 1.0000    100  chr3:30367300-30367849   1.0000    100  
chr5:53039550-53040149   1.0000    100  chr2:223843200-223843749 1.0000    100  
chr4:24861800-24862399   1.0000    100  chr16:78330900-78331399  1.0000    100  
chr21:23055400-23055999  1.0000    100  chr9:93712750-93713449   1.0000    100  
chr5:38533650-38534099   1.0000    100  chr2:138011550-138012149 1.0000    100  
chr12:124723400-12472389 1.0000    100  chr7:117565150-117565649 1.0000    100  
chr17:78725650-78726099  1.0000    100  chr15:75054300-75054749  1.0000    100  
chr2:43826650-43827199   1.0000    100  chr12:77073250-77074049  1.0000    100  
chr10:9391250-9391649    1.0000    100  chr6:99195700-99196049   1.0000    100  
chr14:63545150-63545699  1.0000    100  chr17:78690100-78690649  1.0000    100  
chr3:65973950-65974299   1.0000    100  chr15:45402150-45402499  1.0000    100  
********************************************************************************

********************************************************************************
COMMAND LINE SUMMARY
********************************************************************************
This information can also be useful in the event you wish to report a
problem with the MEME software.

command: meme results/AHRpeaks_not-in-DHSs-withAHREs.bed-299.fa/jaspar/seqs-centered -oc results/AHRpeaks_not-in-DHSs-withAHREs.bed-299.fa/jaspar/meme_out -mod zoops -nmotifs 7 -minw 5 -maxw 30 -bfile results/AHRpeaks_not-in-DHSs-withAHREs.bed-299.fa/jaspar/background -dna -revcomp -nostatus 

model:  mod=         zoops    nmotifs=         7    evt=           inf
object function=  E-value of product of p-values
width:  minw=            5    maxw=           30
width:  wg=             11    ws=              1    endgaps=       yes
nsites: minsites=        2    maxsites=       22    wnsites=       0.8
theta:  spmap=         uni    spfuzz=        0.5
global: substring=     yes    branching=      no    wbranch=        no
em:     prior=   dirichlet    b=            0.01    maxiter=        50
        distance=    1e-05
data:   n=            2200    N=              22    shuffle=        -1
strands: + -
sample: seed=            0    ctfrac=         -1    maxwords=       -1
Letter frequencies in dataset:
A 0.299 C 0.201 G 0.201 T 0.299 
Background letter frequencies (from results/AHRpeaks_not-in-DHSs-withAHREs.bed-299.fa/jaspar/background):
A 0.305 C 0.195 G 0.195 T 0.305 
********************************************************************************


********************************************************************************
MOTIF ATCTTTGTTTTTATTGCATTTGCTTTTGGG MEME-1	width =  30  sites =   4  llr = 132  E-value = 1.3e-005
********************************************************************************
--------------------------------------------------------------------------------
	Motif ATCTTTGTTTTTATTGCATTTGCTTTTGGG MEME-1 Description
--------------------------------------------------------------------------------
Simplified        A  a:::::3:::::a:::3a::::::::::::
pos.-specific     C  ::a:::::::3:::3:8:::::83:3:3::
probability       G  ::::::8::::::::8:::::83:::388a
matrix            T  :a:aaa:aaa8a:a83::aaa3:8a88:3:

         bits    2.4   *                          *
                 2.1   *                          *
                 1.9   *                          *
                 1.7 ****** *** ***   **** * *  * *
Relative         1.4 ********** *** ******** *  ***
Entropy          1.2 ******************************
(47.5 bits)      0.9 ******************************
                 0.7 ******************************
                 0.5 ******************************
                 0.2 ******************************
                 0.0 ------------------------------

Multilevel           ATCTTTGTTTTTATTGCATTTGCTTTTGGG
consensus                  A   C   CTA    TGC CGCT 
sequence                                           
                                                   
--------------------------------------------------------------------------------

--------------------------------------------------------------------------------
	Motif ATCTTTGTTTTTATTGCATTTGCTTTTGGG MEME-1 sites sorted by position p-value
--------------------------------------------------------------------------------
Sequence name            Strand  Start   P-value                         Site           
-------------            ------  ----- ---------            ------------------------------
chr17:78690100-78690649      +     66  6.03e-18 ccagctattt atctttgtttttattgcatttgcttttggg ttctt     
chr5:53039550-53040149       -     14  6.03e-18 CCAGCTATTT ATCTTTGTTTTTATTGCATTTGCTTTTGGG CTCTTGGTCA
chr7:117565150-117565649     -     69  3.20e-16         TT ATCTTTGTTTCTATTGAATTTGCTTTTGGG TTCTTGGTCA
chr3:30367300-30367849       -     25  1.20e-13 TATCAAGAAA ATCTTTATTTTTATCTCATTTTGCTCGCTG TTTTGCTTGG
--------------------------------------------------------------------------------

--------------------------------------------------------------------------------
	Motif ATCTTTGTTTTTATTGCATTTGCTTTTGGG MEME-1 block diagrams
--------------------------------------------------------------------------------
SEQUENCE NAME            POSITION P-VALUE  MOTIF DIAGRAM
-------------            ----------------  -------------
chr17:78690100-78690649             6e-18  65_[+1]_5
chr5:53039550-53040149              6e-18  13_[-1]_57
chr7:117565150-117565649          3.2e-16  68_[-1]_2
chr3:30367300-30367849            1.2e-13  24_[-1]_46
--------------------------------------------------------------------------------

--------------------------------------------------------------------------------
	Motif ATCTTTGTTTTTATTGCATTTGCTTTTGGG MEME-1 in BLOCKS format
--------------------------------------------------------------------------------
BL   MOTIF ATCTTTGTTTTTATTGCATTTGCTTTTGGG width=30 seqs=4
chr17:78690100-78690649  (   66) ATCTTTGTTTTTATTGCATTTGCTTTTGGG  1 
chr5:53039550-53040149   (   14) ATCTTTGTTTTTATTGCATTTGCTTTTGGG  1 
chr7:117565150-117565649 (   69) ATCTTTGTTTCTATTGAATTTGCTTTTGGG  1 
chr3:30367300-30367849   (   25) ATCTTTATTTTTATCTCATTTTGCTCGCTG  1 
//

--------------------------------------------------------------------------------

--------------------------------------------------------------------------------
	Motif ATCTTTGTTTTTATTGCATTTGCTTTTGGG MEME-1 position-specific scoring matrix
--------------------------------------------------------------------------------
log-odds matrix: alength= 4 w= 30 n= 1562 bayes= 8.60548 E= 1.3e-005 
   171   -865   -865   -865 
  -865   -865   -865    171 
  -865    235   -865   -865 
  -865   -865   -865    171 
  -865   -865   -865    171 
  -865   -865   -865    171 
   -29   -865    194   -865 
  -865   -865   -865    171 
  -865   -865   -865    171 
  -865   -865   -865    171 
  -865     36   -865    130 
  -865   -865   -865    171 
   171   -865   -865   -865 
  -865   -865   -865    171 
  -865     36   -865    130 
  -865   -865    194    -29 
   -29    194   -865   -865 
   171   -865   -865   -865 
  -865   -865   -865    171 
  -865   -865   -865    171 
  -865   -865   -865    171 
  -865   -865    194    -29 
  -865    194     36   -865 
  -865     36   -865    130 
  -865   -865   -865    171 
  -865     36   -865    130 
  -865   -865     36    130 
  -865     36    194   -865 
  -865   -865    194    -29 
  -865   -865    235   -865 
--------------------------------------------------------------------------------

--------------------------------------------------------------------------------
	Motif ATCTTTGTTTTTATTGCATTTGCTTTTGGG MEME-1 position-specific probability matrix
--------------------------------------------------------------------------------
letter-probability matrix: alength= 4 w= 30 nsites= 4 E= 1.3e-005 
 1.000000  0.000000  0.000000  0.000000 
 0.000000  0.000000  0.000000  1.000000 
 0.000000  1.000000  0.000000  0.000000 
 0.000000  0.000000  0.000000  1.000000 
 0.000000  0.000000  0.000000  1.000000 
 0.000000  0.000000  0.000000  1.000000 
 0.250000  0.000000  0.750000  0.000000 
 0.000000  0.000000  0.000000  1.000000 
 0.000000  0.000000  0.000000  1.000000 
 0.000000  0.000000  0.000000  1.000000 
 0.000000  0.250000  0.000000  0.750000 
 0.000000  0.000000  0.000000  1.000000 
 1.000000  0.000000  0.000000  0.000000 
 0.000000  0.000000  0.000000  1.000000 
 0.000000  0.250000  0.000000  0.750000 
 0.000000  0.000000  0.750000  0.250000 
 0.250000  0.750000  0.000000  0.000000 
 1.000000  0.000000  0.000000  0.000000 
 0.000000  0.000000  0.000000  1.000000 
 0.000000  0.000000  0.000000  1.000000 
 0.000000  0.000000  0.000000  1.000000 
 0.000000  0.000000  0.750000  0.250000 
 0.000000  0.750000  0.250000  0.000000 
 0.000000  0.250000  0.000000  0.750000 
 0.000000  0.000000  0.000000  1.000000 
 0.000000  0.250000  0.000000  0.750000 
 0.000000  0.000000  0.250000  0.750000 
 0.000000  0.250000  0.750000  0.000000 
 0.000000  0.000000  0.750000  0.250000 
 0.000000  0.000000  1.000000  0.000000 
--------------------------------------------------------------------------------

--------------------------------------------------------------------------------
	Motif ATCTTTGTTTTTATTGCATTTGCTTTTGGG MEME-1 regular expression
--------------------------------------------------------------------------------
ATCTTT[GA]TTT[TC]TAT[TC][GT][CA]ATTT[GT][CG][TC]T[TC][TG][GC][GT]G
--------------------------------------------------------------------------------




Time  0.39 secs.

********************************************************************************


********************************************************************************
MOTIF GMWYRRSAAAVGKAASAGKVAG MEME-2	width =  22  sites =   9  llr = 153  E-value = 3.5e-006
********************************************************************************
--------------------------------------------------------------------------------
	Motif GMWYRRSAAAVGKAASAGKVAG MEME-2 Description
--------------------------------------------------------------------------------
Simplified        A  :34133:86a31:89:9:12a1
pos.-specific     C  :6141:7:2:2::::7:::4::
probability       G  a11:66312:397213:863:9
matrix            T  ::34:1:1::1:3:::123:::

         bits    2.4 *                     
                 2.1 *                     
                 1.9 *          *         *
                 1.7 *        * *        **
Relative         1.4 *     *  * *   * *  **
Entropy          1.2 *     *  * *******  **
(24.5 bits)      0.9 *     *  * *******  **
                 0.7 ** ***** * ***********
                 0.5 ** ******* ***********
                 0.2 ** *******************
                 0.0 ----------------------

Multilevel           GCACGGCAAAAGGAACAGGCAG
consensus             ATTAAG C G TG G TTG  
sequence                     G C        A  
                                           
--------------------------------------------------------------------------------

--------------------------------------------------------------------------------
	Motif GMWYRRSAAAVGKAASAGKVAG MEME-2 sites sorted by position p-value
--------------------------------------------------------------------------------
Sequence name            Strand  Start   P-value                     Site       
-------------            ------  ----- ---------            ----------------------
chr5:53039550-53040149       +     78  4.12e-13 aaggagtttt gcacggcaaagggaacagtcag c         
chr17:78690100-78690649      -      9  1.42e-12 AAGGCCTTTT GCACGGCAAAAGGAACAGTCAG CAGAGTAA  
chr4:131057400-131058299     +     45  3.22e-11 aagagctttt gcatgacaaaaggaacagtcag cagagtaaac
chr2:223843200-223843749     +     36  8.25e-09 tcaagtcttt gcatgagaaaggtaagagggaa gttaatctat
chr5:38533650-38534099       +     13  1.87e-08 GGTAGAGACA GATCAGGAAACGTGACAGAGAG TGAGTTAGCA
chr6:99195700-99196049       -     36  2.36e-08 CAGAAGGAAG GATAGGCAGAAGGAAGTGGAAG GGATGCAATA
chr10:9391250-9391649        +     69  4.18e-08 ggtggagaag gagcaagagagagaagagggag atgccacaca
chr12:124723400-12472389     -     68  1.65e-07 GCTGTTTACT GCTTAGCTCATGTGACATGAAG ATTGTGAGGA
chr16:78330900-78331399      +     10  4.91e-07  TTATTTTAC GGCTCTCGCACGGAGCATGCAG CTGTGTAAAC
--------------------------------------------------------------------------------

--------------------------------------------------------------------------------
	Motif GMWYRRSAAAVGKAASAGKVAG MEME-2 block diagrams
--------------------------------------------------------------------------------
SEQUENCE NAME            POSITION P-VALUE  MOTIF DIAGRAM
-------------            ----------------  -------------
chr5:53039550-53040149            4.1e-13  77_[+2]_1
chr17:78690100-78690649           1.4e-12  8_[-2]_70
chr4:131057400-131058299          3.2e-11  44_[+2]_34
chr2:223843200-223843749          8.2e-09  35_[+2]_43
chr5:38533650-38534099            1.9e-08  12_[+2]_66
chr6:99195700-99196049            2.4e-08  35_[-2]_43
chr10:9391250-9391649             4.2e-08  68_[+2]_10
chr12:124723400-12472389          1.6e-07  67_[-2]_11
chr16:78330900-78331399           4.9e-07  9_[+2]_69
--------------------------------------------------------------------------------

--------------------------------------------------------------------------------
	Motif GMWYRRSAAAVGKAASAGKVAG MEME-2 in BLOCKS format
--------------------------------------------------------------------------------
BL   MOTIF GMWYRRSAAAVGKAASAGKVAG width=22 seqs=9
chr5:53039550-53040149   (   78) GCACGGCAAAGGGAACAGTCAG  1 
chr17:78690100-78690649  (    9) GCACGGCAAAAGGAACAGTCAG  1 
chr4:131057400-131058299 (   45) GCATGACAAAAGGAACAGTCAG  1 
chr2:223843200-223843749 (   36) GCATGAGAAAGGTAAGAGGGAA  1 
chr5:38533650-38534099   (   13) GATCAGGAAACGTGACAGAGAG  1 
chr6:99195700-99196049   (   36) GATAGGCAGAAGGAAGTGGAAG  1 
chr10:9391250-9391649    (   69) GAGCAAGAGAGAGAAGAGGGAG  1 
chr12:124723400-12472389 (   68) GCTTAGCTCATGTGACATGAAG  1 
chr16:78330900-78331399  (   10) GGCTCTCGCACGGAGCATGCAG  1 
//

--------------------------------------------------------------------------------

--------------------------------------------------------------------------------
	Motif GMWYRRSAAAVGKAASAGKVAG MEME-2 position-specific scoring matrix
--------------------------------------------------------------------------------
log-odds matrix: alength= 4 w= 22 n= 1738 bayes= 7.72077 E= 3.5e-006 
  -982   -982    236   -982 
    13    151    -81   -982 
    54    -81    -81     13 
  -145    119   -982     54 
    13    -81    151   -982 
    13   -982    151   -145 
  -982    177     77   -982 
   135   -982    -81   -145 
    86     19     19   -982 
   171   -982   -982   -982 
    13     19     77   -145 
  -145   -982    219   -982 
  -982   -982    177     13 
   135   -982     19   -982 
   154   -982    -81   -982 
  -982    177     77   -982 
   154   -982   -982   -145 
  -982   -982    199    -46 
  -145   -982    151     13 
   -46    119     77   -982 
   171   -982   -982   -982 
  -145   -982    219   -982 
--------------------------------------------------------------------------------

--------------------------------------------------------------------------------
	Motif GMWYRRSAAAVGKAASAGKVAG MEME-2 position-specific probability matrix
--------------------------------------------------------------------------------
letter-probability matrix: alength= 4 w= 22 nsites= 9 E= 3.5e-006 
 0.000000  0.000000  1.000000  0.000000 
 0.333333  0.555556  0.111111  0.000000 
 0.444444  0.111111  0.111111  0.333333 
 0.111111  0.444444  0.000000  0.444444 
 0.333333  0.111111  0.555556  0.000000 
 0.333333  0.000000  0.555556  0.111111 
 0.000000  0.666667  0.333333  0.000000 
 0.777778  0.000000  0.111111  0.111111 
 0.555556  0.222222  0.222222  0.000000 
 1.000000  0.000000  0.000000  0.000000 
 0.333333  0.222222  0.333333  0.111111 
 0.111111  0.000000  0.888889  0.000000 
 0.000000  0.000000  0.666667  0.333333 
 0.777778  0.000000  0.222222  0.000000 
 0.888889  0.000000  0.111111  0.000000 
 0.000000  0.666667  0.333333  0.000000 
 0.888889  0.000000  0.000000  0.111111 
 0.000000  0.000000  0.777778  0.222222 
 0.111111  0.000000  0.555556  0.333333 
 0.222222  0.444444  0.333333  0.000000 
 1.000000  0.000000  0.000000  0.000000 
 0.111111  0.000000  0.888889  0.000000 
--------------------------------------------------------------------------------

--------------------------------------------------------------------------------
	Motif GMWYRRSAAAVGKAASAGKVAG MEME-2 regular expression
--------------------------------------------------------------------------------
G[CA][AT][CT][GA][GA][CG]A[ACG]A[AGC]G[GT][AG]A[CG]A[GT][GT][CGA]AG
--------------------------------------------------------------------------------




Time  0.76 secs.

********************************************************************************


********************************************************************************
MOTIF TCTRKVAVATAACWTHAGAAAADCCCT MEME-3	width =  27  sites =   8  llr = 155  E-value = 8.5e-004
********************************************************************************
--------------------------------------------------------------------------------
	Motif TCTRKVAVATAACWTHAGAAAADCCCT MEME-3 Description
--------------------------------------------------------------------------------
Simplified        A  ::3415936:89:6:38:689a4::1:
pos.-specific     C  1a11:3:31:3:8:14:31::::889:
probability       G  3::5531511:1::3138::1:43:::
matrix            T  6:6:4:::19::3463::33::3:3:a

         bits    2.4  *                         
                 2.1  *                         
                 1.9  *                         
                 1.7  *               *   * * **
Relative         1.4  *          *    *   * ****
Entropy          1.2  *    *  ****   **  ** ****
(27.9 bits)      0.9  *    *  ****   ** *** ****
                 0.7 ** ** ** ****** ** *** ****
                 0.5 ******** ****** ***********
                 0.2 ***************************
                 0.0 ---------------------------

Multilevel           TCTGGAAGATAACATCAGAAAAACCCT
consensus            G AATC A  C TTGAGCTT  GGT  
sequence                  G C       T      T    
                                                
--------------------------------------------------------------------------------

--------------------------------------------------------------------------------
	Motif TCTRKVAVATAACWTHAGAAAADCCCT MEME-3 sites sorted by position p-value
--------------------------------------------------------------------------------
Sequence name            Strand  Start   P-value                       Site          
-------------            ------  ----- ---------            ---------------------------
chr2:43826650-43827199       +     24  3.22e-13 ctctaaaaac tctagaagataacattggaaaaaccct gacgttggct
chr4:24861800-24862399       +     63  1.61e-12 ccacaaaaat tctataagatagcatcagaaaaaccct tctagacatt
chr7:117565150-117565649     +      3  4.79e-11         at tccagaagataacattggaaaaactct tctaggcatt
chr9:93712750-93713449       -      6  2.52e-09 TGCCTTCTTG CCTCACAGATAATTGAAGAAAATCCCT TAAGT     
chr17:78690100-78690649      -     34  3.34e-09 AAGATAAATA GCTGGGACTTAATTTAACTAAAGGCCT TTTGCACGGC
chr12:124723400-12472389     +     26  3.58e-09 GGCAGAGTTC GCTGGGGAGTAACAGGAGTTAAGGCCT CCAGGTCCTC
chr3:65973950-65974299       +     20  5.63e-09 AGGTCTCTCC TCAGTCACATCACTCCAGATGAGCCAT CAGCGGCTGC
chr15:45402150-45402499      -     35  1.12e-08 CACTCTATCT TCAGTAAACGCACATCACCAAATCTCT GCCGTGTTCA
--------------------------------------------------------------------------------

--------------------------------------------------------------------------------
	Motif TCTRKVAVATAACWTHAGAAAADCCCT MEME-3 block diagrams
--------------------------------------------------------------------------------
SEQUENCE NAME            POSITION P-VALUE  MOTIF DIAGRAM
-------------            ----------------  -------------
chr2:43826650-43827199            3.2e-13  23_[+3]_50
chr4:24861800-24862399            1.6e-12  62_[+3]_11
chr7:117565150-117565649          4.8e-11  2_[+3]_71
chr9:93712750-93713449            2.5e-09  5_[-3]_68
chr17:78690100-78690649           3.3e-09  33_[-3]_40
chr12:124723400-12472389          3.6e-09  25_[+3]_48
chr3:65973950-65974299            5.6e-09  19_[+3]_54
chr15:45402150-45402499           1.1e-08  34_[-3]_39
--------------------------------------------------------------------------------

--------------------------------------------------------------------------------
	Motif TCTRKVAVATAACWTHAGAAAADCCCT MEME-3 in BLOCKS format
--------------------------------------------------------------------------------
BL   MOTIF TCTRKVAVATAACWTHAGAAAADCCCT width=27 seqs=8
chr2:43826650-43827199   (   24) TCTAGAAGATAACATTGGAAAAACCCT  1 
chr4:24861800-24862399   (   63) TCTATAAGATAGCATCAGAAAAACCCT  1 
chr7:117565150-117565649 (    3) TCCAGAAGATAACATTGGAAAAACTCT  1 
chr9:93712750-93713449   (    6) CCTCACAGATAATTGAAGAAAATCCCT  1 
chr17:78690100-78690649  (   34) GCTGGGACTTAATTTAACTAAAGGCCT  1 
chr12:124723400-12472389 (   26) GCTGGGGAGTAACAGGAGTTAAGGCCT  1 
chr3:65973950-65974299   (   20) TCAGTCACATCACTCCAGATGAGCCAT  1 
chr15:45402150-45402499  (   35) TCAGTAAACGCACATCACCAAATCTCT  1 
//

--------------------------------------------------------------------------------

--------------------------------------------------------------------------------
	Motif TCTRKVAVATAACWTHAGAAAADCCCT MEME-3 position-specific scoring matrix
--------------------------------------------------------------------------------
log-odds matrix: alength= 4 w= 27 n= 1628 bayes= 6.80807 E= 8.5e-004 
  -965    -64     36    103 
  -965    236   -965   -965 
   -29    -64   -965    103 
    30    -64    136   -965 
  -128   -965    136     30 
    71     36     36   -965 
   152   -965    -64   -965 
   -29     36    136   -965 
   103    -64    -64   -128 
  -965   -965    -64    152 
   130     36   -965   -965 
   152   -965    -64   -965 
  -965    194   -965    -29 
   103   -965   -965     30 
  -965    -64     36    103 
   -29     94    -64    -29 
   130   -965     36   -965 
  -965     36    194   -965 
   103    -64   -965    -29 
   130   -965   -965    -29 
   152   -965    -64   -965 
   171   -965   -965   -965 
    30   -965     94    -29 
  -965    194     36   -965 
  -965    194   -965    -29 
  -128    216   -965   -965 
  -965   -965   -965    171 
--------------------------------------------------------------------------------

--------------------------------------------------------------------------------
	Motif TCTRKVAVATAACWTHAGAAAADCCCT MEME-3 position-specific probability matrix
--------------------------------------------------------------------------------
letter-probability matrix: alength= 4 w= 27 nsites= 8 E= 8.5e-004 
 0.000000  0.125000  0.250000  0.625000 
 0.000000  1.000000  0.000000  0.000000 
 0.250000  0.125000  0.000000  0.625000 
 0.375000  0.125000  0.500000  0.000000 
 0.125000  0.000000  0.500000  0.375000 
 0.500000  0.250000  0.250000  0.000000 
 0.875000  0.000000  0.125000  0.000000 
 0.250000  0.250000  0.500000  0.000000 
 0.625000  0.125000  0.125000  0.125000 
 0.000000  0.000000  0.125000  0.875000 
 0.750000  0.250000  0.000000  0.000000 
 0.875000  0.000000  0.125000  0.000000 
 0.000000  0.750000  0.000000  0.250000 
 0.625000  0.000000  0.000000  0.375000 
 0.000000  0.125000  0.250000  0.625000 
 0.250000  0.375000  0.125000  0.250000 
 0.750000  0.000000  0.250000  0.000000 
 0.000000  0.250000  0.750000  0.000000 
 0.625000  0.125000  0.000000  0.250000 
 0.750000  0.000000  0.000000  0.250000 
 0.875000  0.000000  0.125000  0.000000 
 1.000000  0.000000  0.000000  0.000000 
 0.375000  0.000000  0.375000  0.250000 
 0.000000  0.750000  0.250000  0.000000 
 0.000000  0.750000  0.000000  0.250000 
 0.125000  0.875000  0.000000  0.000000 
 0.000000  0.000000  0.000000  1.000000 
--------------------------------------------------------------------------------

--------------------------------------------------------------------------------
	Motif TCTRKVAVATAACWTHAGAAAADCCCT MEME-3 regular expression
--------------------------------------------------------------------------------
[TG]C[TA][GA][GT][ACG]A[GAC]AT[AC]A[CT][AT][TG][CAT][AG][GC][AT][AT]AA[AGT][CG][CT]CT
--------------------------------------------------------------------------------




Time  1.09 secs.

********************************************************************************


********************************************************************************
MOTIF TTRGKCAWGMAAKYCTYSCCTMRGSCAA MEME-4	width =  28  sites =   3  llr = 97  E-value = 2.8e+001
********************************************************************************
--------------------------------------------------------------------------------
	Motif TTRGKCAWGMAAKYCTYSCCTMRGSCAA MEME-4 Description
--------------------------------------------------------------------------------
Simplified        A  ::3:::a3:7aa:::::::::77:::aa
pos.-specific     C  :::::a:::3:::7a:33aa:3::3a::
probability       G  ::7a3:::a:::3::::7::::3a7:::
matrix            T  aa::7::7::::73:a7:::a:::::::

         bits    2.4    * *  *     *   **   * *  
                 2.1    * *  *     *   **   * *  
                 1.9    * *  *     *   **   * *  
                 1.7 ** * ** * **  **  ***  * ***
Relative         1.4 ** * ** * **  ** ****  *****
Entropy          1.2 **** ** * ** *** ****  *****
(46.5 bits)      0.9 ******* ********************
                 0.7 ****************************
                 0.5 ****************************
                 0.2 ****************************
                 0.0 ----------------------------

Multilevel           TTGGTCATGAAATCCTTGCCTAAGGCAA
consensus              A G  A C  GT  CC   CG C   
sequence                                         
                                                 
--------------------------------------------------------------------------------

--------------------------------------------------------------------------------
	Motif TTRGKCAWGMAAKYCTYSCCTMRGSCAA MEME-4 sites sorted by position p-value
--------------------------------------------------------------------------------
Sequence name            Strand  Start   P-value                        Site          
-------------            ------  ----- ---------            ----------------------------
chr7:117565150-117565649     -     38  8.20e-17 TTTTGGGTTC TTGGTCATGAAATCCTTGCCTAGGGCAA TGCCTAGAAG
chr2:43826650-43827199       -     55  3.25e-16 TTTTGAGTTC TTGGTCATGAAATCCTTGCCTAAGCCAA CGTCAGGGTT
chr21:23055400-23055999      +     16  1.67e-14 GTTAGATAAT TTAGGCAAGCAAGTCTCCCCTCAGGCAA Tagattgcta
--------------------------------------------------------------------------------

--------------------------------------------------------------------------------
	Motif TTRGKCAWGMAAKYCTYSCCTMRGSCAA MEME-4 block diagrams
--------------------------------------------------------------------------------
SEQUENCE NAME            POSITION P-VALUE  MOTIF DIAGRAM
-------------            ----------------  -------------
chr7:117565150-117565649          8.2e-17  37_[-4]_35
chr2:43826650-43827199            3.3e-16  54_[-4]_18
chr21:23055400-23055999           1.7e-14  15_[+4]_57
--------------------------------------------------------------------------------

--------------------------------------------------------------------------------
	Motif TTRGKCAWGMAAKYCTYSCCTMRGSCAA MEME-4 in BLOCKS format
--------------------------------------------------------------------------------
BL   MOTIF TTRGKCAWGMAAKYCTYSCCTMRGSCAA width=28 seqs=3
chr7:117565150-117565649 (   38) TTGGTCATGAAATCCTTGCCTAGGGCAA  1 
chr2:43826650-43827199   (   55) TTGGTCATGAAATCCTTGCCTAAGCCAA  1 
chr21:23055400-23055999  (   16) TTAGGCAAGCAAGTCTCCCCTCAGGCAA  1 
//

--------------------------------------------------------------------------------

--------------------------------------------------------------------------------
	Motif TTRGKCAWGMAAKYCTYSCCTMRGSCAA MEME-4 position-specific scoring matrix
--------------------------------------------------------------------------------
log-odds matrix: alength= 4 w= 28 n= 1606 bayes= 8.71984 E= 2.8e+001 
  -823   -823   -823    171 
  -823   -823   -823    171 
    13   -823    177   -823 
  -823   -823    235   -823 
  -823   -823     77    113 
  -823    235   -823   -823 
   171   -823   -823   -823 
    13   -823   -823    113 
  -823   -823    235   -823 
   113     77   -823   -823 
   171   -823   -823   -823 
   171   -823   -823   -823 
  -823   -823     77    113 
  -823    177   -823     13 
  -823    235   -823   -823 
  -823   -823   -823    171 
  -823     77   -823    113 
  -823     77    177   -823 
  -823    235   -823   -823 
  -823    235   -823   -823 
  -823   -823   -823    171 
   113     77   -823   -823 
   113   -823     77   -823 
  -823   -823    235   -823 
  -823     77    177   -823 
  -823    235   -823   -823 
   171   -823   -823   -823 
   171   -823   -823   -823 
--------------------------------------------------------------------------------

--------------------------------------------------------------------------------
	Motif TTRGKCAWGMAAKYCTYSCCTMRGSCAA MEME-4 position-specific probability matrix
--------------------------------------------------------------------------------
letter-probability matrix: alength= 4 w= 28 nsites= 3 E= 2.8e+001 
 0.000000  0.000000  0.000000  1.000000 
 0.000000  0.000000  0.000000  1.000000 
 0.333333  0.000000  0.666667  0.000000 
 0.000000  0.000000  1.000000  0.000000 
 0.000000  0.000000  0.333333  0.666667 
 0.000000  1.000000  0.000000  0.000000 
 1.000000  0.000000  0.000000  0.000000 
 0.333333  0.000000  0.000000  0.666667 
 0.000000  0.000000  1.000000  0.000000 
 0.666667  0.333333  0.000000  0.000000 
 1.000000  0.000000  0.000000  0.000000 
 1.000000  0.000000  0.000000  0.000000 
 0.000000  0.000000  0.333333  0.666667 
 0.000000  0.666667  0.000000  0.333333 
 0.000000  1.000000  0.000000  0.000000 
 0.000000  0.000000  0.000000  1.000000 
 0.000000  0.333333  0.000000  0.666667 
 0.000000  0.333333  0.666667  0.000000 
 0.000000  1.000000  0.000000  0.000000 
 0.000000  1.000000  0.000000  0.000000 
 0.000000  0.000000  0.000000  1.000000 
 0.666667  0.333333  0.000000  0.000000 
 0.666667  0.000000  0.333333  0.000000 
 0.000000  0.000000  1.000000  0.000000 
 0.000000  0.333333  0.666667  0.000000 
 0.000000  1.000000  0.000000  0.000000 
 1.000000  0.000000  0.000000  0.000000 
 1.000000  0.000000  0.000000  0.000000 
--------------------------------------------------------------------------------

--------------------------------------------------------------------------------
	Motif TTRGKCAWGMAAKYCTYSCCTMRGSCAA MEME-4 regular expression
--------------------------------------------------------------------------------
TT[GA]G[TG]CA[TA]G[AC]AA[TG][CT]CT[TC][GC]CCT[AC][AG]G[GC]CAA
--------------------------------------------------------------------------------




Time  1.39 secs.

********************************************************************************


********************************************************************************
MOTIF GGGTGGRGR MEME-5	width =   9  sites =   5  llr = 57  E-value = 3.4e+003
********************************************************************************
--------------------------------------------------------------------------------
	Motif GGGTGGRGR MEME-5 Description
--------------------------------------------------------------------------------
Simplified        A  ::::::624
pos.-specific     C  ::2::::::
probability       G  aa8:aa486
matrix            T  :::a:::::

         bits    2.4 **  **   
                 2.1 **  **   
                 1.9 **  **   
                 1.7 ******   
Relative         1.4 ****** * 
Entropy          1.2 ****** **
(16.4 bits)      0.9 *********
                 0.7 *********
                 0.5 *********
                 0.2 *********
                 0.0 ---------

Multilevel           GGGTGGAGG
consensus              C   GAA
sequence                      
                              
--------------------------------------------------------------------------------

--------------------------------------------------------------------------------
	Motif GGGTGGRGR MEME-5 sites sorted by position p-value
--------------------------------------------------------------------------------
Sequence name            Strand  Start   P-value              Site 
-------------            ------  ----- ---------            ---------
chr3:65973950-65974299       +      4  1.63e-06        GGA GGGTGGAGG TCTCTCCTCA
chr15:45402150-45402499      +     89  4.19e-06 AGTCCAGGTA GGGTGGGGA GAG       
chr10:9391250-9391649        +     58  4.19e-06 acatttacat gggtggaga aggagcaaga
chr5:38533650-38534099       -     83  5.83e-06  TGCACACAA GGCTGGAGG CCTCAGTGCC
chr15:75054300-75054749      +     70  8.38e-06 cttacaggtt gggtgggag gtttaatgag
--------------------------------------------------------------------------------

--------------------------------------------------------------------------------
	Motif GGGTGGRGR MEME-5 block diagrams
--------------------------------------------------------------------------------
SEQUENCE NAME            POSITION P-VALUE  MOTIF DIAGRAM
-------------            ----------------  -------------
chr3:65973950-65974299            1.6e-06  3_[+5]_88
chr15:45402150-45402499           4.2e-06  88_[+5]_3
chr10:9391250-9391649             4.2e-06  57_[+5]_34
chr5:38533650-38534099            5.8e-06  82_[-5]_9
chr15:75054300-75054749           8.4e-06  69_[+5]_22
--------------------------------------------------------------------------------

--------------------------------------------------------------------------------
	Motif GGGTGGRGR MEME-5 in BLOCKS format
--------------------------------------------------------------------------------
BL   MOTIF GGGTGGRGR width=9 seqs=5
chr3:65973950-65974299   (    4) GGGTGGAGG  1 
chr15:45402150-45402499  (   89) GGGTGGGGA  1 
chr10:9391250-9391649    (   58) GGGTGGAGA  1 
chr5:38533650-38534099   (   83) GGCTGGAGG  1 
chr15:75054300-75054749  (   70) GGGTGGGAG  1 
//

--------------------------------------------------------------------------------

--------------------------------------------------------------------------------
	Motif GGGTGGRGR MEME-5 position-specific scoring matrix
--------------------------------------------------------------------------------
log-odds matrix: alength= 4 w= 9 n= 2024 bayes= 8.90961 E= 3.4e+003 
  -897   -897    236   -897 
  -897   -897    236   -897 
  -897      4    203   -897 
  -897   -897   -897    171 
  -897   -897    236   -897 
  -897   -897    236   -897 
    98   -897    103   -897 
   -61   -897    203   -897 
    39   -897    162   -897 
--------------------------------------------------------------------------------

--------------------------------------------------------------------------------
	Motif GGGTGGRGR MEME-5 position-specific probability matrix
--------------------------------------------------------------------------------
letter-probability matrix: alength= 4 w= 9 nsites= 5 E= 3.4e+003 
 0.000000  0.000000  1.000000  0.000000 
 0.000000  0.000000  1.000000  0.000000 
 0.000000  0.200000  0.800000  0.000000 
 0.000000  0.000000  0.000000  1.000000 
 0.000000  0.000000  1.000000  0.000000 
 0.000000  0.000000  1.000000  0.000000 
 0.600000  0.000000  0.400000  0.000000 
 0.200000  0.000000  0.800000  0.000000 
 0.400000  0.000000  0.600000  0.000000 
--------------------------------------------------------------------------------

--------------------------------------------------------------------------------
	Motif GGGTGGRGR MEME-5 regular expression
--------------------------------------------------------------------------------
GG[GC]TGG[AG][GA][GA]
--------------------------------------------------------------------------------




Time  1.69 secs.

********************************************************************************


********************************************************************************
MOTIF AAATAGCTGGGACYTAATTAAACYAARGAG MEME-6	width =  30  sites =   2  llr = 76  E-value = 1.0e+004
********************************************************************************
--------------------------------------------------------------------------------
	Motif AAATAGCTGGGACYTAATTAAACYAARGAG MEME-6 Description
--------------------------------------------------------------------------------
Simplified        A  aaa:a::::::a:::aa::aaa::aa5:a:
pos.-specific     C  ::::::a:::::a5::::::::a5::::::
probability       G  :::::a::aaa:::::::::::::::5a:a
matrix            T  :::a:::a:::::5a::aa::::5::::::

         bits    2.4      ** *** *         *    * *
                 2.1      ** *** *         *    * *
                 1.9      ** *** *         *    * *
                 1.7 ************* ********* ** ***
Relative         1.4 ************* ********* ** ***
Entropy          1.2 ************* ********* ** ***
(55.2 bits)      0.9 ******************************
                 0.7 ******************************
                 0.5 ******************************
                 0.2 ******************************
                 0.0 ------------------------------

Multilevel           AAATAGCTGGGACCTAATTAAACCAAAGAG
consensus                         T         T  G   
sequence                                           
                                                   
--------------------------------------------------------------------------------

--------------------------------------------------------------------------------
	Motif AAATAGCTGGGACYTAATTAAACYAARGAG MEME-6 sites sorted by position p-value
--------------------------------------------------------------------------------
Sequence name            Strand  Start   P-value                         Site           
-------------            ------  ----- ---------            ------------------------------
chr5:53039550-53040149       +     44  8.98e-18 aaacaaagat aaatagctgggacctaattaaactaaggag ttttgcacgg
chr4:131057400-131058299     +     10  2.05e-17  aacaaagat aaatagctgggacttaattaaaccaaagag cttttgcatg
--------------------------------------------------------------------------------

--------------------------------------------------------------------------------
	Motif AAATAGCTGGGACYTAATTAAACYAARGAG MEME-6 block diagrams
--------------------------------------------------------------------------------
SEQUENCE NAME            POSITION P-VALUE  MOTIF DIAGRAM
-------------            ----------------  -------------
chr5:53039550-53040149              9e-18  43_[+6]_27
chr4:131057400-131058299          2.1e-17  9_[+6]_61
--------------------------------------------------------------------------------

--------------------------------------------------------------------------------
	Motif AAATAGCTGGGACYTAATTAAACYAARGAG MEME-6 in BLOCKS format
--------------------------------------------------------------------------------
BL   MOTIF AAATAGCTGGGACYTAATTAAACYAARGAG width=30 seqs=2
chr5:53039550-53040149   (   44) AAATAGCTGGGACCTAATTAAACTAAGGAG  1 
chr4:131057400-131058299 (   10) AAATAGCTGGGACTTAATTAAACCAAAGAG  1 
//

--------------------------------------------------------------------------------

--------------------------------------------------------------------------------
	Motif AAATAGCTGGGACYTAATTAAACYAARGAG MEME-6 position-specific scoring matrix
--------------------------------------------------------------------------------
log-odds matrix: alength= 4 w= 30 n= 1562 bayes= 9.60733 E= 1.0e+004 
   171   -765   -765   -765 
   171   -765   -765   -765 
   171   -765   -765   -765 
  -765   -765   -765    171 
   171   -765   -765   -765 
  -765   -765    235   -765 
  -765    235   -765   -765 
  -765   -765   -765    171 
  -765   -765    235   -765 
  -765   -765    235   -765 
  -765   -765    235   -765 
   171   -765   -765   -765 
  -765    235   -765   -765 
  -765    135   -765     71 
  -765   -765   -765    171 
   171   -765   -765   -765 
   171   -765   -765   -765 
  -765   -765   -765    171 
  -765   -765   -765    171 
   171   -765   -765   -765 
   171   -765   -765   -765 
   171   -765   -765   -765 
  -765    235   -765   -765 
  -765    135   -765     71 
   171   -765   -765   -765 
   171   -765   -765   -765 
    71   -765    135   -765 
  -765   -765    235   -765 
   171   -765   -765   -765 
  -765   -765    235   -765 
--------------------------------------------------------------------------------

--------------------------------------------------------------------------------
	Motif AAATAGCTGGGACYTAATTAAACYAARGAG MEME-6 position-specific probability matrix
--------------------------------------------------------------------------------
letter-probability matrix: alength= 4 w= 30 nsites= 2 E= 1.0e+004 
 1.000000  0.000000  0.000000  0.000000 
 1.000000  0.000000  0.000000  0.000000 
 1.000000  0.000000  0.000000  0.000000 
 0.000000  0.000000  0.000000  1.000000 
 1.000000  0.000000  0.000000  0.000000 
 0.000000  0.000000  1.000000  0.000000 
 0.000000  1.000000  0.000000  0.000000 
 0.000000  0.000000  0.000000  1.000000 
 0.000000  0.000000  1.000000  0.000000 
 0.000000  0.000000  1.000000  0.000000 
 0.000000  0.000000  1.000000  0.000000 
 1.000000  0.000000  0.000000  0.000000 
 0.000000  1.000000  0.000000  0.000000 
 0.000000  0.500000  0.000000  0.500000 
 0.000000  0.000000  0.000000  1.000000 
 1.000000  0.000000  0.000000  0.000000 
 1.000000  0.000000  0.000000  0.000000 
 0.000000  0.000000  0.000000  1.000000 
 0.000000  0.000000  0.000000  1.000000 
 1.000000  0.000000  0.000000  0.000000 
 1.000000  0.000000  0.000000  0.000000 
 1.000000  0.000000  0.000000  0.000000 
 0.000000  1.000000  0.000000  0.000000 
 0.000000  0.500000  0.000000  0.500000 
 1.000000  0.000000  0.000000  0.000000 
 1.000000  0.000000  0.000000  0.000000 
 0.500000  0.000000  0.500000  0.000000 
 0.000000  0.000000  1.000000  0.000000 
 1.000000  0.000000  0.000000  0.000000 
 0.000000  0.000000  1.000000  0.000000 
--------------------------------------------------------------------------------

--------------------------------------------------------------------------------
	Motif AAATAGCTGGGACYTAATTAAACYAARGAG MEME-6 regular expression
--------------------------------------------------------------------------------
AAATAGCTGGGAC[CT]TAATTAAAC[CT]AA[AG]GAG
--------------------------------------------------------------------------------




Time  1.96 secs.

********************************************************************************


********************************************************************************
MOTIF TTTTTGGGGTKTYHKG MEME-7	width =  16  sites =   5  llr = 76  E-value = 3.6e+004
********************************************************************************
--------------------------------------------------------------------------------
	Motif TTTTTGGGGTKTYHKG MEME-7 Description
--------------------------------------------------------------------------------
Simplified        A  2::::222:2:::4::
pos.-specific     C  :2::::::::::44::
probability       G  :::::868a:6:::4a
matrix            T  88aaa:2::84a626:

         bits    2.4         *      *
                 2.1         *      *
                 1.9         *      *
                 1.7   ***   *  *   *
Relative         1.4   **** **  *   *
Entropy          1.2  ***** ** **   *
(22.0 bits)      0.9 ****** ****** **
                 0.7 ************* **
                 0.5 ****************
                 0.2 ****************
                 0.0 ----------------

Multilevel           TTTTTGGGGTGTTATG
consensus            AC   AAA AT CCG 
sequence                   T      T  
                                     
--------------------------------------------------------------------------------

--------------------------------------------------------------------------------
	Motif TTTTTGGGGTKTYHKG MEME-7 sites sorted by position p-value
--------------------------------------------------------------------------------
Sequence name            Strand  Start   P-value                  Site    
-------------            ------  ----- ---------            ----------------
chr17:78725650-78726099      +     20  2.72e-09 ATGATCGGCA TTTTTGGGGTTTTCTG TTTTCATTCC
chr12:77073250-77074049      +     48  2.72e-08 aagaaatata actTTGGGGTGTTCTG GAATGCTGCT
chr4:24861800-24862399       -     46  5.18e-08 TCTTATAGAA TTTTTGTGGTTTCAGG TCTTAGATTT
chr14:63545150-63545699      -     39  1.65e-07 TTGCTAGTAT TTTTTGAGGAGTTTTG CAACTATGTT
chr2:43826650-43827199       -      7  1.80e-07 TCTTCTAGAG TTTTTAGAGTGTCAGG TCTTAG    
--------------------------------------------------------------------------------

--------------------------------------------------------------------------------
	Motif TTTTTGGGGTKTYHKG MEME-7 block diagrams
--------------------------------------------------------------------------------
SEQUENCE NAME            POSITION P-VALUE  MOTIF DIAGRAM
-------------            ----------------  -------------
chr17:78725650-78726099           2.7e-09  19_[+7]_65
chr12:77073250-77074049           2.7e-08  47_[+7]_37
chr4:24861800-24862399            5.2e-08  45_[-7]_39
chr14:63545150-63545699           1.6e-07  38_[-7]_46
chr2:43826650-43827199            1.8e-07  6_[-7]_78
--------------------------------------------------------------------------------

--------------------------------------------------------------------------------
	Motif TTTTTGGGGTKTYHKG MEME-7 in BLOCKS format
--------------------------------------------------------------------------------
BL   MOTIF TTTTTGGGGTKTYHKG width=16 seqs=5
chr17:78725650-78726099  (   20) TTTTTGGGGTTTTCTG  1 
chr12:77073250-77074049  (   48) ACTTTGGGGTGTTCTG  1 
chr4:24861800-24862399   (   46) TTTTTGTGGTTTCAGG  1 
chr14:63545150-63545699  (   39) TTTTTGAGGAGTTTTG  1 
chr2:43826650-43827199   (    7) TTTTTAGAGTGTCAGG  1 
//

--------------------------------------------------------------------------------

--------------------------------------------------------------------------------
	Motif TTTTTGGGGTKTYHKG MEME-7 position-specific scoring matrix
--------------------------------------------------------------------------------
log-odds matrix: alength= 4 w= 16 n= 1870 bayes= 8.79519 E= 3.6e+004 
   -61   -897   -897    139 
  -897      4   -897    139 
  -897   -897   -897    171 
  -897   -897   -897    171 
  -897   -897   -897    171 
   -61   -897    203   -897 
   -61   -897    162    -61 
   -61   -897    203   -897 
  -897   -897    236   -897 
   -61   -897   -897    139 
  -897   -897    162     39 
  -897   -897   -897    171 
  -897    103   -897     98 
    39    103   -897    -61 
  -897   -897    103     98 
  -897   -897    236   -897 
--------------------------------------------------------------------------------

--------------------------------------------------------------------------------
	Motif TTTTTGGGGTKTYHKG MEME-7 position-specific probability matrix
--------------------------------------------------------------------------------
letter-probability matrix: alength= 4 w= 16 nsites= 5 E= 3.6e+004 
 0.200000  0.000000  0.000000  0.800000 
 0.000000  0.200000  0.000000  0.800000 
 0.000000  0.000000  0.000000  1.000000 
 0.000000  0.000000  0.000000  1.000000 
 0.000000  0.000000  0.000000  1.000000 
 0.200000  0.000000  0.800000  0.000000 
 0.200000  0.000000  0.600000  0.200000 
 0.200000  0.000000  0.800000  0.000000 
 0.000000  0.000000  1.000000  0.000000 
 0.200000  0.000000  0.000000  0.800000 
 0.000000  0.000000  0.600000  0.400000 
 0.000000  0.000000  0.000000  1.000000 
 0.000000  0.400000  0.000000  0.600000 
 0.400000  0.400000  0.000000  0.200000 
 0.000000  0.000000  0.400000  0.600000 
 0.000000  0.000000  1.000000  0.000000 
--------------------------------------------------------------------------------

--------------------------------------------------------------------------------
	Motif TTTTTGGGGTKTYHKG MEME-7 regular expression
--------------------------------------------------------------------------------
[TA][TC]TTT[GA][GAT][GA]G[TA][GT]T[TC][ACT][TG]G
--------------------------------------------------------------------------------




Time  2.23 secs.

********************************************************************************


********************************************************************************
SUMMARY OF MOTIFS
********************************************************************************

--------------------------------------------------------------------------------
	Combined block diagrams: non-overlapping sites with p-value < 0.0001
--------------------------------------------------------------------------------
SEQUENCE NAME            COMBINED P-VALUE  MOTIF DIAGRAM
-------------            ----------------  -------------
chr4:131057400-131058299         3.72e-20  9_[+6(2.05e-17)]_5_[+2(3.22e-11)]_\
    34
chr3:30367300-30367849           2.24e-07  24_[-1(1.20e-13)]_46
chr5:53039550-53040149           2.62e-33  13_[-1(6.03e-18)]_[+6(8.98e-18)]_4_\
    [+2(4.12e-13)]_1
chr2:223843200-223843749         3.34e-05  35_[+2(8.25e-09)]_43
chr4:24861800-24862399           3.18e-12  45_[-7(5.18e-08)]_1_[+3(1.61e-12)]_\
    11
chr16:78330900-78331399          2.52e-03  9_[+2(4.91e-07)]_69
chr21:23055400-23055999          1.36e-07  15_[+4(1.67e-14)]_57
chr9:93712750-93713449           5.69e-05  5_[-3(2.52e-09)]_68
chr5:38533650-38534099           7.21e-06  12_[+2(1.87e-08)]_48_[-5(5.83e-06)]_\
    9
chr2:138011550-138012149         4.16e-01  100
chr12:124723400-12472389         6.69e-08  25_[+3(3.58e-09)]_15_[-2(1.65e-07)]_\
    11
chr7:117565150-117565649         9.93e-29  2_[+3(4.79e-11)]_8_[-4(8.20e-17)]_3_\
    [-1(3.20e-16)]_2
chr17:78725650-78726099          3.70e-04  19_[+7(2.72e-09)]_65
chr15:75054300-75054749          5.74e-02  69_[+5(8.38e-06)]_22
chr2:43826650-43827199           3.23e-22  6_[-7(1.80e-07)]_1_[+3(3.22e-13)]_4_\
    [-4(3.25e-16)]_18
chr12:77073250-77074049          1.07e-03  47_[+7(2.72e-08)]_37
chr10:9391250-9391649            5.99e-05  57_[+5(4.19e-06)]_2_[+2(4.18e-08)]_\
    10
chr6:99195700-99196049           6.73e-04  35_[-2(2.36e-08)]_43
chr14:63545150-63545699          1.59e-04  38_[-7(1.65e-07)]_46
chr17:78690100-78690649          5.88e-33  8_[-2(1.42e-12)]_5_[-6(1.94e-12)]_\
    [+1(6.03e-18)]_5
chr3:65973950-65974299           1.71e-06  3_[+5(1.63e-06)]_7_[+3(5.63e-09)]_\
    54
chr15:45402150-45402499          1.01e-05  34_[-3(1.12e-08)]_27_[+5(4.19e-06)]_\
    3
--------------------------------------------------------------------------------

********************************************************************************


********************************************************************************
Stopped because requested number of motifs (7) found.
********************************************************************************

CPU: Sudins-iMac.local

********************************************************************************
