# motif_id	motif_alt_id	sequence_name	start	stop	strand	score	p-value	q-value	matched_sequence
GGTCAYNCTGHCCYSV	MEME-6	chr10	17487790	17487805	-	21.9545	1.58e-09	0.0011	GGTCACCCTGACCTGC
GGTCAYNCTGHCCYSV	MEME-6	chr2	73977896	73977911	+	20.5909	1.65e-08	0.00573	ggtcatgctgacctcc
GGTCAYNCTGHCCYSV	MEME-6	chr10	125481533	125481548	-	19.75	5.49e-08	0.0127	GGTCATTCTGACCTCC
GGTCAYNCTGHCCYSV	MEME-6	chr11	70652052	70652067	+	19.4545	8.18e-08	0.0129	GGTCAAGCTGACCTGA
GGTCAYNCTGHCCYSV	MEME-6	chr1	75118302	75118317	-	19.3523	9.28e-08	0.0129	GGTCACAATGCCCTGG
GGTCAYNCTGHCCYSV	MEME-6	chr4	37482348	37482363	+	19.1477	1.19e-07	0.0138	ggtcatgctgacctta
GGTCAYNCTGHCCYSV	MEME-6	chr4	143536373	143536388	-	19	1.42e-07	0.0138	GGTCACTCTGACCTAG
GGTCAYNCTGHCCYSV	MEME-6	chr12	114966601	114966616	+	18.9091	1.59e-07	0.0138	tgtgactctgccctgg
GGTCAYNCTGHCCYSV	MEME-6	chr19	16574767	16574782	+	18.5341	2.41e-07	0.0164	TGTCAGCCTGACCTGC
GGTCAYNCTGHCCYSV	MEME-6	chr2	216847268	216847283	+	18.5341	2.41e-07	0.0164	ggtcacaccgacctga
GGTCAYNCTGHCCYSV	MEME-6	chr12	75265615	75265630	+	18.4659	2.6e-07	0.0164	GGTCATCCTGCCCTCT
GGTCAYNCTGHCCYSV	MEME-6	chr5	105577119	105577134	+	18.1932	3.47e-07	0.0196	ggtcacagtgccctgt
GGTCAYNCTGHCCYSV	MEME-6	chr12	116308136	116308151	-	18.0455	4.02e-07	0.0196	GGTCACTTTGACCTCC
GGTCAYNCTGHCCYSV	MEME-6	chrX	32002365	32002380	+	18	4.24e-07	0.0196	TGTCATGCTGACATGA
GGTCAYNCTGHCCYSV	MEME-6	chr15	39960743	39960758	-	18	4.24e-07	0.0196	GGTCACTCTGACCTCT
GGTCAYNCTGHCCYSV	MEME-6	chr6	88283851	88283866	-	17.7159	5.63e-07	0.0244	GGTCATGGTGACCTGT
GGTCAYNCTGHCCYSV	MEME-6	chr8	37002338	37002353	+	17.5909	6.35e-07	0.0249	ggtcaggttgacctgg
GGTCAYNCTGHCCYSV	MEME-6	chr6	88283854	88283869	+	17.5795	6.45e-07	0.0249	GGTCACCATGACCTAC
GGTCAYNCTGHCCYSV	MEME-6	chr12	46887596	46887611	-	17.4205	7.47e-07	0.0273	GGTCATCATGACCCCC
GGTCAYNCTGHCCYSV	MEME-6	chr10	8170308	8170323	+	17.3295	8.12e-07	0.0275	GGTCAGGTTGTCCTGC
GGTCAYNCTGHCCYSV	MEME-6	chr8	100917803	100917818	+	17.25	8.7e-07	0.0275	GGTCACCCTGACACTG
GGTCAYNCTGHCCYSV	MEME-6	chr11	70652049	70652064	-	17.2159	8.99e-07	0.0275	GGTCAGCTTGACCTGG
GGTCAYNCTGHCCYSV	MEME-6	chr9	114774386	114774401	+	17.2045	9.1e-07	0.0275	GGTCAGGCTGTCCCTC
GGTCAYNCTGHCCYSV	MEME-6	chr14	91742724	91742739	+	17.0114	1.08e-06	0.03	TGTCACTGTGCCCTAG
GGTCAYNCTGHCCYSV	MEME-6	chr12	115980484	115980499	-	16.9886	1.1e-06	0.03	TGTGACCCAGCCCCGG
GGTCAYNCTGHCCYSV	MEME-6	chr8	37002335	37002350	-	16.9659	1.12e-06	0.03	GGTCAACCTGACCTAA
GGTCAYNCTGHCCYSV	MEME-6	chr12	46887599	46887614	+	16.8864	1.2e-06	0.031	GGTCATGATGACCTTA
GGTCAYNCTGHCCYSV	MEME-6	chr1	191396681	191396696	+	16.7841	1.32e-06	0.0327	TGTCATGATGTCCTGA
GGTCAYNCTGHCCYSV	MEME-6	chr17	76417557	76417572	+	16.625	1.51e-06	0.0349	GGCCACAGTGCCCTGG
GGTCAYNCTGHCCYSV	MEME-6	chr7	107992064	107992079	-	16.6023	1.53e-06	0.0349	GGTCAATATGACCTGC
GGTCAYNCTGHCCYSV	MEME-6	chr16	8773104	8773119	+	16.5795	1.56e-06	0.0349	tgtcagactgacctca
GGTCAYNCTGHCCYSV	MEME-6	chr6	83279680	83279695	+	16.4773	1.7e-06	0.0367	GGTCATTATGACATGA
GGTCAYNCTGHCCYSV	MEME-6	chr19	16574764	16574779	-	16.4432	1.74e-06	0.0367	GGTCAGGCTGACATAA
GGTCAYNCTGHCCYSV	MEME-6	chr14	97966259	97966274	-	16.2727	2.01e-06	0.0395	AGTCATGCTGCCCTTG
GGTCAYNCTGHCCYSV	MEME-6	chr16	8773101	8773116	-	16.2614	2.03e-06	0.0395	GGTCAGTCTGACACCA
GGTCAYNCTGHCCYSV	MEME-6	chr2	212287782	212287797	-	16.25	2.05e-06	0.0395	GGTCAGCCTGCCCTTT
GGTCAYNCTGHCCYSV	MEME-6	chr2	218112208	218112223	-	16.1136	2.28e-06	0.0426	GGCCACACTGCCCTTC
GGTCAYNCTGHCCYSV	MEME-6	chr14	24134593	24134608	-	16.0795	2.33e-06	0.0426	GGTGATTATGCCCCCA
GGTCAYNCTGHCCYSV	MEME-6	chr8	36919778	36919793	+	16.0227	2.44e-06	0.0427	tgtcaccgtgtcctag
GGTCAYNCTGHCCYSV	MEME-6	chr14	24134533	24134548	-	16.0114	2.46e-06	0.0427	TGTCACTGTGCCCTCT
GGTCAYNCTGHCCYSV	MEME-6	chr14	22741476	22741491	-	15.9432	2.59e-06	0.0438	GGTCACGTTGCCCTTT
GGTCAYNCTGHCCYSV	MEME-6	chr1	61962119	61962134	+	15.875	2.74e-06	0.0452	AGTCATCATGCCCTGA
GGTCAYNCTGHCCYSV	MEME-6	chr17	70614185	70614200	+	15.6477	3.23e-06	0.0512	TGTCAGACCGCCCCGC
GGTCAYNCTGHCCYSV	MEME-6	chr3	25593915	25593930	-	15.6364	3.26e-06	0.0512	GGTCAAGTTGCCCTAA
GGTCAYNCTGHCCYSV	MEME-6	chr10	116579170	116579185	-	15.6136	3.32e-06	0.0512	TGTGACTCTGACATCA
GGTCAYNCTGHCCYSV	MEME-6	chr4	143536376	143536391	+	15.5341	3.51e-06	0.0529	GGTCAGAGTGACCtgt
GGTCAYNCTGHCCYSV	MEME-6	chr2	212287785	212287800	+	15.4886	3.64e-06	0.0535	GGGCAGGCTGACCTGA
GGTCAYNCTGHCCYSV	MEME-6	chr8	134305232	134305247	+	15.4659	3.7e-06	0.0535	GGTCAAAGAGACCTGC
GGTCAYNCTGHCCYSV	MEME-6	chr11	17946297	17946312	-	15.3295	4.07e-06	0.0577	GGTGACTGTGACCTCT
GGTCAYNCTGHCCYSV	MEME-6	chr6	53191307	53191322	+	15.2159	4.41e-06	0.0609	GGTGACTCAGCCATAC
GGTCAYNCTGHCCYSV	MEME-6	chr9	110006008	110006023	-	15.1477	4.61e-06	0.0609	AGTCACTTTGACCTGA
GGTCAYNCTGHCCYSV	MEME-6	chr5	105577116	105577131	-	15.1364	4.65e-06	0.0609	GGGCACTGTGACCTGG
GGTCAYNCTGHCCYSV	MEME-6	chr5	134980083	134980098	-	15.1364	4.65e-06	0.0609	GGTGGCACTGCCCCAG
GGTCAYNCTGHCCYSV	MEME-6	chr2	10161755	10161770	+	15.0795	4.85e-06	0.062	TGTCACGGAGACACGG
GGTCAYNCTGHCCYSV	MEME-6	chr3	9140408	9140423	-	15.0455	4.95e-06	0.062	GGTCACTCTGCCAGTA
GGTCAYNCTGHCCYSV	MEME-6	chr11	78770676	78770691	-	15	5.1e-06	0.062	GGTCAAGCTGACACAG
GGTCAYNCTGHCCYSV	MEME-6	chr9	116227819	116227834	+	15	5.1e-06	0.062	AGTGACTGTGACCTGA
GGTCAYNCTGHCCYSV	MEME-6	chr19	35810015	35810030	-	14.9773	5.19e-06	0.062	GGTGGCCCAGCCCTAC
GGTCAYNCTGHCCYSV	MEME-6	chr10	125481536	125481551	+	14.9545	5.27e-06	0.062	GGTCAGAATGACCTAC
GGTCAYNCTGHCCYSV	MEME-6	chr2	73977893	73977908	-	14.8295	5.74e-06	0.0663	GGTCAGCATGACCCAG
GGTCAYNCTGHCCYSV	MEME-6	chr9	110893426	110893441	+	14.7955	5.86e-06	0.0665	TGTCACCCTGCCTTCA
GGTCAYNCTGHCCYSV	MEME-6	chr1	42333915	42333930	+	14.7727	5.94e-06	0.0665	GGTGGCACTGTCATGA
GGTCAYNCTGHCCYSV	MEME-6	chr12	116308139	116308154	+	14.6705	6.37e-06	0.0701	GGTCAAAGTGACCCAC
GGTCAYNCTGHCCYSV	MEME-6	chr10	34716419	34716434	+	14.5909	6.68e-06	0.0725	tgtgacctcgccctga
GGTCAYNCTGHCCYSV	MEME-6	chr15	90325533	90325548	+	14.5682	6.8e-06	0.0726	ggtcacaaagaccttg
GGTCAYNCTGHCCYSV	MEME-6	chr17	64948190	64948205	-	14.5114	7.04e-06	0.0738	GGTCGCGCTGTGCCGC
GGTCAYNCTGHCCYSV	MEME-6	chr2	71352696	71352711	+	14.4886	7.13e-06	0.0738	TGTCGCTGTGTCCTCA
GGTCAYNCTGHCCYSV	MEME-6	chr21	42395920	42395935	+	14.3977	7.57e-06	0.0773	GGTCAATATGCCCCAG
GGTCAYNCTGHCCYSV	MEME-6	chr22	32042612	32042627	+	14.3182	7.96e-06	0.08	GGTCATGCAGTCACAG
GGTCAYNCTGHCCYSV	MEME-6	chr3	192536701	192536716	-	14.25	8.29e-06	0.0822	GGTCAGCCTGTCTTGC
GGTCAYNCTGHCCYSV	MEME-6	chr3	195266178	195266193	+	14.1932	8.58e-06	0.0839	tgtgatcgtgccaccg
GGTCAYNCTGHCCYSV	MEME-6	chr10	30971306	30971321	+	14.1705	8.71e-06	0.0839	GGTCATATTGTCCCAG
GGTCAYNCTGHCCYSV	MEME-6	chr9	92794807	92794822	+	14.1364	8.9e-06	0.0839	GGCCACACCGCCCCCA
GGTCAYNCTGHCCYSV	MEME-6	chr5	172879965	172879980	-	14.125	8.95e-06	0.0839	GGTCACTGTGACTCGG
GGTCAYNCTGHCCYSV	MEME-6	chr1	42333881	42333896	-	14.0455	9.4e-06	0.087	GGGCATCCTGTCCCCA
GGTCAYNCTGHCCYSV	MEME-6	chr6	21738885	21738900	+	13.9091	1.02e-05	0.0931	TGTGGGGCTGACCTCA
GGTCAYNCTGHCCYSV	MEME-6	chr6	15089592	15089607	-	13.8636	1.05e-05	0.094	TGCCACCCTGTCCTTC
GGTCAYNCTGHCCYSV	MEME-6	chr4	105892676	105892691	+	13.8409	1.06e-05	0.094	ggtcaacatgccataa
GGTCAYNCTGHCCYSV	MEME-6	chr5	172879968	172879983	+	13.8068	1.08e-05	0.094	AGTCACAGTGACCTGT
GGTCAYNCTGHCCYSV	MEME-6	chr5	67752511	67752526	+	13.7955	1.09e-05	0.094	GGTGACAGAGACATCA
GGTCAYNCTGHCCYSV	MEME-6	chr14	76028285	76028300	+	13.7841	1.1e-05	0.094	AGTCATCCAGACATGA
GGTCAYNCTGHCCYSV	MEME-6	chr19	11007582	11007597	+	13.7045	1.15e-05	0.0972	gggcacacagccatgc
GGTCAYNCTGHCCYSV	MEME-6	chr2	10367256	10367271	+	13.6591	1.18e-05	0.0986	tgtgatcgtgccatta
GGTCAYNCTGHCCYSV	MEME-6	chr8	40072201	40072216	-	13.625	1.2e-05	0.0993	AGTCATGCAGTCCCCG
GGTCAYNCTGHCCYSV	MEME-6	chr2	238467656	238467671	+	13.5795	1.23e-05	0.101	GGTCGTCTTGCCCGGA
GGTCAYNCTGHCCYSV	MEME-6	chr15	93425187	93425202	-	13.5341	1.27e-05	0.102	GGTCACACAGTCAGGA
GGTCAYNCTGHCCYSV	MEME-6	chr10	79342334	79342349	-	13.5	1.29e-05	0.103	GGTCAAGAAGTCCCCC
GGTCAYNCTGHCCYSV	MEME-6	chr15	88006254	88006269	-	13.2386	1.49e-05	0.118	GGCCATGGTGTCCCTC
GGTCAYNCTGHCCYSV	MEME-6	chr2	218112146	218112161	-	13.2159	1.51e-05	0.118	GGGCACTCAGCCCTTG
GGTCAYNCTGHCCYSV	MEME-6	chr1	14156105	14156120	+	13.125	1.59e-05	0.122	TGTGACTCAGTCATCA
GGTCAYNCTGHCCYSV	MEME-6	chr14	24865386	24865401	-	13.1023	1.61e-05	0.122	GGGCAGGGAGCCCTGG
GGTCAYNCTGHCCYSV	MEME-6	chr10	30984794	30984809	-	13.0795	1.63e-05	0.122	AGTCACCGTGCCAGGC
GGTCAYNCTGHCCYSV	MEME-6	chr7	123413827	123413842	+	13.0682	1.64e-05	0.122	ggtgagtgagacatgg
GGTCAYNCTGHCCYSV	MEME-6	chr12	114966669	114966684	+	13.0114	1.69e-05	0.123	ggtcagagagtcatcc
GGTCAYNCTGHCCYSV	MEME-6	chr2	216847265	216847280	-	13.0114	1.69e-05	0.123	GGTCGGTGTGACCCAG
GGTCAYNCTGHCCYSV	MEME-6	chr11	78770679	78770694	+	12.9886	1.71e-05	0.123	TGTCAGCTTGACCCAG
GGTCAYNCTGHCCYSV	MEME-6	chr9	83691528	83691543	-	12.9432	1.75e-05	0.125	TGTCAGTTTGACATCC
GGTCAYNCTGHCCYSV	MEME-6	chr11	70652202	70652217	+	12.8977	1.79e-05	0.126	TGGCAACCTGCCCTCC
GGTCAYNCTGHCCYSV	MEME-6	chr4	186190125	186190140	-	12.8864	1.8e-05	0.126	TGTCACCTTGTCACAC
GGTCAYNCTGHCCYSV	MEME-6	chr11	35411463	35411478	+	12.8636	1.82e-05	0.127	GGTCACTATGACATTT
GGTCAYNCTGHCCYSV	MEME-6	chr16	10688481	10688496	-	12.8182	1.87e-05	0.128	GGTGAGGGTGCCAGCC
GGTCAYNCTGHCCYSV	MEME-6	chr2	102012662	102012677	-	12.7955	1.89e-05	0.128	GGGCATTCTGTCCTTG
GGTCAYNCTGHCCYSV	MEME-6	chr5	79477417	79477432	-	12.7727	1.91e-05	0.129	GGCCACAGAGTCCTCC
GGTCAYNCTGHCCYSV	MEME-6	chr10	38448063	38448078	+	12.7386	1.95e-05	0.129	tgtgatgttgccatta
GGTCAYNCTGHCCYSV	MEME-6	chr12	104613476	104613491	+	12.7273	1.96e-05	0.129	TGGCATACTGCCCTAC
GGTCAYNCTGHCCYSV	MEME-6	chr2	224541035	224541050	+	12.6932	1.99e-05	0.13	ggtgatggcgccacta
GGTCAYNCTGHCCYSV	MEME-6	chr7	111139206	111139221	+	12.6136	2.07e-05	0.135	ggtgaggatgacatag
GGTCAYNCTGHCCYSV	MEME-6	chr2	164000730	164000745	+	12.5795	2.11e-05	0.136	tgtgaggttgacctta
GGTCAYNCTGHCCYSV	MEME-6	chr16	10688567	10688582	-	12.4773	2.22e-05	0.14	GGTCATGCTGTGCGCC
GGTCAYNCTGHCCYSV	MEME-6	chrX	32002362	32002377	-	12.4773	2.22e-05	0.14	TGTCAGCATGACATTC
GGTCAYNCTGHCCYSV	MEME-6	chr7	101627315	101627330	-	12.4659	2.24e-05	0.14	GGTGAGTCAGCCACTG
GGTCAYNCTGHCCYSV	MEME-6	chr2	19340323	19340338	+	12.4432	2.26e-05	0.14	GGTGAATCAGTCCTAG
GGTCAYNCTGHCCYSV	MEME-6	chr15	39960746	39960761	+	12.3977	2.31e-05	0.142	GGTCAGAGTGACCGTG
GGTCAYNCTGHCCYSV	MEME-6	chr17	78791968	78791983	+	12.3636	2.35e-05	0.143	AGTCATCCAGCCATAG
GGTCAYNCTGHCCYSV	MEME-6	chr4	37482345	37482360	-	12.2727	2.46e-05	0.148	GGTCAGCATGACCGTA
GGTCAYNCTGHCCYSV	MEME-6	chr22	47856587	47856602	-	12.1364	2.63e-05	0.155	GGCCATGCAGCCACAA
GGTCAYNCTGHCCYSV	MEME-6	chr1	16934629	16934644	-	12.125	2.64e-05	0.155	GGTCAGAGAGTCCTCT
GGTCAYNCTGHCCYSV	MEME-6	chr16	20161363	20161378	-	12.125	2.64e-05	0.155	GGTGACAGTGAGCTTC
GGTCAYNCTGHCCYSV	MEME-6	chr4	183689724	183689739	+	11.9659	2.85e-05	0.166	GGTCACGGAGAGCCTG
GGTCAYNCTGHCCYSV	MEME-6	chr7	16718310	16718325	+	11.8864	2.96e-05	0.171	tgtcggcctgagctgc
GGTCAYNCTGHCCYSV	MEME-6	chr19	35809918	35809933	-	11.8068	3.07e-05	0.176	AGTCACTGTGTCATGT
GGTCAYNCTGHCCYSV	MEME-6	chr13	33559145	33559160	+	11.7159	3.2e-05	0.181	tgtcacagtgccaggt
GGTCAYNCTGHCCYSV	MEME-6	chr2	159580147	159580162	-	11.6932	3.24e-05	0.181	TGTCACACTGCCTTCT
GGTCAYNCTGHCCYSV	MEME-6	chr14	99372825	99372840	-	11.6818	3.25e-05	0.181	TGTCGGACAGCCCCAC
GGTCAYNCTGHCCYSV	MEME-6	chr3	126792694	126792709	-	11.6818	3.25e-05	0.181	TGTGGGCCAGACCTCA
GGTCAYNCTGHCCYSV	MEME-6	chr1	65449072	65449087	-	11.6591	3.29e-05	0.181	GGTGGTAGAGCCATCC
GGTCAYNCTGHCCYSV	MEME-6	chr5	36667854	36667869	+	11.5568	3.44e-05	0.186	TGTCATGATGTCTTGA
GGTCAYNCTGHCCYSV	MEME-6	chr15	39960772	39960787	+	11.5227	3.5e-05	0.186	GGTCACAgagccagag
GGTCAYNCTGHCCYSV	MEME-6	chr20	44325312	44325327	-	11.5227	3.5e-05	0.186	AGTCATCTAGCCCTAG
GGTCAYNCTGHCCYSV	MEME-6	chr17	59800521	59800536	-	11.5227	3.5e-05	0.186	TGTGGGCATGACCTCC
GGTCAYNCTGHCCYSV	MEME-6	chr18	568518	568533	+	11.5114	3.52e-05	0.186	ggtggggctgacagga
GGTCAYNCTGHCCYSV	MEME-6	chr2	66616903	66616918	+	11.4432	3.62e-05	0.189	GGGGAAACTGACCCGG
GGTCAYNCTGHCCYSV	MEME-6	chr10	80218802	80218817	-	11.4432	3.62e-05	0.189	GGGGACACAGACATGC
GGTCAYNCTGHCCYSV	MEME-6	chr20	47321812	47321827	+	11.3864	3.72e-05	0.191	aggcatgctgtcctca
GGTCAYNCTGHCCYSV	MEME-6	chr5	172899798	172899813	-	11.3864	3.72e-05	0.191	GGGCAGGGTGTCCTTG
GGTCAYNCTGHCCYSV	MEME-6	chr7	46750903	46750918	-	11.3636	3.75e-05	0.192	TGTCACAGTGTCATTT
GGTCAYNCTGHCCYSV	MEME-6	chr14	99470675	99470690	+	11.1705	4.08e-05	0.207	tgtcacggtgtctttg
GGTCAYNCTGHCCYSV	MEME-6	chr12	75265612	75265627	-	11.1136	4.19e-05	0.211	GGGCAGGATGACCTTA
GGTCAYNCTGHCCYSV	MEME-6	chr10	125503354	125503369	+	11.0795	4.25e-05	0.212	AGTCGCTGTGTCACGG
GGTCAYNCTGHCCYSV	MEME-6	chr2	66440030	66440045	+	11.0455	4.31e-05	0.213	TGTCATGCTGTCTCAG
GGTCAYNCTGHCCYSV	MEME-6	chr13	39258997	39259012	+	11.0341	4.33e-05	0.213	GGTCACAATGCCTGGA
GGTCAYNCTGHCCYSV	MEME-6	chr14	24134536	24134551	+	11.0227	4.35e-05	0.213	GGGCACAGTGACATAG
GGTCAYNCTGHCCYSV	MEME-6	chr10	8768050	8768065	+	10.9886	4.42e-05	0.214	TGTCAGCCTGTGCCAC
GGTCAYNCTGHCCYSV	MEME-6	chr5	122491071	122491086	-	10.8523	4.68e-05	0.226	GGCCGCACTGACATTG
GGTCAYNCTGHCCYSV	MEME-6	chr15	96880211	96880226	+	10.8182	4.74e-05	0.227	GGCCAGACAGACCCAA
GGTCAYNCTGHCCYSV	MEME-6	chr2	220265001	220265016	+	10.7159	4.95e-05	0.235	gggcatgaaGACATGA
GGTCAYNCTGHCCYSV	MEME-6	chr14	99372824	99372839	+	10.6932	5e-05	0.236	GGTGGGGCTGTCCGAC
GGTCAYNCTGHCCYSV	MEME-6	chr1	12545791	12545806	-	10.6136	5.16e-05	0.242	GGTCAAGCTGCCTTTT
GGTCAYNCTGHCCYSV	MEME-6	chr8	100917840	100917855	-	10.6023	5.19e-05	0.242	AGCCACTATGCCCTAC
GGTCAYNCTGHCCYSV	MEME-6	chr4	143536399	143536414	+	10.5795	5.24e-05	0.242	tgtgagttagcccttg
GGTCAYNCTGHCCYSV	MEME-6	chr12	115980568	115980583	-	10.5455	5.31e-05	0.243	GGTGAAGGAGAGCTGG
GGTCAYNCTGHCCYSV	MEME-6	chr17	59313148	59313163	+	10.5341	5.33e-05	0.243	TGTCAGGCAGCCTTAC
GGTCAYNCTGHCCYSV	MEME-6	chr6	1296015	1296030	-	10.5114	5.38e-05	0.244	TGGCATACTGCCACAC
GGTCAYNCTGHCCYSV	MEME-6	chr14	91742721	91742736	-	10.4886	5.43e-05	0.245	GGGCACAGTGACACAG
GGTCAYNCTGHCCYSV	MEME-6	chr12	129559984	129559999	+	10.4545	5.51e-05	0.247	AGTGGATCTGTCCTGG
GGTCAYNCTGHCCYSV	MEME-6	chr14	61329163	61329178	-	10.4091	5.61e-05	0.249	TGGCACTGAGCCCTTG
GGTCAYNCTGHCCYSV	MEME-6	chr21	36250717	36250732	-	10.375	5.69e-05	0.251	TGCCAGTATGCCCTTG
GGTCAYNCTGHCCYSV	MEME-6	chr6	14713323	14713338	+	10.2614	5.95e-05	0.26	GGTGACTCCGAGACCC
GGTCAYNCTGHCCYSV	MEME-6	chr4	24755094	24755109	-	10.2614	5.95e-05	0.26	TGTCATGGTGACTGGC
GGTCAYNCTGHCCYSV	MEME-6	chr5	66502789	66502804	+	10.2159	6.06e-05	0.263	AGTGAGTCAGTCATGA
GGTCAYNCTGHCCYSV	MEME-6	chr8	91784449	91784464	+	10.1932	6.11e-05	0.263	ggtgacctagagatgc
GGTCAYNCTGHCCYSV	MEME-6	chr3	9236367	9236382	-	10.125	6.28e-05	0.269	TGGCATCCTGTCATTA
GGTCAYNCTGHCCYSV	MEME-6	chr16	83847931	83847946	-	10.0568	6.45e-05	0.274	TGTGACCTTGTGCCCC
GGTCAYNCTGHCCYSV	MEME-6	chr4	40365425	40365440	-	9.98864	6.62e-05	0.277	GATCACCCAGCCCTGC
GGTCAYNCTGHCCYSV	MEME-6	chr5	79862730	79862745	-	9.97727	6.65e-05	0.277	TGGGAGAGTGCCCTCA
GGTCAYNCTGHCCYSV	MEME-6	chr21	22611076	22611091	+	9.96591	6.67e-05	0.277	GGTGGGGTTGACATTG
GGTCAYNCTGHCCYSV	MEME-6	chr10	123271421	123271436	+	9.96591	6.67e-05	0.277	GGCCATGGAGACACTG
GGTCAYNCTGHCCYSV	MEME-6	chr1	188030628	188030643	+	9.95455	6.7e-05	0.277	tgtcatggagcctttg
GGTCAYNCTGHCCYSV	MEME-6	chr11	70652199	70652214	-	9.86364	6.94e-05	0.284	GGGCAGGTTGCCATTG
GGTCAYNCTGHCCYSV	MEME-6	chr5	172899801	172899816	+	9.85227	6.97e-05	0.284	GGACACCCTGCCCTGT
GGTCAYNCTGHCCYSV	MEME-6	chr2	236617867	236617882	+	9.84091	7e-05	0.284	TGCCACTCAGCCAGGG
GGTCAYNCTGHCCYSV	MEME-6	chr16	72961408	72961423	-	9.77273	7.18e-05	0.288	TGGCACGGTGCCAGCC
GGTCAYNCTGHCCYSV	MEME-6	chr10	50022967	50022982	-	9.76136	7.21e-05	0.288	GGTCATCAAGACAGAA
GGTCAYNCTGHCCYSV	MEME-6	chr6	125905753	125905768	+	9.75	7.24e-05	0.288	GGTCAGGACGCGCCAC
GGTCAYNCTGHCCYSV	MEME-6	chr6	4489862	4489877	+	9.73864	7.27e-05	0.288	agTGAACTTGACATGG
GGTCAYNCTGHCCYSV	MEME-6	chr15	44214579	44214594	-	9.68182	7.43e-05	0.292	GGTCAGAATGTGCTTG
GGTCAYNCTGHCCYSV	MEME-6	chr14	65725158	65725173	+	9.67045	7.46e-05	0.292	ggtcagcttgtgcctg
GGTCAYNCTGHCCYSV	MEME-6	chr20	33249630	33249645	+	9.65909	7.49e-05	0.292	ggtcattctgactggt
GGTCAYNCTGHCCYSV	MEME-6	chr9	126089960	126089975	+	9.63636	7.56e-05	0.292	GGTCACTGTGGCCCCA
GGTCAYNCTGHCCYSV	MEME-6	chr20	49306274	49306289	+	9.60227	7.65e-05	0.292	TGCCAGGGAGACACGA
GGTCAYNCTGHCCYSV	MEME-6	chr16	72961345	72961360	+	9.60227	7.65e-05	0.292	GGCCACTGTGCCTTTG
GGTCAYNCTGHCCYSV	MEME-6	chr15	81035603	81035618	-	9.60227	7.65e-05	0.292	AGTCAGCATGACCTTT
GGTCAYNCTGHCCYSV	MEME-6	chr9	83691531	83691546	+	9.57955	7.72e-05	0.292	TGTCAAACTGACAGAG
GGTCAYNCTGHCCYSV	MEME-6	chr8	68624487	68624502	+	9.56818	7.75e-05	0.292	TGTGGATCTGCCACAG
GGTCAYNCTGHCCYSV	MEME-6	chr9	126089922	126089937	+	9.47727	8.01e-05	0.3	TGCCAAGCTGCCACCT
GGTCAYNCTGHCCYSV	MEME-6	chr16	78084958	78084973	-	9.44318	8.11e-05	0.303	TGTCAACCTGAGATAA
GGTCAYNCTGHCCYSV	MEME-6	chr12	125405661	125405676	+	9.40909	8.22e-05	0.304	GGGGGCCCAGACCTTC
GGTCAYNCTGHCCYSV	MEME-6	chr2	66616881	66616896	-	9.39773	8.25e-05	0.304	AGTCAAGTAGACCTTA
GGTCAYNCTGHCCYSV	MEME-6	chr6	16964886	16964901	+	9.34091	8.42e-05	0.309	AGGGACCCTGACATCA
GGTCAYNCTGHCCYSV	MEME-6	chr14	95103167	95103182	+	9.31818	8.49e-05	0.309	GGTCACCTTGTGCCAT
GGTCAYNCTGHCCYSV	MEME-6	chr3	126792623	126792638	+	9.30682	8.53e-05	0.309	tgccacactgcctttc
GGTCAYNCTGHCCYSV	MEME-6	chr12	64473969	64473984	+	9.29545	8.56e-05	0.309	TGGGAAGATGACCTGG
GGTCAYNCTGHCCYSV	MEME-6	chr9	130336709	130336724	+	9.26136	8.66e-05	0.311	TGGCACGGAGTCCCAG
GGTCAYNCTGHCCYSV	MEME-6	chr7	139432006	139432021	+	9.25	8.7e-05	0.311	TGTCATCAAGCCAGTC
GGTCAYNCTGHCCYSV	MEME-6	chr2	10367264	10367279	+	9.18182	8.91e-05	0.316	tgccattatgccactg
GGTCAYNCTGHCCYSV	MEME-6	chr6	113754003	113754018	-	9.18182	8.91e-05	0.316	TGTCAAAGAGACACTG
GGTCAYNCTGHCCYSV	MEME-6	chr9	90885538	90885553	-	9.15909	8.99e-05	0.316	GGTCAGGCTGCTCTCG
GGTCAYNCTGHCCYSV	MEME-6	chr5	100429004	100429019	-	9.14773	9.02e-05	0.316	TGTGACCTTGTGCTAA
GGTCAYNCTGHCCYSV	MEME-6	chr4	24755097	24755112	+	9.11364	9.13e-05	0.318	agtcaccatgacagtc
GGTCAYNCTGHCCYSV	MEME-6	chr10	17487793	17487808	+	9.07955	9.24e-05	0.318	GGTCAGGGTGACCAGG
GGTCAYNCTGHCCYSV	MEME-6	chr6	21738708	21738723	-	9.06818	9.28e-05	0.318	TGGCAGTCAGCCCGGC
GGTCAYNCTGHCCYSV	MEME-6	chr22	32042547	32042562	+	9.04545	9.36e-05	0.318	GGTGAGTCAGCCTCAA
GGTCAYNCTGHCCYSV	MEME-6	chr5	100627820	100627835	-	9.04545	9.36e-05	0.318	GGTCATGAAGTCTTTG
GGTCAYNCTGHCCYSV	MEME-6	chr10	8768042	8768057	+	9.03409	9.4e-05	0.318	TGTCAGAATGTCAGCC
GGTCAYNCTGHCCYSV	MEME-6	chr13	33559142	33559157	-	9.03409	9.4e-05	0.318	TGGCACTGTGACAGGC
GGTCAYNCTGHCCYSV	MEME-6	chr2	132313423	132313438	+	9.01136	9.47e-05	0.318	ggccattctgaccgat
GGTCAYNCTGHCCYSV	MEME-6	chr15	85473302	85473317	-	9	9.51e-05	0.318	TGGGATGGTGCCACAC
GGTCAYNCTGHCCYSV	MEME-6	chr2	138266438	138266453	+	8.98864	9.54e-05	0.318	tgggaacctgacctgt
GGTCAYNCTGHCCYSV	MEME-6	chr4	186190133	186190148	-	8.96591	9.62e-05	0.319	AGTCATCATGTCACCT
GGTCAYNCTGHCCYSV	MEME-6	chr15	63124464	63124479	-	8.94318	9.7e-05	0.32	GGTCACACAGTGTTGA
GGTCAYNCTGHCCYSV	MEME-6	chr16	22243960	22243975	-	8.90909	9.81e-05	0.32	GGTCACAGTGCGTTAA
GGTCAYNCTGHCCYSV	MEME-6	chr1	110240664	110240679	-	8.90909	9.81e-05	0.32	AGTCAAGTTGACACAG
GGTCAYNCTGHCCYSV	MEME-6	chr10	123269693	123269708	+	8.90909	9.81e-05	0.32	GGGCAAACTGTCATGT
GGTCAYNCTGHCCYSV	MEME-6	chr15	63124480	63124495	-	8.875	9.93e-05	0.32	GGTTAAGCTGCCCTCA
GGTCAYNCTGHCCYSV	MEME-6	chr3	181568646	181568661	-	8.875	9.93e-05	0.32	AGTGACTTAGCCATTA
GGTCAYNCTGHCCYSV	MEME-6	chr2	7932418	7932433	-	8.86364	9.97e-05	0.32	AGTCAAACAGAGCTGC
