prim_db	prim_id	prim_alt	prim_cons	sec_db	sec_id	sec_alt	sec_cons	trim_left	trim_right	red_db	red_id	red_alt	E-value	gap	orient	count	total	adj_p-value	p-value
dreme.xml	AGATAW	DREME-3	AGATAW	meme.xml	CTTSTAGACAYTGNCTTAGGCAARKAYTTC	MEME-5	CTTSTAGACAYTGNCTTAGGCAARKAYTTC	0	0	.	.	.	2.33e-10	37	0	7	13	3.03e-17	2.73e-16
dreme.xml	AGATAW	DREME-3	AGATAW	meme.xml	CTTSTAGACAYTGNCTTAGGCAARKAYTTC	MEME-5	CTTSTAGACAYTGNCTTAGGCAARKAYTTC	0	0	.	.	.	2.33e-10	37	4	7	13	3.84e-15	3.45e-14
dreme.xml	AGATAW	DREME-3	AGATAW	meme.xml	CTTSTAGACAYTGNCTTAGGCAARKAYTTC	MEME-5	CTTSTAGACAYTGNCTTAGGCAARKAYTTC	0	0	.	.	.	2.33e-10	37	5	7	13	3.84e-15	3.45e-14
dreme.xml	AGATAW	DREME-3	AGATAW	meme.xml	CTTSTAGACAYTGNCTTAGGCAARKAYTTC	MEME-5	CTTSTAGACAYTGNCTTAGGCAARKAYTTC	0	0	.	.	.	2.33e-10	37	8	7	13	4.81e-13	4.33e-12
dreme.xml	AGATAW	DREME-3	AGATAW	meme.xml	CTTSTAGACAYTGNCTTAGGCAARKAYTTC	MEME-5	CTTSTAGACAYTGNCTTAGGCAARKAYTTC	0	0	.	.	.	2.33e-10	13	2	4	13	1.43e-09	1.28e-08
dreme.xml	AGATAW	DREME-3	AGATAW	meme.xml	CTTSTAGACAYTGNCTTAGGCAARKAYTTC	MEME-5	CTTSTAGACAYTGNCTTAGGCAARKAYTTC	0	0	.	.	.	2.33e-10	13	6	4	13	2.25e-08	2.02e-07
dreme.xml	AGATAW	DREME-3	AGATAW	meme.xml	CTTSTAGACAYTGNCTTAGGCAARKAYTTC	MEME-5	CTTSTAGACAYTGNCTTAGGCAARKAYTTC	0	0	.	.	.	2.33e-10	13	7	4	13	2.25e-08	2.02e-07
dreme.xml	AGATAW	DREME-3	AGATAW	meme.xml	CTTSTAGACAYTGNCTTAGGCAARKAYTTC	MEME-5	CTTSTAGACAYTGNCTTAGGCAARKAYTTC	0	0	.	.	.	2.33e-10	13	8	4	13	3.49e-07	3.14e-06
dreme.xml	AGATAW	DREME-3	AGATAW	HOCOMOCOv11_full_HUMAN_mono_meme_format	RHXF1_HUMAN.H11MO.0.D	.	NRGGGATYADS	2	2	HOCOMOCOv11_full_HUMAN_mono_meme_format	CTTSTAGACAYTGNCTTAGGCAARKAYTTC	MEME-5	6.39e-02	49	0	10	545	6.98e-09	6.28e-08
dreme.xml	AGATAW	DREME-3	AGATAW	HOCOMOCOv11_full_HUMAN_mono_meme_format	RHXF1_HUMAN.H11MO.0.D	.	NRGGGATYADS	2	2	HOCOMOCOv11_full_HUMAN_mono_meme_format	CTTSTAGACAYTGNCTTAGGCAARKAYTTC	MEME-5	6.39e-02	49	4	10	545	3.10e-06	2.79e-05
dreme.xml	AGATAW	DREME-3	AGATAW	HOCOMOCOv11_full_HUMAN_mono_meme_format	RHXF1_HUMAN.H11MO.0.D	.	NRGGGATYADS	2	2	HOCOMOCOv11_full_HUMAN_mono_meme_format	CTTSTAGACAYTGNCTTAGGCAARKAYTTC	MEME-5	6.39e-02	49	5	10	545	3.10e-06	2.79e-05
dreme.xml	AGATAW	DREME-3	AGATAW	HOCOMOCOv11_full_HUMAN_mono_meme_format	PITX1_HUMAN.H11MO.0.D	.	RGGGMTTAR	1	0	HOCOMOCOv11_full_HUMAN_mono_meme_format	CTTSTAGACAYTGNCTTAGGCAARKAYTTC	MEME-5	6.51e-02	48	0	9	408	7.16e-09	6.44e-08
dreme.xml	AGATAW	DREME-3	AGATAW	HOCOMOCOv11_full_HUMAN_mono_meme_format	PITX1_HUMAN.H11MO.0.D	.	RGGGMTTAR	1	0	HOCOMOCOv11_full_HUMAN_mono_meme_format	CTTSTAGACAYTGNCTTAGGCAARKAYTTC	MEME-5	6.51e-02	48	4	10	408	2.71e-07	2.44e-06
dreme.xml	AGATAW	DREME-3	AGATAW	HOCOMOCOv11_full_HUMAN_mono_meme_format	PITX1_HUMAN.H11MO.0.D	.	RGGGMTTAR	1	0	HOCOMOCOv11_full_HUMAN_mono_meme_format	CTTSTAGACAYTGNCTTAGGCAARKAYTTC	MEME-5	6.51e-02	48	5	10	408	2.71e-07	2.44e-06
dreme.xml	AGATAW	DREME-3	AGATAW	HOCOMOCOv11_full_HUMAN_mono_meme_format	NFIL3_HUMAN.H11MO.0.D	.	DRTTATGYAAB	1	0	HOCOMOCOv11_full_HUMAN_mono_meme_format	CTTSTAGACAYTGNCTTAGGCAARKAYTTC	MEME-5	1.42e-01	43	0	8	318	1.58e-08	1.42e-07
dreme.xml	AGATAW	DREME-3	AGATAW	HOCOMOCOv11_full_HUMAN_mono_meme_format	NFIL3_HUMAN.H11MO.0.D	.	DRTTATGYAAB	1	0	HOCOMOCOv11_full_HUMAN_mono_meme_format	CTTSTAGACAYTGNCTTAGGCAARKAYTTC	MEME-5	1.42e-01	43	4	8	318	2.49e-06	2.24e-05
dreme.xml	AGATAW	DREME-3	AGATAW	HOCOMOCOv11_full_HUMAN_mono_meme_format	NFIL3_HUMAN.H11MO.0.D	.	DRTTATGYAAB	1	0	HOCOMOCOv11_full_HUMAN_mono_meme_format	CTTSTAGACAYTGNCTTAGGCAARKAYTTC	MEME-5	1.42e-01	43	5	8	318	2.49e-06	2.24e-05
dreme.xml	AGATAW	DREME-3	AGATAW	HOCOMOCOv11_full_HUMAN_mono_meme_format	DBP_HUMAN.H11MO.0.B	.	VTTATGYAABM	0	2	HOCOMOCOv11_full_HUMAN_mono_meme_format	CTTSTAGACAYTGNCTTAGGCAARKAYTTC	MEME-5	9.82e-01	44	0	8	414	1.09e-07	9.80e-07
dreme.xml	AGATAW	DREME-3	AGATAW	HOCOMOCOv11_full_HUMAN_mono_meme_format	CEBPA_HUMAN.H11MO.0.A	.	DRTTGTGCAAYV	1	1	HOCOMOCOv11_full_HUMAN_mono_meme_format	CTTSTAGACAYTGNCTTAGGCAARKAYTTC	MEME-5	1.71e+00	43	0	7	309	1.91e-07	1.72e-06
dreme.xml	AGATAW	DREME-3	AGATAW	HOCOMOCOv11_full_HUMAN_mono_meme_format	CEBPB_HUMAN.H11MO.0.A	.	DRTTRYGCAATM	1	1	HOCOMOCOv11_full_HUMAN_mono_meme_format	CTTSTAGACAYTGNCTTAGGCAARKAYTTC	MEME-5	4.34e+00	43	0	6	231	4.85e-07	4.37e-06
dreme.xml	AGATAW	DREME-3	AGATAW	HOCOMOCOv11_full_HUMAN_mono_meme_format	NFYC_HUMAN.H11MO.0.A	.	BBRRCCAATCAGMR	2	2	HOCOMOCOv11_full_HUMAN_mono_meme_format	CTTSTAGACAYTGNCTTAGGCAARKAYTTC	MEME-5	9.64e+00	51	6	8	283	1.08e-06	9.74e-06
dreme.xml	AGATAW	DREME-3	AGATAW	HOCOMOCOv11_full_HUMAN_mono_meme_format	NFYC_HUMAN.H11MO.0.A	.	BBRRCCAATCAGMR	2	2	HOCOMOCOv11_full_HUMAN_mono_meme_format	CTTSTAGACAYTGNCTTAGGCAARKAYTTC	MEME-5	9.64e+00	51	1	6	283	1.54e-06	1.38e-05
dreme.xml	AGATAW	DREME-3	AGATAW	meme.xml	AARAGCTTCTGCACRGCAAARGAA	MEME-4	AARAGCTTCTGCACRGCAAARGAA	0	0	.	.	.	1.39e-06	23	2	6	19	1.72e-13	1.54e-12
dreme.xml	AGATAW	DREME-3	AGATAW	meme.xml	AARAGCTTCTGCACRGCAAARGAA	MEME-4	AARAGCTTCTGCACRGCAAARGAA	0	0	.	.	.	1.39e-06	23	6	6	19	1.07e-11	9.67e-11
dreme.xml	AGATAW	DREME-3	AGATAW	meme.xml	AARAGCTTCTGCACRGCAAARGAA	MEME-4	AARAGCTTCTGCACRGCAAARGAA	0	0	.	.	.	1.39e-06	23	7	6	19	1.07e-11	9.67e-11
dreme.xml	AGATAW	DREME-3	AGATAW	meme.xml	AARAGCTTCTGCACRGCAAARGAA	MEME-4	AARAGCTTCTGCACRGCAAARGAA	0	0	.	.	.	1.39e-06	23	8	6	19	6.58e-10	5.92e-09
dreme.xml	AGATAW	DREME-3	AGATAW	meme.xml	AARAGCTTCTGCACRGCAAARGAA	MEME-4	AARAGCTTCTGCACRGCAAARGAA	0	0	.	.	.	1.39e-06	109	2	3	19	8.02e-07	7.22e-06
dreme.xml	AGATAW	DREME-3	AGATAW	HOCOMOCOv11_full_HUMAN_mono_meme_format	EVX2_HUMAN.H11MO.0.A	.	KTTTTATKRCYBY	2	2	.	.	.	8.92e-04	5	1	10	342	9.88e-11	8.89e-10
dreme.xml	AGATAW	DREME-3	AGATAW	HOCOMOCOv11_full_HUMAN_mono_meme_format	EVX2_HUMAN.H11MO.0.A	.	KTTTTATKRCYBY	2	2	.	.	.	8.92e-04	5	6	11	342	6.29e-09	5.66e-08
dreme.xml	AGATAW	DREME-3	AGATAW	HOCOMOCOv11_full_HUMAN_mono_meme_format	EVX2_HUMAN.H11MO.0.A	.	KTTTTATKRCYBY	2	2	.	.	.	8.92e-04	5	4	10	342	5.96e-08	5.36e-07
dreme.xml	AGATAW	DREME-3	AGATAW	HOCOMOCOv11_full_HUMAN_mono_meme_format	EVX2_HUMAN.H11MO.0.A	.	KTTTTATKRCYBY	2	2	.	.	.	8.92e-04	5	8	13	342	1.52e-07	1.37e-06
dreme.xml	AGATAW	DREME-3	AGATAW	HOCOMOCOv11_full_HUMAN_mono_meme_format	EVX2_HUMAN.H11MO.0.A	.	KTTTTATKRCYBY	2	2	.	.	.	8.92e-04	31	5	9	342	5.13e-07	4.61e-06
dreme.xml	AGATAW	DREME-3	AGATAW	HOCOMOCOv11_full_HUMAN_mono_meme_format	EVX2_HUMAN.H11MO.0.A	.	KTTTTATKRCYBY	2	2	.	.	.	8.92e-04	31	0	6	342	4.25e-06	3.82e-05
dreme.xml	AGATAW	DREME-3	AGATAW	HOCOMOCOv11_full_HUMAN_mono_meme_format	HXC12_HUMAN.H11MO.0.D	.	DTTTTAYKACYT	1	2	HOCOMOCOv11_full_HUMAN_mono_meme_format	EVX2_HUMAN.H11MO.0.A	.	3.67e-02	4	1	9	379	4.06e-09	3.66e-08
dreme.xml	AGATAW	DREME-3	AGATAW	HOCOMOCOv11_full_HUMAN_mono_meme_format	HXC12_HUMAN.H11MO.0.D	.	DTTTTAYKACYT	1	2	HOCOMOCOv11_full_HUMAN_mono_meme_format	EVX2_HUMAN.H11MO.0.A	.	3.67e-02	4	6	10	379	1.50e-07	1.35e-06
dreme.xml	AGATAW	DREME-3	AGATAW	HOCOMOCOv11_full_HUMAN_mono_meme_format	HXC12_HUMAN.H11MO.0.D	.	DTTTTAYKACYT	1	2	HOCOMOCOv11_full_HUMAN_mono_meme_format	EVX2_HUMAN.H11MO.0.A	.	3.67e-02	4	4	9	379	1.16e-06	1.05e-05
dreme.xml	AGATAW	DREME-3	AGATAW	HOCOMOCOv11_full_HUMAN_mono_meme_format	FOXO1_HUMAN.H11MO.0.A	.	KBBYTGTTTHCN	3	1	HOCOMOCOv11_full_HUMAN_mono_meme_format	EVX2_HUMAN.H11MO.0.A	.	4.04e-02	0	1	13	994	4.45e-09	4.00e-08
dreme.xml	AGATAW	DREME-3	AGATAW	HOCOMOCOv11_full_HUMAN_mono_meme_format	FOXO1_HUMAN.H11MO.0.A	.	KBBYTGTTTHCN	3	1	HOCOMOCOv11_full_HUMAN_mono_meme_format	EVX2_HUMAN.H11MO.0.A	.	4.04e-02	0	4	16	994	8.66e-08	7.79e-07
dreme.xml	AGATAW	DREME-3	AGATAW	HOCOMOCOv11_full_HUMAN_mono_meme_format	FOXO1_HUMAN.H11MO.0.A	.	KBBYTGTTTHCN	3	1	HOCOMOCOv11_full_HUMAN_mono_meme_format	EVX2_HUMAN.H11MO.0.A	.	4.04e-02	0	6	16	994	8.66e-08	7.79e-07
dreme.xml	AGATAW	DREME-3	AGATAW	HOCOMOCOv11_full_HUMAN_mono_meme_format	FOXO1_HUMAN.H11MO.0.A	.	KBBYTGTTTHCN	3	1	HOCOMOCOv11_full_HUMAN_mono_meme_format	EVX2_HUMAN.H11MO.0.A	.	4.04e-02	0	8	21	994	1.32e-06	1.19e-05
dreme.xml	AGATAW	DREME-3	AGATAW	HOCOMOCOv11_full_HUMAN_mono_meme_format	HXB13_HUMAN.H11MO.0.A	.	TTTTATDGSH	0	1	HOCOMOCOv11_full_HUMAN_mono_meme_format	EVX2_HUMAN.H11MO.0.A	.	4.56e-02	4	1	10	519	5.05e-09	4.55e-08
dreme.xml	AGATAW	DREME-3	AGATAW	HOCOMOCOv11_full_HUMAN_mono_meme_format	HXB13_HUMAN.H11MO.0.A	.	TTTTATDGSH	0	1	HOCOMOCOv11_full_HUMAN_mono_meme_format	EVX2_HUMAN.H11MO.0.A	.	4.56e-02	4	6	11	519	3.71e-07	3.34e-06
dreme.xml	AGATAW	DREME-3	AGATAW	HOCOMOCOv11_full_HUMAN_mono_meme_format	HXB13_HUMAN.H11MO.0.A	.	TTTTATDGSH	0	1	HOCOMOCOv11_full_HUMAN_mono_meme_format	EVX2_HUMAN.H11MO.0.A	.	4.56e-02	4	4	10	519	2.31e-06	2.08e-05
dreme.xml	AGATAW	DREME-3	AGATAW	HOCOMOCOv11_full_HUMAN_mono_meme_format	CDX2_HUMAN.H11MO.0.A	.	TTTTATTGCWBT	0	0	HOCOMOCOv11_full_HUMAN_mono_meme_format	EVX2_HUMAN.H11MO.0.A	.	9.45e-02	4	1	9	416	1.07e-08	9.62e-08
dreme.xml	AGATAW	DREME-3	AGATAW	HOCOMOCOv11_full_HUMAN_mono_meme_format	CDX2_HUMAN.H11MO.0.A	.	TTTTATTGCWBT	0	0	HOCOMOCOv11_full_HUMAN_mono_meme_format	EVX2_HUMAN.H11MO.0.A	.	9.45e-02	4	4	9	416	2.85e-06	2.56e-05
dreme.xml	AGATAW	DREME-3	AGATAW	HOCOMOCOv11_full_HUMAN_mono_meme_format	CDX2_HUMAN.H11MO.0.A	.	TTTTATTGCWBT	0	0	HOCOMOCOv11_full_HUMAN_mono_meme_format	EVX2_HUMAN.H11MO.0.A	.	9.45e-02	4	6	9	416	2.85e-06	2.56e-05
dreme.xml	AGATAW	DREME-3	AGATAW	HOCOMOCOv11_full_HUMAN_mono_meme_format	HXC13_HUMAN.H11MO.0.D	.	DDTTTTACKAG	2	3	HOCOMOCOv11_full_HUMAN_mono_meme_format	EVX2_HUMAN.H11MO.0.A	.	1.15e-01	4	1	9	442	1.25e-08	1.13e-07
dreme.xml	AGATAW	DREME-3	AGATAW	HOCOMOCOv11_full_HUMAN_mono_meme_format	HXC13_HUMAN.H11MO.0.D	.	DDTTTTACKAG	2	3	HOCOMOCOv11_full_HUMAN_mono_meme_format	EVX2_HUMAN.H11MO.0.A	.	1.15e-01	8	1	7	442	1.63e-06	1.47e-05
dreme.xml	AGATAW	DREME-3	AGATAW	HOCOMOCOv11_full_HUMAN_mono_meme_format	HXC13_HUMAN.H11MO.0.D	.	DDTTTTACKAG	2	3	HOCOMOCOv11_full_HUMAN_mono_meme_format	EVX2_HUMAN.H11MO.0.A	.	1.15e-01	4	4	9	442	3.29e-06	2.96e-05
dreme.xml	AGATAW	DREME-3	AGATAW	HOCOMOCOv11_full_HUMAN_mono_meme_format	HXC13_HUMAN.H11MO.0.D	.	DDTTTTACKAG	2	3	HOCOMOCOv11_full_HUMAN_mono_meme_format	EVX2_HUMAN.H11MO.0.A	.	1.15e-01	4	6	9	442	3.29e-06	2.96e-05
dreme.xml	AGATAW	DREME-3	AGATAW	HOCOMOCOv11_full_HUMAN_mono_meme_format	FOXJ3_HUMAN.H11MO.1.B	.	TKKTTWWTGTTTA	0	0	HOCOMOCOv11_full_HUMAN_mono_meme_format	EVX2_HUMAN.H11MO.0.A	.	1.42e-01	0	1	7	209	1.61e-08	1.45e-07
dreme.xml	AGATAW	DREME-3	AGATAW	HOCOMOCOv11_full_HUMAN_mono_meme_format	FOXJ3_HUMAN.H11MO.1.B	.	TKKTTWWTGTTTA	0	0	HOCOMOCOv11_full_HUMAN_mono_meme_format	EVX2_HUMAN.H11MO.0.A	.	1.42e-01	0	4	8	209	1.36e-07	1.23e-06
dreme.xml	AGATAW	DREME-3	AGATAW	HOCOMOCOv11_full_HUMAN_mono_meme_format	FOXJ3_HUMAN.H11MO.1.B	.	TKKTTWWTGTTTA	0	0	HOCOMOCOv11_full_HUMAN_mono_meme_format	EVX2_HUMAN.H11MO.0.A	.	1.42e-01	0	6	8	209	1.36e-07	1.23e-06
dreme.xml	AGATAW	DREME-3	AGATAW	HOCOMOCOv11_full_HUMAN_mono_meme_format	FOXJ3_HUMAN.H11MO.1.B	.	TKKTTWWTGTTTA	0	0	HOCOMOCOv11_full_HUMAN_mono_meme_format	EVX2_HUMAN.H11MO.0.A	.	1.42e-01	60	5	7	209	1.50e-06	1.35e-05
dreme.xml	AGATAW	DREME-3	AGATAW	HOCOMOCOv11_full_HUMAN_mono_meme_format	FOXJ3_HUMAN.H11MO.1.B	.	TKKTTWWTGTTTA	0	0	HOCOMOCOv11_full_HUMAN_mono_meme_format	EVX2_HUMAN.H11MO.0.A	.	1.42e-01	0	8	9	209	2.94e-06	2.65e-05
dreme.xml	AGATAW	DREME-3	AGATAW	HOCOMOCOv11_full_HUMAN_mono_meme_format	CPEB1_HUMAN.H11MO.0.D	.	TTTTTATTYTTTTTTTT	0	0	HOCOMOCOv11_full_HUMAN_mono_meme_format	EVX2_HUMAN.H11MO.0.A	.	1.51e-01	3	1	8	307	1.78e-08	1.60e-07
dreme.xml	AGATAW	DREME-3	AGATAW	HOCOMOCOv11_full_HUMAN_mono_meme_format	CPEB1_HUMAN.H11MO.0.D	.	TTTTTATTYTTTTTTTT	0	0	HOCOMOCOv11_full_HUMAN_mono_meme_format	EVX2_HUMAN.H11MO.0.A	.	1.51e-01	3	6	9	307	3.41e-07	3.07e-06
dreme.xml	AGATAW	DREME-3	AGATAW	HOCOMOCOv11_full_HUMAN_mono_meme_format	CPEB1_HUMAN.H11MO.0.D	.	TTTTTATTYTTTTTTTT	0	0	HOCOMOCOv11_full_HUMAN_mono_meme_format	EVX2_HUMAN.H11MO.0.A	.	1.51e-01	3	4	8	307	2.78e-06	2.50e-05
dreme.xml	AGATAW	DREME-3	AGATAW	HOCOMOCOv11_full_HUMAN_mono_meme_format	HXD10_HUMAN.H11MO.0.D	.	TGCTTTAATT	0	0	HOCOMOCOv11_full_HUMAN_mono_meme_format	EVX2_HUMAN.H11MO.0.A	.	1.76e-01	1	4	13	561	1.96e-08	1.77e-07
dreme.xml	AGATAW	DREME-3	AGATAW	HOCOMOCOv11_full_HUMAN_mono_meme_format	HXD10_HUMAN.H11MO.0.D	.	TGCTTTAATT	0	0	HOCOMOCOv11_full_HUMAN_mono_meme_format	EVX2_HUMAN.H11MO.0.A	.	1.76e-01	1	1	9	561	1.14e-07	1.02e-06
dreme.xml	AGATAW	DREME-3	AGATAW	HOCOMOCOv11_full_HUMAN_mono_meme_format	FOXK1_HUMAN.H11MO.0.A	.	TGTTTMCHTT	0	0	HOCOMOCOv11_full_HUMAN_mono_meme_format	EVX2_HUMAN.H11MO.0.A	.	5.65e-01	1	1	12	1040	6.30e-08	5.67e-07
dreme.xml	AGATAW	DREME-3	AGATAW	HOCOMOCOv11_full_HUMAN_mono_meme_format	FOXK1_HUMAN.H11MO.0.A	.	TGTTTMCHTT	0	0	HOCOMOCOv11_full_HUMAN_mono_meme_format	EVX2_HUMAN.H11MO.0.A	.	5.65e-01	1	6	15	1040	8.24e-07	7.42e-06
dreme.xml	AGATAW	DREME-3	AGATAW	HOCOMOCOv11_full_HUMAN_mono_meme_format	FOXK1_HUMAN.H11MO.0.A	.	TGTTTMCHTT	0	0	HOCOMOCOv11_full_HUMAN_mono_meme_format	EVX2_HUMAN.H11MO.0.A	.	5.65e-01	1	4	14	1040	3.45e-06	3.10e-05
dreme.xml	AGATAW	DREME-3	AGATAW	HOCOMOCOv11_full_HUMAN_mono_meme_format	HXC11_HUMAN.H11MO.0.D	.	DTTTWAYGACY	1	1	HOCOMOCOv11_full_HUMAN_mono_meme_format	EVX2_HUMAN.H11MO.0.A	.	5.80e-01	4	1	7	264	6.42e-08	5.78e-07
dreme.xml	AGATAW	DREME-3	AGATAW	HOCOMOCOv11_full_HUMAN_mono_meme_format	HXC11_HUMAN.H11MO.0.D	.	DTTTWAYGACY	1	1	HOCOMOCOv11_full_HUMAN_mono_meme_format	EVX2_HUMAN.H11MO.0.A	.	5.80e-01	4	6	8	264	6.21e-07	5.59e-06
dreme.xml	AGATAW	DREME-3	AGATAW	HOCOMOCOv11_full_HUMAN_mono_meme_format	HXC11_HUMAN.H11MO.0.D	.	DTTTWAYGACY	1	1	HOCOMOCOv11_full_HUMAN_mono_meme_format	EVX2_HUMAN.H11MO.0.A	.	5.80e-01	32	0	6	264	9.97e-07	8.97e-06
dreme.xml	AGATAW	DREME-3	AGATAW	HOCOMOCOv11_full_HUMAN_mono_meme_format	HXC9_HUMAN.H11MO.0.C	.	WTTTATKGCH	0	0	HOCOMOCOv11_full_HUMAN_mono_meme_format	EVX2_HUMAN.H11MO.0.A	.	1.31e+00	4	1	8	428	1.47e-07	1.32e-06
dreme.xml	AGATAW	DREME-3	AGATAW	HOCOMOCOv11_full_HUMAN_mono_meme_format	HXC9_HUMAN.H11MO.0.C	.	WTTTATKGCH	0	0	HOCOMOCOv11_full_HUMAN_mono_meme_format	EVX2_HUMAN.H11MO.0.A	.	1.31e+00	31	5	10	428	4.67e-07	4.20e-06
dreme.xml	AGATAW	DREME-3	AGATAW	HOCOMOCOv11_full_HUMAN_mono_meme_format	HXD12_HUMAN.H11MO.0.D	.	DDTTTTAHKRN	2	4	HOCOMOCOv11_full_HUMAN_mono_meme_format	EVX2_HUMAN.H11MO.0.A	.	2.05e+00	4	1	11	1006	2.21e-07	1.99e-06
dreme.xml	AGATAW	DREME-3	AGATAW	HOCOMOCOv11_full_HUMAN_mono_meme_format	ZN418_HUMAN.H11MO.1.D	.	KRTTGCTTYYRK	2	0	HOCOMOCOv11_full_HUMAN_mono_meme_format	EVX2_HUMAN.H11MO.0.A	.	2.27e+00	0	1	9	619	2.53e-07	2.28e-06
dreme.xml	AGATAW	DREME-3	AGATAW	HOCOMOCOv11_full_HUMAN_mono_meme_format	Z354A_HUMAN.H11MO.0.C	.	RTTTARWYCATTTACATTTAATGT	1	0	HOCOMOCOv11_full_HUMAN_mono_meme_format	EVX2_HUMAN.H11MO.0.A	.	2.85e+00	5	1	7	308	3.51e-07	3.16e-06
dreme.xml	AGATAW	DREME-3	AGATAW	HOCOMOCOv11_full_HUMAN_mono_meme_format	Z354A_HUMAN.H11MO.0.C	.	RTTTARWYCATTTACATTTAATGT	1	0	HOCOMOCOv11_full_HUMAN_mono_meme_format	EVX2_HUMAN.H11MO.0.A	.	2.85e+00	5	6	8	308	3.92e-06	3.52e-05
dreme.xml	AGATAW	DREME-3	AGATAW	HOCOMOCOv11_full_HUMAN_mono_meme_format	FOXC1_HUMAN.H11MO.0.C	.	CDWTGTTTACTTWRG	2	0	HOCOMOCOv11_full_HUMAN_mono_meme_format	EVX2_HUMAN.H11MO.0.A	.	3.27e+00	0	1	6	216	3.73e-07	3.36e-06
dreme.xml	AGATAW	DREME-3	AGATAW	HOCOMOCOv11_full_HUMAN_mono_meme_format	FOXC1_HUMAN.H11MO.0.C	.	CDWTGTTTACTTWRG	2	0	HOCOMOCOv11_full_HUMAN_mono_meme_format	EVX2_HUMAN.H11MO.0.A	.	3.27e+00	0	4	7	216	1.86e-06	1.67e-05
dreme.xml	AGATAW	DREME-3	AGATAW	HOCOMOCOv11_full_HUMAN_mono_meme_format	TBP_HUMAN.H11MO.0.A	.	MTATAAAARS	0	0	HOCOMOCOv11_full_HUMAN_mono_meme_format	EVX2_HUMAN.H11MO.0.A	.	5.17e+00	2	0	7	366	5.79e-07	5.21e-06
dreme.xml	AGATAW	DREME-3	AGATAW	HOCOMOCOv11_full_HUMAN_mono_meme_format	TBP_HUMAN.H11MO.0.A	.	MTATAAAARS	0	0	HOCOMOCOv11_full_HUMAN_mono_meme_format	EVX2_HUMAN.H11MO.0.A	.	5.17e+00	2	4	9	366	9.32e-07	8.39e-06
dreme.xml	AGATAW	DREME-3	AGATAW	HOCOMOCOv11_full_HUMAN_mono_meme_format	HXD11_HUMAN.H11MO.0.D	.	DWTTTATKRHN	1	3	HOCOMOCOv11_full_HUMAN_mono_meme_format	EVX2_HUMAN.H11MO.0.A	.	5.92e+00	4	1	10	904	6.49e-07	5.84e-06
dreme.xml	AGATAW	DREME-3	AGATAW	HOCOMOCOv11_full_HUMAN_mono_meme_format	HXA13_HUMAN.H11MO.0.C	.	GDTTTTATTGG	2	0	HOCOMOCOv11_full_HUMAN_mono_meme_format	EVX2_HUMAN.H11MO.0.A	.	8.55e+00	4	1	7	398	9.52e-07	8.57e-06
dreme.xml	AGATAW	DREME-3	AGATAW	HOCOMOCOv11_full_HUMAN_mono_meme_format	HXA13_HUMAN.H11MO.0.C	.	GDTTTTATTGG	2	0	HOCOMOCOv11_full_HUMAN_mono_meme_format	EVX2_HUMAN.H11MO.0.A	.	8.55e+00	8	8	12	398	3.80e-06	3.42e-05
dreme.xml	AGATAW	DREME-3	AGATAW	HOCOMOCOv11_full_HUMAN_mono_meme_format	FOXP1_HUMAN.H11MO.0.A	.	TBTGTTTMY	0	0	HOCOMOCOv11_full_HUMAN_mono_meme_format	EVX2_HUMAN.H11MO.0.A	.	9.19e+00	1	1	10	940	1.02e-06	9.22e-06
dreme.xml	AGATAW	DREME-3	AGATAW	HOCOMOCOv11_full_HUMAN_mono_meme_format	CDC5L_HUMAN.H11MO.0.D	.	GBGWKTTAAYRTAWY	0	0	.	.	.	1.86e-01	6	2	7	215	2.15e-08	1.94e-07
dreme.xml	AGATAW	DREME-3	AGATAW	HOCOMOCOv11_full_HUMAN_mono_meme_format	CDC5L_HUMAN.H11MO.0.D	.	GBGWKTTAAYRTAWY	0	0	.	.	.	1.86e-01	6	6	8	215	1.87e-07	1.69e-06
dreme.xml	AGATAW	DREME-3	AGATAW	HOCOMOCOv11_full_HUMAN_mono_meme_format	CDC5L_HUMAN.H11MO.0.D	.	GBGWKTTAAYRTAWY	0	0	.	.	.	1.86e-01	6	7	7	215	1.98e-06	1.78e-05
dreme.xml	AGATAW	DREME-3	AGATAW	HOCOMOCOv11_full_HUMAN_mono_meme_format	ALX4_HUMAN.H11MO.0.D	.	YTAATTARATTA	1	0	.	.	.	2.28e-01	12	7	5	37	2.56e-08	2.30e-07
dreme.xml	AGATAW	DREME-3	AGATAW	HOCOMOCOv11_full_HUMAN_mono_meme_format	ALX4_HUMAN.H11MO.0.D	.	YTAATTARATTA	1	0	.	.	.	2.28e-01	12	2	4	37	7.12e-08	6.41e-07
dreme.xml	AGATAW	DREME-3	AGATAW	HOCOMOCOv11_full_HUMAN_mono_meme_format	ALX4_HUMAN.H11MO.0.D	.	YTAATTARATTA	1	0	.	.	.	2.28e-01	12	8	5	37	7.44e-07	6.70e-06
dreme.xml	AGATAW	DREME-3	AGATAW	HOCOMOCOv11_full_HUMAN_mono_meme_format	ALX4_HUMAN.H11MO.0.D	.	YTAATTARATTA	1	0	.	.	.	2.28e-01	12	6	4	37	1.09e-06	9.78e-06
dreme.xml	AGATAW	DREME-3	AGATAW	HOCOMOCOv11_full_HUMAN_mono_meme_format	ZN232_HUMAN.H11MO.0.D	.	TGTTAAAYGTAGATTAAGY	1	1	.	.	.	3.42e-01	127	3	3	8	4.01e-08	3.61e-07
dreme.xml	AGATAW	DREME-3	AGATAW	HOCOMOCOv11_full_HUMAN_mono_meme_format	ZN232_HUMAN.H11MO.0.D	.	TGTTAAAYGTAGATTAAGY	1	1	.	.	.	3.42e-01	127	5	3	8	3.19e-07	2.87e-06
dreme.xml	AGATAW	DREME-3	AGATAW	HOCOMOCOv11_full_HUMAN_mono_meme_format	ZN232_HUMAN.H11MO.0.D	.	TGTTAAAYGTAGATTAAGY	1	1	.	.	.	3.42e-01	127	7	3	8	3.19e-07	2.87e-06
dreme.xml	AGATAW	DREME-3	AGATAW	HOCOMOCOv11_full_HUMAN_mono_meme_format	ZN232_HUMAN.H11MO.0.D	.	TGTTAAAYGTAGATTAAGY	1	1	.	.	.	3.42e-01	127	8	3	8	2.51e-06	2.26e-05
dreme.xml	AGATAW	DREME-3	AGATAW	HOCOMOCOv11_full_HUMAN_mono_meme_format	ZNF8_HUMAN.H11MO.0.C	.	TGTGGTATATCCATACAATGGA	0	0	.	.	.	3.69e-01	2	2	3	8	4.50e-08	4.05e-07
dreme.xml	AGATAW	DREME-3	AGATAW	HOCOMOCOv11_full_HUMAN_mono_meme_format	ZNF8_HUMAN.H11MO.0.C	.	TGTGGTATATCCATACAATGGA	0	0	.	.	.	3.69e-01	2	6	3	8	3.57e-07	3.21e-06
dreme.xml	AGATAW	DREME-3	AGATAW	HOCOMOCOv11_full_HUMAN_mono_meme_format	ZNF8_HUMAN.H11MO.0.C	.	TGTGGTATATCCATACAATGGA	0	0	.	.	.	3.69e-01	2	7	3	8	3.57e-07	3.21e-06
dreme.xml	AGATAW	DREME-3	AGATAW	HOCOMOCOv11_full_HUMAN_mono_meme_format	ZNF8_HUMAN.H11MO.0.C	.	TGTGGTATATCCATACAATGGA	0	0	.	.	.	3.69e-01	2	8	3	8	2.82e-06	2.53e-05
dreme.xml	AGATAW	DREME-3	AGATAW	HOCOMOCOv11_full_HUMAN_mono_meme_format	ZN547_HUMAN.H11MO.0.C	.	TGCTAATKCWGCARGCABRC	0	0	.	.	.	4.57e-01	0	8	9	122	5.49e-08	4.94e-07
dreme.xml	AGATAW	DREME-3	AGATAW	HOCOMOCOv11_full_HUMAN_mono_meme_format	ZN547_HUMAN.H11MO.0.C	.	TGCTAATKCWGCARGCABRC	0	0	.	.	.	4.57e-01	0	5	7	122	5.98e-08	5.39e-07
dreme.xml	AGATAW	DREME-3	AGATAW	HOCOMOCOv11_full_HUMAN_mono_meme_format	ZN547_HUMAN.H11MO.0.C	.	TGCTAATKCWGCARGCABRC	0	0	.	.	.	4.57e-01	0	0	5	122	4.84e-07	4.36e-06
dreme.xml	AGATAW	DREME-3	AGATAW	HOCOMOCOv11_full_HUMAN_mono_meme_format	EMX1_HUMAN.H11MO.0.D	.	TAATTAGYTAAW	0	0	.	.	.	4.79e-01	6	3	7	252	5.42e-08	4.88e-07
dreme.xml	AGATAW	DREME-3	AGATAW	HOCOMOCOv11_full_HUMAN_mono_meme_format	HXD13_HUMAN.H11MO.0.D	.	TTTATTAGRGA	0	0	.	.	.	4.83e-01	23	7	11	419	5.43e-08	4.88e-07
dreme.xml	AGATAW	DREME-3	AGATAW	HOCOMOCOv11_full_HUMAN_mono_meme_format	HXD13_HUMAN.H11MO.0.D	.	TTTATTAGRGA	0	0	.	.	.	4.83e-01	23	3	7	419	1.45e-06	1.30e-05
dreme.xml	AGATAW	DREME-3	AGATAW	HOCOMOCOv11_full_HUMAN_mono_meme_format	HXD13_HUMAN.H11MO.0.D	.	TTTATTAGRGA	0	0	.	.	.	4.83e-01	23	8	13	419	1.57e-06	1.41e-05
dreme.xml	AGATAW	DREME-3	AGATAW	HOCOMOCOv11_full_HUMAN_mono_meme_format	ZN418_HUMAN.H11MO.0.C	.	TGCTTYTRGCYTCTKVY	0	2	.	.	.	9.47e-01	16	1	8	397	1.10e-07	9.86e-07
dreme.xml	AGATAW	DREME-3	AGATAW	HOCOMOCOv11_full_HUMAN_mono_meme_format	PO3F1_HUMAN.H11MO.0.C	.	VATKSWWATGCAAW	1	1	HOCOMOCOv11_full_HUMAN_mono_meme_format	ZN418_HUMAN.H11MO.0.C	.	3.96e+00	9	0	7	347	4.49e-07	4.04e-06
dreme.xml	AGATAW	DREME-3	AGATAW	HOCOMOCOv11_full_HUMAN_mono_meme_format	HXD8_HUMAN.H11MO.0.D	.	WAATWTGCAYN	1	3	HOCOMOCOv11_full_HUMAN_mono_meme_format	ZN418_HUMAN.H11MO.0.C	.	9.03e+00	12	1	8	568	9.92e-07	8.93e-06
dreme.xml	AGATAW	DREME-3	AGATAW	HOCOMOCOv11_full_HUMAN_mono_meme_format	HXD8_HUMAN.H11MO.0.D	.	WAATWTGCAYN	1	3	HOCOMOCOv11_full_HUMAN_mono_meme_format	ZN418_HUMAN.H11MO.0.C	.	9.03e+00	12	4	10	568	4.37e-06	3.94e-05
dreme.xml	AGATAW	DREME-3	AGATAW	HOCOMOCOv11_full_HUMAN_mono_meme_format	NF2L1_HUMAN.H11MO.0.C	.	HGTCATN	1	1	.	.	.	9.66e-01	32	1	8	423	1.04e-07	9.37e-07
dreme.xml	AGATAW	DREME-3	AGATAW	HOCOMOCOv11_full_HUMAN_mono_meme_format	FOXD3_HUMAN.H11MO.0.D	.	KBTGTTTNCWTWRBH	2	3	.	.	.	1.13e+00	60	3	12	1112	1.26e-07	1.13e-06
dreme.xml	AGATAW	DREME-3	AGATAW	HOCOMOCOv11_full_HUMAN_mono_meme_format	MAFG_HUMAN.H11MO.0.A	.	RWWWNTGCTGASTCAGCA	1	0	.	.	.	1.39e+00	44	7	5	51	1.64e-07	1.47e-06
dreme.xml	AGATAW	DREME-3	AGATAW	HOCOMOCOv11_full_HUMAN_mono_meme_format	MAFG_HUMAN.H11MO.0.A	.	RWWWNTGCTGASTCAGCA	1	0	.	.	.	1.39e+00	44	3	4	51	3.14e-07	2.82e-06
dreme.xml	AGATAW	DREME-3	AGATAW	HOCOMOCOv11_full_HUMAN_mono_meme_format	MAFG_HUMAN.H11MO.0.A	.	RWWWNTGCTGASTCAGCA	1	0	.	.	.	1.39e+00	44	8	5	51	4.54e-06	4.09e-05
dreme.xml	AGATAW	DREME-3	AGATAW	HOCOMOCOv11_full_HUMAN_mono_meme_format	MAFG_HUMAN.H11MO.0.A	.	RWWWNTGCTGASTCAGCA	1	0	.	.	.	1.39e+00	44	5	4	51	4.68e-06	4.21e-05
dreme.xml	AGATAW	DREME-3	AGATAW	HOCOMOCOv11_full_HUMAN_mono_meme_format	BRCA1_HUMAN.H11MO.0.D	.	BKTSKGTTG	1	0	.	.	.	1.47e+00	68	3	9	594	1.62e-07	1.46e-06
dreme.xml	AGATAW	DREME-3	AGATAW	HOCOMOCOv11_full_HUMAN_mono_meme_format	BRCA1_HUMAN.H11MO.0.D	.	BKTSKGTTG	1	0	.	.	.	1.47e+00	21	4	11	594	1.23e-06	1.10e-05
dreme.xml	AGATAW	DREME-3	AGATAW	HOCOMOCOv11_full_HUMAN_mono_meme_format	BRCA1_HUMAN.H11MO.0.D	.	BKTSKGTTG	1	0	.	.	.	1.47e+00	68	5	11	594	1.23e-06	1.10e-05
dreme.xml	AGATAW	DREME-3	AGATAW	HOCOMOCOv11_full_HUMAN_mono_meme_format	BRCA1_HUMAN.H11MO.0.D	.	BKTSKGTTG	1	0	.	.	.	1.47e+00	21	1	8	594	1.44e-06	1.29e-05
dreme.xml	AGATAW	DREME-3	AGATAW	HOCOMOCOv11_full_HUMAN_mono_meme_format	HSF1_HUMAN.H11MO.1.A	.	TTCTGGAAR	0	1	.	.	.	1.66e+00	20	0	8	447	1.82e-07	1.64e-06
dreme.xml	AGATAW	DREME-3	AGATAW	HOCOMOCOv11_full_HUMAN_mono_meme_format	HSF1_HUMAN.H11MO.1.A	.	TTCTGGAAR	0	1	.	.	.	1.66e+00	20	5	10	447	6.04e-07	5.43e-06
dreme.xml	AGATAW	DREME-3	AGATAW	HOCOMOCOv11_full_HUMAN_mono_meme_format	UNC4_HUMAN.H11MO.0.D	.	TAATTTAATTA	0	0	.	.	.	2.03e+00	12	7	7	159	2.29e-07	2.06e-06
dreme.xml	AGATAW	DREME-3	AGATAW	HOCOMOCOv11_full_HUMAN_mono_meme_format	UNC4_HUMAN.H11MO.0.D	.	TAATTTAATTA	0	0	.	.	.	2.03e+00	12	3	5	159	1.28e-06	1.15e-05
dreme.xml	AGATAW	DREME-3	AGATAW	HOCOMOCOv11_full_HUMAN_mono_meme_format	FUBP1_HUMAN.H11MO.0.D	.	TYGTNTTTTTTT	0	0	.	.	.	2.10e+00	59	3	10	778	2.38e-07	2.14e-06
dreme.xml	AGATAW	DREME-3	AGATAW	HOCOMOCOv11_full_HUMAN_mono_meme_format	ARX_HUMAN.H11MO.0.D	.	YTAATYTAATTAR	1	1	.	.	.	2.31e+00	12	7	6	104	2.59e-07	2.33e-06
dreme.xml	AGATAW	DREME-3	AGATAW	HOCOMOCOv11_full_HUMAN_mono_meme_format	ARX_HUMAN.H11MO.0.D	.	YTAATYTAATTAR	1	1	.	.	.	2.31e+00	12	8	7	104	1.22e-06	1.10e-05
dreme.xml	AGATAW	DREME-3	AGATAW	HOCOMOCOv11_full_HUMAN_mono_meme_format	ARX_HUMAN.H11MO.0.D	.	YTAATYTAATTAR	1	1	.	.	.	2.31e+00	12	3	4	104	4.50e-06	4.05e-05
dreme.xml	AGATAW	DREME-3	AGATAW	HOCOMOCOv11_full_HUMAN_mono_meme_format	MLXPL_HUMAN.H11MO.0.D	.	GCAYGKGVCAMCSBCGTGB	0	1	.	.	.	2.32e+00	61	1	4	49	2.75e-07	2.47e-06
dreme.xml	AGATAW	DREME-3	AGATAW	HOCOMOCOv11_full_HUMAN_mono_meme_format	MLXPL_HUMAN.H11MO.0.D	.	GCAYGKGVCAMCSBCGTGB	0	1	.	.	.	2.32e+00	61	4	4	49	4.11e-06	3.70e-05
dreme.xml	AGATAW	DREME-3	AGATAW	HOCOMOCOv11_full_HUMAN_mono_meme_format	MLXPL_HUMAN.H11MO.0.D	.	GCAYGKGVCAMCSBCGTGB	0	1	.	.	.	2.32e+00	61	6	4	49	4.11e-06	3.70e-05
dreme.xml	AGATAW	DREME-3	AGATAW	HOCOMOCOv11_full_HUMAN_mono_meme_format	MSX1_HUMAN.H11MO.0.D	.	TAATTGSWWKTTAATTGS	0	1	.	.	.	2.43e+00	1	2	5	112	2.85e-07	2.57e-06
dreme.xml	AGATAW	DREME-3	AGATAW	HOCOMOCOv11_full_HUMAN_mono_meme_format	PO6F2_HUMAN.H11MO.0.D	.	KWTAATKAGST	2	1	.	.	.	3.41e+00	10	7	7	175	3.76e-07	3.38e-06
dreme.xml	AGATAW	DREME-3	AGATAW	HOCOMOCOv11_full_HUMAN_mono_meme_format	PO6F2_HUMAN.H11MO.0.D	.	KWTAATKAGST	2	1	.	.	.	3.41e+00	10	8	9	175	5.39e-07	4.85e-06
dreme.xml	AGATAW	DREME-3	AGATAW	HOCOMOCOv11_full_HUMAN_mono_meme_format	PO6F2_HUMAN.H11MO.0.D	.	KWTAATKAGST	2	1	.	.	.	3.41e+00	10	3	5	175	1.83e-06	1.65e-05
dreme.xml	AGATAW	DREME-3	AGATAW	HOCOMOCOv11_full_HUMAN_mono_meme_format	LHX3_HUMAN.H11MO.0.C	.	AAAATTAATTARY	0	1	.	.	.	3.55e+00	11	7	7	172	4.03e-07	3.62e-06
dreme.xml	AGATAW	DREME-3	AGATAW	HOCOMOCOv11_full_HUMAN_mono_meme_format	LHX3_HUMAN.H11MO.0.C	.	AAAATTAATTARY	0	1	.	.	.	3.55e+00	11	3	5	172	1.93e-06	1.73e-05
dreme.xml	AGATAW	DREME-3	AGATAW	HOCOMOCOv11_full_HUMAN_mono_meme_format	ALX3_HUMAN.H11MO.0.D	.	TAATTARATTA	0	0	.	.	.	4.27e+00	12	2	6	229	4.81e-07	4.33e-06
dreme.xml	AGATAW	DREME-3	AGATAW	HOCOMOCOv11_full_HUMAN_mono_meme_format	ALX3_HUMAN.H11MO.0.D	.	TAATTARATTA	0	0	.	.	.	4.27e+00	12	7	7	229	2.47e-06	2.22e-05
dreme.xml	AGATAW	DREME-3	AGATAW	meme.xml	GVARAGTAAACAVAMA	MEME-2	GVARAGTAAACAVAMA	0	0	.	.	.	4.33e+00	54	7	7	173	5.06e-07	4.55e-06
dreme.xml	AGATAW	DREME-3	AGATAW	meme.xml	GVARAGTAAACAVAMA	MEME-2	GVARAGTAAACAVAMA	0	0	.	.	.	4.33e+00	54	2	5	173	2.28e-06	2.05e-05
dreme.xml	AGATAW	DREME-3	AGATAW	HOCOMOCOv11_full_HUMAN_mono_meme_format	MIXL1_HUMAN.H11MO.0.D	.	GBTAATTARAT	0	0	.	.	.	4.33e+00	10	2	7	354	4.88e-07	4.39e-06
dreme.xml	AGATAW	DREME-3	AGATAW	HOCOMOCOv11_full_HUMAN_mono_meme_format	MIXL1_HUMAN.H11MO.0.D	.	GBTAATTARAT	0	0	.	.	.	4.33e+00	10	7	9	354	7.56e-07	6.80e-06
dreme.xml	AGATAW	DREME-3	AGATAW	HOCOMOCOv11_full_HUMAN_mono_meme_format	PHX2A_HUMAN.H11MO.0.D	.	TAATYTAATTA	0	0	.	.	.	4.42e+00	12	3	5	131	4.98e-07	4.48e-06
dreme.xml	AGATAW	DREME-3	AGATAW	HOCOMOCOv11_full_HUMAN_mono_meme_format	PHX2A_HUMAN.H11MO.0.D	.	TAATYTAATTA	0	0	.	.	.	4.42e+00	12	7	6	131	9.84e-07	8.85e-06
dreme.xml	AGATAW	DREME-3	AGATAW	HOCOMOCOv11_full_HUMAN_mono_meme_format	FOXG1_HUMAN.H11MO.0.D	.	DTTGTTTAYDTWTDTTT	1	0	.	.	.	4.43e+00	45	5	14	838	5.17e-07	4.66e-06
dreme.xml	AGATAW	DREME-3	AGATAW	HOCOMOCOv11_full_HUMAN_mono_meme_format	ISX_HUMAN.H11MO.0.D	.	YTAATTRGHTWWWWWW	1	1	.	.	.	4.72e+00	12	2	6	229	5.43e-07	4.89e-06
dreme.xml	AGATAW	DREME-3	AGATAW	HOCOMOCOv11_full_HUMAN_mono_meme_format	DMBX1_HUMAN.H11MO.0.D	.	YMMTWWWAAYCYAATTAABD	3	2	.	.	.	5.79e+00	11	3	6	236	6.72e-07	6.05e-06
dreme.xml	AGATAW	DREME-3	AGATAW	HOCOMOCOv11_full_HUMAN_mono_meme_format	DMBX1_HUMAN.H11MO.0.D	.	YMMTWWWAAYCYAATTAABD	3	2	.	.	.	5.79e+00	11	7	7	236	3.58e-06	3.22e-05
dreme.xml	AGATAW	DREME-3	AGATAW	HOCOMOCOv11_full_HUMAN_mono_meme_format	VSX1_HUMAN.H11MO.0.D	.	TAATTAGCHWWWWW	0	0	.	.	.	8.87e+00	12	2	6	256	1.02e-06	9.22e-06
##
# Detailed descriptions of columns in this file:
#
# prim_db:	The name of the database (file name) that contains the primary motif.
# prim_id:	A name for the primary motif that is unique in the motif database file.
# prim_alt:	An alternate name of the primary motif that may be provided
#		in the motif database file.
# prim_cons:	A consensus sequence computed from the primary motif (see doc/motif-consensus.html).
# sec_db:	The name of the database (file name) that contains the secondary motif.
# sec_id:	A name for the motif that is unique in the motif database file.
# sec_alt:	An alternate name of the secondary motif that may be provided
#		in the motif database file.
# sec_cons:	A consensus sequence computed from the secondary motif (see doc/motif-consensus.html).
# trim_left:	Number of positions trimmed from left of secondary motif
# trim_right:	Number of positions trimmed from right of secondary motif
# If the next three fields are not blank, the motif is redundant with a more significant ('parent') motif.
# red_db:	The database (file name) that contains the parent motif.
# red_id:	A name for the parent motif that is unique in the motif database file.
# red_alt:	An alternate name of the parent motif that may be provided
#		in the motif database file.
# E-value:	The expected number motifs that would have least one
#		spacing as enriched as the best spacing for this secondary.
#		The E-value is the best spacing p-value multiplied by the number of motifs in the
#		input database(s).
# gap:		The distance between the edge of the primary and the (trimmed) secondary motif.
# orient:	The (combination) of quadrants for which occurrences
#		of this spacing are combined.
# count:	The number of occurrences of the secondary motif with the
#		given spacing and orientation to the primary motif.
# total:	The total number of occurrences of the secondary motif within the
#		margins around the best primary motif occurrence.
# adj_p-value:	The p-value of the gap and orientation, adjusted for
#		nine combinations of quadrants times the number of gaps tested
#		(as controlled by the -range switch).
# p-value:	The p-value of the gap and orientation adjusted only for the number of gaps tested.
