#Query ID	Target ID	Optimal offset	p-value	E-value	q-value	Overlap	Query consensus	Target consensus	Orientation
AGATA	MA1185.1	0	0.00041126	0.577409	0.270267	5	AGATA	AGATATTTTT	+
AGATA	MA1187.1	0	0.00041126	0.577409	0.270267	5	AGATA	AGATATTTTT	+
AGATA	MA0035.3	2	0.000479787	0.673621	0.270267	5	AGATA	ACAGATAAGAA	-
AGATA	MA1182.1	0	0.000548309	0.769826	0.270267	5	AGATA	AGATATTTTTTT	+
AGATA	MA1401.1	2	0.000548309	0.769826	0.270267	5	AGATA	TAAGATATTTTT	-
AGATA	MA0972.1	0	0.000661569	0.928843	0.270267	5	AGATA	AGATATTT	-
AGATA	MA1184.1	2	0.000685339	0.962216	0.270267	5	AGATA	TAAGATATTTTTTT	-
