prim_db	prim_id	prim_alt	prim_cons	sec_db	sec_id	sec_alt	sec_cons	trim_left	trim_right	red_db	red_id	red_alt	E-value	gap	orient	count	total	adj_p-value	p-value
meme.xml	AAATCYTCACMATCTATACATCTGACAMAG	MEME-7	AAATCYTCACMATCTATACATCTGACAMAG	JASPAR2018_CORE_non-redundant	MA0332.1	MET28	CTGTGG	0	0	.	.	.	5.48e+00	9	1	2	2	3.30e-07	2.97e-06
meme.xml	AAATCYTCACMATCTATACATCTGACAMAG	MEME-7	AAATCYTCACMATCTATACATCTGACAMAG	JASPAR2018_CORE_non-redundant	MA0332.1	MET28	CTGTGG	0	0	.	.	.	5.48e+00	9	4	2	2	1.32e-06	1.19e-05
meme.xml	AAATCYTCACMATCTATACATCTGACAMAG	MEME-7	AAATCYTCACMATCTATACATCTGACAMAG	JASPAR2018_CORE_non-redundant	MA0332.1	MET28	CTGTGG	0	0	.	.	.	5.48e+00	9	6	2	2	1.32e-06	1.19e-05
meme.xml	AAATCYTCACMATCTATACATCTGACAMAG	MEME-7	AAATCYTCACMATCTATACATCTGACAMAG	JASPAR2018_CORE_non-redundant	MA0002.2	RUNX1	BBYTGTGGTTT	2	0	JASPAR2018_CORE_non-redundant	MA0332.1	MET28	5.60e+00	9	1	2	2	3.44e-07	3.10e-06
meme.xml	AAATCYTCACMATCTATACATCTGACAMAG	MEME-7	AAATCYTCACMATCTATACATCTGACAMAG	JASPAR2018_CORE_non-redundant	MA0002.2	RUNX1	BBYTGTGGTTT	2	0	JASPAR2018_CORE_non-redundant	MA0332.1	MET28	5.60e+00	9	4	2	2	1.38e-06	1.24e-05
meme.xml	AAATCYTCACMATCTATACATCTGACAMAG	MEME-7	AAATCYTCACMATCTATACATCTGACAMAG	JASPAR2018_CORE_non-redundant	MA0002.2	RUNX1	BBYTGTGGTTT	2	0	JASPAR2018_CORE_non-redundant	MA0332.1	MET28	5.60e+00	9	6	2	2	1.38e-06	1.24e-05
meme.xml	AAATCYTCACMATCTATACATCTGACAMAG	MEME-7	AAATCYTCACMATCTATACATCTGACAMAG	meme.xml	TSTGRKTTKTSTKTKTACTSTG	MEME-6	TSTGRKTTKTSTKTKTACTSTG	0	0	meme.xml	MA0332.1	MET28	6.16e+00	10	1	2	2	4.17e-07	3.76e-06
meme.xml	AAATCYTCACMATCTATACATCTGACAMAG	MEME-7	AAATCYTCACMATCTATACATCTGACAMAG	meme.xml	TSTGRKTTKTSTKTKTACTSTG	MEME-6	TSTGRKTTKTSTKTKTACTSTG	0	0	meme.xml	MA0332.1	MET28	6.16e+00	10	4	2	2	1.67e-06	1.50e-05
meme.xml	AAATCYTCACMATCTATACATCTGACAMAG	MEME-7	AAATCYTCACMATCTATACATCTGACAMAG	meme.xml	TSTGRKTTKTSTKTKTACTSTG	MEME-6	TSTGRKTTKTSTKTKTACTSTG	0	0	meme.xml	MA0332.1	MET28	6.16e+00	10	6	2	2	1.67e-06	1.50e-05
meme.xml	AAATCYTCACMATCTATACATCTGACAMAG	MEME-7	AAATCYTCACMATCTATACATCTGACAMAG	JASPAR2018_CORE_non-redundant	MA0122.2	NKX3-2	RCCACTTAA	1	1	.	.	.	5.52e+00	67	3	2	2	3.35e-07	3.01e-06
meme.xml	AAATCYTCACMATCTATACATCTGACAMAG	MEME-7	AAATCYTCACMATCTATACATCTGACAMAG	JASPAR2018_CORE_non-redundant	MA0122.2	NKX3-2	RCCACTTAA	1	1	.	.	.	5.52e+00	67	5	2	2	1.34e-06	1.21e-05
meme.xml	AAATCYTCACMATCTATACATCTGACAMAG	MEME-7	AAATCYTCACMATCTATACATCTGACAMAG	JASPAR2018_CORE_non-redundant	MA0122.2	NKX3-2	RCCACTTAA	1	1	.	.	.	5.52e+00	67	7	2	2	1.34e-06	1.21e-05
meme.xml	AAATCYTCACMATCTATACATCTGACAMAG	MEME-7	AAATCYTCACMATCTATACATCTGACAMAG	JASPAR2018_CORE_non-redundant	MA0124.2	Nkx3-1	RCCACTTAA	1	1	.	.	.	5.52e+00	67	3	2	2	3.35e-07	3.01e-06
meme.xml	AAATCYTCACMATCTATACATCTGACAMAG	MEME-7	AAATCYTCACMATCTATACATCTGACAMAG	JASPAR2018_CORE_non-redundant	MA0124.2	Nkx3-1	RCCACTTAA	1	1	.	.	.	5.52e+00	67	5	2	2	1.34e-06	1.21e-05
meme.xml	AAATCYTCACMATCTATACATCTGACAMAG	MEME-7	AAATCYTCACMATCTATACATCTGACAMAG	JASPAR2018_CORE_non-redundant	MA0124.2	Nkx3-1	RCCACTTAA	1	1	.	.	.	5.52e+00	67	7	2	2	1.34e-06	1.21e-05
meme.xml	AAATCYTCACMATCTATACATCTGACAMAG	MEME-7	AAATCYTCACMATCTATACATCTGACAMAG	JASPAR2018_CORE_non-redundant	MA0297.1	FKH2	GTAAACA	0	0	.	.	.	5.52e+00	21	0	2	2	3.35e-07	3.01e-06
meme.xml	AAATCYTCACMATCTATACATCTGACAMAG	MEME-7	AAATCYTCACMATCTATACATCTGACAMAG	JASPAR2018_CORE_non-redundant	MA0297.1	FKH2	GTAAACA	0	0	.	.	.	5.52e+00	21	4	2	2	1.34e-06	1.21e-05
meme.xml	AAATCYTCACMATCTATACATCTGACAMAG	MEME-7	AAATCYTCACMATCTATACATCTGACAMAG	JASPAR2018_CORE_non-redundant	MA0297.1	FKH2	GTAAACA	0	0	.	.	.	5.52e+00	21	5	2	2	1.34e-06	1.21e-05
meme.xml	AAATCYTCACMATCTATACATCTGACAMAG	MEME-7	AAATCYTCACMATCTATACATCTGACAMAG	JASPAR2018_CORE_non-redundant	MA0157.2	FOXO3	GTAAACAW	0	0	JASPAR2018_CORE_non-redundant	MA0297.1	FKH2	5.56e+00	20	0	2	2	3.40e-07	3.06e-06
meme.xml	AAATCYTCACMATCTATACATCTGACAMAG	MEME-7	AAATCYTCACMATCTATACATCTGACAMAG	JASPAR2018_CORE_non-redundant	MA0157.2	FOXO3	GTAAACAW	0	0	JASPAR2018_CORE_non-redundant	MA0297.1	FKH2	5.56e+00	20	4	2	2	1.36e-06	1.22e-05
meme.xml	AAATCYTCACMATCTATACATCTGACAMAG	MEME-7	AAATCYTCACMATCTATACATCTGACAMAG	JASPAR2018_CORE_non-redundant	MA0157.2	FOXO3	GTAAACAW	0	0	JASPAR2018_CORE_non-redundant	MA0297.1	FKH2	5.56e+00	20	5	2	2	1.36e-06	1.22e-05
meme.xml	AAATCYTCACMATCTATACATCTGACAMAG	MEME-7	AAATCYTCACMATCTATACATCTGACAMAG	JASPAR2018_CORE_non-redundant	MA0326.1	MAC1	TTTGCTCR	0	0	JASPAR2018_CORE_non-redundant	MA0297.1	FKH2	5.56e+00	23	1	2	2	3.40e-07	3.06e-06
meme.xml	AAATCYTCACMATCTATACATCTGACAMAG	MEME-7	AAATCYTCACMATCTATACATCTGACAMAG	JASPAR2018_CORE_non-redundant	MA0326.1	MAC1	TTTGCTCR	0	0	JASPAR2018_CORE_non-redundant	MA0297.1	FKH2	5.56e+00	23	4	2	2	1.36e-06	1.22e-05
meme.xml	AAATCYTCACMATCTATACATCTGACAMAG	MEME-7	AAATCYTCACMATCTATACATCTGACAMAG	JASPAR2018_CORE_non-redundant	MA0326.1	MAC1	TTTGCTCR	0	0	JASPAR2018_CORE_non-redundant	MA0297.1	FKH2	5.56e+00	23	6	2	2	1.36e-06	1.22e-05
meme.xml	AAATCYTCACMATCTATACATCTGACAMAG	MEME-7	AAATCYTCACMATCTATACATCTGACAMAG	JASPAR2018_CORE_non-redundant	MA0672.1	NKX2-3	VCCACTTRAV	1	1	.	.	.	5.56e+00	66	3	2	2	3.40e-07	3.06e-06
meme.xml	AAATCYTCACMATCTATACATCTGACAMAG	MEME-7	AAATCYTCACMATCTATACATCTGACAMAG	JASPAR2018_CORE_non-redundant	MA0672.1	NKX2-3	VCCACTTRAV	1	1	.	.	.	5.56e+00	66	5	2	2	1.36e-06	1.22e-05
meme.xml	AAATCYTCACMATCTATACATCTGACAMAG	MEME-7	AAATCYTCACMATCTATACATCTGACAMAG	JASPAR2018_CORE_non-redundant	MA0672.1	NKX2-3	VCCACTTRAV	1	1	.	.	.	5.56e+00	66	7	2	2	1.36e-06	1.22e-05
meme.xml	AAATCYTCACMATCTATACATCTGACAMAG	MEME-7	AAATCYTCACMATCTATACATCTGACAMAG	JASPAR2018_CORE_non-redundant	MA0748.1	YY2	RWCCGCCATTW	2	0	.	.	.	5.60e+00	114	3	2	2	3.44e-07	3.10e-06
meme.xml	AAATCYTCACMATCTATACATCTGACAMAG	MEME-7	AAATCYTCACMATCTATACATCTGACAMAG	JASPAR2018_CORE_non-redundant	MA0748.1	YY2	RWCCGCCATTW	2	0	.	.	.	5.60e+00	114	5	2	2	1.38e-06	1.24e-05
meme.xml	AAATCYTCACMATCTATACATCTGACAMAG	MEME-7	AAATCYTCACMATCTATACATCTGACAMAG	JASPAR2018_CORE_non-redundant	MA0748.1	YY2	RWCCGCCATTW	2	0	.	.	.	5.60e+00	114	7	2	2	1.38e-06	1.24e-05
meme.xml	AAATCYTCACMATCTATACATCTGACAMAG	MEME-7	AAATCYTCACMATCTATACATCTGACAMAG	JASPAR2018_CORE_non-redundant	MA0390.1	STB3	GTYHAAAWTTTTTCACTNHNN	0	4	.	.	.	5.93e+00	130	3	2	2	3.87e-07	3.48e-06
meme.xml	AAATCYTCACMATCTATACATCTGACAMAG	MEME-7	AAATCYTCACMATCTATACATCTGACAMAG	JASPAR2018_CORE_non-redundant	MA0390.1	STB3	GTYHAAAWTTTTTCACTNHNN	0	4	.	.	.	5.93e+00	130	5	2	2	1.55e-06	1.39e-05
meme.xml	AAATCYTCACMATCTATACATCTGACAMAG	MEME-7	AAATCYTCACMATCTATACATCTGACAMAG	JASPAR2018_CORE_non-redundant	MA0390.1	STB3	GTYHAAAWTTTTTCACTNHNN	0	4	.	.	.	5.93e+00	130	7	2	2	1.55e-06	1.39e-05
##
# Detailed descriptions of columns in this file:
#
# prim_db:	The name of the database (file name) that contains the primary motif.
# prim_id:	A name for the primary motif that is unique in the motif database file.
# prim_alt:	An alternate name of the primary motif that may be provided
#		in the motif database file.
# prim_cons:	A consensus sequence computed from the primary motif (see doc/motif-consensus.html).
# sec_db:	The name of the database (file name) that contains the secondary motif.
# sec_id:	A name for the motif that is unique in the motif database file.
# sec_alt:	An alternate name of the secondary motif that may be provided
#		in the motif database file.
# sec_cons:	A consensus sequence computed from the secondary motif (see doc/motif-consensus.html).
# trim_left:	Number of positions trimmed from left of secondary motif
# trim_right:	Number of positions trimmed from right of secondary motif
# If the next three fields are not blank, the motif is redundant with a more significant ('parent') motif.
# red_db:	The database (file name) that contains the parent motif.
# red_id:	A name for the parent motif that is unique in the motif database file.
# red_alt:	An alternate name of the parent motif that may be provided
#		in the motif database file.
# E-value:	The expected number motifs that would have least one
#		spacing as enriched as the best spacing for this secondary.
#		The E-value is the best spacing p-value multiplied by the number of motifs in the
#		input database(s).
# gap:		The distance between the edge of the primary and the (trimmed) secondary motif.
# orient:	The (combination) of quadrants for which occurrences
#		of this spacing are combined.
# count:	The number of occurrences of the secondary motif with the
#		given spacing and orientation to the primary motif.
# total:	The total number of occurrences of the secondary motif within the
#		margins around the best primary motif occurrence.
# adj_p-value:	The p-value of the gap and orientation, adjusted for
#		nine combinations of quadrants times the number of gaps tested
#		(as controlled by the -range switch).
# p-value:	The p-value of the gap and orientation adjusted only for the number of gaps tested.
