%!PS-Adobe-3.0 EPSF-3.0
%%Title: Sequence Logo : 
%%Creator: Ceqlogo
%%CreationDate: 24.05.18 17:52:42
%%BoundingBox:   0  0  510 212 
%%Pages: 0
%%DocumentFonts: 
%%EndComments

% ---- CONSTANTS ----
/cmfactor 72 2.54 div def % defines points -> cm conversion
/cm {cmfactor mul} bind def % defines centimeters

% ---- VARIABLES ----

% NA = Nucleic Acid, AA = Amino Acid
/logoType (NA) def 

/logoTitle () def

% Dimensions in cm
/logoWidth 18 cm def
/logoHeight 7.5 cm def
/totalHeight 7.5 cm def

/yaxis true def
/yaxisLabel (bits) def
/yaxisBits  2 def % bits
/yaxisTicBits 1 def

/xaxis true def
/xaxisLabel () def
/showEnds (false) def 

/showFineprint true def
/fineprint (MEME (no SSC) 24.05.18 17:52) def

/charsPerLine 16 def

/showingBox false def    
/shrinking false def   % true falses
/shrink  1.0 def
/outline false def

/IbeamFraction  1.0 def
/IbeamGray      0.50 def
/IbeamLineWidth 0.5 def

/fontsize       12 def
/titleFontsize  12 def
/smallFontsize  6 def

/topMargin      0.9 cm def
/bottomMargin   0.9 cm def

/defaultColor [0 0 0] def 

/fullColourDict <<
 (A)  [0.8000 0.0000 0.0000]
 (C)  [0.0000 0.0000 0.8000]
 (G)  [1.0000 0.7020 0.0000]
 (T)  [0.0000 0.5020 0.0000]
>> def
/mutedColourDict <<
 (A)  [1.0000 0.6000 0.6000]
 (C)  [0.6000 0.6000 1.0000]
 (G)  [1.0000 0.9007 0.6667]
 (T)  [0.5007 1.0000 0.5007]
>> def


/colorDict fullColourDict def

% ---- DERIVED PARAMETERS ----

/leftMargin
  fontsize 3.5 mul

def 

/rightMargin 
  %Add extra room if showing ends
  showEnds (false) eq { fontsize}{fontsize 1.5 mul} ifelse
def

/yaxisHeight 
  logoHeight 
  bottomMargin sub  
  topMargin sub
def

/ticWidth fontsize 2 div def

/pointsPerBit yaxisHeight yaxisBits div  def

/stackMargin 1 def

% Do not add space aroung characters if characters are boxed
/charRightMargin 
  showingBox { 0.0 } {stackMargin} ifelse
def

/charTopMargin 
  showingBox { 0.0 } {stackMargin} ifelse
def

/charWidth
  logoWidth
  leftMargin sub
  rightMargin sub
  charsPerLine div
  charRightMargin sub
def

/charWidth4 charWidth 4 div def
/charWidth2 charWidth 2 div def

/stackWidth 
  charWidth charRightMargin add
def
 
/numberFontsize 
  fontsize charWidth lt {fontsize}{charWidth} ifelse
def

% movements to place 5'/N and 3'/C symbols
/leftEndDeltaX  fontsize neg         def
/leftEndDeltaY  fontsize 1.5 mul neg def
/rightEndDeltaX fontsize 0.25 mul     def
/rightEndDeltaY leftEndDeltaY        def

% Outline width is proporional to charWidth, 
% but no less that 1 point
/outlinewidth 
  charWidth 32 div dup 1 gt  {}{pop 1} ifelse
def


% ---- PROCEDURES ----

/StartLogo { 
  % Save state
  save 
  gsave 

  % Print Logo Title, top center 
  gsave 
    SetStringFont

    logoWidth 2 div
    logoTitle
    stringwidth pop 2 div sub
    totalHeight
    titleFontsize sub
    moveto

    logoTitle
    show
  grestore

  % Print X-axis label, bottom center
  gsave
    SetStringFont

    logoWidth 2 div
    xaxisLabel
    stringwidth pop 2 div sub
    0
    titleFontsize 3 div
    add
    moveto

    xaxisLabel
    show
  grestore

  % Show Fine Print
  showFineprint {
    gsave
      SetSmallFont
      logoWidth
        fineprint stringwidth pop sub
        smallFontsize sub
          smallFontsize 3 div
      moveto
    
      fineprint show
    grestore
  } if

  % Move to lower left corner of last line, first stack
  leftMargin bottomMargin translate

  % Move above first line ready for StartLine 
  0 totalHeight translate

  SetLogoFont
} bind def

/EndLogo { 
  grestore 
  showpage 
  restore 
} bind def


/StartLine { 
  % move down to the bottom of the line:
  0 logoHeight neg translate
  
  gsave 
    yaxis { MakeYaxis } if
    xaxis { showEnds (true) eq {ShowLeftEnd} if } if
} bind def

/EndLine{ 
    xaxis { showEnds (true) eq {ShowRightEnd} if } if
  grestore 
} bind def


/MakeYaxis {
  gsave    
    stackMargin neg 0 translate
    ShowYaxisBar
    ShowYaxisLabel
  grestore
} bind def


/ShowYaxisBar { 
  gsave  
    SetStringFont

    /str 10 string def % string to hold number  
    /smallgap stackMargin 2 div def

    % Draw first tic and bar
    gsave    
      ticWidth neg 0 moveto 
      ticWidth 0 rlineto 
      0 yaxisHeight rlineto
      stroke
    grestore

   
    % Draw the tics
    % initial increment limit proc for
    0 yaxisTicBits yaxisBits abs %cvi
    {/loopnumber exch def

      % convert the number coming from the loop to a string
      % and find its width
      loopnumber 10 str cvrs
      /stringnumber exch def % string representing the number

      stringnumber stringwidth pop
      /numberwidth exch def % width of number to show

      /halfnumberheight
         stringnumber CharBoxHeight 2 div
      def

      numberwidth % move back width of number
      neg loopnumber pointsPerBit mul % shift on y axis
      halfnumberheight sub % down half the digit

      moveto % move back the width of the string

      ticWidth neg smallgap sub % Move back a bit more  
      0 rmoveto % move back the width of the tic  

      stringnumber show
      smallgap 0 rmoveto % Make a small gap  

      % now show the tic mark
      0 halfnumberheight rmoveto % shift up again
      ticWidth 0 rlineto
      stroke
    } for
  grestore
} bind def

/ShowYaxisLabel {
  gsave
    SetStringFont

    % How far we move left depends on the size of
    % the tic labels.
    /str 10 string def % string to hold number  
    yaxisBits yaxisTicBits div cvi yaxisTicBits mul 
    str cvs stringwidth pop
    ticWidth 1.5 mul  add neg  


    yaxisHeight
    yaxisLabel stringwidth pop
    sub 2 div

    translate
    90 rotate
    0 0 moveto
    yaxisLabel show
  grestore
} bind def


/StartStack {  % <stackNumber> startstack
  xaxis {MakeNumber}{pop} ifelse
  gsave
} bind def

/EndStack {
  grestore
  stackWidth 0 translate
} bind def


% Draw a character whose height is proportional to symbol bits
/MakeSymbol{ % charbits character MakeSymbol
  gsave
    /char exch def
    /bits exch def

    /bitsHeight 
       bits pointsPerBit mul 
    def

    /charHeight 
       bitsHeight charTopMargin sub
       dup 
       0.0 gt {}{pop 0.0} ifelse % if neg replace with zero 
    def 
 
    charHeight 0.0 gt {
      char SetColor
      charWidth charHeight char ShowChar

      showingBox { % Unfilled box
        0 0 charWidth charHeight false ShowBox
      } if


    } if

  grestore

  0 bitsHeight translate 
} bind def


/ShowChar { % <width> <height> <char> ShowChar
  gsave
    /tc exch def    % The character
    /ysize exch def % the y size of the character
    /xsize exch def % the x size of the character

    /xmulfactor 1 def 
    /ymulfactor 1 def
    /limmulfactor 0.01 def
    /drawable true def

  
    % if ysize is negative, make everything upside down!
    ysize 0 lt {
      % put ysize normal in this orientation
      /ysize ysize abs def
      xsize ysize translate
      180 rotate
    } if

    shrinking {
      xsize 1 shrink sub 2 div mul
        ysize 1 shrink sub 2 div mul translate 

      shrink shrink scale
    } if

    % Calculate the font scaling factors
    % Loop twice to catch small correction due to first scaling
    2 {
      gsave
        xmulfactor ymulfactor scale
      
        ysize % desired size of character in points
        tc CharBoxHeight 
        dup 0.0 ne {
          div % factor by which to scale up the character
          /ymulfactor exch def
        } % end if
        {pop pop}
        ifelse

        xsize % desired size of character in points
        tc CharBoxWidth  
        dup 0.0 ne {
          div % factor by which to scale up the character
          /xmulfactor exch def
        } % end if
        {pop pop}
        ifelse
      grestore
      % if the multiplication factors get too small we need to avoid a crash
      xmulfactor limmulfactor lt {
        /xmulfactor 1 def
        /drawable false def
      } if
      ymulfactor limmulfactor lt {
        /ymulfactor 1 def
        /drawable false def
      } if
    } repeat

    % Adjust horizontal position if the symbol is an I
    tc (I) eq {
      charWidth 2 div % half of requested character width
      tc CharBoxWidth 2 div % half of the actual character
      sub 0 translate
      % Avoid x scaling for I 
      /xmulfactor 1 def 
    } if


    % ---- Finally, draw the character
    drawable { 
      newpath
      xmulfactor ymulfactor scale

      % Move lower left corner of character to start point
      tc CharBox pop pop % llx lly : Lower left corner
      exch neg exch neg
      moveto

      outline {  % outline characters:
        outlinewidth setlinewidth
        tc true charpath
        gsave 1 setgray fill grestore
        clip stroke
      } { % regular characters
        tc show
      } ifelse
    } if

  grestore
} bind def


/ShowBox { % x1 y1 x2 y2 filled ShowBox
  gsave
    /filled exch def 
    /y2 exch def
    /x2 exch def
    /y1 exch def
    /x1 exch def
    newpath
    x1 y1 moveto
    x2 y1 lineto
    x2 y2 lineto
    x1 y2 lineto
    closepath

    clip
    
    filled {
      fill
    }{ 
      0 setgray stroke   
    } ifelse

  grestore
} bind def


/MakeNumber { % number MakeNumber
  gsave
    SetNumberFont
    stackWidth 0 translate
    90 rotate % rotate so the number fits
    dup stringwidth pop % find the length of the number
    neg % prepare for move
    stackMargin sub % Move back a bit
    charWidth (0) CharBoxHeight % height of numbers
    sub 2 div %
    moveto % move back to provide space
    show
  grestore
} bind def


/Ibeam{ % heightInBits Ibeam
  gsave
    % Make an Ibeam of twice the given height in bits
    /height exch  pointsPerBit mul def 
    /heightDRAW height IbeamFraction mul def

    IbeamLineWidth setlinewidth
    IbeamGray setgray 

    charWidth2 height neg translate
    ShowIbar
    newpath
      0 0 moveto
      0 heightDRAW rlineto
    stroke
    newpath
      0 height moveto
      0 height rmoveto
      currentpoint translate
    ShowIbar
    newpath
    0 0 moveto
    0 heightDRAW neg rlineto
    currentpoint translate
    stroke
  grestore
} bind def


/ShowIbar { % make a horizontal bar
  gsave
    newpath
      charWidth4 neg 0 moveto
      charWidth4 0 lineto
    stroke
  grestore
} bind def


/ShowLeftEnd {
  gsave
    SetStringFont
    leftEndDeltaX leftEndDeltaY moveto
    logoType (NA) eq {(5) show ShowPrime} if
    logoType (AA) eq {(N) show} if
  grestore
} bind def


/ShowRightEnd { 
  gsave
    SetStringFont
    rightEndDeltaX rightEndDeltaY moveto
    logoType (NA) eq {(3) show ShowPrime} if
    logoType (AA) eq {(C) show} if
  grestore
} bind def


/ShowPrime {
  gsave
    SetPrimeFont
    (\242) show 
  grestore
} bind def

 
/SetColor{ % <char> SetColor
  dup colorDict exch known {
    colorDict exch get aload pop setrgbcolor
  } {
    pop
    defaultColor aload pop setrgbcolor
  } ifelse 
} bind def

% define fonts
/SetTitleFont {/Times-Bold findfont titleFontsize scalefont setfont} bind def
/SetLogoFont  {/Helvetica-Bold findfont charWidth  scalefont setfont} bind def
/SetStringFont{/Helvetica-Bold findfont fontsize scalefont setfont} bind def
/SetPrimeFont {/Symbol findfont fontsize scalefont setfont} bind def
/SetSmallFont {/Helvetica findfont smallFontsize scalefont setfont} bind def

/SetNumberFont {
    /Helvetica-Bold findfont 
    numberFontsize
    scalefont
    setfont
} bind def

%Take a single character and return the bounding box
/CharBox { % <char> CharBox <lx> <ly> <ux> <uy>
  gsave
    newpath
    0 0 moveto
    % take the character off the stack and use it here:
    true charpath 
    flattenpath 
    pathbbox % compute bounding box of 1 pt. char => lx ly ux uy
    % the path is here, but toss it away ...
  grestore
} bind def


% The height of a characters bounding box
/CharBoxHeight { % <char> CharBoxHeight <num>
  CharBox
  exch pop sub neg exch pop
} bind def


% The width of a characters bounding box
/CharBoxWidth { % <char> CharBoxHeight <num>
  CharBox
  pop exch pop sub neg 
} bind def

% Set the colour scheme to be faded to indicate trimming
/MuteColour {
  /colorDict mutedColourDict def
} def

% Restore the colour scheme to the normal colours
/RestoreColour {
  /colorDict fullColourDict def
} def

% Draw the background for a trimmed section
% takes the number of columns as a parameter
/DrawTrimBg { % <num> DrawTrimBox
  /col exch def
  
  /boxwidth 
    col stackWidth mul 
  def
 
  gsave
    0.97 setgray

    newpath
    0 0 moveto
    boxwidth 0 rlineto
    0 yaxisHeight rlineto
    0 yaxisHeight lineto
    closepath
    
    fill
  grestore
} def

/DrawTrimEdge {
  gsave
    0.2 setgray
    [2] 0 setdash

    newpath
    0 0 moveto
    0 yaxisHeight lineto
    
    stroke

} def


% Deprecated names
/startstack {StartStack} bind  def
/endstack {EndStack}     bind def
/makenumber {MakeNumber} bind def
/numchar { MakeSymbol }  bind def

%%EndProlog

%%Page: 1 1
StartLogo


StartLine
(1) startstack
 0.089607 (A) numchar
 1.612921 (C) numchar
endstack

(2) startstack
 0.015659 (G) numchar
 0.046978 (T) numchar
 0.114834 (A) numchar
 0.120054 (C) numchar
endstack

(3) startstack
 0.108684 (T) numchar
 0.144912 (G) numchar
 0.262654 (C) numchar
endstack

(4) startstack
 0.015632 (T) numchar
 0.422067 (G) numchar
 0.453331 (C) numchar
endstack

(5) startstack
 0.116077 (A) numchar
 0.135423 (C) numchar
 0.299866 (T) numchar
endstack

(6) startstack
 0.360568 (G) numchar
 0.721136 (C) numchar
endstack

(7) startstack
 0.076415 (C) numchar
 0.207412 (T) numchar
 0.338409 (A) numchar
endstack

(8) startstack
 0.023483 (G) numchar
 0.164384 (T) numchar
 1.150686 (C) numchar
endstack

(9) startstack
 0.038039 (T) numchar
 0.209213 (G) numchar
 0.836853 (C) numchar
endstack

(10) startstack
 0.179620 (A) numchar
 1.283003 (C) numchar
endstack

(11) startstack
 0.018077 (G) numchar
 0.033141 (C) numchar
 0.045192 (T) numchar
 0.075320 (A) numchar
endstack

(12) startstack
 0.025300 (A) numchar
 0.033734 (T) numchar
 0.177102 (C) numchar
 0.244570 (G) numchar
endstack

(13) startstack
 0.025381 (T) numchar
 0.063452 (A) numchar
 0.126905 (G) numchar
 0.507619 (C) numchar
endstack

(14) startstack
 2.000000 (C) numchar
endstack

(15) startstack
 0.015037 (G) numchar
 0.060148 (A) numchar
 0.075185 (T) numchar
 0.135333 (C) numchar
endstack

(16) startstack
 0.048440 (A) numchar
 0.226052 (G) numchar
 0.645863 (C) numchar
endstack

EndLine


EndLogo

%%EOF
