#Query ID	Target ID	Optimal offset	p-value	E-value	q-value	Overlap	Query consensus	Target consensus	Orientation
RYAAAYA	MA0446.1	4	1.91579e-06	0.00268976	0.00479034	7	ATAAACA	TTAAGCAAACA	-
RYAAAYA	MA0033.2	0	3.43648e-06	0.00482481	0.00479034	7	ATAAACA	GTAAACA	+
RYAAAYA	MA0847.1	0	6.35655e-06	0.0089246	0.00590723	7	ATAAACA	GTAAACA	+
RYAAAYA	MA0850.1	0	1.4351e-05	0.0201488	0.0100024	7	ATAAACA	GTAAACA	+
RYAAAYA	MA0546.1	3	1.88532e-05	0.0264699	0.0105123	7	ATAAACA	AAAGTAAACA	+
RYAAAYA	MA0614.1	0	4.73258e-05	0.0664454	0.0201594	7	ATAAACA	GTAAACAA	+
RYAAAYA	MA0846.1	3	5.06164e-05	0.0710655	0.0201594	7	ATAAACA	TAAGTAAACAAA	+
RYAAAYA	MA0848.1	0	7.01448e-05	0.0984834	0.0233504	7	ATAAACA	GTAAACA	+
RYAAAYA	MA0613.1	0	7.53795e-05	0.105833	0.0233504	7	ATAAACA	GTAAACAA	+
RYAAAYA	MA0041.1	2	8.61029e-05	0.120888	0.0237869	7	ATAAACA	AAACAAACATTC	-
RYAAAYA	MA0920.1	0	9.38526e-05	0.131769	0.0237869	7	ATAAACA	GTAAACAA	+
RYAAAYA	MA0042.2	0	0.000119507	0.167787	0.0277648	7	ATAAACA	GTAAACA	+
RYAAAYA	MA0849.1	0	0.00014105	0.198034	0.0298566	7	ATAAACA	GTAAACA	+
RYAAAYA	MA0032.2	3	0.000149929	0.2105	0.0298566	7	ATAAACA	TATGTAAATAT	+
RYAAAYA	MA0297.1	0	0.000194864	0.273589	0.0362179	7	ATAAACA	GTAAACA	+
RYAAAYA	MA0851.1	5	0.000260264	0.365411	0.0436657	7	ATAAACA	AAAAAGTAAACAAACAC	+
RYAAAYA	MA0047.2	5	0.000281532	0.39527	0.0436657	7	ATAAACA	CCTAAGTAAACA	-
RYAAAYA	MA0317.1	0	0.000281922	0.395819	0.0436657	7	ATAAACA	ATAAACAA	+
RYAAAYA	MA0148.3	4	0.000339163	0.476185	0.0465553	7	ATAAACA	CAAAGTAAACATGGA	-
RYAAAYA	MA0929.1	3	0.000346281	0.486178	0.0465553	7	ATAAACA	ATTGTAAACAAA	+
RYAAAYA	MA1103.1	2	0.000350675	0.492348	0.0465553	7	ATAAACA	ATGTAAACAAG	+
RYAAAYA	MA0458.1	3	0.000421958	0.592429	0.0534724	7	ATAAACA	AATGTAAACAA	-
RYAAAYA	MA0030.1	5	0.000461681	0.6482	0.0559626	7	ATAAACA	CAAACGTAAACAAT	+
RYAAAYA	MA0031.1	0	0.000517896	0.727126	0.060161	7	ATAAACA	GTAAACAT	+
RYAAAYA	MA0157.2	0	0.0005917	0.830747	0.0640497	7	ATAAACA	GTAAACAA	+
RYAAAYA	MA0593.1	2	0.00059732	0.838637	0.0640497	7	ATAAACA	AAGTAAACAAA	+
HCGTGM	MA1378.1	9	0.000287073	0.40305	0.346187	6	TCGTGA	CCTCGGGATTCGTGC	+
HCGTGM	MA0464.2	3	0.000703761	0.98808	0.346187	6	TCGTGA	ATCACGTGAC	+
AGATAW	MA1104.1	3	0.000237504	0.333456	0.334662	6	AGATAA	AAAAGATAAGAAA	+
AGATAW	MA0035.3	2	0.000357796	0.502346	0.334662	6	AGATAA	ACAGATAAGAA	-
AGATAW	MA0036.3	2	0.000357796	0.502346	0.334662	6	AGATAA	AAAGATAAGAA	-
AGATAW	MA0482.1	3	0.000547717	0.768995	0.384175	6	AGATAA	GGGAGATAAGA	-
TGAGTCAB	MA1101.1	5	2.38793e-07	0.000335266	0.000618547	8	TGAGTCAT	ATTGCTGAGTCATC	-
TGAGTCAB	MA0591.1	4	8.44255e-07	0.00118533	0.000618547	8	TGAGTCAT	GTGCTGAGTCATCCT	-
TGAGTCAB	MA0099.3	1	1.08672e-06	0.00152576	0.000618547	8	TGAGTCAT	ATGAGTCATC	+
TGAGTCAB	MA1130.1	3	1.2207e-06	0.00171386	0.000618547	8	TGAGTCAT	GGATGAGTCATC	+
TGAGTCAB	MA1141.1	3	1.46484e-06	0.00205664	0.000618547	8	TGAGTCAT	GGATGAGTCATCG	+
TGAGTCAB	MA1128.1	3	1.46484e-06	0.00205664	0.000618547	8	TGAGTCAT	GGATGAGTCATCA	-
TGAGTCAB	MA1142.1	1	1.56889e-06	0.00220273	0.000618547	8	TGAGTCAT	ATGAGTCATC	-
TGAGTCAB	MA1144.1	1	2.20581e-06	0.00309696	0.000721637	8	TGAGTCAT	ATGAGTCATC	-
TGAGTCAB	MA0150.2	3	2.89792e-06	0.00406868	0.000721637	8	TGAGTCAT	TGCTGAGTCATGCTG	-
TGAGTCAB	MA0501.1	7	2.89792e-06	0.00406868	0.000721637	8	TGAGTCAT	AAATTGCTGAGTCAT	-
TGAGTCAB	MA1138.1	1	3.05461e-06	0.00428867	0.000721637	8	TGAGTCAT	ATGAGTCATC	-
TGAGTCAB	MA1137.1	3	3.13778e-06	0.00440545	0.000721637	8	TGAGTCAT	GTATGAGTCATCA	-
TGAGTCAB	MA1134.1	2	3.67635e-06	0.0051616	0.000780461	8	TGAGTCAT	GATGAGTCATCC	+
TGAGTCAB	MA0655.1	1	4.30096e-06	0.00603855	0.000793162	8	TGAGTCAT	ATGAGTCAT	-
TGAGTCAB	MA1135.1	1	4.31098e-06	0.00605261	0.000793162	8	TGAGTCAT	ATGAGTCATC	-
TGAGTCAB	MA0491.1	2	5.74797e-06	0.00807015	0.000991452	8	TGAGTCAT	GATGAGTCACC	-
TGAGTCAB	MA0478.1	1	8.60191e-06	0.0120771	0.00124945	8	TGAGTCAT	ATGAGTCATCC	-
TGAGTCAB	MA0490.1	1	8.60191e-06	0.0120771	0.00124945	8	TGAGTCAT	ATGAGTCATCC	-
TGAGTCAB	MA0841.1	2	8.60191e-06	0.0120771	0.00124945	8	TGAGTCAT	GATGAGTCATG	-
TGAGTCAB	MA0489.1	1	1.00589e-05	0.0141227	0.00138803	8	TGAGTCAT	ATGAGTCATCTCCT	-
TGAGTCAB	MA1132.1	1	1.19621e-05	0.0167947	0.00157204	8	TGAGTCAT	ATGAGTCATC	-
TGAGTCAB	MA0476.1	2	1.59494e-05	0.022393	0.00200078	8	TGAGTCAT	AATGAGTCACA	-
TGAGTCAB	MA0477.1	2	3.49309e-05	0.0490429	0.0041914	8	TGAGTCAT	CATGAGTCACC	-
TGAGTCAB	MA0303.1	7	7.05861e-05	0.0991028	0.00811681	8	TGAGTCAT	CAAGGGATGAGTCATACTTCA	+
TGAGTCAB	MA0462.1	0	7.90649e-05	0.111007	0.00839243	8	TGAGTCAT	TGAGTCATTTC	-
TGAGTCAB	MA0272.1	0	0.000197436	0.2772	0.0155681	8	TGAGTCAT	AGAGTCAC	-
TGAGTCAB	MA0495.2	7	0.000311501	0.437347	0.0218494	8	TGAGTCAT	AATTTGCTGAGTCAGCAAATT	+
TGAGTCAB	MA0580.1	2	0.00031668	0.444619	0.0218494	8	TGAGTCAT	CGTGAGTCACGTGA	+
TGAGTCAB	MA0496.2	6	0.000341406	0.479334	0.0229808	8	TGAGTCAT	AATTGCTGAGTCAGCAAAT	+
CMCAG	MA0332.1	1	0.000246561	0.346172	0.692343	5	CACAG	CCACAG	-
CCTSAGGS	MA0814.1	2	3.64218e-07	0.000511363	0.000457577	8	CCTGAGGC	TGCCTGAGGCT	-
CCTSAGGS	MA0812.1	2	4.89733e-07	0.000687586	0.000457577	8	CCTGAGGC	TGCCTGAGGCT	-
CCTSAGGS	MA0003.3	2	1.39319e-06	0.00195604	0.000781025	8	CCTGAGGC	TGCCTGAGGCG	-
CCTSAGGS	MA0872.1	3	0.000164567	0.231052	0.0494061	8	CCTGAGGC	TGCCCTGAGGGCA	+
CCTSAGGS	MA0815.1	3	0.000176261	0.24747	0.0494061	8	CCTGAGGC	TGCCCTGAGGGCA	+
CCTSAGGS	MA0813.1	3	0.000339071	0.476055	0.0836017	8	CCTGAGGC	TGCCCTGAGGGCA	+
CCTSAGGS	MA0583.1	4	0.000520645	0.730986	0.11226	8	CCTGAGGC	ATCACCTGAGGC	+
AKGTCA	MA0160.1	1	0.000189001	0.265357	0.0874195	6	AGGTCA	AAGGTCAC	+
AKGTCA	MA0071.1	4	0.000242688	0.340734	0.0874195	6	AGGTCA	ATCAAGGTCA	+
AKGTCA	MA1112.1	3	0.000242688	0.340734	0.0874195	6	AGGTCA	AAAAGGTCAC	+
AKGTCA	MA0141.3	3	0.000291218	0.408871	0.0874195	6	AGGTCA	TCAAGGTCATA	+
AKGTCA	MA0592.2	4	0.000291218	0.408871	0.0874195	6	AGGTCA	TTCAAGGTCAT	+
AKGTCA	MA1111.1	3	0.000291218	0.408871	0.0874195	6	AGGTCA	CAAAGGTCAAA	+
AKGTCA	MA0643.1	3	0.000314981	0.442234	0.0874195	6	AGGTCA	TCAAGGTCAT	+
AKGTCA	MA0728.1	9	0.000375354	0.526997	0.0874195	6	AGGTCA	GAGGTCAAAAGGTCA	+
AKGTCA	MA0857.1	10	0.000412882	0.579686	0.0874195	6	AGGTCA	AAAGGTCAAAAGGTCA	+
AKGTCA	MA0115.1	9	0.000450408	0.632373	0.0874195	6	AGGTCA	AAAGGTCAAAGGTCAAC	+
AKGTCA	MA0729.1	9	0.000487933	0.685057	0.0874195	6	AGGTCA	GAGGTCAAAAGGTCAATG	+
AKGTCA	MA0488.1	6	0.000503923	0.707507	0.0874195	6	AGGTCA	AAGATGATGTCAT	+
AKGTCA	MA0072.1	7	0.000566895	0.79592	0.0874195	6	AGGTCA	TATAAGTAGGTCAA	+
AKGTCA	MA0512.2	8	0.000566895	0.79592	0.0874195	6	AGGTCA	GGGGTCAAAGGTCA	+
AKGTCA	MA0855.1	8	0.000566895	0.79592	0.0874195	6	AGGTCA	GGGGTCAAAGGTCA	+
AKGTCA	MA0856.1	8	0.000566895	0.79592	0.0874195	6	AGGTCA	GGGGTCAAAGGTCA	+
AKGTCA	MA0858.1	0	0.000582352	0.817622	0.0874195	6	AGGTCA	AGGTCAACTAAAGGTCA	+
AKGTCA	MA0860.1	1	0.000582352	0.817622	0.0874195	6	AGGTCA	AAGGTCACGAAAGGTCA	+
AKGTCA	MA1110.1	1	0.000622746	0.874336	0.0885631	6	AGGTCA	TAGGTCATTGA	-
CATTCCW	MA0090.2	2	2.2682e-05	0.0318456	0.0321427	7	CATTCCT	CACATTCCAT	+
CATTCCW	MA0808.1	1	2.28937e-05	0.0321427	0.0321427	7	CATTCCT	ACATTCCA	+
CATTCCW	MA1121.1	3	3.96932e-05	0.0557293	0.0371529	7	CATTCCT	TCACATTCCAGCC	+
CATTCCW	MA0809.1	2	8.27002e-05	0.116111	0.0580555	7	CATTCCT	CACATTCCAT	+
CATTCCW	MA0243.1	2	0.000218414	0.306653	0.122661	7	CATTCCT	GACATTCCTCGA	+
