MOTIF_INDEX	MOTIF_SOURCE	MOTIF_ID	ALT_ID	CONSENSUS	WIDTH	SITES	E-VALUE	E-VALUE_SOURCE	MOST_SIMILAR_MOTIF_SOURCE	MOST_SIMILAR_MOTIF	URL
1	MEME	RGCTTTTGCAYGRCAAADGGAACAGTSAR	MEME-1	RGCTTTTGCAYGRCAAADGGAACAGTSAR	29	5	4.5e-006	MEME	/Users/filipov4/meme/db/motif_databases/JASPAR/JASPAR2018_CORE_non-redundant.meme	MA0142.1 (Pou5f1::Sox2)	http://jaspar2018.genereg.net/matrix/MA0142.1
2	MEME	CCCAAAAGCAAATKCAATARAAACAAAGAT	MEME-2	CCCAAAAGCAAATKCAATARAAACAAAGAT	30	3	1.6e-004	MEME	/Users/filipov4/meme/db/motif_databases/JASPAR/JASPAR2018_CORE_non-redundant.meme	MA1277.1 (Adof1)	http://jaspar2018.genereg.net/matrix/MA1277.1
3	DREME	AGATA	DREME-1	AGATA	5	14	1.9e-002	DREME	/Users/filipov4/meme/db/motif_databases/JASPAR/JASPAR2018_CORE_non-redundant.meme	MA1185.1 (LHY1)	http://jaspar2018.genereg.net/matrix/MA1185.1
4	MEME	GAWARYWKTRGAAAAACYCTTM	MEME-3	GAWARYWKTRGAAAAACYCTTM	22	6	2.0e-002	MEME	/Users/filipov4/meme/db/motif_databases/JASPAR/JASPAR2018_CORE_non-redundant.meme	MA0152.1 (NFATC2)	http://jaspar2018.genereg.net/matrix/MA0152.1
