prim_db	prim_id	prim_alt	prim_cons	sec_db	sec_id	sec_alt	sec_cons	trim_left	trim_right	red_db	red_id	red_alt	E-value	gap	orient	count	total	adj_p-value	p-value
dreme.xml	AKGTCA	DREME-7	AKGTCA	JASPAR2018_CORE_non-redundant	MA1110.1	NR1H4	KCAATGACCYN	2	2	.	.	.	3.79e-01	1	2	8	341	2.29e-08	2.06e-07
dreme.xml	AKGTCA	DREME-7	AKGTCA	JASPAR2018_CORE_non-redundant	MA1110.1	NR1H4	KCAATGACCYN	2	2	.	.	.	3.79e-01	1	6	8	341	3.53e-06	3.17e-05
dreme.xml	AKGTCA	DREME-7	AKGTCA	JASPAR2018_CORE_non-redundant	MA1110.1	NR1H4	KCAATGACCYN	2	2	.	.	.	3.79e-01	1	7	8	341	3.53e-06	3.17e-05
dreme.xml	AKGTCA	DREME-7	AKGTCA	JASPAR2018_CORE_non-redundant	MA0425.1	YGR067C	VCCCCDCNNNNNNN	1	7	.	.	.	7.59e+00	72	2	6	235	4.57e-07	4.11e-06
dreme.xml	AKGTCA	DREME-7	AKGTCA	JASPAR2018_CORE_non-redundant	MA0425.1	YGR067C	VCCCCDCNNNNNNN	1	7	.	.	.	7.59e+00	72	6	7	235	2.33e-06	2.10e-05
dreme.xml	AKGTCA	DREME-7	AKGTCA	JASPAR2018_CORE_non-redundant	MA0431.1	TDA9	NCCCCDCWH	1	1	.	.	.	7.84e+00	72	2	6	235	4.75e-07	4.28e-06
dreme.xml	AKGTCA	DREME-7	AKGTCA	JASPAR2018_CORE_non-redundant	MA0431.1	TDA9	NCCCCDCWH	1	1	.	.	.	7.84e+00	72	6	7	235	2.43e-06	2.19e-05
dreme.xml	AKGTCA	DREME-7	AKGTCA	JASPAR2018_CORE_non-redundant	MA0356.1	PHO2	WTAWTW	0	0	.	.	.	9.24e+00	75	3	7	374	5.56e-07	5.01e-06
dreme.xml	AKGTCA	DREME-7	AKGTCA	JASPAR2018_CORE_non-redundant	MA0356.1	PHO2	WTAWTW	0	0	.	.	.	9.24e+00	75	5	9	374	8.88e-07	7.99e-06
dreme.xml	AKGTCA	DREME-7	AKGTCA	JASPAR2018_CORE_non-redundant	MA1160.1	AT1G14580	WWWWTTTTTGTCGTTTTSTK	3	0	.	.	.	9.61e+00	77	6	6	116	6.26e-07	5.64e-06
##
# Detailed descriptions of columns in this file:
#
# prim_db:	The name of the database (file name) that contains the primary motif.
# prim_id:	A name for the primary motif that is unique in the motif database file.
# prim_alt:	An alternate name of the primary motif that may be provided
#		in the motif database file.
# prim_cons:	A consensus sequence computed from the primary motif (see doc/motif-consensus.html).
# sec_db:	The name of the database (file name) that contains the secondary motif.
# sec_id:	A name for the motif that is unique in the motif database file.
# sec_alt:	An alternate name of the secondary motif that may be provided
#		in the motif database file.
# sec_cons:	A consensus sequence computed from the secondary motif (see doc/motif-consensus.html).
# trim_left:	Number of positions trimmed from left of secondary motif
# trim_right:	Number of positions trimmed from right of secondary motif
# If the next three fields are not blank, the motif is redundant with a more significant ('parent') motif.
# red_db:	The database (file name) that contains the parent motif.
# red_id:	A name for the parent motif that is unique in the motif database file.
# red_alt:	An alternate name of the parent motif that may be provided
#		in the motif database file.
# E-value:	The expected number motifs that would have least one
#		spacing as enriched as the best spacing for this secondary.
#		The E-value is the best spacing p-value multiplied by the number of motifs in the
#		input database(s).
# gap:		The distance between the edge of the primary and the (trimmed) secondary motif.
# orient:	The (combination) of quadrants for which occurrences
#		of this spacing are combined.
# count:	The number of occurrences of the secondary motif with the
#		given spacing and orientation to the primary motif.
# total:	The total number of occurrences of the secondary motif within the
#		margins around the best primary motif occurrence.
# adj_p-value:	The p-value of the gap and orientation, adjusted for
#		nine combinations of quadrants times the number of gaps tested
#		(as controlled by the -range switch).
# p-value:	The p-value of the gap and orientation adjusted only for the number of gaps tested.
