# motif_id	motif_alt_id	sequence_name	start	stop	strand	score	p-value	q-value	matched_sequence
GKGDGTGTGTGTGTKT	MEME-5	chr2	236617935	236617950	+	26.2784	1.38e-10	1.28e-06	GTGGGTGTGTGTGTGT
GKGDGTGTGTGTGTKT	MEME-5	chr10	4778273	4778288	+	25.8144	3.28e-10	1.28e-06	gtgtgtgtgtgtgtgt
GKGDGTGTGTGTGTKT	MEME-5	chr10	4778275	4778290	+	25.8144	3.28e-10	1.28e-06	gtgtgtgtgtgtgtgt
GKGDGTGTGTGTGTKT	MEME-5	chr10	4778277	4778292	+	25.8144	3.28e-10	1.28e-06	gtgtgtgtgtgtgtgt
GKGDGTGTGTGTGTKT	MEME-5	chr10	4778279	4778294	+	25.8144	3.28e-10	1.28e-06	gtgtgtgtgtgtgtgt
GKGDGTGTGTGTGTKT	MEME-5	chr10	4778281	4778296	+	25.8144	3.28e-10	1.28e-06	gtgtgtgtgtgtgtgt
GKGDGTGTGTGTGTKT	MEME-5	chr10	4778283	4778298	+	25.8144	3.28e-10	1.28e-06	gtgtgtgtgtgtgtgt
GKGDGTGTGTGTGTKT	MEME-5	chr1	10615624	10615639	+	25.8144	3.28e-10	1.28e-06	gtgtgtgtgtgtgtgt
GKGDGTGTGTGTGTKT	MEME-5	chr1	10615626	10615641	+	25.8144	3.28e-10	1.28e-06	gtgtgtgtgtgtgtgt
GKGDGTGTGTGTGTKT	MEME-5	chr1	10615628	10615643	+	25.8144	3.28e-10	1.28e-06	gtgtgtgtgtgtgtgt
GKGDGTGTGTGTGTKT	MEME-5	chr1	10615630	10615645	+	25.8144	3.28e-10	1.28e-06	gtgtgtgtgtgtgtgt
GKGDGTGTGTGTGTKT	MEME-5	chr1	10615632	10615647	+	25.8144	3.28e-10	1.28e-06	gtgtgtgtgtgtgtgt
GKGDGTGTGTGTGTKT	MEME-5	chr3	14309839	14309854	+	25.8144	3.28e-10	1.28e-06	gtgtgtgtgtgtgtgt
GKGDGTGTGTGTGTKT	MEME-5	chr3	14309841	14309856	+	25.8144	3.28e-10	1.28e-06	gtgtgtgtgtgtgtgt
GKGDGTGTGTGTGTKT	MEME-5	chr3	14309843	14309858	+	25.8144	3.28e-10	1.28e-06	gtgtgtgtgtgtgtgt
GKGDGTGTGTGTGTKT	MEME-5	chr3	14309845	14309860	+	25.8144	3.28e-10	1.28e-06	gtgtgtgtgtgtgtgt
GKGDGTGTGTGTGTKT	MEME-5	chr3	14309847	14309862	+	25.8144	3.28e-10	1.28e-06	gtgtgtgtgtgtgtgt
GKGDGTGTGTGTGTKT	MEME-5	chr3	14309849	14309864	+	25.8144	3.28e-10	1.28e-06	gtgtgtgtgtgtgtgt
GKGDGTGTGTGTGTKT	MEME-5	chr3	14309851	14309866	+	25.8144	3.28e-10	1.28e-06	gtgtgtgtgtgtgtgt
GKGDGTGTGTGTGTKT	MEME-5	chr3	14309853	14309868	+	25.8144	3.28e-10	1.28e-06	gtgtgtgtgtgtgtgt
GKGDGTGTGTGTGTKT	MEME-5	chr3	14309855	14309870	+	25.8144	3.28e-10	1.28e-06	gtgtgtgtgtgtgtgt
GKGDGTGTGTGTGTKT	MEME-5	chr3	14309857	14309872	+	25.8144	3.28e-10	1.28e-06	gtgtgtgtgtgtgtgt
GKGDGTGTGTGTGTKT	MEME-5	chr3	14309859	14309874	+	25.8144	3.28e-10	1.28e-06	gtgtgtgtgtgtgtgt
GKGDGTGTGTGTGTKT	MEME-5	chr10	29387881	29387896	+	25.8144	3.28e-10	1.28e-06	gtgtgtgtgtgtgtgt
GKGDGTGTGTGTGTKT	MEME-5	chr10	29387883	29387898	+	25.8144	3.28e-10	1.28e-06	gtgtgtgtgtgtgtgt
GKGDGTGTGTGTGTKT	MEME-5	chr10	29387885	29387900	+	25.8144	3.28e-10	1.28e-06	gtgtgtgtgtgtgtgt
GKGDGTGTGTGTGTKT	MEME-5	chr10	29387887	29387902	+	25.8144	3.28e-10	1.28e-06	gtgtgtgtgtgtgtgt
GKGDGTGTGTGTGTKT	MEME-5	chr10	29387889	29387904	+	25.8144	3.28e-10	1.28e-06	gtgtgtgtgtgtgtgt
GKGDGTGTGTGTGTKT	MEME-5	chr10	29387891	29387906	+	25.8144	3.28e-10	1.28e-06	gtgtgtgtgtgtgtgt
GKGDGTGTGTGTGTKT	MEME-5	chr5	57365548	57365563	+	25.8144	3.28e-10	1.28e-06	gtgtgtgtgtgtgtgt
GKGDGTGTGTGTGTKT	MEME-5	chr5	57365550	57365565	+	25.8144	3.28e-10	1.28e-06	gtgtgtgtgtgtgtgt
GKGDGTGTGTGTGTKT	MEME-5	chr5	57365552	57365567	+	25.8144	3.28e-10	1.28e-06	gtgtgtgtgtgtgtgt
GKGDGTGTGTGTGTKT	MEME-5	chr5	57365554	57365569	+	25.8144	3.28e-10	1.28e-06	gtgtgtgtgtgtgtgt
GKGDGTGTGTGTGTKT	MEME-5	chr5	57365556	57365571	+	25.8144	3.28e-10	1.28e-06	gtgtgtgtgtgtgtgt
GKGDGTGTGTGTGTKT	MEME-5	chr5	57365558	57365573	+	25.8144	3.28e-10	1.28e-06	gtgtgtgtgtgtgtgt
GKGDGTGTGTGTGTKT	MEME-5	chr7	82329009	82329024	+	25.8144	3.28e-10	1.28e-06	gtgtgtgtgtgtgtgt
GKGDGTGTGTGTGTKT	MEME-5	chr7	82329011	82329026	+	25.8144	3.28e-10	1.28e-06	gtgtgtgtgtgtgtgt
GKGDGTGTGTGTGTKT	MEME-5	chr7	82329013	82329028	+	25.8144	3.28e-10	1.28e-06	gtgtgtgtgtgtgtgt
GKGDGTGTGTGTGTKT	MEME-5	chr7	82329015	82329030	+	25.8144	3.28e-10	1.28e-06	gtgtgtgtgtgtgtgt
GKGDGTGTGTGTGTKT	MEME-5	chr7	82329017	82329032	+	25.8144	3.28e-10	1.28e-06	gtgtgtgtgtgtgtgt
GKGDGTGTGTGTGTKT	MEME-5	chr7	82329019	82329034	+	25.8144	3.28e-10	1.28e-06	gtgtgtgtgtgtgtgt
GKGDGTGTGTGTGTKT	MEME-5	chr7	82329021	82329036	+	25.8144	3.28e-10	1.28e-06	gtgtgtgtgtgtgtgt
GKGDGTGTGTGTGTKT	MEME-5	chr7	82329023	82329038	+	25.8144	3.28e-10	1.28e-06	gtgtgtgtgtgtgtgt
GKGDGTGTGTGTGTKT	MEME-5	chr7	82329025	82329040	+	25.8144	3.28e-10	1.28e-06	gtgtgtgtgtgtgtgt
GKGDGTGTGTGTGTKT	MEME-5	chr7	82329027	82329042	+	25.8144	3.28e-10	1.28e-06	gtgtgtgtgtgtgtgt
GKGDGTGTGTGTGTKT	MEME-5	chr7	82329047	82329062	+	25.8144	3.28e-10	1.28e-06	gtgtgtgtgtgtgtgt
GKGDGTGTGTGTGTKT	MEME-5	chr9	97676680	97676695	+	25.8144	3.28e-10	1.28e-06	gtgtgtgtgtgtgtgt
GKGDGTGTGTGTGTKT	MEME-5	chr9	97676682	97676697	+	25.8144	3.28e-10	1.28e-06	gtgtgtgtgtgtgtgt
GKGDGTGTGTGTGTKT	MEME-5	chr9	97676684	97676699	+	25.8144	3.28e-10	1.28e-06	gtgtgtgtgtgtgtgt
GKGDGTGTGTGTGTKT	MEME-5	chr9	97676686	97676701	+	25.8144	3.28e-10	1.28e-06	gtgtgtgtgtgtgtgt
GKGDGTGTGTGTGTKT	MEME-5	chr9	97676688	97676703	+	25.8144	3.28e-10	1.28e-06	gtgtgtgtgtgtgtgt
GKGDGTGTGTGTGTKT	MEME-5	chr9	97676690	97676705	+	25.8144	3.28e-10	1.28e-06	gtgtgtgtgtgtgtgt
GKGDGTGTGTGTGTKT	MEME-5	chr9	97676692	97676707	+	25.8144	3.28e-10	1.28e-06	gtgtgtgtgtgtgtgt
GKGDGTGTGTGTGTKT	MEME-5	chr9	97676694	97676709	+	25.8144	3.28e-10	1.28e-06	gtgtgtgtgtgtgtgt
GKGDGTGTGTGTGTKT	MEME-5	chr9	97676696	97676711	+	25.8144	3.28e-10	1.28e-06	gtgtgtgtgtgtgtgt
GKGDGTGTGTGTGTKT	MEME-5	chr9	97676698	97676713	+	25.8144	3.28e-10	1.28e-06	gtgtgtgtgtgtgtgt
GKGDGTGTGTGTGTKT	MEME-5	chr9	97676700	97676715	+	25.8144	3.28e-10	1.28e-06	gtgtgtgtgtgtgtgt
GKGDGTGTGTGTGTKT	MEME-5	chr9	97676702	97676717	+	25.8144	3.28e-10	1.28e-06	gtgtgtgtgtgtgtgt
GKGDGTGTGTGTGTKT	MEME-5	chr6	110830762	110830777	+	25.8144	3.28e-10	1.28e-06	gtgtgtgtgtgtgtgt
GKGDGTGTGTGTGTKT	MEME-5	chr6	110830764	110830779	+	25.8144	3.28e-10	1.28e-06	gtgtgtgtgtgtgtgt
GKGDGTGTGTGTGTKT	MEME-5	chr6	110830766	110830781	+	25.8144	3.28e-10	1.28e-06	gtgtgtgtgtgtgtgt
GKGDGTGTGTGTGTKT	MEME-5	chr7	140675838	140675853	+	25.8144	3.28e-10	1.28e-06	gtgtgtgtgtgtgtgt
GKGDGTGTGTGTGTKT	MEME-5	chr7	140675840	140675855	+	25.8144	3.28e-10	1.28e-06	gtgtgtgtgtgtgtgt
GKGDGTGTGTGTGTKT	MEME-5	chr7	140675842	140675857	+	25.8144	3.28e-10	1.28e-06	gtgtgtgtgtgtgtgt
GKGDGTGTGTGTGTKT	MEME-5	chr7	140675844	140675859	+	25.8144	3.28e-10	1.28e-06	gtgtgtgtgtgtgtgt
GKGDGTGTGTGTGTKT	MEME-5	chr7	140675846	140675861	+	25.8144	3.28e-10	1.28e-06	gtgtgtgtgtgtgtgt
GKGDGTGTGTGTGTKT	MEME-5	chr7	140675848	140675863	+	25.8144	3.28e-10	1.28e-06	gtgtgtgtgtgtgtgt
GKGDGTGTGTGTGTKT	MEME-5	chr7	140675850	140675865	+	25.8144	3.28e-10	1.28e-06	gtgtgtgtgtgtgtgt
GKGDGTGTGTGTGTKT	MEME-5	chr7	140675852	140675867	+	25.8144	3.28e-10	1.28e-06	gtgtgtgtgtgtgtgt
GKGDGTGTGTGTGTKT	MEME-5	chr7	140675854	140675869	+	25.8144	3.28e-10	1.28e-06	gtgtgtgtgtgtgtgt
GKGDGTGTGTGTGTKT	MEME-5	chr7	140675856	140675871	+	25.8144	3.28e-10	1.28e-06	gtgtgtgtgtgtgtgt
GKGDGTGTGTGTGTKT	MEME-5	chr7	140675858	140675873	+	25.8144	3.28e-10	1.28e-06	gtgtgtgtgtgtgtgt
GKGDGTGTGTGTGTKT	MEME-5	chr7	140675860	140675875	+	25.8144	3.28e-10	1.28e-06	gtgtgtgtgtgtgtgt
GKGDGTGTGTGTGTKT	MEME-5	chr7	140675862	140675877	+	25.8144	3.28e-10	1.28e-06	gtgtgtgtgtgtgtgt
GKGDGTGTGTGTGTKT	MEME-5	chr7	140675864	140675879	+	25.8144	3.28e-10	1.28e-06	gtgtgtgtgtgtgtgt
GKGDGTGTGTGTGTKT	MEME-5	chr7	140675866	140675881	+	25.8144	3.28e-10	1.28e-06	gtgtgtgtgtgtgtgt
GKGDGTGTGTGTGTKT	MEME-5	chr7	140675868	140675883	+	25.8144	3.28e-10	1.28e-06	gtgtgtgtgtgtgtgt
GKGDGTGTGTGTGTKT	MEME-5	chr7	140675870	140675885	+	25.8144	3.28e-10	1.28e-06	gtgtgtgtgtgtgtgt
GKGDGTGTGTGTGTKT	MEME-5	chr7	140675872	140675887	+	25.8144	3.28e-10	1.28e-06	gtgtgtgtgtgtgtgt
GKGDGTGTGTGTGTKT	MEME-5	chr7	140675874	140675889	+	25.8144	3.28e-10	1.28e-06	gtgtgtgtgtgtgtgt
GKGDGTGTGTGTGTKT	MEME-5	chr7	140675876	140675891	+	25.8144	3.28e-10	1.28e-06	gtgtgtgtgtgtgtgt
GKGDGTGTGTGTGTKT	MEME-5	chr3	8843514	8843529	-	25.8144	3.28e-10	1.28e-06	GTGTGTGTGTGTGTGT
GKGDGTGTGTGTGTKT	MEME-5	chr3	8843516	8843531	-	25.8144	3.28e-10	1.28e-06	GTGTGTGTGTGTGTGT
GKGDGTGTGTGTGTKT	MEME-5	chr3	8843518	8843533	-	25.8144	3.28e-10	1.28e-06	GTGTGTGTGTGTGTGT
GKGDGTGTGTGTGTKT	MEME-5	chr3	8843520	8843535	-	25.8144	3.28e-10	1.28e-06	GTGTGTGTGTGTGTGT
GKGDGTGTGTGTGTKT	MEME-5	chr3	8843522	8843537	-	25.8144	3.28e-10	1.28e-06	GTGTGTGTGTGTGTGT
GKGDGTGTGTGTGTKT	MEME-5	chr3	8843524	8843539	-	25.8144	3.28e-10	1.28e-06	GTGTGTGTGTGTGTGT
GKGDGTGTGTGTGTKT	MEME-5	chr3	8843526	8843541	-	25.8144	3.28e-10	1.28e-06	GTGTGTGTGTGTGTGT
GKGDGTGTGTGTGTKT	MEME-5	chr3	8843528	8843543	-	25.8144	3.28e-10	1.28e-06	GTGTGTGTGTGTGTGT
GKGDGTGTGTGTGTKT	MEME-5	chr3	8843530	8843545	-	25.8144	3.28e-10	1.28e-06	GTGTGTGTGTGTGTGT
GKGDGTGTGTGTGTKT	MEME-5	chr3	8843532	8843547	-	25.8144	3.28e-10	1.28e-06	GTGTGTGTGTGTGTGT
GKGDGTGTGTGTGTKT	MEME-5	chr19	16283702	16283717	-	25.8144	3.28e-10	1.28e-06	GTGTGTGTGTGTGTGT
GKGDGTGTGTGTGTKT	MEME-5	chr19	16283704	16283719	-	25.8144	3.28e-10	1.28e-06	GTGTGTGTGTGTGTGT
GKGDGTGTGTGTGTKT	MEME-5	chr19	16283706	16283721	-	25.8144	3.28e-10	1.28e-06	GTGTGTGTGTGTGTGT
GKGDGTGTGTGTGTKT	MEME-5	chr19	16283708	16283723	-	25.8144	3.28e-10	1.28e-06	GTGTGTGTGTGTGTGT
GKGDGTGTGTGTGTKT	MEME-5	chr19	16283710	16283725	-	25.8144	3.28e-10	1.28e-06	GTGTGTGTGTGTGTGT
GKGDGTGTGTGTGTKT	MEME-5	chr19	16283712	16283727	-	25.8144	3.28e-10	1.28e-06	GTGTGTGTGTGTGTGT
GKGDGTGTGTGTGTKT	MEME-5	chr19	16283714	16283729	-	25.8144	3.28e-10	1.28e-06	GTGTGTGTGTGTGTGT
GKGDGTGTGTGTGTKT	MEME-5	chr19	16283716	16283731	-	25.8144	3.28e-10	1.28e-06	GTGTGTGTGTGTGTGT
GKGDGTGTGTGTGTKT	MEME-5	chr19	16283718	16283733	-	25.8144	3.28e-10	1.28e-06	GTGTGTGTGTGTGTGT
GKGDGTGTGTGTGTKT	MEME-5	chr19	16283720	16283735	-	25.8144	3.28e-10	1.28e-06	GTGTGTGTGTGTGTGT
GKGDGTGTGTGTGTKT	MEME-5	chr19	16283722	16283737	-	25.8144	3.28e-10	1.28e-06	GTGTGTGTGTGTGTGT
GKGDGTGTGTGTGTKT	MEME-5	chr19	16283724	16283739	-	25.8144	3.28e-10	1.28e-06	GTGTGTGTGTGTGTGT
GKGDGTGTGTGTGTKT	MEME-5	chr19	16283726	16283741	-	25.8144	3.28e-10	1.28e-06	GTGTGTGTGTGTGTGT
GKGDGTGTGTGTGTKT	MEME-5	chr19	16283728	16283743	-	25.8144	3.28e-10	1.28e-06	GTGTGTGTGTGTGTGT
GKGDGTGTGTGTGTKT	MEME-5	chr19	16283730	16283745	-	25.8144	3.28e-10	1.28e-06	GTGTGTGTGTGTGTGT
GKGDGTGTGTGTGTKT	MEME-5	chr13	23553217	23553232	-	25.8144	3.28e-10	1.28e-06	GTGTGTGTGTGTGTGT
GKGDGTGTGTGTGTKT	MEME-5	chr13	23553219	23553234	-	25.8144	3.28e-10	1.28e-06	GTGTGTGTGTGTGTGT
GKGDGTGTGTGTGTKT	MEME-5	chr13	23553221	23553236	-	25.8144	3.28e-10	1.28e-06	GTGTGTGTGTGTGTGT
GKGDGTGTGTGTGTKT	MEME-5	chr13	23553223	23553238	-	25.8144	3.28e-10	1.28e-06	GTGTGTGTGTGTGTGT
GKGDGTGTGTGTGTKT	MEME-5	chr13	23553225	23553240	-	25.8144	3.28e-10	1.28e-06	GTGTGTGTGTGTGTGT
GKGDGTGTGTGTGTKT	MEME-5	chr13	23553227	23553242	-	25.8144	3.28e-10	1.28e-06	GTGTGTGTGTGTGTGT
GKGDGTGTGTGTGTKT	MEME-5	chr13	23553229	23553244	-	25.8144	3.28e-10	1.28e-06	GTGTGTGTGTGTGTGT
GKGDGTGTGTGTGTKT	MEME-5	chr13	23553231	23553246	-	25.8144	3.28e-10	1.28e-06	GTGTGTGTGTGTGTGT
GKGDGTGTGTGTGTKT	MEME-5	chr7	34097101	34097116	-	25.8144	3.28e-10	1.28e-06	GTGTGTGTGTGTGTGT
GKGDGTGTGTGTGTKT	MEME-5	chr7	34097103	34097118	-	25.8144	3.28e-10	1.28e-06	GTGTGTGTGTGTGTGT
GKGDGTGTGTGTGTKT	MEME-5	chr6	42106438	42106453	-	25.8144	3.28e-10	1.28e-06	GTGTGTGTGTGTGTGT
GKGDGTGTGTGTGTKT	MEME-5	chr6	42106440	42106455	-	25.8144	3.28e-10	1.28e-06	GTGTGTGTGTGTGTGT
GKGDGTGTGTGTGTKT	MEME-5	chr6	42106442	42106457	-	25.8144	3.28e-10	1.28e-06	GTGTGTGTGTGTGTGT
GKGDGTGTGTGTGTKT	MEME-5	chr6	42106444	42106459	-	25.8144	3.28e-10	1.28e-06	GTGTGTGTGTGTGTGT
GKGDGTGTGTGTGTKT	MEME-5	chr6	42106446	42106461	-	25.8144	3.28e-10	1.28e-06	GTGTGTGTGTGTGTGT
GKGDGTGTGTGTGTKT	MEME-5	chr6	42106448	42106463	-	25.8144	3.28e-10	1.28e-06	GTGTGTGTGTGTGTGT
GKGDGTGTGTGTGTKT	MEME-5	chr6	42106450	42106465	-	25.8144	3.28e-10	1.28e-06	GTGTGTGTGTGTGTGT
GKGDGTGTGTGTGTKT	MEME-5	chr6	42106452	42106467	-	25.8144	3.28e-10	1.28e-06	GTGTGTGTGTGTGTGT
GKGDGTGTGTGTGTKT	MEME-5	chr6	42106454	42106469	-	25.8144	3.28e-10	1.28e-06	GTGTGTGTGTGTGTGT
GKGDGTGTGTGTGTKT	MEME-5	chr7	68196021	68196036	-	25.8144	3.28e-10	1.28e-06	GTGTGTGTGTGTGTGT
GKGDGTGTGTGTGTKT	MEME-5	chr7	68196023	68196038	-	25.8144	3.28e-10	1.28e-06	GTGTGTGTGTGTGTGT
GKGDGTGTGTGTGTKT	MEME-5	chr7	68196025	68196040	-	25.8144	3.28e-10	1.28e-06	GTGTGTGTGTGTGTGT
GKGDGTGTGTGTGTKT	MEME-5	chr7	68196027	68196042	-	25.8144	3.28e-10	1.28e-06	GTGTGTGTGTGTGTGT
GKGDGTGTGTGTGTKT	MEME-5	chr7	68196029	68196044	-	25.8144	3.28e-10	1.28e-06	GTGTGTGTGTGTGTGT
GKGDGTGTGTGTGTKT	MEME-5	chr7	68196031	68196046	-	25.8144	3.28e-10	1.28e-06	GTGTGTGTGTGTGTGT
GKGDGTGTGTGTGTKT	MEME-5	chr15	70754903	70754918	-	25.8144	3.28e-10	1.28e-06	GTGTGTGTGTGTGTGT
GKGDGTGTGTGTGTKT	MEME-5	chr15	70754905	70754920	-	25.8144	3.28e-10	1.28e-06	GTGTGTGTGTGTGTGT
GKGDGTGTGTGTGTKT	MEME-5	chr15	70754907	70754922	-	25.8144	3.28e-10	1.28e-06	GTGTGTGTGTGTGTGT
GKGDGTGTGTGTGTKT	MEME-5	chr15	70754909	70754924	-	25.8144	3.28e-10	1.28e-06	GTGTGTGTGTGTGTGT
GKGDGTGTGTGTGTKT	MEME-5	chr15	70754911	70754926	-	25.8144	3.28e-10	1.28e-06	GTGTGTGTGTGTGTGT
GKGDGTGTGTGTGTKT	MEME-5	chr15	70754913	70754928	-	25.8144	3.28e-10	1.28e-06	GTGTGTGTGTGTGTGT
GKGDGTGTGTGTGTKT	MEME-5	chr15	70754915	70754930	-	25.8144	3.28e-10	1.28e-06	GTGTGTGTGTGTGTGT
GKGDGTGTGTGTGTKT	MEME-5	chr15	70754917	70754932	-	25.8144	3.28e-10	1.28e-06	GTGTGTGTGTGTGTGT
GKGDGTGTGTGTGTKT	MEME-5	chr15	70754919	70754934	-	25.8144	3.28e-10	1.28e-06	GTGTGTGTGTGTGTGT
GKGDGTGTGTGTGTKT	MEME-5	chr15	70754921	70754936	-	25.8144	3.28e-10	1.28e-06	GTGTGTGTGTGTGTGT
GKGDGTGTGTGTGTKT	MEME-5	chr15	70754923	70754938	-	25.8144	3.28e-10	1.28e-06	GTGTGTGTGTGTGTGT
GKGDGTGTGTGTGTKT	MEME-5	chr15	75054526	75054541	-	25.8144	3.28e-10	1.28e-06	GTGTGTGTGTGTGTGT
GKGDGTGTGTGTGTKT	MEME-5	chr15	75054528	75054543	-	25.8144	3.28e-10	1.28e-06	GTGTGTGTGTGTGTGT
GKGDGTGTGTGTGTKT	MEME-5	chr15	75054530	75054545	-	25.8144	3.28e-10	1.28e-06	GTGTGTGTGTGTGTGT
GKGDGTGTGTGTGTKT	MEME-5	chr15	75054532	75054547	-	25.8144	3.28e-10	1.28e-06	GTGTGTGTGTGTGTGT
GKGDGTGTGTGTGTKT	MEME-5	chr15	75054534	75054549	-	25.8144	3.28e-10	1.28e-06	GTGTGTGTGTGTGTGT
GKGDGTGTGTGTGTKT	MEME-5	chr15	75054536	75054551	-	25.8144	3.28e-10	1.28e-06	GTGTGTGTGTGTGTGT
GKGDGTGTGTGTGTKT	MEME-5	chr15	75054538	75054553	-	25.8144	3.28e-10	1.28e-06	GTGTGTGTGTGTGTGT
GKGDGTGTGTGTGTKT	MEME-5	chr15	75054540	75054555	-	25.8144	3.28e-10	1.28e-06	GTGTGTGTGTGTGTGT
GKGDGTGTGTGTGTKT	MEME-5	chr15	75054542	75054557	-	25.8144	3.28e-10	1.28e-06	GTGTGTGTGTGTGTGT
GKGDGTGTGTGTGTKT	MEME-5	chr15	75054544	75054559	-	25.8144	3.28e-10	1.28e-06	GTGTGTGTGTGTGTGT
GKGDGTGTGTGTGTKT	MEME-5	chr15	75054546	75054561	-	25.8144	3.28e-10	1.28e-06	GTGTGTGTGTGTGTGT
GKGDGTGTGTGTGTKT	MEME-5	chr15	75054548	75054563	-	25.8144	3.28e-10	1.28e-06	GTGTGTGTGTGTGTGT
GKGDGTGTGTGTGTKT	MEME-5	chr15	75054550	75054565	-	25.8144	3.28e-10	1.28e-06	GTGTGTGTGTGTGTGT
GKGDGTGTGTGTGTKT	MEME-5	chr15	75054552	75054567	-	25.8144	3.28e-10	1.28e-06	GTGTGTGTGTGTGTGT
GKGDGTGTGTGTGTKT	MEME-5	chr15	75054554	75054569	-	25.8144	3.28e-10	1.28e-06	GTGTGTGTGTGTGTGT
GKGDGTGTGTGTGTKT	MEME-5	chr15	75054556	75054571	-	25.8144	3.28e-10	1.28e-06	GTGTGTGTGTGTGTGT
GKGDGTGTGTGTGTKT	MEME-5	chr10	108365757	108365772	-	25.8144	3.28e-10	1.28e-06	GTGTGTGTGTGTGTGT
GKGDGTGTGTGTGTKT	MEME-5	chr10	108365759	108365774	-	25.8144	3.28e-10	1.28e-06	GTGTGTGTGTGTGTGT
GKGDGTGTGTGTGTKT	MEME-5	chr10	108365761	108365776	-	25.8144	3.28e-10	1.28e-06	GTGTGTGTGTGTGTGT
GKGDGTGTGTGTGTKT	MEME-5	chr10	108365763	108365778	-	25.8144	3.28e-10	1.28e-06	GTGTGTGTGTGTGTGT
GKGDGTGTGTGTGTKT	MEME-5	chr10	108365765	108365780	-	25.8144	3.28e-10	1.28e-06	GTGTGTGTGTGTGTGT
GKGDGTGTGTGTGTKT	MEME-5	chr10	108365767	108365782	-	25.8144	3.28e-10	1.28e-06	GTGTGTGTGTGTGTGT
GKGDGTGTGTGTGTKT	MEME-5	chr10	108365769	108365784	-	25.8144	3.28e-10	1.28e-06	GTGTGTGTGTGTGTGT
GKGDGTGTGTGTGTKT	MEME-5	chr10	108365771	108365786	-	25.8144	3.28e-10	1.28e-06	GTGTGTGTGTGTGTGT
GKGDGTGTGTGTGTKT	MEME-5	chr10	108365773	108365788	-	25.8144	3.28e-10	1.28e-06	GTGTGTGTGTGTGTGT
GKGDGTGTGTGTGTKT	MEME-5	chr10	108365775	108365790	-	25.8144	3.28e-10	1.28e-06	GTGTGTGTGTGTGTGT
GKGDGTGTGTGTGTKT	MEME-5	chr10	108365777	108365792	-	25.8144	3.28e-10	1.28e-06	GTGTGTGTGTGTGTGT
GKGDGTGTGTGTGTKT	MEME-5	chr10	108365779	108365794	-	25.8144	3.28e-10	1.28e-06	GTGTGTGTGTGTGTGT
GKGDGTGTGTGTGTKT	MEME-5	chr10	108365781	108365796	-	25.8144	3.28e-10	1.28e-06	GTGTGTGTGTGTGTGT
GKGDGTGTGTGTGTKT	MEME-5	chr10	108365783	108365798	-	25.8144	3.28e-10	1.28e-06	GTGTGTGTGTGTGTGT
GKGDGTGTGTGTGTKT	MEME-5	chr10	108365785	108365800	-	25.8144	3.28e-10	1.28e-06	GTGTGTGTGTGTGTGT
GKGDGTGTGTGTGTKT	MEME-5	chr10	108365787	108365802	-	25.8144	3.28e-10	1.28e-06	GTGTGTGTGTGTGTGT
GKGDGTGTGTGTGTKT	MEME-5	chr10	108365789	108365804	-	25.8144	3.28e-10	1.28e-06	GTGTGTGTGTGTGTGT
GKGDGTGTGTGTGTKT	MEME-5	chr2	236617953	236617968	-	25.7423	4.28e-10	1.65e-06	GGGGGTGTGTGTGTGT
GKGDGTGTGTGTGTKT	MEME-5	chr2	236618010	236618025	-	25.7423	4.28e-10	1.65e-06	GGGGGTGTGTGTGTGT
GKGDGTGTGTGTGTKT	MEME-5	chr1	10615620	10615635	+	25.2371	7.55e-10	2.91e-06	gtgagtgtgtgtgtgt
GKGDGTGTGTGTGTKT	MEME-5	chr7	82329049	82329064	+	24.6804	1.86e-09	6.99e-06	gtgtgtgtgtgtgttt
GKGDGTGTGTGTGTKT	MEME-5	chr6	110830768	110830783	+	24.6804	1.86e-09	6.99e-06	gtgtgtgtgtgtgttt
GKGDGTGTGTGTGTKT	MEME-5	chr6	42106436	42106451	-	24.6804	1.86e-09	6.99e-06	GTGTGTGTGTGTGTTT
GKGDGTGTGTGTGTKT	MEME-5	chr15	70754901	70754916	-	24.6804	1.86e-09	6.99e-06	GTGTGTGTGTGTGTTT
GKGDGTGTGTGTGTKT	MEME-5	chr1	10615622	10615637	+	24.4124	2.56e-09	9.48e-06	gagtgtgtgtgtgtgt
GKGDGTGTGTGTGTKT	MEME-5	chr6	42106456	42106471	-	24.4124	2.56e-09	9.48e-06	GAGTGTGTGTGTGTGT
GKGDGTGTGTGTGTKT	MEME-5	chr10	108365791	108365806	-	24.4124	2.56e-09	9.48e-06	GAGTGTGTGTGTGTGT
GKGDGTGTGTGTGTKT	MEME-5	chr3	8843512	8843527	-	24.4021	2.75e-09	1.01e-05	GTGTGTGTGTGTGTCT
GKGDGTGTGTGTGTKT	MEME-5	chr13	23553215	23553230	-	24.4021	2.75e-09	1.01e-05	GTGTGTGTGTGTGTCT
GKGDGTGTGTGTGTKT	MEME-5	chr10	29387879	29387894	+	24.3608	2.94e-09	1.07e-05	Ctgtgtgtgtgtgtgt
GKGDGTGTGTGTGTKT	MEME-5	chr7	82329007	82329022	+	24.3608	2.94e-09	1.07e-05	ctgtgtgtgtgtgtgt
GKGDGTGTGTGTGTKT	MEME-5	chr2	236617951	236617966	-	23.6289	6.79e-09	2.43e-05	GGGTGTGTGTGTGTGG
GKGDGTGTGTGTGTKT	MEME-5	chr2	236618008	236618023	-	23.6289	6.79e-09	2.43e-05	GGGTGTGTGTGTGTGG
GKGDGTGTGTGTGTKT	MEME-5	chr12	27776494	27776509	+	23.2784	1.01e-08	3.59e-05	GAGTGTGTGTGTGTTT
GKGDGTGTGTGTGTKT	MEME-5	chr15	75054524	75054539	-	23.0309	1.19e-08	4.23e-05	GTGTGTGTGTGTGTTG
GKGDGTGTGTGTGTKT	MEME-5	chr7	82329005	82329020	+	22.4845	2.1e-08	7.4e-05	ggctgtgtgtgtgtgt
GKGDGTGTGTGTGTKT	MEME-5	chr12	27776492	27776507	+	22.3814	2.42e-08	8.49e-05	CAGAGTGTGTGTGTGT
GKGDGTGTGTGTGTKT	MEME-5	chr3	14309837	14309852	+	21.9278	3.52e-08	0.00012	Ttgtgtgtgtgtgtgt
GKGDGTGTGTGTGTKT	MEME-5	chr15	70754925	70754940	-	21.9278	3.52e-08	0.00012	TTGTGTGTGTGTGTGT
GKGDGTGTGTGTGTKT	MEME-5	chr7	82329045	82329060	+	21.9278	3.52e-08	0.00012	ttgtgtgtgtgtgtgt
GKGDGTGTGTGTGTKT	MEME-5	chr6	110830760	110830775	+	21.9278	3.52e-08	0.00012	ttgtgtgtgtgtgtgt
GKGDGTGTGTGTGTKT	MEME-5	chr7	140675836	140675851	+	21.9278	3.52e-08	0.00012	Ttgtgtgtgtgtgtgt
GKGDGTGTGTGTGTKT	MEME-5	chr9	114792318	114792333	-	21.8557	3.78e-08	0.000128	TGGGGTGTGTGTGTGT
GKGDGTGTGTGTGTKT	MEME-5	chr4	186190016	186190031	-	21.8557	3.78e-08	0.000128	TGGGGTGTGTGTGTGT
GKGDGTGTGTGTGTKT	MEME-5	chr10	29387877	29387892	+	21.567	4.72e-08	0.000159	CTCtgtgtgtgtgtgt
GKGDGTGTGTGTGTKT	MEME-5	chr10	4778271	4778286	+	21.3918	5.51e-08	0.000182	TGgtgtgtgtgtgtgt
GKGDGTGTGTGTGTKT	MEME-5	chr19	16283732	16283747	-	21.3918	5.51e-08	0.000182	TGGTGTGTGTGTGTGT
GKGDGTGTGTGTGTKT	MEME-5	chr13	23553233	23553248	-	21.3918	5.51e-08	0.000182	TGGTGTGTGTGTGTGT
GKGDGTGTGTGTGTKT	MEME-5	chr15	75054558	75054573	-	21.3918	5.51e-08	0.000182	TGGTGTGTGTGTGTGT
GKGDGTGTGTGTGTKT	MEME-5	chr10	108365793	108365808	-	21.3505	5.71e-08	0.000188	TTGAGTGTGTGTGTGT
GKGDGTGTGTGTGTKT	MEME-5	chr12	116308062	116308077	+	20.6082	9.81e-08	0.000321	GGGTGGGAGTGTGTCT
GKGDGTGTGTGTGTKT	MEME-5	chr7	82329053	82329068	+	20.3505	1.21e-07	0.000394	gtgtgtgtgtttgttt
GKGDGTGTGTGTGTKT	MEME-5	chr10	116105984	116105999	+	20.2062	1.3e-07	0.000423	GTCTGGGTGTGTGTCT
GKGDGTGTGTGTGTKT	MEME-5	chr8	51028100	51028115	+	20.1546	1.36e-07	0.000439	CTCTGTGTGTGTGTCT
GKGDGTGTGTGTGTKT	MEME-5	chr6	110830754	110830769	+	20.1237	1.38e-07	0.000444	Ctgtgtttgtgtgtgt
GKGDGTGTGTGTGTKT	MEME-5	chr7	139431870	139431885	+	19.8351	1.72e-07	0.00055	GTGTGTGTGTTTGTGG
GKGDGTGTGTGTGTKT	MEME-5	chr20	46875205	46875220	+	19.4433	2.18e-07	0.000695	GAGAGGGAGTGTGTTT
GKGDGTGTGTGTGTKT	MEME-5	chr19	43942680	43942695	-	19.3918	2.26e-07	0.000716	GTGGGTGTGGGCGTTT
GKGDGTGTGTGTGTKT	MEME-5	chr19	43402847	43402862	+	18.9897	2.88e-07	0.00091	CAGAGTGGGTGTGTCT
GKGDGTGTGTGTGTKT	MEME-5	chr17	77638868	77638883	-	18.3402	4.21e-07	0.00132	GTGGGCGGGTGTGGGG
GKGDGTGTGTGTGTKT	MEME-5	chr2	153020132	153020147	+	18.3093	4.28e-07	0.00134	ctctgggagtgtgtgt
GKGDGTGTGTGTGTKT	MEME-5	chr16	89909156	89909171	-	18.1134	4.8e-07	0.0015	CGGTGGGGGTGTGGGT
GKGDGTGTGTGTGTKT	MEME-5	chr2	236617933	236617948	+	18.0103	5.09e-07	0.00158	TCGTGGGTGTGTGTGT
GKGDGTGTGTGTGTKT	MEME-5	chr5	136048618	136048633	+	17.732	5.88e-07	0.00181	ttctgggtgtgtgtgt
GKGDGTGTGTGTGTKT	MEME-5	chr5	23494605	23494620	+	17.6907	6e-07	0.00184	TTGTGTATGTGTGTGT
GKGDGTGTGTGTGTKT	MEME-5	chr8	71368454	71368469	+	17.4742	6.81e-07	0.00208	CTGGGCTTGTGTGTTT
GKGDGTGTGTGTGTKT	MEME-5	chr1	10615618	10615633	+	17.2474	7.61e-07	0.00229	gtgtgagtgtgtgtgt
GKGDGTGTGTGTGTKT	MEME-5	chr7	82329029	82329044	+	17.2371	7.63e-07	0.00229	gtgtgtgtgtgtgtat
GKGDGTGTGTGTGTKT	MEME-5	chr9	97676704	97676719	+	17.2371	7.63e-07	0.00229	gtgtgtgtgtgtgtat
GKGDGTGTGTGTGTKT	MEME-5	chr10	108365755	108365770	-	17.2371	7.63e-07	0.00229	GTGTGTGTGTGTGTAT
GKGDGTGTGTGTGTKT	MEME-5	chr10	4778285	4778300	+	17	8.67e-07	0.00256	gtgtgtgtgtgtgtgC
GKGDGTGTGTGTGTKT	MEME-5	chr1	10615634	10615649	+	17	8.67e-07	0.00256	gtgtgtgtgtgtgtgC
GKGDGTGTGTGTGTKT	MEME-5	chr10	29387893	29387908	+	17	8.67e-07	0.00256	gtgtgtgtgtgtgtgC
GKGDGTGTGTGTGTKT	MEME-5	chr7	68196019	68196034	-	17	8.67e-07	0.00256	GTGTGTGTGTGTGTGA
GKGDGTGTGTGTGTKT	MEME-5	chr10	33553351	33553366	+	16.7835	9.58e-07	0.00281	ATGTGTGTGTGTGTGT
GKGDGTGTGTGTGTKT	MEME-5	chr7	34097105	34097120	-	16.7835	9.58e-07	0.00281	ATGTGTGTGTGTGTGT
GKGDGTGTGTGTGTKT	MEME-5	chr12	47499837	47499852	-	16.7629	9.67e-07	0.00282	CTGGGTGACTGTGGGT
GKGDGTGTGTGTGTKT	MEME-5	chr7	45583168	45583183	+	16.701	1e-06	0.00291	GTGGTTGTGTGTGTGT
GKGDGTGTGTGTGTKT	MEME-5	chr6	110830758	110830773	+	16.433	1.15e-06	0.00332	gtttgtgtgtgtgtgt
GKGDGTGTGTGTGTKT	MEME-5	chr9	83935935	83935950	+	16.3918	1.17e-06	0.00336	GAGAGTGGGTTTGTTT
GKGDGTGTGTGTGTKT	MEME-5	chr14	96583311	96583326	+	16.3299	1.2e-06	0.00343	cacagggagtgtgtgt
GKGDGTGTGTGTGTKT	MEME-5	chr5	23494607	23494622	+	16.2371	1.25e-06	0.00352	GTGTATGTGTGTGTGT
GKGDGTGTGTGTGTKT	MEME-5	chr7	82329051	82329066	+	16.2371	1.25e-06	0.00352	gtgtgtgtgtgtttgt
GKGDGTGTGTGTGTKT	MEME-5	chr9	97676706	97676721	+	16.2371	1.25e-06	0.00352	gtgtgtgtgtgtatgt
GKGDGTGTGTGTGTKT	MEME-5	chr6	110830756	110830771	+	16.2371	1.25e-06	0.00352	gtgtttgtgtgtgtgt
GKGDGTGTGTGTGTKT	MEME-5	chr6	110830770	110830785	+	16.2371	1.25e-06	0.00352	gtgtgtgtgtgtttgt
GKGDGTGTGTGTGTKT	MEME-5	chr7	82329057	82329072	+	16.1134	1.34e-06	0.00376	gtgtgtttgtttgttt
GKGDGTGTGTGTGTKT	MEME-5	chr19	51347389	51347404	+	16.0722	1.37e-06	0.00381	ctgtgtgggggtgggg
GKGDGTGTGTGTGTKT	MEME-5	chr18	12645638	12645653	-	15.9588	1.44e-06	0.00399	CGGAGGATGTGTGTGG
GKGDGTGTGTGTGTKT	MEME-5	chr5	57365560	57365575	+	15.866	1.5e-06	0.00412	gtgtgtgtgtgtgtTC
GKGDGTGTGTGTGTKT	MEME-5	chr7	140675878	140675893	+	15.866	1.5e-06	0.00412	gtgtgtgtgtgtgtTA
GKGDGTGTGTGTGTKT	MEME-5	chr20	49380692	49380707	+	15.8557	1.51e-06	0.00412	GAGAGTTTGTGTGGCT
GKGDGTGTGTGTGTKT	MEME-5	chr2	236617955	236617970	-	15.8454	1.51e-06	0.00412	ATGGGGGTGTGTGTGT
GKGDGTGTGTGTGTKT	MEME-5	chr2	236618012	236618027	-	15.8454	1.51e-06	0.00412	ATGGGGGTGTGTGTGT
GKGDGTGTGTGTGTKT	MEME-5	chr12	113935909	113935924	+	15.7938	1.55e-06	0.00419	ctgtgtttgtttgtgt
GKGDGTGTGTGTGTKT	MEME-5	chr7	45583166	45583181	+	15.7526	1.58e-06	0.00426	TGGTGGTTGTGTGTGT
GKGDGTGTGTGTGTKT	MEME-5	chr2	202747084	202747099	+	15.7216	1.61e-06	0.00431	gtgtgcttctgtgtgt
GKGDGTGTGTGTGTKT	MEME-5	chr14	99372944	99372959	+	15.6392	1.67e-06	0.00447	GCCTGGGTGGGTGTTT
GKGDGTGTGTGTGTKT	MEME-5	chr3	14309861	14309876	+	15.5876	1.72e-06	0.00457	gtgtgtgtgtgtgtAG
GKGDGTGTGTGTGTKT	MEME-5	chr10	4778269	4778284	+	15.4948	1.79e-06	0.00473	GATGgtgtgtgtgtgt
GKGDGTGTGTGTGTKT	MEME-5	chr13	23553235	23553250	-	15.4948	1.79e-06	0.00473	GATGGTGTGTGTGTGT
GKGDGTGTGTGTGTKT	MEME-5	chr6	21738686	21738701	-	15.4433	1.82e-06	0.00479	TGGAGTTTGTGTGTTT
GKGDGTGTGTGTGTKT	MEME-5	chr7	68196033	68196048	-	15.3814	1.87e-06	0.00491	AAGTGTGTGTGTGTGT
GKGDGTGTGTGTGTKT	MEME-5	chr20	46875209	46875224	+	15.2577	1.99e-06	0.0052	GGGAGTGTGTTTGGTG
GKGDGTGTGTGTGTKT	MEME-5	chr7	82329003	82329018	+	15.2474	2e-06	0.0052	ctggctgtgtgtgtgt
GKGDGTGTGTGTGTKT	MEME-5	chr21	15249488	15249503	-	15.1959	2.04e-06	0.00531	TTGGGGGTGGGTGGTT
GKGDGTGTGTGTGTKT	MEME-5	chr20	31564375	31564390	+	15.1546	2.08e-06	0.00539	gtgggggtggttgtcg
GKGDGTGTGTGTGTKT	MEME-5	chr7	82329031	82329046	+	15.1031	2.13e-06	0.00548	gtgtgtgtgtgtattt
GKGDGTGTGTGTGTKT	MEME-5	chr2	236617937	236617952	+	15.0515	2.18e-06	0.0056	GGGTGTGTGTGTGTCC
GKGDGTGTGTGTGTKT	MEME-5	chr7	140675834	140675849	+	14.9794	2.25e-06	0.00574	CTTtgtgtgtgtgtgt
GKGDGTGTGTGTGTKT	MEME-5	chr2	153020134	153020149	+	14.8454	2.38e-06	0.00606	ctgggagtgtgtgtct
GKGDGTGTGTGTGTKT	MEME-5	chr5	173146510	173146525	-	14.7835	2.46e-06	0.00623	GGCGGTGAGGGTGGGG
GKGDGTGTGTGTGTKT	MEME-5	chr5	173962524	173962539	-	14.7216	2.53e-06	0.0064	CCCTGTGTGTTTGTGT
GKGDGTGTGTGTGTKT	MEME-5	chr16	89909158	89909173	-	14.6701	2.59e-06	0.00652	CACGGTGGGGGTGTGG
GKGDGTGTGTGTGTKT	MEME-5	chr5	136048620	136048635	+	14.5979	2.66e-06	0.00669	ctgggtgtgtgtgtca
GKGDGTGTGTGTGTKT	MEME-5	chr1	10615616	10615631	+	14.3918	2.9e-06	0.00726	AGgtgtgagtgtgtgt
GKGDGTGTGTGTGTKT	MEME-5	chr5	431297	431312	+	14.3196	3e-06	0.00748	GGCTGTGAGGGTGGGG
GKGDGTGTGTGTGTKT	MEME-5	chr5	57365546	57365561	+	14.268	3.08e-06	0.00761	ACgtgtgtgtgtgtgt
GKGDGTGTGTGTGTKT	MEME-5	chr9	97676678	97676693	+	14.268	3.08e-06	0.00761	ACgtgtgtgtgtgtgt
GKGDGTGTGTGTGTKT	MEME-5	chr13	23553237	23553252	-	14.2577	3.09e-06	0.00762	GTGATGGTGTGTGTGT
GKGDGTGTGTGTGTKT	MEME-5	chr7	45583170	45583185	+	14.2474	3.11e-06	0.00763	GGTTGTGTGTGTGTGG
GKGDGTGTGTGTGTKT	MEME-5	chr10	4778287	4778302	+	14.1134	3.3e-06	0.00807	gtgtgtgtgtgtgCTG
GKGDGTGTGTGTGTKT	MEME-5	chr7	54551424	54551439	-	14.0722	3.35e-06	0.00816	CTGGGGTTGGGTGTTG
GKGDGTGTGTGTGTKT	MEME-5	chr4	148900653	148900668	+	14.0619	3.36e-06	0.00817	ttgtgtaggtgtgtgg
GKGDGTGTGTGTGTKT	MEME-5	chr12	46887521	46887536	+	14	3.44e-06	0.00833	ATGTGTGTGTGTGTTG
GKGDGTGTGTGTGTKT	MEME-5	chr7	34097107	34097122	-	13.9175	3.56e-06	0.00859	GCATGTGTGTGTGTGT
GKGDGTGTGTGTGTKT	MEME-5	chr14	96583313	96583328	+	13.7216	3.89e-06	0.00936	cagggagtgtgtgttt
GKGDGTGTGTGTGTKT	MEME-5	chr6	42106458	42106473	-	13.6907	3.95e-06	0.00945	ACGAGTGTGTGTGTGT
GKGDGTGTGTGTGTKT	MEME-5	chr15	99411745	99411760	-	13.5052	4.25e-06	0.0101	GAGAGTGTGTGTGACT
GKGDGTGTGTGTGTKT	MEME-5	chr1	109817536	109817551	-	13.4639	4.32e-06	0.0102	GGGGGGTGGGGTGGGT
GKGDGTGTGTGTGTKT	MEME-5	chr3	8843510	8843525	-	13.4536	4.33e-06	0.0102	GTGTGTGTGTGTCTTG
GKGDGTGTGTGTGTKT	MEME-5	chr15	70754899	70754914	-	13.4536	4.33e-06	0.0102	GTGTGTGTGTGTTTTG
GKGDGTGTGTGTGTKT	MEME-5	chr6	125905783	125905798	+	13.4433	4.35e-06	0.0102	GTCTTTGTGTGTGTGT
GKGDGTGTGTGTGTKT	MEME-5	chr2	54799434	54799449	+	13.3814	4.48e-06	0.0105	GCGAGTGTCTTTGTTT
GKGDGTGTGTGTGTKT	MEME-5	chr12	113936064	113936079	+	13.3711	4.5e-06	0.0105	gtgtgtgcctgtgtgt
GKGDGTGTGTGTGTKT	MEME-5	chr2	236618006	236618021	-	13.2577	4.72e-06	0.011	GTGTGTGTGTGTGGAG
GKGDGTGTGTGTGTKT	MEME-5	chr16	30115892	30115907	+	13.2268	4.79e-06	0.0111	CTGGGGTGGGGTGTGG
GKGDGTGTGTGTGTKT	MEME-5	chrX	127733820	127733835	-	13.1134	5e-06	0.0116	TTGTGTGTGTGTGTGA
GKGDGTGTGTGTGTKT	MEME-5	chr12	113936066	113936081	+	13.0412	5.15e-06	0.0119	gtgtgcctgtgtgtct
GKGDGTGTGTGTGTKT	MEME-5	chr19	16283734	16283749	-	13.0103	5.21e-06	0.012	TTTGGTGTGTGTGTGT
GKGDGTGTGTGTGTKT	MEME-5	chr6	110830772	110830787	+	12.9072	5.44e-06	0.0125	gtgtgtgtgtttgtAT
GKGDGTGTGTGTGTKT	MEME-5	chr2	202747130	202747145	+	12.567	6.24e-06	0.0142	gtgtgtgtgcttgtgt
GKGDGTGTGTGTGTKT	MEME-5	chr15	70754927	70754942	-	12.4639	6.5e-06	0.0148	CCTTGTGTGTGTGTGT
GKGDGTGTGTGTGTKT	MEME-5	chr7	139431868	139431883	+	12.3505	6.83e-06	0.0155	TTGTGTGTGTGTTTGT
GKGDGTGTGTGTGTKT	MEME-5	chr2	202747076	202747091	+	12.3402	6.86e-06	0.0155	TTGGgtgtgtgtgctt
GKGDGTGTGTGTGTKT	MEME-5	chr7	82329037	82329052	+	12.1031	7.52e-06	0.017	gtgtgtatttgtgtgt
GKGDGTGTGTGTGTKT	MEME-5	chr10	108365735	108365750	-	12.0103	7.79e-06	0.0174	GTGTGTGTATTTGTGT
GKGDGTGTGTGTGTKT	MEME-5	chrX	127733822	127733837	-	12.0103	7.79e-06	0.0174	TGTTGTGTGTGTGTGT
GKGDGTGTGTGTGTKT	MEME-5	chr7	82329035	82329050	+	12.0103	7.79e-06	0.0174	gtgtgtgtatttgtgt
GKGDGTGTGTGTGTKT	MEME-5	chr7	82329039	82329054	+	12	7.82e-06	0.0174	gtgtatttgtgtgtgt
GKGDGTGTGTGTGTKT	MEME-5	chr2	191282029	191282044	-	11.9897	7.86e-06	0.0174	CAGAGGGTCTGTGGTG
GKGDGTGTGTGTGTKT	MEME-5	chr6	12816332	12816347	+	11.9691	7.94e-06	0.0175	CTGTGGGTGTGTATCT
GKGDGTGTGTGTGTKT	MEME-5	chr16	78330946	78330961	-	11.8557	8.31e-06	0.0183	GAGTGTGTGGGTGTCA
GKGDGTGTGTGTGTKT	MEME-5	chr15	88014309	88014324	-	11.701	8.82e-06	0.0193	TTGTGTGTGTGTGTAG
GKGDGTGTGTGTGTKT	MEME-5	chr7	82329001	82329016	+	11.701	8.82e-06	0.0193	ggctggctgtgtgtgt
GKGDGTGTGTGTGTKT	MEME-5	chr4	186190018	186190033	-	11.6082	9.14e-06	0.0199	TTTGGGGTGTGTGTGT
GKGDGTGTGTGTGTKT	MEME-5	chr7	139431866	139431881	+	11.4124	9.88e-06	0.0215	TTTTGTGTGTGTGTTT
GKGDGTGTGTGTGTKT	MEME-5	chr14	99470678	99470693	+	11.2887	1.04e-05	0.0225	cacggtgtctttgttt
GKGDGTGTGTGTGTKT	MEME-5	chr3	101899471	101899486	-	11.1753	1.08e-05	0.0234	TGGTGTTTGTTTGTGG
GKGDGTGTGTGTGTKT	MEME-5	chr3	83983572	83983587	+	11.1546	1.09e-05	0.0234	ggcagttagggtgggt
GKGDGTGTGTGTGTKT	MEME-5	chr1	204534734	204534749	+	11.1546	1.09e-05	0.0234	TTGTGTGAGTGTGAGT
GKGDGTGTGTGTGTKT	MEME-5	chr4	148900655	148900670	+	11.0928	1.11e-05	0.0239	gtgtaggtgtgtggct
GKGDGTGTGTGTGTKT	MEME-5	chr1	246666647	246666662	-	11.0515	1.13e-05	0.0242	CGCTGTATGTTTGTCT
GKGDGTGTGTGTGTKT	MEME-5	chr7	45583172	45583187	+	11.0206	1.15e-05	0.0244	TTGTGTGTGTGTGGAT
GKGDGTGTGTGTGTKT	MEME-5	chr6	12816330	12816345	+	11.0103	1.15e-05	0.0245	CTCTGTGGGTGTGTAT
GKGDGTGTGTGTGTKT	MEME-5	chr12	113936030	113936045	+	10.9588	1.18e-05	0.0248	ctctgtgtatgtgttt
GKGDGTGTGTGTGTKT	MEME-5	chr12	116308060	116308075	+	10.9588	1.18e-05	0.0248	TGGGGTGGGAGTGTGT
GKGDGTGTGTGTGTKT	MEME-5	chr4	183672817	183672832	-	10.9278	1.19e-05	0.025	CTGCGGGTGTTTGTGT
GKGDGTGTGTGTGTKT	MEME-5	chr16	70170596	70170611	+	10.9278	1.19e-05	0.025	cacggtttgtttgttt
GKGDGTGTGTGTGTKT	MEME-5	chr12	27776498	27776513	+	10.9175	1.2e-05	0.025	GTGTGTGTGTTTGCGG
GKGDGTGTGTGTGTKT	MEME-5	chr10	19521588	19521603	-	10.8969	1.21e-05	0.0251	CAGGGTTGGGGTGGGG
GKGDGTGTGTGTGTKT	MEME-5	chr12	54230039	54230054	+	10.8866	1.21e-05	0.0252	TTGGGCTTCTGTGTCT
GKGDGTGTGTGTGTKT	MEME-5	chr2	202747078	202747093	+	10.866	1.22e-05	0.0253	GGgtgtgtgtgcttct
GKGDGTGTGTGTGTKT	MEME-5	chr19	11007455	11007470	+	10.8247	1.24e-05	0.0255	gatggggagtgtgtct
GKGDGTGTGTGTGTKT	MEME-5	chr12	75404956	75404971	+	10.8247	1.24e-05	0.0255	CGGTGTGTGGGAGTGG
GKGDGTGTGTGTGTKT	MEME-5	chr15	44091133	44091148	+	10.732	1.28e-05	0.0263	ATCTGGGAGTGTGTGT
GKGDGTGTGTGTGTKT	MEME-5	chr3	70786924	70786939	+	10.6907	1.3e-05	0.0267	TTCAGCATGTGTGTGG
GKGDGTGTGTGTGTKT	MEME-5	chr2	238467712	238467727	-	10.6804	1.31e-05	0.0267	CTGTGTGGGAGTGTTG
GKGDGTGTGTGTGTKT	MEME-5	chr12	113936032	113936047	+	10.5464	1.38e-05	0.028	ctgtgtatgtgtttgt
GKGDGTGTGTGTGTKT	MEME-5	chr2	187305226	187305241	-	10.5361	1.38e-05	0.028	GGGAGAGAGTGTGGCT
GKGDGTGTGTGTGTKT	MEME-5	chr15	75054560	75054575	-	10.4948	1.4e-05	0.0283	TCTGGTGTGTGTGTGT
GKGDGTGTGTGTGTKT	MEME-5	chr12	113936034	113936049	+	10.4948	1.4e-05	0.0283	gtgtatgtgtttgtct
GKGDGTGTGTGTGTKT	MEME-5	chr10	29387897	29387912	+	10.4845	1.41e-05	0.0283	gtgtgtgtgtgCAGGT
GKGDGTGTGTGTGTKT	MEME-5	chr14	99372946	99372961	+	10.4845	1.41e-05	0.0283	CTGGGTGGGTGTTTTG
GKGDGTGTGTGTGTKT	MEME-5	chr8	51028276	51028291	-	10.4742	1.42e-05	0.0283	TTGGGGGGCGGTGGGT
GKGDGTGTGTGTGTKT	MEME-5	chr2	202747090	202747105	+	10.3196	1.5e-05	0.0299	ttctgtgtgtgtgtgc
GKGDGTGTGTGTGTKT	MEME-5	chr19	51347394	51347409	+	10.2577	1.54e-05	0.0305	tgggggtggggtgtgg
GKGDGTGTGTGTGTKT	MEME-5	chr14	75649866	75649881	-	10.1134	1.62e-05	0.0321	CTGTGGCTGGGTGTTT
GKGDGTGTGTGTGTKT	MEME-5	chr15	81035466	81035481	-	10.0928	1.63e-05	0.0321	GTGGGTGAGTGCGGAT
GKGDGTGTGTGTGTKT	MEME-5	chr19	43402845	43402860	+	10.0928	1.63e-05	0.0321	CTCAGAGTGGGTGTGT
GKGDGTGTGTGTGTKT	MEME-5	chr2	202747134	202747149	+	10.0206	1.68e-05	0.0329	gtgtgcttgtgtatgt
GKGDGTGTGTGTGTKT	MEME-5	chr5	57365542	57365557	+	10.0103	1.69e-05	0.033	CTCTACgtgtgtgtgt
GKGDGTGTGTGTGTKT	MEME-5	chr6	113754036	113754051	-	9.96907	1.71e-05	0.0334	CTGAATTTGTGTGTGT
GKGDGTGTGTGTGTKT	MEME-5	chr3	127239954	127239969	-	9.91753	1.75e-05	0.034	GTCAGTGAGTGAGTGG
GKGDGTGTGTGTGTKT	MEME-5	chr3	66467024	66467039	-	9.84536	1.79e-05	0.0348	TTGGGTTTGTTTGGGG
GKGDGTGTGTGTGTKT	MEME-5	chr14	34672738	34672753	-	9.83505	1.8e-05	0.0348	GGATGGGTGGGTGGGT
GKGDGTGTGTGTGTKT	MEME-5	chr12	113936072	113936087	+	9.7732	1.84e-05	0.0355	ctgtgtgtctgtctTT
GKGDGTGTGTGTGTKT	MEME-5	chr10	30971423	30971438	-	9.76289	1.85e-05	0.0355	GTGGGGTAGTGGGTGT
GKGDGTGTGTGTGTKT	MEME-5	chr6	110830752	110830767	+	9.65979	1.91e-05	0.0367	TTCtgtgtttgtgtgt
GKGDGTGTGTGTGTKT	MEME-5	chr8	129188859	129188874	-	9.63918	1.93e-05	0.037	GTGGGGAGGTGAGTGT
GKGDGTGTGTGTGTKT	MEME-5	chr12	113936070	113936085	+	9.61856	1.95e-05	0.0371	gcctgtgtgtctgtct
GKGDGTGTGTGTGTKT	MEME-5	chr5	123598637	123598652	-	9.51546	2.02e-05	0.0385	CTTTGTGTGTTTGTTT
GKGDGTGTGTGTGTKT	MEME-5	chr3	161057164	161057179	-	9.47423	2.06e-05	0.039	GGCTGCCTGTGTGTGG
GKGDGTGTGTGTGTKT	MEME-5	chr15	89664685	89664700	+	9.40206	2.11e-05	0.04	ctcaggggctttgtgt
GKGDGTGTGTGTGTKT	MEME-5	chr10	30971415	30971430	-	9.36082	2.15e-05	0.0405	GTGGGTGTGGATGGTG
GKGDGTGTGTGTGTKT	MEME-5	chr13	51218392	51218407	-	9.34021	2.16e-05	0.0407	CGGGGTATGTGTTTTT
GKGDGTGTGTGTGTKT	MEME-5	chr19	51347396	51347411	+	9.31959	2.18e-05	0.0408	ggggtggggtgtggtt
GKGDGTGTGTGTGTKT	MEME-5	chr1	109817530	109817545	-	9.20619	2.26e-05	0.0423	TGGGGTGGGTGAGTGG
GKGDGTGTGTGTGTKT	MEME-5	chr2	39443959	39443974	-	9.19588	2.27e-05	0.0424	TGGTGTTGGTTTGTGG
GKGDGTGTGTGTGTKT	MEME-5	chr2	236617957	236617972	-	9.08247	2.37e-05	0.044	CCATGGGGGTGTGTGT
GKGDGTGTGTGTGTKT	MEME-5	chr2	236618014	236618029	-	9.08247	2.37e-05	0.044	CCATGGGGGTGTGTGT
GKGDGTGTGTGTGTKT	MEME-5	chr6	39384529	39384544	-	9.07216	2.38e-05	0.0441	CTCGGGTAGTTTGTTT
GKGDGTGTGTGTGTKT	MEME-5	chr2	221089616	221089631	-	9.06186	2.39e-05	0.0441	CAGTGGGAGGTTGGGG
GKGDGTGTGTGTGTKT	MEME-5	chr8	51028098	51028113	+	9.02062	2.43e-05	0.0447	TGCTCTGTGTGTGTGT
GKGDGTGTGTGTGTKT	MEME-5	chr6	113754110	113754125	-	8.96907	2.47e-05	0.0454	GTGAGTTGGAGTGTTT
GKGDGTGTGTGTGTKT	MEME-5	chr4	6690909	6690924	-	8.95876	2.48e-05	0.0455	GAGGGCAGGGGTGGCG
GKGDGTGTGTGTGTKT	MEME-5	chr1	243949911	243949926	+	8.90722	2.53e-05	0.0462	GTGGGGGGGTGCGCGG
GKGDGTGTGTGTGTKT	MEME-5	chr17	55015038	55015053	-	8.87629	2.56e-05	0.0465	CTCAGGGTGTGTTTTT
GKGDGTGTGTGTGTKT	MEME-5	chr2	202747140	202747155	+	8.87629	2.56e-05	0.0465	ttgtgtatgtgtgtgA
GKGDGTGTGTGTGTKT	MEME-5	chr2	66439904	66439919	+	8.83505	2.59e-05	0.047	GAGAGTGAGTTTGTGC
GKGDGTGTGTGTGTKT	MEME-5	chr18	3045350	3045365	-	8.82474	2.6e-05	0.0471	GGGGGCGTTTTTGTTT
GKGDGTGTGTGTGTKT	MEME-5	chr2	238467714	238467729	-	8.81443	2.61e-05	0.0471	CACTGTGTGGGAGTGT
GKGDGTGTGTGTGTKT	MEME-5	chr9	83798503	83798518	+	8.79381	2.63e-05	0.0473	GAGACTGTGTTTGTTT
GKGDGTGTGTGTGTKT	MEME-5	chr1	207489578	207489593	-	8.75258	2.67e-05	0.0478	CGGGGGGTGGGGGTTG
GKGDGTGTGTGTGTKT	MEME-5	chr5	79789264	79789279	+	8.73196	2.69e-05	0.048	ctctgggagtgtctgt
GKGDGTGTGTGTGTKT	MEME-5	chr5	36667994	36668009	-	8.72165	2.7e-05	0.048	TTGTGGGAGTGTGTTA
GKGDGTGTGTGTGTKT	MEME-5	chr7	140675882	140675897	+	8.72165	2.7e-05	0.048	gtgtgtgtgtTAGGCT
GKGDGTGTGTGTGTKT	MEME-5	chr3	174986974	174986989	+	8.70103	2.72e-05	0.0483	ggcagtaagtttgttg
GKGDGTGTGTGTGTKT	MEME-5	chr12	46887586	46887601	+	8.62887	2.79e-05	0.0494	CGGGGTGGGGGGGGGT
GKGDGTGTGTGTGTKT	MEME-5	chr20	19916481	19916496	-	8.57732	2.85e-05	0.0503	CGAAGTGTCTGTGTCT
GKGDGTGTGTGTGTKT	MEME-5	chr15	90325671	90325686	-	8.5567	2.87e-05	0.0505	TGGTGGGAGTGTCTGT
GKGDGTGTGTGTGTKT	MEME-5	chr5	74332972	74332987	-	8.54639	2.88e-05	0.0506	CTGTGGGAGTGTGGAG
GKGDGTGTGTGTGTKT	MEME-5	chr20	52402746	52402761	+	8.53608	2.89e-05	0.0506	GTGTGTTTCTTCGTCT
GKGDGTGTGTGTGTKT	MEME-5	chr3	148966077	148966092	-	8.48454	2.94e-05	0.0514	CACAGGATGTTTGTTT
GKGDGTGTGTGTGTKT	MEME-5	chr5	57381828	57381843	-	8.46392	2.97e-05	0.0517	GAGGGGAAGAGTGTGT
GKGDGTGTGTGTGTKT	MEME-5	chr14	93478023	93478038	-	8.45361	2.98e-05	0.0518	TGCAGGGAGGGTGGGG
GKGDGTGTGTGTGTKT	MEME-5	chr19	16283700	16283715	-	8.42268	3.01e-05	0.052	GTGTGTGTGTGTGTAA
GKGDGTGTGTGTGTKT	MEME-5	chr10	33553353	33553368	+	8.42268	3.01e-05	0.052	GTGTGTGTGTGTGTAA
GKGDGTGTGTGTGTKT	MEME-5	chr9	130336775	130336790	-	8.38144	3.05e-05	0.0526	CTGGAGGTGTTTGTTT
GKGDGTGTGTGTGTKT	MEME-5	chr20	14859259	14859274	+	8.37113	3.06e-05	0.0527	TTGTGCTTCTGTGGTT
GKGDGTGTGTGTGTKT	MEME-5	chr1	10615636	10615651	+	8.31959	3.11e-05	0.0535	gtgtgtgtgtgtgCAT
GKGDGTGTGTGTGTKT	MEME-5	chr19	51347391	51347406	+	8.29897	3.13e-05	0.0537	gtgtgggggtggggtg
GKGDGTGTGTGTGTKT	MEME-5	chr3	13579395	13579410	+	8.27835	3.16e-05	0.0539	GGGAGTTAGTGTGACT
GKGDGTGTGTGTGTKT	MEME-5	chr7	99639116	99639131	+	8.26804	3.17e-05	0.054	TTGTGCTGGTTTGTTT
GKGDGTGTGTGTGTKT	MEME-5	chr22	41124808	41124823	+	8.24742	3.19e-05	0.0543	gtgaggatgtgggggt
GKGDGTGTGTGTGTKT	MEME-5	chr1	204534736	204534751	+	8.2268	3.22e-05	0.0545	GTGTGAGTGTGAGTGT
GKGDGTGTGTGTGTKT	MEME-5	chr6	113994160	113994175	-	8.21649	3.23e-05	0.0545	CTGTGGGGGTGGGGCT
GKGDGTGTGTGTGTKT	MEME-5	chr1	207489580	207489595	-	8.21649	3.23e-05	0.0545	GGCGGGGGGTGGGGGT
GKGDGTGTGTGTGTKT	MEME-5	chr8	80819059	80819074	+	8.15464	3.3e-05	0.0553	gtggggttgtggggtt
GKGDGTGTGTGTGTKT	MEME-5	chr12	124907191	124907206	+	8.15464	3.3e-05	0.0553	GACGGGAGGGGTGGGG
GKGDGTGTGTGTGTKT	MEME-5	chr7	140675832	140675847	+	8.15464	3.3e-05	0.0553	TACTTtgtgtgtgtgt
GKGDGTGTGTGTGTKT	MEME-5	chr10	108365745	108365760	-	8.12371	3.34e-05	0.0558	GTGTATATCTGTGTGT
GKGDGTGTGTGTGTKT	MEME-5	chr5	53039754	53039769	-	8.1134	3.35e-05	0.0558	CTGTGGTTGTCTGTTT
GKGDGTGTGTGTGTKT	MEME-5	chr17	55015036	55015051	-	8.10309	3.36e-05	0.0559	CAGGGTGTGTTTTTCT
GKGDGTGTGTGTGTKT	MEME-5	chr7	68196017	68196032	-	8.08247	3.39e-05	0.056	GTGTGTGTGTGTGAGA
GKGDGTGTGTGTGTKT	MEME-5	chr14	100525663	100525678	+	8.08247	3.39e-05	0.056	GGCTGGGTGTGCATGT
GKGDGTGTGTGTGTKT	MEME-5	chr17	77638870	77638885	-	7.97938	3.51e-05	0.0579	TTGTGGGCGGGTGTGG
GKGDGTGTGTGTGTKT	MEME-5	chr3	181556856	181556871	+	7.97938	3.51e-05	0.0579	GGGGGTGGGGCTGGGG
GKGDGTGTGTGTGTKT	MEME-5	chr1	14156268	14156283	+	7.8866	3.63e-05	0.0593	TGCTGTGTGTGTCTTT
GKGDGTGTGTGTGTKT	MEME-5	chr9	114792316	114792331	-	7.8866	3.63e-05	0.0593	GGGTGTGTGTGTGTAA
GKGDGTGTGTGTGTKT	MEME-5	chr4	186190014	186190029	-	7.8866	3.63e-05	0.0593	GGGTGTGTGTGTGTAC
GKGDGTGTGTGTGTKT	MEME-5	chr1	207489576	207489591	-	7.87629	3.64e-05	0.0594	GGGGGTGGGGGTTGGG
GKGDGTGTGTGTGTKT	MEME-5	chr2	238467710	238467725	-	7.86598	3.65e-05	0.0594	GTGTGGGAGTGTTGTG
GKGDGTGTGTGTGTKT	MEME-5	chr10	116105982	116105997	+	7.85567	3.66e-05	0.0594	TCGTCTGGGTGTGTGT
GKGDGTGTGTGTGTKT	MEME-5	chr7	35064763	35064778	+	7.83505	3.69e-05	0.0596	GTGGGTGGGGGAGGTG
GKGDGTGTGTGTGTKT	MEME-5	chr12	47499831	47499846	-	7.83505	3.69e-05	0.0596	GACTGTGGGTGAGTTG
GKGDGTGTGTGTGTKT	MEME-5	chr2	157038425	157038440	-	7.81443	3.71e-05	0.0598	TGGTGTGCCTGTGTTT
GKGDGTGTGTGTGTKT	MEME-5	chr3	149104602	149104617	-	7.80412	3.72e-05	0.0599	TTGGGTGTCTGTCTTT
GKGDGTGTGTGTGTKT	MEME-5	chr9	83935939	83935954	+	7.76289	3.78e-05	0.0606	GTGGGTTTGTTTGTTA
GKGDGTGTGTGTGTKT	MEME-5	chr7	3255773	3255788	+	7.74227	3.81e-05	0.0609	CAGTGTCAGTGTGGGG
GKGDGTGTGTGTGTKT	MEME-5	chr1	229357100	229357115	+	7.70103	3.86e-05	0.0616	GCATGCATGTGTGTGT
GKGDGTGTGTGTGTKT	MEME-5	chr10	108365753	108365768	-	7.65979	3.92e-05	0.0624	GTGTGTGTGTGTATAT
GKGDGTGTGTGTGTKT	MEME-5	chr8	91783031	91783046	-	7.64948	3.93e-05	0.0624	GTCAGCTTGTGTGTAT
GKGDGTGTGTGTGTKT	MEME-5	chr3	4759084	4759099	+	7.63918	3.95e-05	0.0624	CTCTGGGAGTGAGTGG
GKGDGTGTGTGTGTKT	MEME-5	chr1	184377411	184377426	+	7.63918	3.95e-05	0.0624	GAGGGTTTGTGCTTGT
GKGDGTGTGTGTGTKT	MEME-5	chr5	23494609	23494624	+	7.61856	3.98e-05	0.0627	GTATGTGTGTGTGTGC
GKGDGTGTGTGTGTKT	MEME-5	chr14	75649868	75649883	-	7.60825	3.99e-05	0.0628	GGCTGTGGCTGGGTGT
GKGDGTGTGTGTGTKT	MEME-5	chr1	188030589	188030604	+	7.59794	4e-05	0.0629	gtcagtttttgtgttt
GKGDGTGTGTGTGTKT	MEME-5	chr13	51218394	51218409	-	7.58763	4.02e-05	0.063	TTCGGGGTATGTGTTT
GKGDGTGTGTGTGTKT	MEME-5	chr2	10627142	10627157	-	7.57732	4.03e-05	0.0631	CTGTGGTTGGGTGTGA
GKGDGTGTGTGTGTKT	MEME-5	chr12	124672928	124672943	+	7.5567	4.06e-05	0.0634	TGGGGGGTGTCCGTGT
GKGDGTGTGTGTGTKT	MEME-5	chr9	131060804	131060819	-	7.53608	4.09e-05	0.0637	CTGTGTAGATGTGTTT
GKGDGTGTGTGTGTKT	MEME-5	chr3	48309852	48309867	+	7.51546	4.12e-05	0.064	GAGAGTGTGGGCGAGG
GKGDGTGTGTGTGTKT	MEME-5	chr1	204534738	204534753	+	7.50515	4.14e-05	0.0641	GTGAGTGTGAGTGTGC
GKGDGTGTGTGTGTKT	MEME-5	chr2	202747122	202747137	+	7.47423	4.18e-05	0.0647	acgagcatgtgtgtgt
GKGDGTGTGTGTGTKT	MEME-5	chr2	164000971	164000986	+	7.46392	4.2e-05	0.0647	gcctgtgtgtgtagtt
GKGDGTGTGTGTGTKT	MEME-5	chr13	23553213	23553228	-	7.42268	4.25e-05	0.0653	GTGTGTGTGTGTCTGC
GKGDGTGTGTGTGTKT	MEME-5	chr12	27776496	27776511	+	7.42268	4.25e-05	0.0653	GTGTGTGTGTGTTTGC
GKGDGTGTGTGTGTKT	MEME-5	chr7	82329043	82329058	+	7.40206	4.28e-05	0.0656	atttgtgtgtgtgtgt
GKGDGTGTGTGTGTKT	MEME-5	chr9	25519329	25519344	-	7.37113	4.33e-05	0.0661	TTGGCTGGGGGTGTTT
GKGDGTGTGTGTGTKT	MEME-5	chr3	181556861	181556876	+	7.35052	4.35e-05	0.0664	TGGGGCTGGGGTGGGG
GKGDGTGTGTGTGTKT	MEME-5	chr19	16283698	16283713	-	7.31959	4.4e-05	0.0668	GTGTGTGTGTGTAAGT
GKGDGTGTGTGTGTKT	MEME-5	chr4	186190012	186190027	-	7.31959	4.4e-05	0.0668	GTGTGTGTGTGTACGT
GKGDGTGTGTGTGTKT	MEME-5	chr5	57365544	57365559	+	7.27835	4.46e-05	0.0677	CTACgtgtgtgtgtgt
GKGDGTGTGTGTGTKT	MEME-5	chr21	15249484	15249499	-	7.26804	4.48e-05	0.0677	GGGTGGGTGGTTGTTC
GKGDGTGTGTGTGTKT	MEME-5	chr5	22070324	22070339	+	7.21649	4.56e-05	0.0688	gggtgtttctgtgttc
GKGDGTGTGTGTGTKT	MEME-5	chr9	33233995	33234010	+	7.18557	4.61e-05	0.0692	CTGGGTGAGGCTGGGG
GKGDGTGTGTGTGTKT	MEME-5	chr2	220263704	220263719	+	7.18557	4.61e-05	0.0692	GGGTGATTCTGTGTCT
GKGDGTGTGTGTGTKT	MEME-5	chr14	68773598	68773613	-	7.17526	4.63e-05	0.0694	GGCTTGGTGTTTGTGT
GKGDGTGTGTGTGTKT	MEME-5	chr16	78330952	78330967	-	7.13402	4.7e-05	0.0702	GACTAGGAGTGTGTGG
GKGDGTGTGTGTGTKT	MEME-5	chr7	34097111	34097126	-	7.12371	4.71e-05	0.0703	GCAAGCATGTGTGTGT
GKGDGTGTGTGTGTKT	MEME-5	chr6	110876138	110876153	-	7.1134	4.73e-05	0.0704	GGGAGGGGCAGTGTCT
GKGDGTGTGTGTGTKT	MEME-5	chr12	96199705	96199720	+	7.10309	4.75e-05	0.0705	TTTTGTGGGTGTGGTT
GKGDGTGTGTGTGTKT	MEME-5	chr2	7932408	7932423	+	7.04124	4.85e-05	0.0719	CTGAGTGTGTGCAGCT
GKGDGTGTGTGTGTKT	MEME-5	chr9	83798499	83798514	+	7.01031	4.9e-05	0.0725	GTCAGAGACTGTGTTT
GKGDGTGTGTGTGTKT	MEME-5	chr16	10688505	10688520	-	6.97938	4.95e-05	0.073	TTGGGTGAGTGTAGGG
GKGDGTGTGTGTGTKT	MEME-5	chr5	23494603	23494618	+	6.95876	4.98e-05	0.0732	GTTTGTGTATGTGTGT
GKGDGTGTGTGTGTKT	MEME-5	chr4	97622993	97623008	-	6.95876	4.98e-05	0.0732	GTGGGGATGGGAGGGT
GKGDGTGTGTGTGTKT	MEME-5	chrX	127733818	127733833	-	6.94845	5e-05	0.0734	GTGTGTGTGTGTGATA
GKGDGTGTGTGTGTKT	MEME-5	chr9	97392845	97392860	+	6.93814	5.02e-05	0.0734	ctgagtggctgtttct
GKGDGTGTGTGTGTKT	MEME-5	chr20	14859382	14859397	-	6.92784	5.03e-05	0.0735	CAGTGTGTGTTTGCTG
GKGDGTGTGTGTGTKT	MEME-5	chr1	243949913	243949928	+	6.8866	5.1e-05	0.0743	GGGGGGGTGCGCGGTG
GKGDGTGTGTGTGTKT	MEME-5	chr1	10615673	10615688	+	6.87629	5.11e-05	0.0743	CGCAGTGCCTGTGTTT
GKGDGTGTGTGTGTKT	MEME-5	chr10	33553349	33553364	+	6.86598	5.13e-05	0.0743	AGATGTGTGTGTGTGT
GKGDGTGTGTGTGTKT	MEME-5	chr12	46887519	46887534	+	6.86598	5.13e-05	0.0743	AGATGTGTGTGTGTGT
GKGDGTGTGTGTGTKT	MEME-5	chr7	82329041	82329056	+	6.85567	5.15e-05	0.0743	gtatttgtgtgtgtgt
GKGDGTGTGTGTGTKT	MEME-5	chr8	116879115	116879130	-	6.85567	5.15e-05	0.0743	GAGGGCTTGGCTGTGT
GKGDGTGTGTGTGTKT	MEME-5	chr7	82329033	82329048	+	6.76289	5.31e-05	0.0759	gtgtgtgtgtatttgt
GKGDGTGTGTGTGTKT	MEME-5	chr7	82329055	82329070	+	6.76289	5.31e-05	0.0759	gtgtgtgtttgtttgt
GKGDGTGTGTGTGTKT	MEME-5	chr12	113935911	113935926	+	6.76289	5.31e-05	0.0759	gtgtttgtttgtgtgt
GKGDGTGTGTGTGTKT	MEME-5	chr12	60130682	60130697	-	6.76289	5.31e-05	0.0759	GCCGGTGTCTGTGACT
GKGDGTGTGTGTGTKT	MEME-5	chr10	4322604	4322619	-	6.75258	5.33e-05	0.076	GTCAGTCTGGGTGGGG
GKGDGTGTGTGTGTKT	MEME-5	chr8	143471195	143471210	-	6.74227	5.35e-05	0.076	GCCTGGGTGTGTATTG
GKGDGTGTGTGTGTKT	MEME-5	chr19	18475927	18475942	+	6.73196	5.37e-05	0.076	gtttgtttgtttgttt
GKGDGTGTGTGTGTKT	MEME-5	chr16	10688488	10688503	-	6.73196	5.37e-05	0.076	GTGGGCTGGTGAGGGT
GKGDGTGTGTGTGTKT	MEME-5	chr6	113754016	113754031	-	6.73196	5.37e-05	0.076	ATGAGTGTGTATGTGT
GKGDGTGTGTGTGTKT	MEME-5	chr10	124964646	124964661	+	6.68041	5.47e-05	0.0772	TGGGGTCTGGGTGGTT
GKGDGTGTGTGTGTKT	MEME-5	chr10	29387895	29387910	+	6.6701	5.49e-05	0.0772	gtgtgtgtgtgtgCAG
GKGDGTGTGTGTGTKT	MEME-5	chr10	116105986	116106001	+	6.6701	5.49e-05	0.0772	CTGGGTGTGTGTCTAT
GKGDGTGTGTGTGTKT	MEME-5	chr16	78330948	78330963	-	6.64948	5.53e-05	0.0776	AGGAGTGTGTGGGTGT
GKGDGTGTGTGTGTKT	MEME-5	chr3	48309684	48309699	+	6.63918	5.55e-05	0.0777	CAGTGTGTGGGCGAGG
GKGDGTGTGTGTGTKT	MEME-5	chr12	113936002	113936017	+	6.57732	5.67e-05	0.0792	ctgtctgtctttgtgt
GKGDGTGTGTGTGTKT	MEME-5	chr3	29982590	29982605	-	6.56701	5.68e-05	0.0792	GTGAGTGACTATGGTT
GKGDGTGTGTGTGTKT	MEME-5	chr7	3030590	3030605	-	6.5567	5.7e-05	0.0792	TTGGGTAGCTTTGTCT
GKGDGTGTGTGTGTKT	MEME-5	chr17	57930612	57930627	-	6.5567	5.7e-05	0.0792	CTGTGCTAGGGCGGGG
GKGDGTGTGTGTGTKT	MEME-5	chr5	431291	431306	+	6.53608	5.74e-05	0.0796	CTGTGGGGCTGTGAGG
GKGDGTGTGTGTGTKT	MEME-5	chr8	80819067	80819082	+	6.50515	5.8e-05	0.0802	gtggggttgtggggtG
GKGDGTGTGTGTGTKT	MEME-5	chr11	67350003	67350018	-	6.47423	5.86e-05	0.0809	CTGTGTGAGTTTGCTG
GKGDGTGTGTGTGTKT	MEME-5	chr15	99411747	99411762	-	6.45361	5.9e-05	0.0813	GAGAGAGTGTGTGTGA
GKGDGTGTGTGTGTKT	MEME-5	chr7	29489416	29489431	+	6.4433	5.92e-05	0.0814	TTCAGGGTGTGTATTT
GKGDGTGTGTGTGTKT	MEME-5	chr2	190234430	190234445	+	6.35052	6.09e-05	0.0836	GTTGGTTGGTTTGTGT
GKGDGTGTGTGTGTKT	MEME-5	chr2	102648751	102648766	+	6.34021	6.12e-05	0.0836	gtgtgtttgtTTGGAT
GKGDGTGTGTGTGTKT	MEME-5	chr1	110240714	110240729	+	6.34021	6.12e-05	0.0836	ttgtgtttgtgagggt
GKGDGTGTGTGTGTKT	MEME-5	chr16	70170470	70170485	-	6.3299	6.13e-05	0.0837	CACAGGATCTGTGGCT
GKGDGTGTGTGTGTKT	MEME-5	chr1	20559182	20559197	-	6.29897	6.19e-05	0.0844	TTCTGGGAGTGTCTGT
GKGDGTGTGTGTGTKT	MEME-5	chr16	75078935	75078950	-	6.23711	6.33e-05	0.0861	GTTTGCATGGGTGTGG
GKGDGTGTGTGTGTKT	MEME-5	chr7	44455215	44455230	-	6.21649	6.37e-05	0.0863	CCCAGTGTTTGTGTTG
GKGDGTGTGTGTGTKT	MEME-5	chr12	46887584	46887599	+	6.21649	6.37e-05	0.0863	GGCGGGGTGGGGGGGG
GKGDGTGTGTGTGTKT	MEME-5	chr7	11300915	11300930	-	6.17526	6.46e-05	0.0873	CCCAGGATGTTTGGGT
GKGDGTGTGTGTGTKT	MEME-5	chr1	215649706	215649721	-	6.1134	6.6e-05	0.089	TTGTGCAGCTGTGGCT
GKGDGTGTGTGTGTKT	MEME-5	chr7	105470806	105470821	+	6.10309	6.62e-05	0.089	CATGGCGGGTGTGGGG
GKGDGTGTGTGTGTKT	MEME-5	chr3	10018381	10018396	-	6.09278	6.64e-05	0.089	GGCAGGGAGGGTGTCA
GKGDGTGTGTGTGTKT	MEME-5	chr2	236617949	236617964	-	6.09278	6.64e-05	0.089	GTGTGTGTGTGTGGAC
GKGDGTGTGTGTGTKT	MEME-5	chr3	175864935	175864950	+	6.08247	6.66e-05	0.0891	GTCAGTGTCTGGGGTT
GKGDGTGTGTGTGTKT	MEME-5	chr6	93875574	93875589	-	6.07216	6.68e-05	0.0893	TCGGGTGACTTTGGCT
GKGDGTGTGTGTGTKT	MEME-5	chr5	74332974	74332989	-	6.05155	6.73e-05	0.0897	TGCTGTGGGAGTGTGG
GKGDGTGTGTGTGTKT	MEME-5	chr9	126097980	126097995	-	6.03093	6.78e-05	0.0901	CCGGGGGGGAGTGGGG
GKGDGTGTGTGTGTKT	MEME-5	chr3	25732633	25732648	-	6.02062	6.8e-05	0.0902	GGCTGTGTGTGCTGTT
GKGDGTGTGTGTGTKT	MEME-5	chr10	4778479	4778494	-	6.01031	6.82e-05	0.0902	GCCCGGGTGTGTGGCG
GKGDGTGTGTGTGTKT	MEME-5	chr3	14309835	14309850	+	6	6.84e-05	0.0902	AATtgtgtgtgtgtgt
GKGDGTGTGTGTGTKT	MEME-5	chr15	88014311	88014326	-	6	6.84e-05	0.0902	AATTGTGTGTGTGTGT
GKGDGTGTGTGTGTKT	MEME-5	chr11	76499588	76499603	-	5.98969	6.86e-05	0.0902	TAGAGGGTGTGTGGAG
GKGDGTGTGTGTGTKT	MEME-5	chr2	130715649	130715664	-	5.98969	6.86e-05	0.0902	TAGTGTGGGGGTGTAG
GKGDGTGTGTGTGTKT	MEME-5	chr9	97392962	97392977	+	5.97938	6.88e-05	0.0903	CTAAGTAAGTGTGGGT
GKGDGTGTGTGTGTKT	MEME-5	chr7	156925348	156925363	-	5.96907	6.91e-05	0.0905	GAGGAGGAGGGTGGCT
GKGDGTGTGTGTGTKT	MEME-5	chr14	77120448	77120463	+	5.95876	6.93e-05	0.0906	cccggcttctgtggtt
GKGDGTGTGTGTGTKT	MEME-5	chr13	33365676	33365691	+	5.91753	7.02e-05	0.0916	GTGAGCAGATGTGTGG
GKGDGTGTGTGTGTKT	MEME-5	chr3	4759064	4759079	+	5.89691	7.07e-05	0.092	CTGGCTTTGTGTGGTG
GKGDGTGTGTGTGTKT	MEME-5	chr2	149972307	149972322	-	5.87629	7.11e-05	0.0924	CAGTGAGAGGTTGTGT
GKGDGTGTGTGTGTKT	MEME-5	chr5	173146497	173146512	-	5.86598	7.14e-05	0.0926	GGGAGTGAGGGCCTGG
GKGDGTGTGTGTGTKT	MEME-5	chr7	101132333	101132348	+	5.85567	7.16e-05	0.0927	TGGAGGAGCTGTGGTT
GKGDGTGTGTGTGTKT	MEME-5	chr14	75649862	75649877	-	5.84536	7.18e-05	0.0928	GGCTGGGTGTTTGGAT
GKGDGTGTGTGTGTKT	MEME-5	chr12	113935917	113935932	+	5.82474	7.23e-05	0.0933	gtttgtgtgtatgttt
GKGDGTGTGTGTGTKT	MEME-5	chr2	142225022	142225037	+	5.79381	7.31e-05	0.0941	ctaggtgagtttggtt
GKGDGTGTGTGTGTKT	MEME-5	chr5	91977033	91977048	+	5.78351	7.33e-05	0.0942	GTGAGTGTGTTCGATG
GKGDGTGTGTGTGTKT	MEME-5	chr10	52339711	52339726	+	5.7732	7.36e-05	0.0944	cacaatttgtgtgtgt
GKGDGTGTGTGTGTKT	MEME-5	chr6	151954739	151954754	+	5.76289	7.38e-05	0.0945	CTGGGCTAGTGTATCT
GKGDGTGTGTGTGTKT	MEME-5	chr7	105470784	105470799	-	5.75258	7.41e-05	0.0945	GGCTGGGTGGGAGGGG
GKGDGTGTGTGTGTKT	MEME-5	chr3	181556947	181556962	-	5.75258	7.41e-05	0.0945	CCCAGGGGCTTTGTTT
GKGDGTGTGTGTGTKT	MEME-5	chr4	48123070	48123085	-	5.74227	7.43e-05	0.0946	TTGGGTAGGTGAGTCT
GKGDGTGTGTGTGTKT	MEME-5	chr7	35064767	35064782	+	5.69072	7.56e-05	0.0959	GTGGGGGAGGTGGTGG
GKGDGTGTGTGTGTKT	MEME-5	chr9	96075473	96075488	+	5.69072	7.56e-05	0.0959	ttgggttattgtgttt
GKGDGTGTGTGTGTKT	MEME-5	chr9	92794762	92794777	+	5.68041	7.59e-05	0.0959	CAGTGTTTGTGTAGTT
GKGDGTGTGTGTGTKT	MEME-5	chrX	136429355	136429370	+	5.68041	7.59e-05	0.0959	gtgggattgtttggtt
GKGDGTGTGTGTGTKT	MEME-5	chr7	140675880	140675895	+	5.6701	7.61e-05	0.096	gtgtgtgtgtgtTAGG
GKGDGTGTGTGTGTKT	MEME-5	chr16	85505428	85505443	+	5.63918	7.69e-05	0.0966	AGGTGTGtgtatgttt
GKGDGTGTGTGTGTKT	MEME-5	chr16	89909154	89909169	-	5.62887	7.71e-05	0.0966	GTGGGGGTGTGGGTCC
GKGDGTGTGTGTGTKT	MEME-5	chr15	96880353	96880368	-	5.62887	7.71e-05	0.0966	GGGAGGCGGGGTGGGG
GKGDGTGTGTGTGTKT	MEME-5	chr4	153199691	153199706	-	5.62887	7.71e-05	0.0966	GGCAGGGGCTGGGTGT
GKGDGTGTGTGTGTKT	MEME-5	chr8	80819063	80819078	+	5.60825	7.77e-05	0.097	ggttgtggggttgtgg
GKGDGTGTGTGTGTKT	MEME-5	chr19	51347387	51347402	+	5.59794	7.79e-05	0.097	tgctgtgtgggggtgg
GKGDGTGTGTGTGTKT	MEME-5	chr4	183672819	183672834	-	5.59794	7.79e-05	0.097	TTCTGCGGGTGTTTGT
GKGDGTGTGTGTGTKT	MEME-5	chr17	60803131	60803146	-	5.56701	7.87e-05	0.0978	GTTGGCATGTGTGGTG
GKGDGTGTGTGTGTKT	MEME-5	chr8	53379708	53379723	+	5.5567	7.9e-05	0.0978	GCCACGGGGTGTGTCT
GKGDGTGTGTGTGTKT	MEME-5	chr15	70385808	70385823	-	5.5567	7.9e-05	0.0978	GCCTGTTTGTGTATTT
GKGDGTGTGTGTGTKT	MEME-5	chr3	180576848	180576863	-	5.54639	7.92e-05	0.0978	CTGGTTTTGTTTGTTT
GKGDGTGTGTGTGTKT	MEME-5	chr1	243949905	243949920	+	5.54639	7.92e-05	0.0978	CACGGGGTGGGGGGGT
GKGDGTGTGTGTGTKT	MEME-5	chr12	113935901	113935916	+	5.53608	7.95e-05	0.0979	ctgtttatctgtgttt
GKGDGTGTGTGTGTKT	MEME-5	chr3	136062383	136062398	+	5.51546	7.99e-05	0.0983	CAGTGGATGTGAGTTG
GKGDGTGTGTGTGTKT	MEME-5	chr2	202747092	202747107	+	5.49485	8.05e-05	0.0988	ctgtgtgtgtgtgctc
GKGDGTGTGTGTGTKT	MEME-5	chr5	59095259	59095274	+	5.48454	8.07e-05	0.0988	CTGTGCTTGGGTGACT
GKGDGTGTGTGTGTKT	MEME-5	chr17	76417677	76417692	+	5.48454	8.07e-05	0.0988	CTGGGTTTCTGTTTGG
GKGDGTGTGTGTGTKT	MEME-5	chr7	45583164	45583179	+	5.4433	8.18e-05	0.0999	GTTGGTGGTTGTGTGT
GKGDGTGTGTGTGTKT	MEME-5	chr7	139431872	139431887	+	5.43299	8.2e-05	0.1	GTGTGTGTTTGTGGAT
GKGDGTGTGTGTGTKT	MEME-5	chr3	66467028	66467043	-	5.42268	8.23e-05	0.1	GTCATTGGGTTTGTTT
GKGDGTGTGTGTGTKT	MEME-5	chr2	120824555	120824570	+	5.42268	8.23e-05	0.1	CAGTGCAGCTTTGTTT
GKGDGTGTGTGTGTKT	MEME-5	chr16	85505345	85505360	-	5.40206	8.29e-05	0.1	CTGGGCAGGTGTCTGG
GKGDGTGTGTGTGTKT	MEME-5	chr14	93439745	93439760	-	5.39175	8.31e-05	0.1	CTGTGGTGGTGAGGGT
GKGDGTGTGTGTGTKT	MEME-5	chr5	431211	431226	+	5.38144	8.34e-05	0.1	TGGAGCGTAGGTGTGG
GKGDGTGTGTGTGTKT	MEME-5	chr12	10034678	10034693	+	5.38144	8.34e-05	0.1	GTGGTTGGCTTTGTTT
GKGDGTGTGTGTGTKT	MEME-5	chr22	19922701	19922716	+	5.37113	8.36e-05	0.1	ctgggagtgtctgtct
GKGDGTGTGTGTGTKT	MEME-5	chr1	20559180	20559195	-	5.37113	8.36e-05	0.1	CTGGGAGTGTCTGTCT
GKGDGTGTGTGTGTKT	MEME-5	chr5	79789266	79789281	+	5.37113	8.36e-05	0.1	ctgggagtgtctgtct
GKGDGTGTGTGTGTKT	MEME-5	chr10	108365751	108365766	-	5.35052	8.42e-05	0.101	GTGTGTGTGTATATCT
GKGDGTGTGTGTGTKT	MEME-5	chrX	150017461	150017476	-	5.31959	8.5e-05	0.102	TTGAGTGTGATTGTTG
GKGDGTGTGTGTGTKT	MEME-5	chr10	108365737	108365752	-	5.30928	8.54e-05	0.102	CTGTGTGTGTATTTGT
GKGDGTGTGTGTGTKT	MEME-5	chr7	140675767	140675782	+	5.29897	8.57e-05	0.102	aagggcatgtttgTGT
GKGDGTGTGTGTGTKT	MEME-5	chr4	148900643	148900658	+	5.29897	8.57e-05	0.102	gcctgggtttttgtgt
GKGDGTGTGTGTGTKT	MEME-5	chr2	7932568	7932583	+	5.25773	8.68e-05	0.103	GCCAGTTAGTGTGTAT
GKGDGTGTGTGTGTKT	MEME-5	chr2	164000967	164000982	+	5.25773	8.68e-05	0.103	tcctgcctgtgtgtgt
GKGDGTGTGTGTGTKT	MEME-5	chr4	97622989	97623004	-	5.19588	8.86e-05	0.105	GGATGGGAGGGTGGTG
GKGDGTGTGTGTGTKT	MEME-5	chr20	49294613	49294628	-	5.18557	8.89e-05	0.105	GTGGGGTGGGGTGGGA
GKGDGTGTGTGTGTKT	MEME-5	chr14	96583315	96583330	+	5.17526	8.92e-05	0.105	gggagtgtgtgtttta
GKGDGTGTGTGTGTKT	MEME-5	chr2	153020136	153020151	+	5.17526	8.92e-05	0.105	gggagtgtgtgtctta
GKGDGTGTGTGTGTKT	MEME-5	chr21	15249486	15249501	-	5.16495	8.94e-05	0.105	GGGGGTGGGTGGTTGT
GKGDGTGTGTGTGTKT	MEME-5	chr7	44455213	44455228	-	5.16495	8.94e-05	0.105	CAGTGTTTGTGTTGGG
GKGDGTGTGTGTGTKT	MEME-5	chr6	113994162	113994177	-	5.16495	8.94e-05	0.105	AGCTGTGGGGGTGGGG
GKGDGTGTGTGTGTKT	MEME-5	chr17	73696672	73696687	-	5.13402	9.03e-05	0.106	GAGGGCGGTGGTGGGG
GKGDGTGTGTGTGTKT	MEME-5	chr1	10615614	10615629	+	5.12371	9.07e-05	0.106	CAAGgtgtgagtgtgt
GKGDGTGTGTGTGTKT	MEME-5	chr15	52580527	52580542	-	5.1134	9.09e-05	0.106	CAGGGTGTGGGCGGCC
GKGDGTGTGTGTGTKT	MEME-5	chr3	83983669	83983684	-	5.10309	9.13e-05	0.106	CTGTGTATCTGTGGGC
GKGDGTGTGTGTGTKT	MEME-5	chr6	23993375	23993390	+	5.09278	9.15e-05	0.106	tggttggagggtgttt
GKGDGTGTGTGTGTKT	MEME-5	chr8	80819057	80819072	+	5.09278	9.15e-05	0.106	ttgtggggttgtgggg
GKGDGTGTGTGTGTKT	MEME-5	chr8	80819065	80819080	+	5.09278	9.15e-05	0.106	ttgtggggttgtgggg
GKGDGTGTGTGTGTKT	MEME-5	chr20	46875207	46875222	+	5.08247	9.18e-05	0.106	GAGGGAGTGTGTTTGG
GKGDGTGTGTGTGTKT	MEME-5	chr17	55015126	55015141	-	5.08247	9.18e-05	0.106	CTGGGGTTCTGTGTAG
GKGDGTGTGTGTGTKT	MEME-5	chr7	82329061	82329076	+	5.08247	9.18e-05	0.106	gtttgtttgtttgtTG
GKGDGTGTGTGTGTKT	MEME-5	chr9	83798507	83798522	+	5.08247	9.18e-05	0.106	CTGTGTTTGTTTCTTT
GKGDGTGTGTGTGTKT	MEME-5	chr9	114792320	114792335	-	5.06186	9.24e-05	0.106	AATGGGGTGTGTGTGT
GKGDGTGTGTGTGTKT	MEME-5	chr1	204534740	204534755	+	5.06186	9.24e-05	0.106	GAGTGTGAGTGTGCAT
GKGDGTGTGTGTGTKT	MEME-5	chr15	63124389	63124404	-	5.05155	9.27e-05	0.106	CTCTGTATGTGTGGTA
GKGDGTGTGTGTGTKT	MEME-5	chr6	16965002	16965017	+	5.04124	9.3e-05	0.106	GGCAAGATGTGTGTGG
GKGDGTGTGTGTGTKT	MEME-5	chrX	115364871	115364886	-	5.03093	9.33e-05	0.106	CACTGTTGGTGTGAGT
GKGDGTGTGTGTGTKT	MEME-5	chr19	43942682	43942697	-	5.02062	9.36e-05	0.106	CTGTGGGTGTGGGCGT
GKGDGTGTGTGTGTKT	MEME-5	chr1	14156071	14156086	+	5.01031	9.39e-05	0.107	GAGGGCGAGTTTGCTG
GKGDGTGTGTGTGTKT	MEME-5	chr9	96656276	96656291	-	5	9.42e-05	0.107	GGCTGGGGCTGTGTCA
GKGDGTGTGTGTGTKT	MEME-5	chr2	43696304	43696319	+	4.98969	9.45e-05	0.107	gtgTGTTTATTTGTTG
GKGDGTGTGTGTGTKT	MEME-5	chr10	30971427	30971442	-	4.97938	9.48e-05	0.107	CGGGGTGGGGTAGTGG
GKGDGTGTGTGTGTKT	MEME-5	chr3	13579391	13579406	+	4.95876	9.53e-05	0.108	CTCTGGGAGTTAGTGT
GKGDGTGTGTGTGTKT	MEME-5	chr5	173962522	173962537	-	4.93814	9.6e-05	0.108	CTGTGTGTTTGTGTTC
GKGDGTGTGTGTGTKT	MEME-5	chr2	43696300	43696315	+	4.90722	9.69e-05	0.109	tagagtgTGTTTATTT
GKGDGTGTGTGTGTKT	MEME-5	chr12	81775687	81775702	+	4.8866	9.75e-05	0.11	gagagtgtatatgtgt
GKGDGTGTGTGTGTKT	MEME-5	chr6	151979018	151979033	-	4.87629	9.78e-05	0.11	CTGTGTGTGAGTGAGG
GKGDGTGTGTGTGTKT	MEME-5	chr14	99372948	99372963	+	4.85567	9.85e-05	0.11	GGGTGGGTGTTTTGTG
GKGDGTGTGTGTGTKT	MEME-5	chr12	27776490	27776505	+	4.84536	9.89e-05	0.11	ATCAGAGTGTGTGTGT
GKGDGTGTGTGTGTKT	MEME-5	chr14	68773596	68773611	-	4.83505	9.92e-05	0.11	CTTGGTGTTTGTGTTT
GKGDGTGTGTGTGTKT	MEME-5	chr3	139635010	139635025	-	4.83505	9.92e-05	0.11	TTGGGTATGTGTTGCT
GKGDGTGTGTGTGTKT	MEME-5	chr2	130715495	130715510	+	4.82474	9.96e-05	0.11	CAGAGTTTGTGTTGCT
GKGDGTGTGTGTGTKT	MEME-5	chr14	77499482	77499497	+	4.81443	9.99e-05	0.11	GCTGGGGAGGGTGGGG
GKGDGTGTGTGTGTKT	MEME-5	chr7	80487496	80487511	+	4.81443	9.99e-05	0.11	cacagtttctttgggt
GKGDGTGTGTGTGTKT	MEME-5	chr12	102303249	102303264	-	4.81443	9.99e-05	0.11	TTGAGGGACTTCGTGG
GKGDGTGTGTGTGTKT	MEME-5	chr10	116105988	116106003	+	4.81443	9.99e-05	0.11	GGGTGTGTGTCTATCT
GKGDGTGTGTGTGTKT	MEME-5	chr5	172990220	172990235	-	4.81443	9.99e-05	0.11	CTGGGTGTTTTCGTTG
GKGDGTGTGTGTGTKT	MEME-5	chr2	202747074	202747089	+	4.81443	9.99e-05	0.11	GATTGGgtgtgtgtgc
