prim_db	prim_id	prim_alt	prim_cons	sec_db	sec_id	sec_alt	sec_cons	trim_left	trim_right	red_db	red_id	red_alt	E-value	gap	orient	count	total	adj_p-value	p-value
meme.xml	TTTTHWTCTTTKTTTTYTTTDTTYTTGWWT	MEME-2	TTTTHWTCTTTKTTTTYTTTDTTYTTGWWT	HOCOMOCOv11_full_HUMAN_mono_meme_format	TBP_HUMAN.H11MO.0.A	.	MTATAAAARS	0	0	.	.	.	1.59e+00	51	2	5	107	1.78e-07	1.60e-06
meme.xml	TTTTHWTCTTTKTTTTYTTTDTTYTTGWWT	MEME-2	TTTTHWTCTTTKTTTTYTTTDTTYTTGWWT	HOCOMOCOv11_full_HUMAN_mono_meme_format	OTX2_HUMAN.H11MO.0.A	.	RRRGGATTARV	1	1	.	.	.	2.03e+00	10	7	6	103	2.26e-07	2.03e-06
meme.xml	TTTTHWTCTTTKTTTTYTTTDTTYTTGWWT	MEME-2	TTTTHWTCTTTKTTTTYTTTDTTYTTGWWT	HOCOMOCOv11_full_HUMAN_mono_meme_format	OTX2_HUMAN.H11MO.0.A	.	RRRGGATTARV	1	1	.	.	.	2.03e+00	10	8	7	103	1.05e-06	9.43e-06
meme.xml	TTTTHWTCTTTKTTTTYTTTDTTYTTGWWT	MEME-2	TTTTHWTCTTTKTTTTYTTTDTTYTTGWWT	HOCOMOCOv11_full_HUMAN_mono_meme_format	FOXA3_HUMAN.H11MO.0.B	.	CHTGTTTACWTWG	2	0	.	.	.	8.82e+00	13	8	9	185	9.99e-07	8.99e-06
##
# Detailed descriptions of columns in this file:
#
# prim_db:	The name of the database (file name) that contains the primary motif.
# prim_id:	A name for the primary motif that is unique in the motif database file.
# prim_alt:	An alternate name of the primary motif that may be provided
#		in the motif database file.
# prim_cons:	A consensus sequence computed from the primary motif (see doc/motif-consensus.html).
# sec_db:	The name of the database (file name) that contains the secondary motif.
# sec_id:	A name for the motif that is unique in the motif database file.
# sec_alt:	An alternate name of the secondary motif that may be provided
#		in the motif database file.
# sec_cons:	A consensus sequence computed from the secondary motif (see doc/motif-consensus.html).
# trim_left:	Number of positions trimmed from left of secondary motif
# trim_right:	Number of positions trimmed from right of secondary motif
# If the next three fields are not blank, the motif is redundant with a more significant ('parent') motif.
# red_db:	The database (file name) that contains the parent motif.
# red_id:	A name for the parent motif that is unique in the motif database file.
# red_alt:	An alternate name of the parent motif that may be provided
#		in the motif database file.
# E-value:	The expected number motifs that would have least one
#		spacing as enriched as the best spacing for this secondary.
#		The E-value is the best spacing p-value multiplied by the number of motifs in the
#		input database(s).
# gap:		The distance between the edge of the primary and the (trimmed) secondary motif.
# orient:	The (combination) of quadrants for which occurrences
#		of this spacing are combined.
# count:	The number of occurrences of the secondary motif with the
#		given spacing and orientation to the primary motif.
# total:	The total number of occurrences of the secondary motif within the
#		margins around the best primary motif occurrence.
# adj_p-value:	The p-value of the gap and orientation, adjusted for
#		nine combinations of quadrants times the number of gaps tested
#		(as controlled by the -range switch).
# p-value:	The p-value of the gap and orientation adjusted only for the number of gaps tested.
