prim_db	prim_id	prim_alt	prim_cons	sec_db	sec_id	sec_alt	sec_cons	trim_left	trim_right	red_db	red_id	red_alt	E-value	gap	orient	count	total	adj_p-value	p-value
meme.xml	AAAAKYAGAAYYACTGATRAGGGTCTATGT	MEME-6	AAAAKYAGAAYYACTGATRAGGGTCTATGT	meme.xml	TGCAYGTATTGTCTTGATAAACATCTTAAA	MEME-2	TGCAYGTATTGTCTTGATAAACATCTTAAA	0	0	.	.	.	6.62e-11	7	2	6	6	8.64e-18	7.78e-17
meme.xml	AAAAKYAGAAYYACTGATRAGGGTCTATGT	MEME-6	AAAAKYAGAAYYACTGATRAGGGTCTATGT	meme.xml	TGCAYGTATTGTCTTGATAAACATCTTAAA	MEME-2	TGCAYGTATTGTCTTGATAAACATCTTAAA	0	0	.	.	.	6.62e-11	7	6	6	6	5.53e-16	4.98e-15
meme.xml	AAAAKYAGAAYYACTGATRAGGGTCTATGT	MEME-6	AAAAKYAGAAYYACTGATRAGGGTCTATGT	meme.xml	TGCAYGTATTGTCTTGATAAACATCTTAAA	MEME-2	TGCAYGTATTGTCTTGATAAACATCTTAAA	0	0	.	.	.	6.62e-11	7	7	6	6	5.53e-16	4.98e-15
meme.xml	AAAAKYAGAAYYACTGATRAGGGTCTATGT	MEME-6	AAAAKYAGAAYYACTGATRAGGGTCTATGT	meme.xml	TGCAYGTATTGTCTTGATAAACATCTTAAA	MEME-2	TGCAYGTATTGTCTTGATAAACATCTTAAA	0	0	.	.	.	6.62e-11	7	8	6	6	3.54e-14	3.19e-13
meme.xml	AAAAKYAGAAYYACTGATRAGGGTCTATGT	MEME-6	AAAAKYAGAAYYACTGATRAGGGTCTATGT	HOCOMOCOv11_full_HUMAN_mono_meme_format	GATA1_HUMAN.H11MO.1.A	.	DSAGATAAGVV	2	2	.	.	.	1.94e-10	21	2	6	7	2.13e-17	1.91e-16
meme.xml	AAAAKYAGAAYYACTGATRAGGGTCTATGT	MEME-6	AAAAKYAGAAYYACTGATRAGGGTCTATGT	HOCOMOCOv11_full_HUMAN_mono_meme_format	GATA1_HUMAN.H11MO.1.A	.	DSAGATAAGVV	2	2	.	.	.	1.94e-10	21	6	6	7	1.36e-15	1.22e-14
meme.xml	AAAAKYAGAAYYACTGATRAGGGTCTATGT	MEME-6	AAAAKYAGAAYYACTGATRAGGGTCTATGT	HOCOMOCOv11_full_HUMAN_mono_meme_format	GATA1_HUMAN.H11MO.1.A	.	DSAGATAAGVV	2	2	.	.	.	1.94e-10	21	7	6	7	1.36e-15	1.22e-14
meme.xml	AAAAKYAGAAYYACTGATRAGGGTCTATGT	MEME-6	AAAAKYAGAAYYACTGATRAGGGTCTATGT	HOCOMOCOv11_full_HUMAN_mono_meme_format	GATA1_HUMAN.H11MO.1.A	.	DSAGATAAGVV	2	2	.	.	.	1.94e-10	21	8	6	7	8.67e-14	7.80e-13
meme.xml	AAAAKYAGAAYYACTGATRAGGGTCTATGT	MEME-6	AAAAKYAGAAYYACTGATRAGGGTCTATGT	HOCOMOCOv11_full_HUMAN_mono_meme_format	GATA3_HUMAN.H11MO.0.A	.	RVAGATAAVAD	2	1	.	.	.	2.40e-09	21	2	6	9	2.65e-16	2.39e-15
meme.xml	AAAAKYAGAAYYACTGATRAGGGTCTATGT	MEME-6	AAAAKYAGAAYYACTGATRAGGGTCTATGT	HOCOMOCOv11_full_HUMAN_mono_meme_format	GATA3_HUMAN.H11MO.0.A	.	RVAGATAAVAD	2	1	.	.	.	2.40e-09	21	6	6	9	1.69e-14	1.52e-13
meme.xml	AAAAKYAGAAYYACTGATRAGGGTCTATGT	MEME-6	AAAAKYAGAAYYACTGATRAGGGTCTATGT	HOCOMOCOv11_full_HUMAN_mono_meme_format	GATA3_HUMAN.H11MO.0.A	.	RVAGATAAVAD	2	1	.	.	.	2.40e-09	21	7	6	9	1.69e-14	1.52e-13
meme.xml	AAAAKYAGAAYYACTGATRAGGGTCTATGT	MEME-6	AAAAKYAGAAYYACTGATRAGGGTCTATGT	HOCOMOCOv11_full_HUMAN_mono_meme_format	GATA3_HUMAN.H11MO.0.A	.	RVAGATAAVAD	2	1	.	.	.	2.40e-09	21	8	6	9	1.07e-12	9.65e-12
meme.xml	AAAAKYAGAAYYACTGATRAGGGTCTATGT	MEME-6	AAAAKYAGAAYYACTGATRAGGGTCTATGT	HOCOMOCOv11_full_HUMAN_mono_meme_format	GATA3_HUMAN.H11MO.0.A	.	RVAGATAAVAD	2	1	.	.	.	2.40e-09	41	2	3	9	4.95e-08	4.45e-07
meme.xml	AAAAKYAGAAYYACTGATRAGGGTCTATGT	MEME-6	AAAAKYAGAAYYACTGATRAGGGTCTATGT	HOCOMOCOv11_full_HUMAN_mono_meme_format	GATA3_HUMAN.H11MO.0.A	.	RVAGATAAVAD	2	1	.	.	.	2.40e-09	41	6	3	9	3.93e-07	3.53e-06
meme.xml	AAAAKYAGAAYYACTGATRAGGGTCTATGT	MEME-6	AAAAKYAGAAYYACTGATRAGGGTCTATGT	HOCOMOCOv11_full_HUMAN_mono_meme_format	GATA3_HUMAN.H11MO.0.A	.	RVAGATAAVAD	2	1	.	.	.	2.40e-09	41	7	3	9	3.93e-07	3.53e-06
meme.xml	AAAAKYAGAAYYACTGATRAGGGTCTATGT	MEME-6	AAAAKYAGAAYYACTGATRAGGGTCTATGT	HOCOMOCOv11_full_HUMAN_mono_meme_format	GATA3_HUMAN.H11MO.0.A	.	RVAGATAAVAD	2	1	.	.	.	2.40e-09	41	8	3	9	3.09e-06	2.78e-05
meme.xml	AAAAKYAGAAYYACTGATRAGGGTCTATGT	MEME-6	AAAAKYAGAAYYACTGATRAGGGTCTATGT	HOCOMOCOv11_full_HUMAN_mono_meme_format	HXC10_HUMAN.H11MO.0.D	.	WWWWWWWNNWTTTWATKRC	2	1	.	.	.	7.99e-09	21	3	6	10	9.35e-16	8.42e-15
meme.xml	AAAAKYAGAAYYACTGATRAGGGTCTATGT	MEME-6	AAAAKYAGAAYYACTGATRAGGGTCTATGT	HOCOMOCOv11_full_HUMAN_mono_meme_format	HXC10_HUMAN.H11MO.0.D	.	WWWWWWWNNWTTTWATKRC	2	1	.	.	.	7.99e-09	21	5	6	10	5.95e-14	5.35e-13
meme.xml	AAAAKYAGAAYYACTGATRAGGGTCTATGT	MEME-6	AAAAKYAGAAYYACTGATRAGGGTCTATGT	HOCOMOCOv11_full_HUMAN_mono_meme_format	HXC10_HUMAN.H11MO.0.D	.	WWWWWWWNNWTTTWATKRC	2	1	.	.	.	7.99e-09	21	7	6	10	5.95e-14	5.35e-13
meme.xml	AAAAKYAGAAYYACTGATRAGGGTCTATGT	MEME-6	AAAAKYAGAAYYACTGATRAGGGTCTATGT	HOCOMOCOv11_full_HUMAN_mono_meme_format	HXC10_HUMAN.H11MO.0.D	.	WWWWWWWNNWTTTWATKRC	2	1	.	.	.	7.99e-09	21	8	6	10	3.76e-12	3.38e-11
meme.xml	AAAAKYAGAAYYACTGATRAGGGTCTATGT	MEME-6	AAAAKYAGAAYYACTGATRAGGGTCTATGT	HOCOMOCOv11_full_HUMAN_mono_meme_format	FOXO6_HUMAN.H11MO.0.D	.	WWSWTGTTTACRT	3	0	.	.	.	1.74e-08	21	3	5	5	1.95e-15	1.75e-14
meme.xml	AAAAKYAGAAYYACTGATRAGGGTCTATGT	MEME-6	AAAAKYAGAAYYACTGATRAGGGTCTATGT	HOCOMOCOv11_full_HUMAN_mono_meme_format	FOXO6_HUMAN.H11MO.0.D	.	WWSWTGTTTACRT	3	0	.	.	.	1.74e-08	21	5	5	5	6.23e-14	5.61e-13
meme.xml	AAAAKYAGAAYYACTGATRAGGGTCTATGT	MEME-6	AAAAKYAGAAYYACTGATRAGGGTCTATGT	HOCOMOCOv11_full_HUMAN_mono_meme_format	FOXO6_HUMAN.H11MO.0.D	.	WWSWTGTTTACRT	3	0	.	.	.	1.74e-08	21	7	5	5	6.23e-14	5.61e-13
meme.xml	AAAAKYAGAAYYACTGATRAGGGTCTATGT	MEME-6	AAAAKYAGAAYYACTGATRAGGGTCTATGT	HOCOMOCOv11_full_HUMAN_mono_meme_format	FOXO6_HUMAN.H11MO.0.D	.	WWSWTGTTTACRT	3	0	.	.	.	1.74e-08	21	8	5	5	1.99e-12	1.79e-11
meme.xml	AAAAKYAGAAYYACTGATRAGGGTCTATGT	MEME-6	AAAAKYAGAAYYACTGATRAGGGTCTATGT	HOCOMOCOv11_full_HUMAN_mono_meme_format	FOXA3_HUMAN.H11MO.0.B	.	CHTGTTTACWTWG	2	0	.	.	.	1.07e-07	19	3	5	6	1.21e-14	1.09e-13
meme.xml	AAAAKYAGAAYYACTGATRAGGGTCTATGT	MEME-6	AAAAKYAGAAYYACTGATRAGGGTCTATGT	HOCOMOCOv11_full_HUMAN_mono_meme_format	FOXA3_HUMAN.H11MO.0.B	.	CHTGTTTACWTWG	2	0	.	.	.	1.07e-07	19	5	5	6	3.86e-13	3.48e-12
meme.xml	AAAAKYAGAAYYACTGATRAGGGTCTATGT	MEME-6	AAAAKYAGAAYYACTGATRAGGGTCTATGT	HOCOMOCOv11_full_HUMAN_mono_meme_format	FOXA3_HUMAN.H11MO.0.B	.	CHTGTTTACWTWG	2	0	.	.	.	1.07e-07	19	7	5	6	3.86e-13	3.48e-12
meme.xml	AAAAKYAGAAYYACTGATRAGGGTCTATGT	MEME-6	AAAAKYAGAAYYACTGATRAGGGTCTATGT	HOCOMOCOv11_full_HUMAN_mono_meme_format	FOXA3_HUMAN.H11MO.0.B	.	CHTGTTTACWTWG	2	0	.	.	.	1.07e-07	19	8	5	6	1.23e-11	1.11e-10
meme.xml	AAAAKYAGAAYYACTGATRAGGGTCTATGT	MEME-6	AAAAKYAGAAYYACTGATRAGGGTCTATGT	HOCOMOCOv11_full_HUMAN_mono_meme_format	FOXF2_HUMAN.H11MO.0.D	.	TGTTTACHTWD	0	0	.	.	.	1.07e-07	19	3	5	6	1.21e-14	1.09e-13
meme.xml	AAAAKYAGAAYYACTGATRAGGGTCTATGT	MEME-6	AAAAKYAGAAYYACTGATRAGGGTCTATGT	HOCOMOCOv11_full_HUMAN_mono_meme_format	FOXF2_HUMAN.H11MO.0.D	.	TGTTTACHTWD	0	0	.	.	.	1.07e-07	19	5	5	6	3.86e-13	3.48e-12
meme.xml	AAAAKYAGAAYYACTGATRAGGGTCTATGT	MEME-6	AAAAKYAGAAYYACTGATRAGGGTCTATGT	HOCOMOCOv11_full_HUMAN_mono_meme_format	FOXF2_HUMAN.H11MO.0.D	.	TGTTTACHTWD	0	0	.	.	.	1.07e-07	19	7	5	6	3.86e-13	3.48e-12
meme.xml	AAAAKYAGAAYYACTGATRAGGGTCTATGT	MEME-6	AAAAKYAGAAYYACTGATRAGGGTCTATGT	HOCOMOCOv11_full_HUMAN_mono_meme_format	FOXF2_HUMAN.H11MO.0.D	.	TGTTTACHTWD	0	0	.	.	.	1.07e-07	19	8	5	6	1.23e-11	1.11e-10
meme.xml	AAAAKYAGAAYYACTGATRAGGGTCTATGT	MEME-6	AAAAKYAGAAYYACTGATRAGGGTCTATGT	dreme.xml	RYAAAYA	DREME-1	RYAAAYA	0	0	.	.	.	3.34e-07	23	2	5	7	3.67e-14	3.30e-13
meme.xml	AAAAKYAGAAYYACTGATRAGGGTCTATGT	MEME-6	AAAAKYAGAAYYACTGATRAGGGTCTATGT	dreme.xml	RYAAAYA	DREME-1	RYAAAYA	0	0	.	.	.	3.34e-07	23	6	5	7	1.17e-12	1.05e-11
meme.xml	AAAAKYAGAAYYACTGATRAGGGTCTATGT	MEME-6	AAAAKYAGAAYYACTGATRAGGGTCTATGT	dreme.xml	RYAAAYA	DREME-1	RYAAAYA	0	0	.	.	.	3.34e-07	23	7	5	7	1.17e-12	1.05e-11
meme.xml	AAAAKYAGAAYYACTGATRAGGGTCTATGT	MEME-6	AAAAKYAGAAYYACTGATRAGGGTCTATGT	dreme.xml	RYAAAYA	DREME-1	RYAAAYA	0	0	.	.	.	3.34e-07	23	8	5	7	3.72e-11	3.35e-10
meme.xml	AAAAKYAGAAYYACTGATRAGGGTCTATGT	MEME-6	AAAAKYAGAAYYACTGATRAGGGTCTATGT	HOCOMOCOv11_full_HUMAN_mono_meme_format	FOXA2_HUMAN.H11MO.0.A	.	TGTTTACWYWGB	0	1	.	.	.	3.74e-07	19	3	5	7	4.22e-14	3.80e-13
meme.xml	AAAAKYAGAAYYACTGATRAGGGTCTATGT	MEME-6	AAAAKYAGAAYYACTGATRAGGGTCTATGT	HOCOMOCOv11_full_HUMAN_mono_meme_format	FOXA2_HUMAN.H11MO.0.A	.	TGTTTACWYWGB	0	1	.	.	.	3.74e-07	19	5	5	7	1.35e-12	1.21e-11
meme.xml	AAAAKYAGAAYYACTGATRAGGGTCTATGT	MEME-6	AAAAKYAGAAYYACTGATRAGGGTCTATGT	HOCOMOCOv11_full_HUMAN_mono_meme_format	FOXA2_HUMAN.H11MO.0.A	.	TGTTTACWYWGB	0	1	.	.	.	3.74e-07	19	7	5	7	1.35e-12	1.21e-11
meme.xml	AAAAKYAGAAYYACTGATRAGGGTCTATGT	MEME-6	AAAAKYAGAAYYACTGATRAGGGTCTATGT	HOCOMOCOv11_full_HUMAN_mono_meme_format	FOXA2_HUMAN.H11MO.0.A	.	TGTTTACWYWGB	0	1	.	.	.	3.74e-07	19	8	5	7	4.29e-11	3.86e-10
meme.xml	AAAAKYAGAAYYACTGATRAGGGTCTATGT	MEME-6	AAAAKYAGAAYYACTGATRAGGGTCTATGT	HOCOMOCOv11_full_HUMAN_mono_meme_format	FOXF1_HUMAN.H11MO.0.D	.	WTGTTTATTTW	1	0	.	.	.	2.18e-06	20	3	5	9	2.44e-13	2.19e-12
meme.xml	AAAAKYAGAAYYACTGATRAGGGTCTATGT	MEME-6	AAAAKYAGAAYYACTGATRAGGGTCTATGT	HOCOMOCOv11_full_HUMAN_mono_meme_format	FOXF1_HUMAN.H11MO.0.D	.	WTGTTTATTTW	1	0	.	.	.	2.18e-06	20	5	5	9	7.76e-12	6.98e-11
meme.xml	AAAAKYAGAAYYACTGATRAGGGTCTATGT	MEME-6	AAAAKYAGAAYYACTGATRAGGGTCTATGT	HOCOMOCOv11_full_HUMAN_mono_meme_format	FOXF1_HUMAN.H11MO.0.D	.	WTGTTTATTTW	1	0	.	.	.	2.18e-06	20	7	5	9	7.76e-12	6.98e-11
meme.xml	AAAAKYAGAAYYACTGATRAGGGTCTATGT	MEME-6	AAAAKYAGAAYYACTGATRAGGGTCTATGT	HOCOMOCOv11_full_HUMAN_mono_meme_format	FOXF1_HUMAN.H11MO.0.D	.	WTGTTTATTTW	1	0	.	.	.	2.18e-06	20	8	5	9	2.45e-10	2.21e-09
meme.xml	AAAAKYAGAAYYACTGATRAGGGTCTATGT	MEME-6	AAAAKYAGAAYYACTGATRAGGGTCTATGT	HOCOMOCOv11_full_HUMAN_mono_meme_format	GATA1_HUMAN.H11MO.0.A	.	STGBNNNDNVSAGATAAGV	1	1	.	.	.	1.14e-05	11	2	4	4	1.35e-12	1.21e-11
meme.xml	AAAAKYAGAAYYACTGATRAGGGTCTATGT	MEME-6	AAAAKYAGAAYYACTGATRAGGGTCTATGT	HOCOMOCOv11_full_HUMAN_mono_meme_format	GATA1_HUMAN.H11MO.0.A	.	STGBNNNDNVSAGATAAGV	1	1	.	.	.	1.14e-05	11	6	4	4	2.15e-11	1.94e-10
meme.xml	AAAAKYAGAAYYACTGATRAGGGTCTATGT	MEME-6	AAAAKYAGAAYYACTGATRAGGGTCTATGT	HOCOMOCOv11_full_HUMAN_mono_meme_format	GATA1_HUMAN.H11MO.0.A	.	STGBNNNDNVSAGATAAGV	1	1	.	.	.	1.14e-05	11	7	4	4	2.15e-11	1.94e-10
meme.xml	AAAAKYAGAAYYACTGATRAGGGTCTATGT	MEME-6	AAAAKYAGAAYYACTGATRAGGGTCTATGT	HOCOMOCOv11_full_HUMAN_mono_meme_format	GATA1_HUMAN.H11MO.0.A	.	STGBNNNDNVSAGATAAGV	1	1	.	.	.	1.14e-05	11	8	4	4	3.45e-10	3.10e-09
meme.xml	AAAAKYAGAAYYACTGATRAGGGTCTATGT	MEME-6	AAAAKYAGAAYYACTGATRAGGGTCTATGT	HOCOMOCOv11_full_HUMAN_mono_meme_format	FOXO3_HUMAN.H11MO.0.B	.	BYTGTTTACH	2	1	.	.	.	1.25e-05	23	3	5	12	1.37e-12	1.24e-11
meme.xml	AAAAKYAGAAYYACTGATRAGGGTCTATGT	MEME-6	AAAAKYAGAAYYACTGATRAGGGTCTATGT	HOCOMOCOv11_full_HUMAN_mono_meme_format	FOXO3_HUMAN.H11MO.0.B	.	BYTGTTTACH	2	1	.	.	.	1.25e-05	23	5	5	12	4.35e-11	3.92e-10
meme.xml	AAAAKYAGAAYYACTGATRAGGGTCTATGT	MEME-6	AAAAKYAGAAYYACTGATRAGGGTCTATGT	HOCOMOCOv11_full_HUMAN_mono_meme_format	FOXO3_HUMAN.H11MO.0.B	.	BYTGTTTACH	2	1	.	.	.	1.25e-05	23	7	5	12	4.35e-11	3.92e-10
meme.xml	AAAAKYAGAAYYACTGATRAGGGTCTATGT	MEME-6	AAAAKYAGAAYYACTGATRAGGGTCTATGT	HOCOMOCOv11_full_HUMAN_mono_meme_format	FOXO3_HUMAN.H11MO.0.B	.	BYTGTTTACH	2	1	.	.	.	1.25e-05	23	8	5	12	1.36e-09	1.23e-08
meme.xml	AAAAKYAGAAYYACTGATRAGGGTCTATGT	MEME-6	AAAAKYAGAAYYACTGATRAGGGTCTATGT	HOCOMOCOv11_full_HUMAN_mono_meme_format	FOXO3_HUMAN.H11MO.0.B	.	BYTGTTTACH	2	1	.	.	.	1.25e-05	42	3	3	12	1.26e-07	1.14e-06
meme.xml	AAAAKYAGAAYYACTGATRAGGGTCTATGT	MEME-6	AAAAKYAGAAYYACTGATRAGGGTCTATGT	HOCOMOCOv11_full_HUMAN_mono_meme_format	FOXO3_HUMAN.H11MO.0.B	.	BYTGTTTACH	2	1	.	.	.	1.25e-05	42	5	3	12	1.00e-06	9.00e-06
meme.xml	AAAAKYAGAAYYACTGATRAGGGTCTATGT	MEME-6	AAAAKYAGAAYYACTGATRAGGGTCTATGT	HOCOMOCOv11_full_HUMAN_mono_meme_format	FOXO3_HUMAN.H11MO.0.B	.	BYTGTTTACH	2	1	.	.	.	1.25e-05	42	7	3	12	1.00e-06	9.00e-06
meme.xml	AAAAKYAGAAYYACTGATRAGGGTCTATGT	MEME-6	AAAAKYAGAAYYACTGATRAGGGTCTATGT	HOCOMOCOv11_full_HUMAN_mono_meme_format	FOXP2_HUMAN.H11MO.0.C	.	BTGTTTACH	1	1	.	.	.	1.25e-05	23	3	5	12	1.37e-12	1.24e-11
meme.xml	AAAAKYAGAAYYACTGATRAGGGTCTATGT	MEME-6	AAAAKYAGAAYYACTGATRAGGGTCTATGT	HOCOMOCOv11_full_HUMAN_mono_meme_format	FOXP2_HUMAN.H11MO.0.C	.	BTGTTTACH	1	1	.	.	.	1.25e-05	23	5	5	12	4.35e-11	3.92e-10
meme.xml	AAAAKYAGAAYYACTGATRAGGGTCTATGT	MEME-6	AAAAKYAGAAYYACTGATRAGGGTCTATGT	HOCOMOCOv11_full_HUMAN_mono_meme_format	FOXP2_HUMAN.H11MO.0.C	.	BTGTTTACH	1	1	.	.	.	1.25e-05	23	7	5	12	4.35e-11	3.92e-10
meme.xml	AAAAKYAGAAYYACTGATRAGGGTCTATGT	MEME-6	AAAAKYAGAAYYACTGATRAGGGTCTATGT	HOCOMOCOv11_full_HUMAN_mono_meme_format	FOXP2_HUMAN.H11MO.0.C	.	BTGTTTACH	1	1	.	.	.	1.25e-05	23	8	5	12	1.36e-09	1.23e-08
meme.xml	AAAAKYAGAAYYACTGATRAGGGTCTATGT	MEME-6	AAAAKYAGAAYYACTGATRAGGGTCTATGT	HOCOMOCOv11_full_HUMAN_mono_meme_format	FOXP2_HUMAN.H11MO.0.C	.	BTGTTTACH	1	1	.	.	.	1.25e-05	42	3	3	12	1.26e-07	1.14e-06
meme.xml	AAAAKYAGAAYYACTGATRAGGGTCTATGT	MEME-6	AAAAKYAGAAYYACTGATRAGGGTCTATGT	HOCOMOCOv11_full_HUMAN_mono_meme_format	FOXP2_HUMAN.H11MO.0.C	.	BTGTTTACH	1	1	.	.	.	1.25e-05	42	5	3	12	1.00e-06	9.00e-06
meme.xml	AAAAKYAGAAYYACTGATRAGGGTCTATGT	MEME-6	AAAAKYAGAAYYACTGATRAGGGTCTATGT	HOCOMOCOv11_full_HUMAN_mono_meme_format	FOXP2_HUMAN.H11MO.0.C	.	BTGTTTACH	1	1	.	.	.	1.25e-05	42	7	3	12	1.00e-06	9.00e-06
meme.xml	AAAAKYAGAAYYACTGATRAGGGTCTATGT	MEME-6	AAAAKYAGAAYYACTGATRAGGGTCTATGT	HOCOMOCOv11_full_HUMAN_mono_meme_format	FOXK1_HUMAN.H11MO.0.A	.	TGTTTMCHTT	0	0	.	.	.	2.21e-05	20	3	5	13	2.48e-12	2.23e-11
meme.xml	AAAAKYAGAAYYACTGATRAGGGTCTATGT	MEME-6	AAAAKYAGAAYYACTGATRAGGGTCTATGT	HOCOMOCOv11_full_HUMAN_mono_meme_format	FOXK1_HUMAN.H11MO.0.A	.	TGTTTMCHTT	0	0	.	.	.	2.21e-05	20	5	5	13	7.83e-11	7.05e-10
meme.xml	AAAAKYAGAAYYACTGATRAGGGTCTATGT	MEME-6	AAAAKYAGAAYYACTGATRAGGGTCTATGT	HOCOMOCOv11_full_HUMAN_mono_meme_format	FOXK1_HUMAN.H11MO.0.A	.	TGTTTMCHTT	0	0	.	.	.	2.21e-05	20	7	5	13	7.83e-11	7.05e-10
meme.xml	AAAAKYAGAAYYACTGATRAGGGTCTATGT	MEME-6	AAAAKYAGAAYYACTGATRAGGGTCTATGT	HOCOMOCOv11_full_HUMAN_mono_meme_format	FOXK1_HUMAN.H11MO.0.A	.	TGTTTMCHTT	0	0	.	.	.	2.21e-05	20	8	5	13	2.45e-09	2.20e-08
meme.xml	AAAAKYAGAAYYACTGATRAGGGTCTATGT	MEME-6	AAAAKYAGAAYYACTGATRAGGGTCTATGT	HOCOMOCOv11_full_HUMAN_mono_meme_format	FOXK1_HUMAN.H11MO.0.A	.	TGTTTMCHTT	0	0	.	.	.	2.21e-05	39	3	3	13	1.75e-07	1.57e-06
meme.xml	AAAAKYAGAAYYACTGATRAGGGTCTATGT	MEME-6	AAAAKYAGAAYYACTGATRAGGGTCTATGT	HOCOMOCOv11_full_HUMAN_mono_meme_format	FOXK1_HUMAN.H11MO.0.A	.	TGTTTMCHTT	0	0	.	.	.	2.21e-05	39	5	3	13	1.38e-06	1.24e-05
meme.xml	AAAAKYAGAAYYACTGATRAGGGTCTATGT	MEME-6	AAAAKYAGAAYYACTGATRAGGGTCTATGT	HOCOMOCOv11_full_HUMAN_mono_meme_format	FOXK1_HUMAN.H11MO.0.A	.	TGTTTMCHTT	0	0	.	.	.	2.21e-05	39	7	3	13	1.38e-06	1.24e-05
meme.xml	AAAAKYAGAAYYACTGATRAGGGTCTATGT	MEME-6	AAAAKYAGAAYYACTGATRAGGGTCTATGT	HOCOMOCOv11_full_HUMAN_mono_meme_format	FOXO4_HUMAN.H11MO.0.C	.	TTGTTTAYK	0	0	.	.	.	5.00e-05	22	3	5	15	5.56e-12	5.01e-11
meme.xml	AAAAKYAGAAYYACTGATRAGGGTCTATGT	MEME-6	AAAAKYAGAAYYACTGATRAGGGTCTATGT	HOCOMOCOv11_full_HUMAN_mono_meme_format	FOXO4_HUMAN.H11MO.0.C	.	TTGTTTAYK	0	0	.	.	.	5.00e-05	22	5	5	15	1.75e-10	1.58e-09
meme.xml	AAAAKYAGAAYYACTGATRAGGGTCTATGT	MEME-6	AAAAKYAGAAYYACTGATRAGGGTCTATGT	HOCOMOCOv11_full_HUMAN_mono_meme_format	FOXO4_HUMAN.H11MO.0.C	.	TTGTTTAYK	0	0	.	.	.	5.00e-05	22	7	5	15	1.75e-10	1.58e-09
meme.xml	AAAAKYAGAAYYACTGATRAGGGTCTATGT	MEME-6	AAAAKYAGAAYYACTGATRAGGGTCTATGT	HOCOMOCOv11_full_HUMAN_mono_meme_format	FOXO4_HUMAN.H11MO.0.C	.	TTGTTTAYK	0	0	.	.	.	5.00e-05	22	8	5	15	5.45e-09	4.90e-08
meme.xml	AAAAKYAGAAYYACTGATRAGGGTCTATGT	MEME-6	AAAAKYAGAAYYACTGATRAGGGTCTATGT	HOCOMOCOv11_full_HUMAN_mono_meme_format	FOXO4_HUMAN.H11MO.0.C	.	TTGTTTAYK	0	0	.	.	.	5.00e-05	31	3	3	15	2.72e-07	2.44e-06
meme.xml	AAAAKYAGAAYYACTGATRAGGGTCTATGT	MEME-6	AAAAKYAGAAYYACTGATRAGGGTCTATGT	HOCOMOCOv11_full_HUMAN_mono_meme_format	FOXO4_HUMAN.H11MO.0.C	.	TTGTTTAYK	0	0	.	.	.	5.00e-05	34	3	3	15	2.72e-07	2.44e-06
meme.xml	AAAAKYAGAAYYACTGATRAGGGTCTATGT	MEME-6	AAAAKYAGAAYYACTGATRAGGGTCTATGT	HOCOMOCOv11_full_HUMAN_mono_meme_format	FOXO4_HUMAN.H11MO.0.C	.	TTGTTTAYK	0	0	.	.	.	5.00e-05	41	3	3	15	2.72e-07	2.44e-06
meme.xml	AAAAKYAGAAYYACTGATRAGGGTCTATGT	MEME-6	AAAAKYAGAAYYACTGATRAGGGTCTATGT	HOCOMOCOv11_full_HUMAN_mono_meme_format	FOXO4_HUMAN.H11MO.0.C	.	TTGTTTAYK	0	0	.	.	.	5.00e-05	31	5	3	15	2.14e-06	1.92e-05
meme.xml	AAAAKYAGAAYYACTGATRAGGGTCTATGT	MEME-6	AAAAKYAGAAYYACTGATRAGGGTCTATGT	HOCOMOCOv11_full_HUMAN_mono_meme_format	FOXO4_HUMAN.H11MO.0.C	.	TTGTTTAYK	0	0	.	.	.	5.00e-05	34	5	3	15	2.14e-06	1.92e-05
meme.xml	AAAAKYAGAAYYACTGATRAGGGTCTATGT	MEME-6	AAAAKYAGAAYYACTGATRAGGGTCTATGT	HOCOMOCOv11_full_HUMAN_mono_meme_format	FOXO4_HUMAN.H11MO.0.C	.	TTGTTTAYK	0	0	.	.	.	5.00e-05	41	5	3	15	2.14e-06	1.92e-05
meme.xml	AAAAKYAGAAYYACTGATRAGGGTCTATGT	MEME-6	AAAAKYAGAAYYACTGATRAGGGTCTATGT	HOCOMOCOv11_full_HUMAN_mono_meme_format	FOXO4_HUMAN.H11MO.0.C	.	TTGTTTAYK	0	0	.	.	.	5.00e-05	31	7	3	15	2.14e-06	1.92e-05
meme.xml	AAAAKYAGAAYYACTGATRAGGGTCTATGT	MEME-6	AAAAKYAGAAYYACTGATRAGGGTCTATGT	HOCOMOCOv11_full_HUMAN_mono_meme_format	FOXO4_HUMAN.H11MO.0.C	.	TTGTTTAYK	0	0	.	.	.	5.00e-05	34	7	3	15	2.14e-06	1.92e-05
meme.xml	AAAAKYAGAAYYACTGATRAGGGTCTATGT	MEME-6	AAAAKYAGAAYYACTGATRAGGGTCTATGT	HOCOMOCOv11_full_HUMAN_mono_meme_format	FOXO4_HUMAN.H11MO.0.C	.	TTGTTTAYK	0	0	.	.	.	5.00e-05	41	7	3	15	2.14e-06	1.92e-05
meme.xml	AAAAKYAGAAYYACTGATRAGGGTCTATGT	MEME-6	AAAAKYAGAAYYACTGATRAGGGTCTATGT	HOCOMOCOv11_full_HUMAN_mono_meme_format	FOXD3_HUMAN.H11MO.0.D	.	KBTGTTTNCWTWRBH	2	3	.	.	.	1.06e-04	20	3	5	17	1.18e-11	1.07e-10
meme.xml	AAAAKYAGAAYYACTGATRAGGGTCTATGT	MEME-6	AAAAKYAGAAYYACTGATRAGGGTCTATGT	HOCOMOCOv11_full_HUMAN_mono_meme_format	FOXD3_HUMAN.H11MO.0.D	.	KBTGTTTNCWTWRBH	2	3	.	.	.	1.06e-04	20	5	5	17	3.72e-10	3.35e-09
meme.xml	AAAAKYAGAAYYACTGATRAGGGTCTATGT	MEME-6	AAAAKYAGAAYYACTGATRAGGGTCTATGT	HOCOMOCOv11_full_HUMAN_mono_meme_format	FOXD3_HUMAN.H11MO.0.D	.	KBTGTTTNCWTWRBH	2	3	.	.	.	1.06e-04	20	7	5	17	3.72e-10	3.35e-09
meme.xml	AAAAKYAGAAYYACTGATRAGGGTCTATGT	MEME-6	AAAAKYAGAAYYACTGATRAGGGTCTATGT	HOCOMOCOv11_full_HUMAN_mono_meme_format	FOXD3_HUMAN.H11MO.0.D	.	KBTGTTTNCWTWRBH	2	3	.	.	.	1.06e-04	20	8	5	17	1.15e-08	1.03e-07
meme.xml	AAAAKYAGAAYYACTGATRAGGGTCTATGT	MEME-6	AAAAKYAGAAYYACTGATRAGGGTCTATGT	HOCOMOCOv11_full_HUMAN_mono_meme_format	FOXD3_HUMAN.H11MO.0.D	.	KBTGTTTNCWTWRBH	2	3	.	.	.	1.06e-04	39	3	3	17	4.13e-07	3.72e-06
meme.xml	AAAAKYAGAAYYACTGATRAGGGTCTATGT	MEME-6	AAAAKYAGAAYYACTGATRAGGGTCTATGT	HOCOMOCOv11_full_HUMAN_mono_meme_format	FOXD3_HUMAN.H11MO.0.D	.	KBTGTTTNCWTWRBH	2	3	.	.	.	1.06e-04	39	5	3	17	3.25e-06	2.92e-05
meme.xml	AAAAKYAGAAYYACTGATRAGGGTCTATGT	MEME-6	AAAAKYAGAAYYACTGATRAGGGTCTATGT	HOCOMOCOv11_full_HUMAN_mono_meme_format	FOXD3_HUMAN.H11MO.0.D	.	KBTGTTTNCWTWRBH	2	3	.	.	.	1.06e-04	39	7	3	17	3.25e-06	2.92e-05
meme.xml	AAAAKYAGAAYYACTGATRAGGGTCTATGT	MEME-6	AAAAKYAGAAYYACTGATRAGGGTCTATGT	HOCOMOCOv11_full_HUMAN_mono_meme_format	SOX13_HUMAN.H11MO.0.D	.	YATTGTTY	1	1	.	.	.	3.14e-04	14	2	4	7	3.42e-11	3.08e-10
meme.xml	AAAAKYAGAAYYACTGATRAGGGTCTATGT	MEME-6	AAAAKYAGAAYYACTGATRAGGGTCTATGT	HOCOMOCOv11_full_HUMAN_mono_meme_format	SOX13_HUMAN.H11MO.0.D	.	YATTGTTY	1	1	.	.	.	3.14e-04	14	6	4	7	5.45e-10	4.91e-09
meme.xml	AAAAKYAGAAYYACTGATRAGGGTCTATGT	MEME-6	AAAAKYAGAAYYACTGATRAGGGTCTATGT	HOCOMOCOv11_full_HUMAN_mono_meme_format	SOX13_HUMAN.H11MO.0.D	.	YATTGTTY	1	1	.	.	.	3.14e-04	14	7	4	7	5.45e-10	4.91e-09
meme.xml	AAAAKYAGAAYYACTGATRAGGGTCTATGT	MEME-6	AAAAKYAGAAYYACTGATRAGGGTCTATGT	HOCOMOCOv11_full_HUMAN_mono_meme_format	SOX13_HUMAN.H11MO.0.D	.	YATTGTTY	1	1	.	.	.	3.14e-04	14	8	4	7	8.65e-09	7.79e-08
meme.xml	AAAAKYAGAAYYACTGATRAGGGTCTATGT	MEME-6	AAAAKYAGAAYYACTGATRAGGGTCTATGT	HOCOMOCOv11_full_HUMAN_mono_meme_format	HTF4_HUMAN.H11MO.0.A	.	DSCAGSTGKG	1	0	.	.	.	3.13e-03	0	2	4	11	3.49e-10	3.14e-09
meme.xml	AAAAKYAGAAYYACTGATRAGGGTCTATGT	MEME-6	AAAAKYAGAAYYACTGATRAGGGTCTATGT	HOCOMOCOv11_full_HUMAN_mono_meme_format	HTF4_HUMAN.H11MO.0.A	.	DSCAGSTGKG	1	0	.	.	.	3.13e-03	0	6	4	11	5.53e-09	4.97e-08
meme.xml	AAAAKYAGAAYYACTGATRAGGGTCTATGT	MEME-6	AAAAKYAGAAYYACTGATRAGGGTCTATGT	HOCOMOCOv11_full_HUMAN_mono_meme_format	HTF4_HUMAN.H11MO.0.A	.	DSCAGSTGKG	1	0	.	.	.	3.13e-03	0	7	4	11	5.53e-09	4.97e-08
meme.xml	AAAAKYAGAAYYACTGATRAGGGTCTATGT	MEME-6	AAAAKYAGAAYYACTGATRAGGGTCTATGT	HOCOMOCOv11_full_HUMAN_mono_meme_format	HTF4_HUMAN.H11MO.0.A	.	DSCAGSTGKG	1	0	.	.	.	3.13e-03	0	8	4	11	8.67e-08	7.80e-07
meme.xml	AAAAKYAGAAYYACTGATRAGGGTCTATGT	MEME-6	AAAAKYAGAAYYACTGATRAGGGTCTATGT	HOCOMOCOv11_full_HUMAN_mono_meme_format	EPAS1_HUMAN.H11MO.0.B	.	VTACGTGMC	1	1	.	.	.	5.30e-03	8	3	3	3	5.81e-10	5.23e-09
meme.xml	AAAAKYAGAAYYACTGATRAGGGTCTATGT	MEME-6	AAAAKYAGAAYYACTGATRAGGGTCTATGT	HOCOMOCOv11_full_HUMAN_mono_meme_format	EPAS1_HUMAN.H11MO.0.B	.	VTACGTGMC	1	1	.	.	.	5.30e-03	8	5	3	3	4.65e-09	4.19e-08
meme.xml	AAAAKYAGAAYYACTGATRAGGGTCTATGT	MEME-6	AAAAKYAGAAYYACTGATRAGGGTCTATGT	HOCOMOCOv11_full_HUMAN_mono_meme_format	EPAS1_HUMAN.H11MO.0.B	.	VTACGTGMC	1	1	.	.	.	5.30e-03	8	7	3	3	4.65e-09	4.19e-08
meme.xml	AAAAKYAGAAYYACTGATRAGGGTCTATGT	MEME-6	AAAAKYAGAAYYACTGATRAGGGTCTATGT	HOCOMOCOv11_full_HUMAN_mono_meme_format	EPAS1_HUMAN.H11MO.0.B	.	VTACGTGMC	1	1	.	.	.	5.30e-03	8	8	3	3	3.72e-08	3.35e-07
meme.xml	AAAAKYAGAAYYACTGATRAGGGTCTATGT	MEME-6	AAAAKYAGAAYYACTGATRAGGGTCTATGT	HOCOMOCOv11_full_HUMAN_mono_meme_format	FOXJ3_HUMAN.H11MO.0.A	.	TTGTTTATKKTTW	1	0	.	.	.	5.68e-03	37	3	3	3	6.46e-10	5.82e-09
meme.xml	AAAAKYAGAAYYACTGATRAGGGTCTATGT	MEME-6	AAAAKYAGAAYYACTGATRAGGGTCTATGT	HOCOMOCOv11_full_HUMAN_mono_meme_format	FOXJ3_HUMAN.H11MO.0.A	.	TTGTTTATKKTTW	1	0	.	.	.	5.68e-03	37	5	3	3	5.17e-09	4.65e-08
meme.xml	AAAAKYAGAAYYACTGATRAGGGTCTATGT	MEME-6	AAAAKYAGAAYYACTGATRAGGGTCTATGT	HOCOMOCOv11_full_HUMAN_mono_meme_format	FOXJ3_HUMAN.H11MO.0.A	.	TTGTTTATKKTTW	1	0	.	.	.	5.68e-03	37	7	3	3	5.17e-09	4.65e-08
meme.xml	AAAAKYAGAAYYACTGATRAGGGTCTATGT	MEME-6	AAAAKYAGAAYYACTGATRAGGGTCTATGT	HOCOMOCOv11_full_HUMAN_mono_meme_format	FOXJ3_HUMAN.H11MO.0.A	.	TTGTTTATKKTTW	1	0	.	.	.	5.68e-03	37	8	3	3	4.14e-08	3.72e-07
meme.xml	AAAAKYAGAAYYACTGATRAGGGTCTATGT	MEME-6	AAAAKYAGAAYYACTGATRAGGGTCTATGT	HOCOMOCOv11_full_HUMAN_mono_meme_format	FOXJ3_HUMAN.H11MO.1.B	.	TKKTTWWTGTTTA	0	0	.	.	.	5.77e-03	36	3	3	3	6.61e-10	5.95e-09
meme.xml	AAAAKYAGAAYYACTGATRAGGGTCTATGT	MEME-6	AAAAKYAGAAYYACTGATRAGGGTCTATGT	HOCOMOCOv11_full_HUMAN_mono_meme_format	FOXJ3_HUMAN.H11MO.1.B	.	TKKTTWWTGTTTA	0	0	.	.	.	5.77e-03	36	5	3	3	5.28e-09	4.76e-08
meme.xml	AAAAKYAGAAYYACTGATRAGGGTCTATGT	MEME-6	AAAAKYAGAAYYACTGATRAGGGTCTATGT	HOCOMOCOv11_full_HUMAN_mono_meme_format	FOXJ3_HUMAN.H11MO.1.B	.	TKKTTWWTGTTTA	0	0	.	.	.	5.77e-03	36	7	3	3	5.28e-09	4.76e-08
meme.xml	AAAAKYAGAAYYACTGATRAGGGTCTATGT	MEME-6	AAAAKYAGAAYYACTGATRAGGGTCTATGT	HOCOMOCOv11_full_HUMAN_mono_meme_format	FOXJ3_HUMAN.H11MO.1.B	.	TKKTTWWTGTTTA	0	0	.	.	.	5.77e-03	36	8	3	3	4.23e-08	3.81e-07
meme.xml	AAAAKYAGAAYYACTGATRAGGGTCTATGT	MEME-6	AAAAKYAGAAYYACTGATRAGGGTCTATGT	HOCOMOCOv11_full_HUMAN_mono_meme_format	ZIM3_HUMAN.H11MO.0.C	.	KTRGGTTTCTGTTKYYTKY	1	3	.	.	.	5.94e-03	35	3	3	3	6.90e-10	6.21e-09
meme.xml	AAAAKYAGAAYYACTGATRAGGGTCTATGT	MEME-6	AAAAKYAGAAYYACTGATRAGGGTCTATGT	HOCOMOCOv11_full_HUMAN_mono_meme_format	ZIM3_HUMAN.H11MO.0.C	.	KTRGGTTTCTGTTKYYTKY	1	3	.	.	.	5.94e-03	35	5	3	3	5.52e-09	4.97e-08
meme.xml	AAAAKYAGAAYYACTGATRAGGGTCTATGT	MEME-6	AAAAKYAGAAYYACTGATRAGGGTCTATGT	HOCOMOCOv11_full_HUMAN_mono_meme_format	ZIM3_HUMAN.H11MO.0.C	.	KTRGGTTTCTGTTKYYTKY	1	3	.	.	.	5.94e-03	35	7	3	3	5.52e-09	4.97e-08
meme.xml	AAAAKYAGAAYYACTGATRAGGGTCTATGT	MEME-6	AAAAKYAGAAYYACTGATRAGGGTCTATGT	HOCOMOCOv11_full_HUMAN_mono_meme_format	ZIM3_HUMAN.H11MO.0.C	.	KTRGGTTTCTGTTKYYTKY	1	3	.	.	.	5.94e-03	35	8	3	3	4.42e-08	3.98e-07
meme.xml	AAAAKYAGAAYYACTGATRAGGGTCTATGT	MEME-6	AAAAKYAGAAYYACTGATRAGGGTCTATGT	HOCOMOCOv11_full_HUMAN_mono_meme_format	FOXG1_HUMAN.H11MO.0.D	.	DTTGTTTAYDTWTDTTT	1	0	.	.	.	6.03e-03	34	3	3	3	7.06e-10	6.35e-09
meme.xml	AAAAKYAGAAYYACTGATRAGGGTCTATGT	MEME-6	AAAAKYAGAAYYACTGATRAGGGTCTATGT	HOCOMOCOv11_full_HUMAN_mono_meme_format	FOXG1_HUMAN.H11MO.0.D	.	DTTGTTTAYDTWTDTTT	1	0	.	.	.	6.03e-03	34	5	3	3	5.65e-09	5.08e-08
meme.xml	AAAAKYAGAAYYACTGATRAGGGTCTATGT	MEME-6	AAAAKYAGAAYYACTGATRAGGGTCTATGT	HOCOMOCOv11_full_HUMAN_mono_meme_format	FOXG1_HUMAN.H11MO.0.D	.	DTTGTTTAYDTWTDTTT	1	0	.	.	.	6.03e-03	34	7	3	3	5.65e-09	5.08e-08
meme.xml	AAAAKYAGAAYYACTGATRAGGGTCTATGT	MEME-6	AAAAKYAGAAYYACTGATRAGGGTCTATGT	HOCOMOCOv11_full_HUMAN_mono_meme_format	FOXG1_HUMAN.H11MO.0.D	.	DTTGTTTAYDTWTDTTT	1	0	.	.	.	6.03e-03	34	8	3	3	4.52e-08	4.06e-07
meme.xml	AAAAKYAGAAYYACTGATRAGGGTCTATGT	MEME-6	AAAAKYAGAAYYACTGATRAGGGTCTATGT	HOCOMOCOv11_full_HUMAN_mono_meme_format	SRY_HUMAN.H11MO.0.B	.	YWTTGTTTH	1	0	.	.	.	3.57e-02	33	8	4	6	3.94e-09	3.55e-08
meme.xml	AAAAKYAGAAYYACTGATRAGGGTCTATGT	MEME-6	AAAAKYAGAAYYACTGATRAGGGTCTATGT	HOCOMOCOv11_full_HUMAN_mono_meme_format	SRY_HUMAN.H11MO.0.B	.	YWTTGTTTH	1	0	.	.	.	3.57e-02	33	3	3	6	1.18e-08	1.06e-07
meme.xml	AAAAKYAGAAYYACTGATRAGGGTCTATGT	MEME-6	AAAAKYAGAAYYACTGATRAGGGTCTATGT	HOCOMOCOv11_full_HUMAN_mono_meme_format	SRY_HUMAN.H11MO.0.B	.	YWTTGTTTH	1	0	.	.	.	3.57e-02	33	5	3	6	9.42e-08	8.48e-07
meme.xml	AAAAKYAGAAYYACTGATRAGGGTCTATGT	MEME-6	AAAAKYAGAAYYACTGATRAGGGTCTATGT	HOCOMOCOv11_full_HUMAN_mono_meme_format	SRY_HUMAN.H11MO.0.B	.	YWTTGTTTH	1	0	.	.	.	3.57e-02	33	7	3	6	9.42e-08	8.48e-07
meme.xml	AAAAKYAGAAYYACTGATRAGGGTCTATGT	MEME-6	AAAAKYAGAAYYACTGATRAGGGTCTATGT	HOCOMOCOv11_full_HUMAN_mono_meme_format	SOX17_HUMAN.H11MO.0.C	.	SCCATTGTKBY	1	3	.	.	.	5.28e-02	2	1	3	5	5.80e-09	5.22e-08
meme.xml	AAAAKYAGAAYYACTGATRAGGGTCTATGT	MEME-6	AAAAKYAGAAYYACTGATRAGGGTCTATGT	HOCOMOCOv11_full_HUMAN_mono_meme_format	SOX17_HUMAN.H11MO.0.C	.	SCCATTGTKBY	1	3	.	.	.	5.28e-02	2	4	3	5	4.63e-08	4.16e-07
meme.xml	AAAAKYAGAAYYACTGATRAGGGTCTATGT	MEME-6	AAAAKYAGAAYYACTGATRAGGGTCTATGT	HOCOMOCOv11_full_HUMAN_mono_meme_format	SOX17_HUMAN.H11MO.0.C	.	SCCATTGTKBY	1	3	.	.	.	5.28e-02	2	6	3	5	4.63e-08	4.16e-07
meme.xml	AAAAKYAGAAYYACTGATRAGGGTCTATGT	MEME-6	AAAAKYAGAAYYACTGATRAGGGTCTATGT	HOCOMOCOv11_full_HUMAN_mono_meme_format	SOX17_HUMAN.H11MO.0.C	.	SCCATTGTKBY	1	3	.	.	.	5.28e-02	2	8	3	5	3.68e-07	3.31e-06
meme.xml	AAAAKYAGAAYYACTGATRAGGGTCTATGT	MEME-6	AAAAKYAGAAYYACTGATRAGGGTCTATGT	HOCOMOCOv11_full_HUMAN_mono_meme_format	SOX9_HUMAN.H11MO.1.B	.	YCWTTGKYY	0	0	HOCOMOCOv11_full_HUMAN_mono_meme_format	SOX17_HUMAN.H11MO.0.C	.	3.03e-01	2	1	3	8	3.37e-08	3.04e-07
meme.xml	AAAAKYAGAAYYACTGATRAGGGTCTATGT	MEME-6	AAAAKYAGAAYYACTGATRAGGGTCTATGT	HOCOMOCOv11_full_HUMAN_mono_meme_format	SOX9_HUMAN.H11MO.1.B	.	YCWTTGKYY	0	0	HOCOMOCOv11_full_HUMAN_mono_meme_format	SOX17_HUMAN.H11MO.0.C	.	3.03e-01	2	4	3	8	2.68e-07	2.41e-06
meme.xml	AAAAKYAGAAYYACTGATRAGGGTCTATGT	MEME-6	AAAAKYAGAAYYACTGATRAGGGTCTATGT	HOCOMOCOv11_full_HUMAN_mono_meme_format	SOX9_HUMAN.H11MO.1.B	.	YCWTTGKYY	0	0	HOCOMOCOv11_full_HUMAN_mono_meme_format	SOX17_HUMAN.H11MO.0.C	.	3.03e-01	2	6	3	8	2.68e-07	2.41e-06
meme.xml	AAAAKYAGAAYYACTGATRAGGGTCTATGT	MEME-6	AAAAKYAGAAYYACTGATRAGGGTCTATGT	HOCOMOCOv11_full_HUMAN_mono_meme_format	SOX9_HUMAN.H11MO.1.B	.	YCWTTGKYY	0	0	HOCOMOCOv11_full_HUMAN_mono_meme_format	SOX17_HUMAN.H11MO.0.C	.	3.03e-01	2	8	3	8	2.12e-06	1.90e-05
meme.xml	AAAAKYAGAAYYACTGATRAGGGTCTATGT	MEME-6	AAAAKYAGAAYYACTGATRAGGGTCTATGT	HOCOMOCOv11_full_HUMAN_mono_meme_format	SOX15_HUMAN.H11MO.0.D	.	CWTTGTT	0	0	HOCOMOCOv11_full_HUMAN_mono_meme_format	SOX17_HUMAN.H11MO.0.C	.	6.30e-01	3	1	3	10	6.91e-08	6.22e-07
meme.xml	AAAAKYAGAAYYACTGATRAGGGTCTATGT	MEME-6	AAAAKYAGAAYYACTGATRAGGGTCTATGT	HOCOMOCOv11_full_HUMAN_mono_meme_format	SOX15_HUMAN.H11MO.0.D	.	CWTTGTT	0	0	HOCOMOCOv11_full_HUMAN_mono_meme_format	SOX17_HUMAN.H11MO.0.C	.	6.30e-01	3	4	3	10	5.48e-07	4.93e-06
meme.xml	AAAAKYAGAAYYACTGATRAGGGTCTATGT	MEME-6	AAAAKYAGAAYYACTGATRAGGGTCTATGT	HOCOMOCOv11_full_HUMAN_mono_meme_format	SOX15_HUMAN.H11MO.0.D	.	CWTTGTT	0	0	HOCOMOCOv11_full_HUMAN_mono_meme_format	SOX17_HUMAN.H11MO.0.C	.	6.30e-01	3	6	3	10	5.48e-07	4.93e-06
meme.xml	AAAAKYAGAAYYACTGATRAGGGTCTATGT	MEME-6	AAAAKYAGAAYYACTGATRAGGGTCTATGT	HOCOMOCOv11_full_HUMAN_mono_meme_format	SOX15_HUMAN.H11MO.0.D	.	CWTTGTT	0	0	HOCOMOCOv11_full_HUMAN_mono_meme_format	SOX17_HUMAN.H11MO.0.C	.	6.30e-01	3	8	3	10	4.31e-06	3.87e-05
meme.xml	AAAAKYAGAAYYACTGATRAGGGTCTATGT	MEME-6	AAAAKYAGAAYYACTGATRAGGGTCTATGT	HOCOMOCOv11_full_HUMAN_mono_meme_format	SOX2_HUMAN.H11MO.0.A	.	BBCCTTTGTYYYB	1	2	HOCOMOCOv11_full_HUMAN_mono_meme_format	SOX17_HUMAN.H11MO.0.C	.	9.01e-01	1	1	3	11	1.01e-07	9.10e-07
meme.xml	AAAAKYAGAAYYACTGATRAGGGTCTATGT	MEME-6	AAAAKYAGAAYYACTGATRAGGGTCTATGT	HOCOMOCOv11_full_HUMAN_mono_meme_format	SOX2_HUMAN.H11MO.0.A	.	BBCCTTTGTYYYB	1	2	HOCOMOCOv11_full_HUMAN_mono_meme_format	SOX17_HUMAN.H11MO.0.C	.	9.01e-01	1	4	3	11	8.00e-07	7.20e-06
meme.xml	AAAAKYAGAAYYACTGATRAGGGTCTATGT	MEME-6	AAAAKYAGAAYYACTGATRAGGGTCTATGT	HOCOMOCOv11_full_HUMAN_mono_meme_format	SOX2_HUMAN.H11MO.0.A	.	BBCCTTTGTYYYB	1	2	HOCOMOCOv11_full_HUMAN_mono_meme_format	SOX17_HUMAN.H11MO.0.C	.	9.01e-01	1	6	3	11	8.00e-07	7.20e-06
meme.xml	AAAAKYAGAAYYACTGATRAGGGTCTATGT	MEME-6	AAAAKYAGAAYYACTGATRAGGGTCTATGT	HOCOMOCOv11_full_HUMAN_mono_meme_format	SOX4_HUMAN.H11MO.0.B	.	BYCTTTGTYYYB	0	1	HOCOMOCOv11_full_HUMAN_mono_meme_format	SOX17_HUMAN.H11MO.0.C	.	9.14e-01	1	1	3	11	1.03e-07	9.30e-07
meme.xml	AAAAKYAGAAYYACTGATRAGGGTCTATGT	MEME-6	AAAAKYAGAAYYACTGATRAGGGTCTATGT	HOCOMOCOv11_full_HUMAN_mono_meme_format	SOX4_HUMAN.H11MO.0.B	.	BYCTTTGTYYYB	0	1	HOCOMOCOv11_full_HUMAN_mono_meme_format	SOX17_HUMAN.H11MO.0.C	.	9.14e-01	1	4	3	11	8.17e-07	7.36e-06
meme.xml	AAAAKYAGAAYYACTGATRAGGGTCTATGT	MEME-6	AAAAKYAGAAYYACTGATRAGGGTCTATGT	HOCOMOCOv11_full_HUMAN_mono_meme_format	SOX4_HUMAN.H11MO.0.B	.	BYCTTTGTYYYB	0	1	HOCOMOCOv11_full_HUMAN_mono_meme_format	SOX17_HUMAN.H11MO.0.C	.	9.14e-01	1	6	3	11	8.17e-07	7.36e-06
meme.xml	AAAAKYAGAAYYACTGATRAGGGTCTATGT	MEME-6	AAAAKYAGAAYYACTGATRAGGGTCTATGT	HOCOMOCOv11_full_HUMAN_mono_meme_format	SOX10_HUMAN.H11MO.1.A	.	BBYCTTTGTTYYY	1	2	HOCOMOCOv11_full_HUMAN_mono_meme_format	SOX17_HUMAN.H11MO.0.C	.	3.03e+00	1	1	3	16	3.41e-07	3.07e-06
meme.xml	AAAAKYAGAAYYACTGATRAGGGTCTATGT	MEME-6	AAAAKYAGAAYYACTGATRAGGGTCTATGT	HOCOMOCOv11_full_HUMAN_mono_meme_format	SOX10_HUMAN.H11MO.1.A	.	BBYCTTTGTTYYY	1	2	HOCOMOCOv11_full_HUMAN_mono_meme_format	SOX17_HUMAN.H11MO.0.C	.	3.03e+00	1	4	3	16	2.68e-06	2.41e-05
meme.xml	AAAAKYAGAAYYACTGATRAGGGTCTATGT	MEME-6	AAAAKYAGAAYYACTGATRAGGGTCTATGT	HOCOMOCOv11_full_HUMAN_mono_meme_format	SOX10_HUMAN.H11MO.1.A	.	BBYCTTTGTTYYY	1	2	HOCOMOCOv11_full_HUMAN_mono_meme_format	SOX17_HUMAN.H11MO.0.C	.	3.03e+00	1	6	3	16	2.68e-06	2.41e-05
meme.xml	AAAAKYAGAAYYACTGATRAGGGTCTATGT	MEME-6	AAAAKYAGAAYYACTGATRAGGGTCTATGT	HOCOMOCOv11_full_HUMAN_mono_meme_format	ISL1_HUMAN.H11MO.0.A	.	VCTAATKGV	1	1	HOCOMOCOv11_full_HUMAN_mono_meme_format	SOX17_HUMAN.H11MO.0.C	.	5.01e+00	1	0	3	19	5.52e-07	4.97e-06
meme.xml	AAAAKYAGAAYYACTGATRAGGGTCTATGT	MEME-6	AAAAKYAGAAYYACTGATRAGGGTCTATGT	HOCOMOCOv11_full_HUMAN_mono_meme_format	ISL1_HUMAN.H11MO.0.A	.	VCTAATKGV	1	1	HOCOMOCOv11_full_HUMAN_mono_meme_format	SOX17_HUMAN.H11MO.0.C	.	5.01e+00	1	4	3	19	4.32e-06	3.89e-05
meme.xml	AAAAKYAGAAYYACTGATRAGGGTCTATGT	MEME-6	AAAAKYAGAAYYACTGATRAGGGTCTATGT	HOCOMOCOv11_full_HUMAN_mono_meme_format	ISL1_HUMAN.H11MO.0.A	.	VCTAATKGV	1	1	HOCOMOCOv11_full_HUMAN_mono_meme_format	SOX17_HUMAN.H11MO.0.C	.	5.01e+00	1	5	3	19	4.32e-06	3.89e-05
meme.xml	AAAAKYAGAAYYACTGATRAGGGTCTATGT	MEME-6	AAAAKYAGAAYYACTGATRAGGGTCTATGT	HOCOMOCOv11_full_HUMAN_mono_meme_format	LEF1_HUMAN.H11MO.0.A	.	BCCTTTSWWNTBYH	1	1	HOCOMOCOv11_full_HUMAN_mono_meme_format	SOX17_HUMAN.H11MO.0.C	.	9.74e+00	2	1	3	23	1.11e-06	1.00e-05
meme.xml	AAAAKYAGAAYYACTGATRAGGGTCTATGT	MEME-6	AAAAKYAGAAYYACTGATRAGGGTCTATGT	HOCOMOCOv11_full_HUMAN_mono_meme_format	LEF1_HUMAN.H11MO.0.A	.	BCCTTTSWWNTBYH	1	1	HOCOMOCOv11_full_HUMAN_mono_meme_format	SOX17_HUMAN.H11MO.0.C	.	9.74e+00	36	3	3	23	1.11e-06	1.00e-05
meme.xml	AAAAKYAGAAYYACTGATRAGGGTCTATGT	MEME-6	AAAAKYAGAAYYACTGATRAGGGTCTATGT	HOCOMOCOv11_full_HUMAN_mono_meme_format	OLIG2_HUMAN.H11MO.1.B	.	CCAKCTGYYY	0	1	.	.	.	5.43e-02	0	2	3	5	6.05e-09	5.44e-08
meme.xml	AAAAKYAGAAYYACTGATRAGGGTCTATGT	MEME-6	AAAAKYAGAAYYACTGATRAGGGTCTATGT	HOCOMOCOv11_full_HUMAN_mono_meme_format	OLIG2_HUMAN.H11MO.1.B	.	CCAKCTGYYY	0	1	.	.	.	5.43e-02	0	6	3	5	4.83e-08	4.34e-07
meme.xml	AAAAKYAGAAYYACTGATRAGGGTCTATGT	MEME-6	AAAAKYAGAAYYACTGATRAGGGTCTATGT	HOCOMOCOv11_full_HUMAN_mono_meme_format	OLIG2_HUMAN.H11MO.1.B	.	CCAKCTGYYY	0	1	.	.	.	5.43e-02	0	7	3	5	4.83e-08	4.34e-07
meme.xml	AAAAKYAGAAYYACTGATRAGGGTCTATGT	MEME-6	AAAAKYAGAAYYACTGATRAGGGTCTATGT	HOCOMOCOv11_full_HUMAN_mono_meme_format	OLIG2_HUMAN.H11MO.1.B	.	CCAKCTGYYY	0	1	.	.	.	5.43e-02	0	8	3	5	3.84e-07	3.46e-06
meme.xml	AAAAKYAGAAYYACTGATRAGGGTCTATGT	MEME-6	AAAAKYAGAAYYACTGATRAGGGTCTATGT	HOCOMOCOv11_full_HUMAN_mono_meme_format	ANDR_HUMAN.H11MO.0.A	.	TGTTCTTKKYTGTTTRYW	0	0	.	.	.	1.24e-01	31	3	3	6	1.47e-08	1.32e-07
meme.xml	AAAAKYAGAAYYACTGATRAGGGTCTATGT	MEME-6	AAAAKYAGAAYYACTGATRAGGGTCTATGT	HOCOMOCOv11_full_HUMAN_mono_meme_format	ANDR_HUMAN.H11MO.0.A	.	TGTTCTTKKYTGTTTRYW	0	0	.	.	.	1.24e-01	31	5	3	6	1.17e-07	1.05e-06
meme.xml	AAAAKYAGAAYYACTGATRAGGGTCTATGT	MEME-6	AAAAKYAGAAYYACTGATRAGGGTCTATGT	HOCOMOCOv11_full_HUMAN_mono_meme_format	ANDR_HUMAN.H11MO.0.A	.	TGTTCTTKKYTGTTTRYW	0	0	.	.	.	1.24e-01	31	7	3	6	1.17e-07	1.05e-06
meme.xml	AAAAKYAGAAYYACTGATRAGGGTCTATGT	MEME-6	AAAAKYAGAAYYACTGATRAGGGTCTATGT	HOCOMOCOv11_full_HUMAN_mono_meme_format	ANDR_HUMAN.H11MO.0.A	.	TGTTCTTKKYTGTTTRYW	0	0	.	.	.	1.24e-01	31	8	3	6	9.29e-07	8.36e-06
meme.xml	AAAAKYAGAAYYACTGATRAGGGTCTATGT	MEME-6	AAAAKYAGAAYYACTGATRAGGGTCTATGT	meme.xml	AGRAAACAGGGTTYRAGAGCAGAGAACCRG	MEME-5	AGRAAACAGGGTTYRAGAGCAGAGAACCRG	0	0	.	.	.	1.49e-01	37	2	3	6	1.95e-08	1.76e-07
meme.xml	AAAAKYAGAAYYACTGATRAGGGTCTATGT	MEME-6	AAAAKYAGAAYYACTGATRAGGGTCTATGT	meme.xml	AGRAAACAGGGTTYRAGAGCAGAGAACCRG	MEME-5	AGRAAACAGGGTTYRAGAGCAGAGAACCRG	0	0	.	.	.	1.49e-01	37	6	3	6	1.55e-07	1.40e-06
meme.xml	AAAAKYAGAAYYACTGATRAGGGTCTATGT	MEME-6	AAAAKYAGAAYYACTGATRAGGGTCTATGT	meme.xml	AGRAAACAGGGTTYRAGAGCAGAGAACCRG	MEME-5	AGRAAACAGGGTTYRAGAGCAGAGAACCRG	0	0	.	.	.	1.49e-01	37	7	3	6	1.55e-07	1.40e-06
meme.xml	AAAAKYAGAAYYACTGATRAGGGTCTATGT	MEME-6	AAAAKYAGAAYYACTGATRAGGGTCTATGT	meme.xml	AGRAAACAGGGTTYRAGAGCAGAGAACCRG	MEME-5	AGRAAACAGGGTTYRAGAGCAGAGAACCRG	0	0	.	.	.	1.49e-01	37	8	3	6	1.23e-06	1.11e-05
meme.xml	AAAAKYAGAAYYACTGATRAGGGTCTATGT	MEME-6	AAAAKYAGAAYYACTGATRAGGGTCTATGT	HOCOMOCOv11_full_HUMAN_mono_meme_format	FOXP1_HUMAN.H11MO.0.A	.	TBTGTTTMY	0	0	.	.	.	1.90e-01	42	3	3	7	2.11e-08	1.90e-07
meme.xml	AAAAKYAGAAYYACTGATRAGGGTCTATGT	MEME-6	AAAAKYAGAAYYACTGATRAGGGTCTATGT	HOCOMOCOv11_full_HUMAN_mono_meme_format	FOXP1_HUMAN.H11MO.0.A	.	TBTGTTTMY	0	0	.	.	.	1.90e-01	42	5	3	7	1.68e-07	1.51e-06
meme.xml	AAAAKYAGAAYYACTGATRAGGGTCTATGT	MEME-6	AAAAKYAGAAYYACTGATRAGGGTCTATGT	HOCOMOCOv11_full_HUMAN_mono_meme_format	FOXP1_HUMAN.H11MO.0.A	.	TBTGTTTMY	0	0	.	.	.	1.90e-01	42	7	3	7	1.68e-07	1.51e-06
meme.xml	AAAAKYAGAAYYACTGATRAGGGTCTATGT	MEME-6	AAAAKYAGAAYYACTGATRAGGGTCTATGT	HOCOMOCOv11_full_HUMAN_mono_meme_format	FOXP1_HUMAN.H11MO.0.A	.	TBTGTTTMY	0	0	.	.	.	1.90e-01	42	8	3	7	1.33e-06	1.20e-05
meme.xml	AAAAKYAGAAYYACTGATRAGGGTCTATGT	MEME-6	AAAAKYAGAAYYACTGATRAGGGTCTATGT	HOCOMOCOv11_full_HUMAN_mono_meme_format	RUNX1_HUMAN.H11MO.0.A	.	BYTGTGGTTWB	1	1	.	.	.	1.90e-01	34	3	3	7	2.11e-08	1.90e-07
meme.xml	AAAAKYAGAAYYACTGATRAGGGTCTATGT	MEME-6	AAAAKYAGAAYYACTGATRAGGGTCTATGT	HOCOMOCOv11_full_HUMAN_mono_meme_format	RUNX1_HUMAN.H11MO.0.A	.	BYTGTGGTTWB	1	1	.	.	.	1.90e-01	34	5	3	7	1.68e-07	1.51e-06
meme.xml	AAAAKYAGAAYYACTGATRAGGGTCTATGT	MEME-6	AAAAKYAGAAYYACTGATRAGGGTCTATGT	HOCOMOCOv11_full_HUMAN_mono_meme_format	RUNX1_HUMAN.H11MO.0.A	.	BYTGTGGTTWB	1	1	.	.	.	1.90e-01	34	7	3	7	1.68e-07	1.51e-06
meme.xml	AAAAKYAGAAYYACTGATRAGGGTCTATGT	MEME-6	AAAAKYAGAAYYACTGATRAGGGTCTATGT	HOCOMOCOv11_full_HUMAN_mono_meme_format	RUNX1_HUMAN.H11MO.0.A	.	BYTGTGGTTWB	1	1	.	.	.	1.90e-01	34	8	3	7	1.33e-06	1.20e-05
meme.xml	AAAAKYAGAAYYACTGATRAGGGTCTATGT	MEME-6	AAAAKYAGAAYYACTGATRAGGGTCTATGT	HOCOMOCOv11_full_HUMAN_mono_meme_format	P73_HUMAN.H11MO.0.A	.	RRRCAWGYCCARRCWTGYC	3	0	.	.	.	2.10e-01	7	3	3	7	2.46e-08	2.21e-07
meme.xml	AAAAKYAGAAYYACTGATRAGGGTCTATGT	MEME-6	AAAAKYAGAAYYACTGATRAGGGTCTATGT	HOCOMOCOv11_full_HUMAN_mono_meme_format	P73_HUMAN.H11MO.0.A	.	RRRCAWGYCCARRCWTGYC	3	0	.	.	.	2.10e-01	7	5	3	7	1.95e-07	1.76e-06
meme.xml	AAAAKYAGAAYYACTGATRAGGGTCTATGT	MEME-6	AAAAKYAGAAYYACTGATRAGGGTCTATGT	HOCOMOCOv11_full_HUMAN_mono_meme_format	P73_HUMAN.H11MO.0.A	.	RRRCAWGYCCARRCWTGYC	3	0	.	.	.	2.10e-01	7	7	3	7	1.95e-07	1.76e-06
meme.xml	AAAAKYAGAAYYACTGATRAGGGTCTATGT	MEME-6	AAAAKYAGAAYYACTGATRAGGGTCTATGT	HOCOMOCOv11_full_HUMAN_mono_meme_format	P73_HUMAN.H11MO.0.A	.	RRRCAWGYCCARRCWTGYC	3	0	.	.	.	2.10e-01	7	8	3	7	1.55e-06	1.39e-05
meme.xml	AAAAKYAGAAYYACTGATRAGGGTCTATGT	MEME-6	AAAAKYAGAAYYACTGATRAGGGTCTATGT	HOCOMOCOv11_full_HUMAN_mono_meme_format	ZN524_HUMAN.H11MO.0.D	.	GGGTDCRAGGGTTCGAGK	0	1	.	.	.	2.13e-01	37	2	3	7	2.51e-08	2.26e-07
meme.xml	AAAAKYAGAAYYACTGATRAGGGTCTATGT	MEME-6	AAAAKYAGAAYYACTGATRAGGGTCTATGT	HOCOMOCOv11_full_HUMAN_mono_meme_format	ZN524_HUMAN.H11MO.0.D	.	GGGTDCRAGGGTTCGAGK	0	1	.	.	.	2.13e-01	37	6	3	7	2.00e-07	1.80e-06
meme.xml	AAAAKYAGAAYYACTGATRAGGGTCTATGT	MEME-6	AAAAKYAGAAYYACTGATRAGGGTCTATGT	HOCOMOCOv11_full_HUMAN_mono_meme_format	ZN524_HUMAN.H11MO.0.D	.	GGGTDCRAGGGTTCGAGK	0	1	.	.	.	2.13e-01	37	7	3	7	2.00e-07	1.80e-06
meme.xml	AAAAKYAGAAYYACTGATRAGGGTCTATGT	MEME-6	AAAAKYAGAAYYACTGATRAGGGTCTATGT	HOCOMOCOv11_full_HUMAN_mono_meme_format	ZN524_HUMAN.H11MO.0.D	.	GGGTDCRAGGGTTCGAGK	0	1	.	.	.	2.13e-01	37	8	3	7	1.58e-06	1.42e-05
meme.xml	AAAAKYAGAAYYACTGATRAGGGTCTATGT	MEME-6	AAAAKYAGAAYYACTGATRAGGGTCTATGT	HOCOMOCOv11_full_HUMAN_mono_meme_format	BRCA1_HUMAN.H11MO.0.D	.	BKTSKGTTG	1	0	.	.	.	2.99e-01	37	3	3	8	3.30e-08	2.97e-07
meme.xml	AAAAKYAGAAYYACTGATRAGGGTCTATGT	MEME-6	AAAAKYAGAAYYACTGATRAGGGTCTATGT	HOCOMOCOv11_full_HUMAN_mono_meme_format	BRCA1_HUMAN.H11MO.0.D	.	BKTSKGTTG	1	0	.	.	.	2.99e-01	37	5	3	8	2.63e-07	2.36e-06
meme.xml	AAAAKYAGAAYYACTGATRAGGGTCTATGT	MEME-6	AAAAKYAGAAYYACTGATRAGGGTCTATGT	HOCOMOCOv11_full_HUMAN_mono_meme_format	BRCA1_HUMAN.H11MO.0.D	.	BKTSKGTTG	1	0	.	.	.	2.99e-01	37	7	3	8	2.63e-07	2.36e-06
meme.xml	AAAAKYAGAAYYACTGATRAGGGTCTATGT	MEME-6	AAAAKYAGAAYYACTGATRAGGGTCTATGT	HOCOMOCOv11_full_HUMAN_mono_meme_format	BRCA1_HUMAN.H11MO.0.D	.	BKTSKGTTG	1	0	.	.	.	2.99e-01	37	8	3	8	2.07e-06	1.87e-05
meme.xml	AAAAKYAGAAYYACTGATRAGGGTCTATGT	MEME-6	AAAAKYAGAAYYACTGATRAGGGTCTATGT	HOCOMOCOv11_full_HUMAN_mono_meme_format	PRGR_HUMAN.H11MO.0.A	.	RGAACATTYTGTTCTB	0	1	.	.	.	3.30e-01	7	2	3	8	3.84e-08	3.45e-07
meme.xml	AAAAKYAGAAYYACTGATRAGGGTCTATGT	MEME-6	AAAAKYAGAAYYACTGATRAGGGTCTATGT	HOCOMOCOv11_full_HUMAN_mono_meme_format	PRGR_HUMAN.H11MO.0.A	.	RGAACATTYTGTTCTB	0	1	.	.	.	3.30e-01	7	6	3	8	3.05e-07	2.74e-06
meme.xml	AAAAKYAGAAYYACTGATRAGGGTCTATGT	MEME-6	AAAAKYAGAAYYACTGATRAGGGTCTATGT	HOCOMOCOv11_full_HUMAN_mono_meme_format	PRGR_HUMAN.H11MO.0.A	.	RGAACATTYTGTTCTB	0	1	.	.	.	3.30e-01	7	7	3	8	3.05e-07	2.74e-06
meme.xml	AAAAKYAGAAYYACTGATRAGGGTCTATGT	MEME-6	AAAAKYAGAAYYACTGATRAGGGTCTATGT	HOCOMOCOv11_full_HUMAN_mono_meme_format	PRGR_HUMAN.H11MO.0.A	.	RGAACATTYTGTTCTB	0	1	.	.	.	3.30e-01	7	8	3	8	2.41e-06	2.17e-05
meme.xml	AAAAKYAGAAYYACTGATRAGGGTCTATGT	MEME-6	AAAAKYAGAAYYACTGATRAGGGTCTATGT	HOCOMOCOv11_full_HUMAN_mono_meme_format	ZN713_HUMAN.H11MO.0.D	.	RWAGAARAADGVSANGMAA	2	0	.	.	.	3.40e-01	41	2	3	8	4.01e-08	3.61e-07
meme.xml	AAAAKYAGAAYYACTGATRAGGGTCTATGT	MEME-6	AAAAKYAGAAYYACTGATRAGGGTCTATGT	HOCOMOCOv11_full_HUMAN_mono_meme_format	ZN713_HUMAN.H11MO.0.D	.	RWAGAARAADGVSANGMAA	2	0	.	.	.	3.40e-01	41	6	3	8	3.19e-07	2.87e-06
meme.xml	AAAAKYAGAAYYACTGATRAGGGTCTATGT	MEME-6	AAAAKYAGAAYYACTGATRAGGGTCTATGT	HOCOMOCOv11_full_HUMAN_mono_meme_format	ZN713_HUMAN.H11MO.0.D	.	RWAGAARAADGVSANGMAA	2	0	.	.	.	3.40e-01	41	7	3	8	3.19e-07	2.87e-06
meme.xml	AAAAKYAGAAYYACTGATRAGGGTCTATGT	MEME-6	AAAAKYAGAAYYACTGATRAGGGTCTATGT	HOCOMOCOv11_full_HUMAN_mono_meme_format	ZN713_HUMAN.H11MO.0.D	.	RWAGAARAADGVSANGMAA	2	0	.	.	.	3.40e-01	41	8	3	8	2.51e-06	2.26e-05
meme.xml	AAAAKYAGAAYYACTGATRAGGGTCTATGT	MEME-6	AAAAKYAGAAYYACTGATRAGGGTCTATGT	HOCOMOCOv11_full_HUMAN_mono_meme_format	NKX21_HUMAN.H11MO.0.A	.	BTKGAGTGSY	1	1	.	.	.	4.47e-01	49	2	3	9	4.95e-08	4.45e-07
meme.xml	AAAAKYAGAAYYACTGATRAGGGTCTATGT	MEME-6	AAAAKYAGAAYYACTGATRAGGGTCTATGT	HOCOMOCOv11_full_HUMAN_mono_meme_format	NKX21_HUMAN.H11MO.0.A	.	BTKGAGTGSY	1	1	.	.	.	4.47e-01	49	6	3	9	3.93e-07	3.53e-06
meme.xml	AAAAKYAGAAYYACTGATRAGGGTCTATGT	MEME-6	AAAAKYAGAAYYACTGATRAGGGTCTATGT	HOCOMOCOv11_full_HUMAN_mono_meme_format	NKX21_HUMAN.H11MO.0.A	.	BTKGAGTGSY	1	1	.	.	.	4.47e-01	49	7	3	9	3.93e-07	3.53e-06
meme.xml	AAAAKYAGAAYYACTGATRAGGGTCTATGT	MEME-6	AAAAKYAGAAYYACTGATRAGGGTCTATGT	HOCOMOCOv11_full_HUMAN_mono_meme_format	NKX21_HUMAN.H11MO.0.A	.	BTKGAGTGSY	1	1	.	.	.	4.47e-01	49	8	3	9	3.09e-06	2.78e-05
meme.xml	AAAAKYAGAAYYACTGATRAGGGTCTATGT	MEME-6	AAAAKYAGAAYYACTGATRAGGGTCTATGT	HOCOMOCOv11_full_HUMAN_mono_meme_format	P63_HUMAN.H11MO.0.A	.	DRCAWGYCCAGRCWTGYYB	1	2	.	.	.	4.79e-01	8	7	3	5	5.61e-08	5.05e-07
meme.xml	AAAAKYAGAAYYACTGATRAGGGTCTATGT	MEME-6	AAAAKYAGAAYYACTGATRAGGGTCTATGT	HOCOMOCOv11_full_HUMAN_mono_meme_format	P63_HUMAN.H11MO.0.A	.	DRCAWGYCCAGRCWTGYYB	1	2	.	.	.	4.79e-01	8	8	3	5	4.47e-07	4.02e-06
meme.xml	AAAAKYAGAAYYACTGATRAGGGTCTATGT	MEME-6	AAAAKYAGAAYYACTGATRAGGGTCTATGT	HOCOMOCOv11_full_HUMAN_mono_meme_format	P63_HUMAN.H11MO.0.A	.	DRCAWGYCCAGRCWTGYYB	1	2	.	.	.	4.79e-01	8	3	2	5	3.80e-06	3.42e-05
meme.xml	AAAAKYAGAAYYACTGATRAGGGTCTATGT	MEME-6	AAAAKYAGAAYYACTGATRAGGGTCTATGT	HOCOMOCOv11_full_HUMAN_mono_meme_format	NANOG_HUMAN.H11MO.0.A	.	BYYWTTGWNATGCAAAT	1	1	.	.	.	4.95e-01	12	2	3	9	5.75e-08	5.17e-07
meme.xml	AAAAKYAGAAYYACTGATRAGGGTCTATGT	MEME-6	AAAAKYAGAAYYACTGATRAGGGTCTATGT	HOCOMOCOv11_full_HUMAN_mono_meme_format	NANOG_HUMAN.H11MO.0.A	.	BYYWTTGWNATGCAAAT	1	1	.	.	.	4.95e-01	12	6	3	9	4.56e-07	4.11e-06
meme.xml	AAAAKYAGAAYYACTGATRAGGGTCTATGT	MEME-6	AAAAKYAGAAYYACTGATRAGGGTCTATGT	HOCOMOCOv11_full_HUMAN_mono_meme_format	NANOG_HUMAN.H11MO.0.A	.	BYYWTTGWNATGCAAAT	1	1	.	.	.	4.95e-01	12	7	3	9	4.56e-07	4.11e-06
meme.xml	AAAAKYAGAAYYACTGATRAGGGTCTATGT	MEME-6	AAAAKYAGAAYYACTGATRAGGGTCTATGT	HOCOMOCOv11_full_HUMAN_mono_meme_format	NANOG_HUMAN.H11MO.0.A	.	BYYWTTGWNATGCAAAT	1	1	.	.	.	4.95e-01	12	8	3	9	3.59e-06	3.23e-05
meme.xml	AAAAKYAGAAYYACTGATRAGGGTCTATGT	MEME-6	AAAAKYAGAAYYACTGATRAGGGTCTATGT	HOCOMOCOv11_full_HUMAN_mono_meme_format	ETS2_HUMAN.H11MO.0.B	.	RDVRGGAARVRRR	3	0	.	.	.	6.56e-01	8	0	3	10	7.36e-08	6.63e-07
meme.xml	AAAAKYAGAAYYACTGATRAGGGTCTATGT	MEME-6	AAAAKYAGAAYYACTGATRAGGGTCTATGT	HOCOMOCOv11_full_HUMAN_mono_meme_format	ETS2_HUMAN.H11MO.0.B	.	RDVRGGAARVRRR	3	0	.	.	.	6.56e-01	8	4	3	10	5.84e-07	5.25e-06
meme.xml	AAAAKYAGAAYYACTGATRAGGGTCTATGT	MEME-6	AAAAKYAGAAYYACTGATRAGGGTCTATGT	HOCOMOCOv11_full_HUMAN_mono_meme_format	ETS2_HUMAN.H11MO.0.B	.	RDVRGGAARVRRR	3	0	.	.	.	6.56e-01	8	5	3	10	5.84e-07	5.25e-06
meme.xml	AAAAKYAGAAYYACTGATRAGGGTCTATGT	MEME-6	AAAAKYAGAAYYACTGATRAGGGTCTATGT	HOCOMOCOv11_full_HUMAN_mono_meme_format	STAT6_HUMAN.H11MO.0.B	.	TTCTSWGGAAR	0	0	HOCOMOCOv11_full_HUMAN_mono_meme_format	ETS2_HUMAN.H11MO.0.B	.	2.47e+00	13	4	3	8	2.80e-07	2.52e-06
meme.xml	AAAAKYAGAAYYACTGATRAGGGTCTATGT	MEME-6	AAAAKYAGAAYYACTGATRAGGGTCTATGT	HOCOMOCOv11_full_HUMAN_mono_meme_format	STAT6_HUMAN.H11MO.0.B	.	TTCTSWGGAAR	0	0	HOCOMOCOv11_full_HUMAN_mono_meme_format	ETS2_HUMAN.H11MO.0.B	.	2.47e+00	13	8	3	8	2.21e-06	1.99e-05
meme.xml	AAAAKYAGAAYYACTGATRAGGGTCTATGT	MEME-6	AAAAKYAGAAYYACTGATRAGGGTCTATGT	HOCOMOCOv11_full_HUMAN_mono_meme_format	SOX3_HUMAN.H11MO.0.B	.	BCCWTTGTBYB	0	1	.	.	.	6.56e-01	11	2	3	10	7.36e-08	6.63e-07
meme.xml	AAAAKYAGAAYYACTGATRAGGGTCTATGT	MEME-6	AAAAKYAGAAYYACTGATRAGGGTCTATGT	HOCOMOCOv11_full_HUMAN_mono_meme_format	SOX3_HUMAN.H11MO.0.B	.	BCCWTTGTBYB	0	1	.	.	.	6.56e-01	1	1	3	10	7.36e-08	6.63e-07
meme.xml	AAAAKYAGAAYYACTGATRAGGGTCTATGT	MEME-6	AAAAKYAGAAYYACTGATRAGGGTCTATGT	HOCOMOCOv11_full_HUMAN_mono_meme_format	SOX3_HUMAN.H11MO.0.B	.	BCCWTTGTBYB	0	1	.	.	.	6.56e-01	1	4	3	10	5.84e-07	5.25e-06
meme.xml	AAAAKYAGAAYYACTGATRAGGGTCTATGT	MEME-6	AAAAKYAGAAYYACTGATRAGGGTCTATGT	HOCOMOCOv11_full_HUMAN_mono_meme_format	SOX3_HUMAN.H11MO.0.B	.	BCCWTTGTBYB	0	1	.	.	.	6.56e-01	1	6	3	10	5.84e-07	5.25e-06
meme.xml	AAAAKYAGAAYYACTGATRAGGGTCTATGT	MEME-6	AAAAKYAGAAYYACTGATRAGGGTCTATGT	HOCOMOCOv11_full_HUMAN_mono_meme_format	SOX3_HUMAN.H11MO.0.B	.	BCCWTTGTBYB	0	1	.	.	.	6.56e-01	11	6	3	10	5.84e-07	5.25e-06
meme.xml	AAAAKYAGAAYYACTGATRAGGGTCTATGT	MEME-6	AAAAKYAGAAYYACTGATRAGGGTCTATGT	HOCOMOCOv11_full_HUMAN_mono_meme_format	SOX3_HUMAN.H11MO.0.B	.	BCCWTTGTBYB	0	1	.	.	.	6.56e-01	11	7	3	10	5.84e-07	5.25e-06
meme.xml	AAAAKYAGAAYYACTGATRAGGGTCTATGT	MEME-6	AAAAKYAGAAYYACTGATRAGGGTCTATGT	HOCOMOCOv11_full_HUMAN_mono_meme_format	ZN708_HUMAN.H11MO.1.D	.	AGGYACAGC	0	0	.	.	.	8.89e-01	3	3	3	11	9.90e-08	8.91e-07
meme.xml	AAAAKYAGAAYYACTGATRAGGGTCTATGT	MEME-6	AAAAKYAGAAYYACTGATRAGGGTCTATGT	HOCOMOCOv11_full_HUMAN_mono_meme_format	ZN708_HUMAN.H11MO.1.D	.	AGGYACAGC	0	0	.	.	.	8.89e-01	3	5	3	11	7.84e-07	7.05e-06
meme.xml	AAAAKYAGAAYYACTGATRAGGGTCTATGT	MEME-6	AAAAKYAGAAYYACTGATRAGGGTCTATGT	HOCOMOCOv11_full_HUMAN_mono_meme_format	ZN708_HUMAN.H11MO.1.D	.	AGGYACAGC	0	0	.	.	.	8.89e-01	3	7	3	11	7.84e-07	7.05e-06
meme.xml	AAAAKYAGAAYYACTGATRAGGGTCTATGT	MEME-6	AAAAKYAGAAYYACTGATRAGGGTCTATGT	HOCOMOCOv11_full_HUMAN_mono_meme_format	FOXM1_HUMAN.H11MO.0.A	.	TGTTTRCTYWKB	0	2	.	.	.	9.01e-01	39	3	3	11	1.01e-07	9.10e-07
meme.xml	AAAAKYAGAAYYACTGATRAGGGTCTATGT	MEME-6	AAAAKYAGAAYYACTGATRAGGGTCTATGT	HOCOMOCOv11_full_HUMAN_mono_meme_format	FOXM1_HUMAN.H11MO.0.A	.	TGTTTRCTYWKB	0	2	.	.	.	9.01e-01	39	5	3	11	8.00e-07	7.20e-06
meme.xml	AAAAKYAGAAYYACTGATRAGGGTCTATGT	MEME-6	AAAAKYAGAAYYACTGATRAGGGTCTATGT	HOCOMOCOv11_full_HUMAN_mono_meme_format	FOXM1_HUMAN.H11MO.0.A	.	TGTTTRCTYWKB	0	2	.	.	.	9.01e-01	39	7	3	11	8.00e-07	7.20e-06
meme.xml	AAAAKYAGAAYYACTGATRAGGGTCTATGT	MEME-6	AAAAKYAGAAYYACTGATRAGGGTCTATGT	HOCOMOCOv11_full_HUMAN_mono_meme_format	NKX25_HUMAN.H11MO.0.B	.	KKRAGWGS	1	0	.	.	.	1.15e+00	50	2	3	12	1.26e-07	1.14e-06
meme.xml	AAAAKYAGAAYYACTGATRAGGGTCTATGT	MEME-6	AAAAKYAGAAYYACTGATRAGGGTCTATGT	HOCOMOCOv11_full_HUMAN_mono_meme_format	NKX25_HUMAN.H11MO.0.B	.	KKRAGWGS	1	0	.	.	.	1.15e+00	50	6	3	12	1.00e-06	9.00e-06
meme.xml	AAAAKYAGAAYYACTGATRAGGGTCTATGT	MEME-6	AAAAKYAGAAYYACTGATRAGGGTCTATGT	HOCOMOCOv11_full_HUMAN_mono_meme_format	NKX25_HUMAN.H11MO.0.B	.	KKRAGWGS	1	0	.	.	.	1.15e+00	50	7	3	12	1.00e-06	9.00e-06
meme.xml	AAAAKYAGAAYYACTGATRAGGGTCTATGT	MEME-6	AAAAKYAGAAYYACTGATRAGGGTCTATGT	HOCOMOCOv11_full_HUMAN_mono_meme_format	ZSC22_HUMAN.H11MO.0.C	.	RGKCWGAGGGMGGAGG	1	0	.	.	.	1.29e+00	47	2	3	12	1.50e-07	1.35e-06
meme.xml	AAAAKYAGAAYYACTGATRAGGGTCTATGT	MEME-6	AAAAKYAGAAYYACTGATRAGGGTCTATGT	HOCOMOCOv11_full_HUMAN_mono_meme_format	ZSC22_HUMAN.H11MO.0.C	.	RGKCWGAGGGMGGAGG	1	0	.	.	.	1.29e+00	47	6	3	12	1.18e-06	1.07e-05
meme.xml	AAAAKYAGAAYYACTGATRAGGGTCTATGT	MEME-6	AAAAKYAGAAYYACTGATRAGGGTCTATGT	HOCOMOCOv11_full_HUMAN_mono_meme_format	ZSC22_HUMAN.H11MO.0.C	.	RGKCWGAGGGMGGAGG	1	0	.	.	.	1.29e+00	47	7	3	12	1.18e-06	1.07e-05
meme.xml	AAAAKYAGAAYYACTGATRAGGGTCTATGT	MEME-6	AAAAKYAGAAYYACTGATRAGGGTCTATGT	HOCOMOCOv11_full_HUMAN_mono_meme_format	UBIP1_HUMAN.H11MO.0.D	.	SCAGARA	0	0	.	.	.	1.49e+00	55	2	3	13	1.64e-07	1.48e-06
meme.xml	AAAAKYAGAAYYACTGATRAGGGTCTATGT	MEME-6	AAAAKYAGAAYYACTGATRAGGGTCTATGT	HOCOMOCOv11_full_HUMAN_mono_meme_format	UBIP1_HUMAN.H11MO.0.D	.	SCAGARA	0	0	.	.	.	1.49e+00	55	6	3	13	1.30e-06	1.17e-05
meme.xml	AAAAKYAGAAYYACTGATRAGGGTCTATGT	MEME-6	AAAAKYAGAAYYACTGATRAGGGTCTATGT	HOCOMOCOv11_full_HUMAN_mono_meme_format	UBIP1_HUMAN.H11MO.0.D	.	SCAGARA	0	0	.	.	.	1.49e+00	55	7	3	13	1.30e-06	1.17e-05
meme.xml	AAAAKYAGAAYYACTGATRAGGGTCTATGT	MEME-6	AAAAKYAGAAYYACTGATRAGGGTCTATGT	HOCOMOCOv11_full_HUMAN_mono_meme_format	PRDM6_HUMAN.H11MO.0.C	.	RRRARGAAAAAAA	1	2	.	.	.	1.56e+00	38	2	3	13	1.75e-07	1.57e-06
meme.xml	AAAAKYAGAAYYACTGATRAGGGTCTATGT	MEME-6	AAAAKYAGAAYYACTGATRAGGGTCTATGT	HOCOMOCOv11_full_HUMAN_mono_meme_format	PRDM6_HUMAN.H11MO.0.C	.	RRRARGAAAAAAA	1	2	.	.	.	1.56e+00	38	6	3	13	1.38e-06	1.24e-05
meme.xml	AAAAKYAGAAYYACTGATRAGGGTCTATGT	MEME-6	AAAAKYAGAAYYACTGATRAGGGTCTATGT	HOCOMOCOv11_full_HUMAN_mono_meme_format	PRDM6_HUMAN.H11MO.0.C	.	RRRARGAAAAAAA	1	2	.	.	.	1.56e+00	38	7	3	13	1.38e-06	1.24e-05
meme.xml	AAAAKYAGAAYYACTGATRAGGGTCTATGT	MEME-6	AAAAKYAGAAYYACTGATRAGGGTCTATGT	HOCOMOCOv11_full_HUMAN_mono_meme_format	FUBP1_HUMAN.H11MO.0.D	.	TYGTNTTTTTTT	0	0	.	.	.	1.60e+00	38	3	3	13	1.82e-07	1.64e-06
meme.xml	AAAAKYAGAAYYACTGATRAGGGTCTATGT	MEME-6	AAAAKYAGAAYYACTGATRAGGGTCTATGT	HOCOMOCOv11_full_HUMAN_mono_meme_format	FUBP1_HUMAN.H11MO.0.D	.	TYGTNTTTTTTT	0	0	.	.	.	1.60e+00	38	5	3	13	1.44e-06	1.30e-05
meme.xml	AAAAKYAGAAYYACTGATRAGGGTCTATGT	MEME-6	AAAAKYAGAAYYACTGATRAGGGTCTATGT	HOCOMOCOv11_full_HUMAN_mono_meme_format	FUBP1_HUMAN.H11MO.0.D	.	TYGTNTTTTTTT	0	0	.	.	.	1.60e+00	38	7	3	13	1.44e-06	1.30e-05
meme.xml	AAAAKYAGAAYYACTGATRAGGGTCTATGT	MEME-6	AAAAKYAGAAYYACTGATRAGGGTCTATGT	HOCOMOCOv11_full_HUMAN_mono_meme_format	FOXO1_HUMAN.H11MO.0.A	.	KBBYTGTTTHCN	3	1	.	.	.	1.92e+00	35	3	3	14	2.13e-07	1.92e-06
meme.xml	AAAAKYAGAAYYACTGATRAGGGTCTATGT	MEME-6	AAAAKYAGAAYYACTGATRAGGGTCTATGT	HOCOMOCOv11_full_HUMAN_mono_meme_format	FOXO1_HUMAN.H11MO.0.A	.	KBBYTGTTTHCN	3	1	.	.	.	1.92e+00	42	3	3	14	2.13e-07	1.92e-06
meme.xml	AAAAKYAGAAYYACTGATRAGGGTCTATGT	MEME-6	AAAAKYAGAAYYACTGATRAGGGTCTATGT	HOCOMOCOv11_full_HUMAN_mono_meme_format	FOXO1_HUMAN.H11MO.0.A	.	KBBYTGTTTHCN	3	1	.	.	.	1.92e+00	35	5	3	14	1.68e-06	1.51e-05
meme.xml	AAAAKYAGAAYYACTGATRAGGGTCTATGT	MEME-6	AAAAKYAGAAYYACTGATRAGGGTCTATGT	HOCOMOCOv11_full_HUMAN_mono_meme_format	FOXO1_HUMAN.H11MO.0.A	.	KBBYTGTTTHCN	3	1	.	.	.	1.92e+00	42	5	3	14	1.68e-06	1.51e-05
meme.xml	AAAAKYAGAAYYACTGATRAGGGTCTATGT	MEME-6	AAAAKYAGAAYYACTGATRAGGGTCTATGT	HOCOMOCOv11_full_HUMAN_mono_meme_format	FOXO1_HUMAN.H11MO.0.A	.	KBBYTGTTTHCN	3	1	.	.	.	1.92e+00	35	7	3	14	1.68e-06	1.51e-05
meme.xml	AAAAKYAGAAYYACTGATRAGGGTCTATGT	MEME-6	AAAAKYAGAAYYACTGATRAGGGTCTATGT	HOCOMOCOv11_full_HUMAN_mono_meme_format	FOXO1_HUMAN.H11MO.0.A	.	KBBYTGTTTHCN	3	1	.	.	.	1.92e+00	42	7	3	14	1.68e-06	1.51e-05
meme.xml	AAAAKYAGAAYYACTGATRAGGGTCTATGT	MEME-6	AAAAKYAGAAYYACTGATRAGGGTCTATGT	HOCOMOCOv11_full_HUMAN_mono_meme_format	GRHL1_HUMAN.H11MO.0.D	.	AACCWGTTYTNC	0	0	.	.	.	1.95e+00	61	7	4	25	2.22e-07	1.99e-06
meme.xml	AAAAKYAGAAYYACTGATRAGGGTCTATGT	MEME-6	AAAAKYAGAAYYACTGATRAGGGTCTATGT	HOCOMOCOv11_full_HUMAN_mono_meme_format	GRHL1_HUMAN.H11MO.0.D	.	AACCWGTTYTNC	0	0	.	.	.	1.95e+00	61	2	3	25	1.44e-06	1.30e-05
meme.xml	AAAAKYAGAAYYACTGATRAGGGTCTATGT	MEME-6	AAAAKYAGAAYYACTGATRAGGGTCTATGT	HOCOMOCOv11_full_HUMAN_mono_meme_format	GRHL1_HUMAN.H11MO.0.D	.	AACCWGTTYTNC	0	0	.	.	.	1.95e+00	41	3	3	25	1.44e-06	1.30e-05
meme.xml	AAAAKYAGAAYYACTGATRAGGGTCTATGT	MEME-6	AAAAKYAGAAYYACTGATRAGGGTCTATGT	HOCOMOCOv11_full_HUMAN_mono_meme_format	GRHL1_HUMAN.H11MO.0.D	.	AACCWGTTYTNC	0	0	.	.	.	1.95e+00	61	8	4	25	3.34e-06	3.00e-05
meme.xml	AAAAKYAGAAYYACTGATRAGGGTCTATGT	MEME-6	AAAAKYAGAAYYACTGATRAGGGTCTATGT	HOCOMOCOv11_full_HUMAN_mono_meme_format	NKX22_HUMAN.H11MO.0.D	.	DSAGWGSH	1	1	.	.	.	2.34e+00	51	2	3	15	2.55e-07	2.30e-06
meme.xml	AAAAKYAGAAYYACTGATRAGGGTCTATGT	MEME-6	AAAAKYAGAAYYACTGATRAGGGTCTATGT	HOCOMOCOv11_full_HUMAN_mono_meme_format	NKX22_HUMAN.H11MO.0.D	.	DSAGWGSH	1	1	.	.	.	2.34e+00	51	6	3	15	2.01e-06	1.81e-05
meme.xml	AAAAKYAGAAYYACTGATRAGGGTCTATGT	MEME-6	AAAAKYAGAAYYACTGATRAGGGTCTATGT	HOCOMOCOv11_full_HUMAN_mono_meme_format	NKX22_HUMAN.H11MO.0.D	.	DSAGWGSH	1	1	.	.	.	2.34e+00	51	7	3	15	2.01e-06	1.81e-05
meme.xml	AAAAKYAGAAYYACTGATRAGGGTCTATGT	MEME-6	AAAAKYAGAAYYACTGATRAGGGTCTATGT	HOCOMOCOv11_full_HUMAN_mono_meme_format	GRHL2_HUMAN.H11MO.0.A	.	AACCDGTYTKDC	0	0	.	.	.	2.54e+00	61	2	3	15	2.89e-07	2.60e-06
meme.xml	AAAAKYAGAAYYACTGATRAGGGTCTATGT	MEME-6	AAAAKYAGAAYYACTGATRAGGGTCTATGT	HOCOMOCOv11_full_HUMAN_mono_meme_format	GRHL2_HUMAN.H11MO.0.A	.	AACCDGTYTKDC	0	0	.	.	.	2.54e+00	61	6	3	15	2.28e-06	2.05e-05
meme.xml	AAAAKYAGAAYYACTGATRAGGGTCTATGT	MEME-6	AAAAKYAGAAYYACTGATRAGGGTCTATGT	HOCOMOCOv11_full_HUMAN_mono_meme_format	GRHL2_HUMAN.H11MO.0.A	.	AACCDGTYTKDC	0	0	.	.	.	2.54e+00	61	7	3	15	2.28e-06	2.05e-05
meme.xml	AAAAKYAGAAYYACTGATRAGGGTCTATGT	MEME-6	AAAAKYAGAAYYACTGATRAGGGTCTATGT	HOCOMOCOv11_full_HUMAN_mono_meme_format	ARNT_HUMAN.H11MO.0.B	.	STACGTGMC	1	1	.	.	.	3.04e+00	8	3	2	2	3.35e-07	3.01e-06
meme.xml	AAAAKYAGAAYYACTGATRAGGGTCTATGT	MEME-6	AAAAKYAGAAYYACTGATRAGGGTCTATGT	HOCOMOCOv11_full_HUMAN_mono_meme_format	ARNT_HUMAN.H11MO.0.B	.	STACGTGMC	1	1	.	.	.	3.04e+00	8	5	2	2	1.34e-06	1.21e-05
meme.xml	AAAAKYAGAAYYACTGATRAGGGTCTATGT	MEME-6	AAAAKYAGAAYYACTGATRAGGGTCTATGT	HOCOMOCOv11_full_HUMAN_mono_meme_format	ARNT_HUMAN.H11MO.0.B	.	STACGTGMC	1	1	.	.	.	3.04e+00	8	7	2	2	1.34e-06	1.21e-05
meme.xml	AAAAKYAGAAYYACTGATRAGGGTCTATGT	MEME-6	AAAAKYAGAAYYACTGATRAGGGTCTATGT	HOCOMOCOv11_full_HUMAN_mono_meme_format	HIF1A_HUMAN.H11MO.0.C	.	GDACGTGM	0	0	.	.	.	3.07e+00	8	3	2	2	3.40e-07	3.06e-06
meme.xml	AAAAKYAGAAYYACTGATRAGGGTCTATGT	MEME-6	AAAAKYAGAAYYACTGATRAGGGTCTATGT	HOCOMOCOv11_full_HUMAN_mono_meme_format	HIF1A_HUMAN.H11MO.0.C	.	GDACGTGM	0	0	.	.	.	3.07e+00	8	5	2	2	1.36e-06	1.22e-05
meme.xml	AAAAKYAGAAYYACTGATRAGGGTCTATGT	MEME-6	AAAAKYAGAAYYACTGATRAGGGTCTATGT	HOCOMOCOv11_full_HUMAN_mono_meme_format	HIF1A_HUMAN.H11MO.0.C	.	GDACGTGM	0	0	.	.	.	3.07e+00	8	7	2	2	1.36e-06	1.22e-05
meme.xml	AAAAKYAGAAYYACTGATRAGGGTCTATGT	MEME-6	AAAAKYAGAAYYACTGATRAGGGTCTATGT	HOCOMOCOv11_full_HUMAN_mono_meme_format	TBX15_HUMAN.H11MO.0.D	.	GGGGGGGGGGGGGTGGGDR	0	2	.	.	.	3.27e+00	104	3	2	2	3.87e-07	3.48e-06
meme.xml	AAAAKYAGAAYYACTGATRAGGGTCTATGT	MEME-6	AAAAKYAGAAYYACTGATRAGGGTCTATGT	HOCOMOCOv11_full_HUMAN_mono_meme_format	TBX15_HUMAN.H11MO.0.D	.	GGGGGGGGGGGGGTGGGDR	0	2	.	.	.	3.27e+00	104	5	2	2	1.55e-06	1.39e-05
meme.xml	AAAAKYAGAAYYACTGATRAGGGTCTATGT	MEME-6	AAAAKYAGAAYYACTGATRAGGGTCTATGT	HOCOMOCOv11_full_HUMAN_mono_meme_format	TBX15_HUMAN.H11MO.0.D	.	GGGGGGGGGGGGGTGGGDR	0	2	.	.	.	3.27e+00	104	7	2	2	1.55e-06	1.39e-05
meme.xml	AAAAKYAGAAYYACTGATRAGGGTCTATGT	MEME-6	AAAAKYAGAAYYACTGATRAGGGTCTATGT	HOCOMOCOv11_full_HUMAN_mono_meme_format	ZIC1_HUMAN.H11MO.0.B	.	KGGGWGGTS	0	1	.	.	.	3.58e+00	93	0	3	17	3.96e-07	3.57e-06
meme.xml	AAAAKYAGAAYYACTGATRAGGGTCTATGT	MEME-6	AAAAKYAGAAYYACTGATRAGGGTCTATGT	HOCOMOCOv11_full_HUMAN_mono_meme_format	ZIC1_HUMAN.H11MO.0.B	.	KGGGWGGTS	0	1	.	.	.	3.58e+00	93	4	3	17	3.11e-06	2.80e-05
meme.xml	AAAAKYAGAAYYACTGATRAGGGTCTATGT	MEME-6	AAAAKYAGAAYYACTGATRAGGGTCTATGT	HOCOMOCOv11_full_HUMAN_mono_meme_format	ZIC1_HUMAN.H11MO.0.B	.	KGGGWGGTS	0	1	.	.	.	3.58e+00	93	5	3	17	3.11e-06	2.80e-05
meme.xml	AAAAKYAGAAYYACTGATRAGGGTCTATGT	MEME-6	AAAAKYAGAAYYACTGATRAGGGTCTATGT	HOCOMOCOv11_full_HUMAN_mono_meme_format	TEAD3_HUMAN.H11MO.0.D	.	GAHATTYYWGCYBYW	1	1	.	.	.	3.64e+00	83	8	3	5	4.18e-07	3.76e-06
meme.xml	AAAAKYAGAAYYACTGATRAGGGTCTATGT	MEME-6	AAAAKYAGAAYYACTGATRAGGGTCTATGT	HOCOMOCOv11_full_HUMAN_mono_meme_format	TEAD3_HUMAN.H11MO.0.D	.	GAHATTYYWGCYBYW	1	1	.	.	.	3.64e+00	83	3	2	5	3.63e-06	3.27e-05
meme.xml	AAAAKYAGAAYYACTGATRAGGGTCTATGT	MEME-6	AAAAKYAGAAYYACTGATRAGGGTCTATGT	HOCOMOCOv11_full_HUMAN_mono_meme_format	HAND1_HUMAN.H11MO.0.D	.	RGSYCTGGYYWNTSTCA	3	0	.	.	.	4.66e+00	37	3	3	18	5.40e-07	4.86e-06
meme.xml	AAAAKYAGAAYYACTGATRAGGGTCTATGT	MEME-6	AAAAKYAGAAYYACTGATRAGGGTCTATGT	HOCOMOCOv11_full_HUMAN_mono_meme_format	HAND1_HUMAN.H11MO.0.D	.	RGSYCTGGYYWNTSTCA	3	0	.	.	.	4.66e+00	37	5	3	18	4.23e-06	3.81e-05
meme.xml	AAAAKYAGAAYYACTGATRAGGGTCTATGT	MEME-6	AAAAKYAGAAYYACTGATRAGGGTCTATGT	HOCOMOCOv11_full_HUMAN_mono_meme_format	HAND1_HUMAN.H11MO.0.D	.	RGSYCTGGYYWNTSTCA	3	0	.	.	.	4.66e+00	37	7	3	18	4.23e-06	3.81e-05
meme.xml	AAAAKYAGAAYYACTGATRAGGGTCTATGT	MEME-6	AAAAKYAGAAYYACTGATRAGGGTCTATGT	HOCOMOCOv11_full_HUMAN_mono_meme_format	SMAD3_HUMAN.H11MO.0.B	.	SYCTSHCWSCWS	2	0	.	.	.	5.22e+00	53	3	3	19	5.87e-07	5.29e-06
meme.xml	AAAAKYAGAAYYACTGATRAGGGTCTATGT	MEME-6	AAAAKYAGAAYYACTGATRAGGGTCTATGT	HOCOMOCOv11_full_HUMAN_mono_meme_format	TF65_HUMAN.H11MO.0.A	.	HWGGGRATTTCCMV	1	1	.	.	.	5.34e+00	88	7	3	10	6.09e-07	5.48e-06
meme.xml	AAAAKYAGAAYYACTGATRAGGGTCTATGT	MEME-6	AAAAKYAGAAYYACTGATRAGGGTCTATGT	HOCOMOCOv11_full_HUMAN_mono_meme_format	SOX2_HUMAN.H11MO.1.A	.	BCCWTTGTYATGYWRA	1	0	.	.	.	5.61e+00	12	2	3	19	6.54e-07	5.89e-06
meme.xml	AAAAKYAGAAYYACTGATRAGGGTCTATGT	MEME-6	AAAAKYAGAAYYACTGATRAGGGTCTATGT	HOCOMOCOv11_full_HUMAN_mono_meme_format	SOX2_HUMAN.H11MO.1.A	.	BCCWTTGTYATGYWRA	1	0	.	.	.	5.61e+00	2	1	3	19	6.54e-07	5.89e-06
meme.xml	AAAAKYAGAAYYACTGATRAGGGTCTATGT	MEME-6	AAAAKYAGAAYYACTGATRAGGGTCTATGT	HOCOMOCOv11_full_HUMAN_mono_meme_format	SOX2_HUMAN.H11MO.1.A	.	BCCWTTGTYATGYWRA	1	0	.	.	.	5.61e+00	33	3	3	19	6.54e-07	5.89e-06
meme.xml	AAAAKYAGAAYYACTGATRAGGGTCTATGT	MEME-6	AAAAKYAGAAYYACTGATRAGGGTCTATGT	HOCOMOCOv11_full_HUMAN_mono_meme_format	SOX2_HUMAN.H11MO.1.A	.	BCCWTTGTYATGYWRA	1	0	.	.	.	5.61e+00	33	8	4	19	1.15e-06	1.04e-05
meme.xml	AAAAKYAGAAYYACTGATRAGGGTCTATGT	MEME-6	AAAAKYAGAAYYACTGATRAGGGTCTATGT	HOCOMOCOv11_full_HUMAN_mono_meme_format	PO2F2_HUMAN.H11MO.0.A	.	AYATGCAAATK	1	1	.	.	.	9.22e+00	4	3	2	3	1.03e-06	9.29e-06
meme.xml	AAAAKYAGAAYYACTGATRAGGGTCTATGT	MEME-6	AAAAKYAGAAYYACTGATRAGGGTCTATGT	HOCOMOCOv11_full_HUMAN_mono_meme_format	PO2F2_HUMAN.H11MO.0.A	.	AYATGCAAATK	1	1	.	.	.	9.22e+00	4	5	2	3	4.12e-06	3.71e-05
meme.xml	AAAAKYAGAAYYACTGATRAGGGTCTATGT	MEME-6	AAAAKYAGAAYYACTGATRAGGGTCTATGT	HOCOMOCOv11_full_HUMAN_mono_meme_format	PO2F2_HUMAN.H11MO.0.A	.	AYATGCAAATK	1	1	.	.	.	9.22e+00	4	7	2	3	4.12e-06	3.71e-05
meme.xml	AAAAKYAGAAYYACTGATRAGGGTCTATGT	MEME-6	AAAAKYAGAAYYACTGATRAGGGTCTATGT	HOCOMOCOv11_full_HUMAN_mono_meme_format	EHF_HUMAN.H11MO.0.B	.	VWACSAGGAAGTDVS	2	3	.	.	.	9.28e+00	34	2	2	3	1.05e-06	9.42e-06
meme.xml	AAAAKYAGAAYYACTGATRAGGGTCTATGT	MEME-6	AAAAKYAGAAYYACTGATRAGGGTCTATGT	HOCOMOCOv11_full_HUMAN_mono_meme_format	EHF_HUMAN.H11MO.0.B	.	VWACSAGGAAGTDVS	2	3	.	.	.	9.28e+00	34	6	2	3	4.18e-06	3.76e-05
meme.xml	AAAAKYAGAAYYACTGATRAGGGTCTATGT	MEME-6	AAAAKYAGAAYYACTGATRAGGGTCTATGT	HOCOMOCOv11_full_HUMAN_mono_meme_format	EHF_HUMAN.H11MO.0.B	.	VWACSAGGAAGTDVS	2	3	.	.	.	9.28e+00	34	7	2	3	4.18e-06	3.76e-05
meme.xml	AAAAKYAGAAYYACTGATRAGGGTCTATGT	MEME-6	AAAAKYAGAAYYACTGATRAGGGTCTATGT	HOCOMOCOv11_full_HUMAN_mono_meme_format	ELF5_HUMAN.H11MO.0.A	.	VGRASSAGGAAGTRV	3	2	.	.	.	9.28e+00	34	2	2	3	1.05e-06	9.42e-06
meme.xml	AAAAKYAGAAYYACTGATRAGGGTCTATGT	MEME-6	AAAAKYAGAAYYACTGATRAGGGTCTATGT	HOCOMOCOv11_full_HUMAN_mono_meme_format	ELF5_HUMAN.H11MO.0.A	.	VGRASSAGGAAGTRV	3	2	.	.	.	9.28e+00	34	6	2	3	4.18e-06	3.76e-05
meme.xml	AAAAKYAGAAYYACTGATRAGGGTCTATGT	MEME-6	AAAAKYAGAAYYACTGATRAGGGTCTATGT	HOCOMOCOv11_full_HUMAN_mono_meme_format	ELF5_HUMAN.H11MO.0.A	.	VGRASSAGGAAGTRV	3	2	.	.	.	9.28e+00	34	7	2	3	4.18e-06	3.76e-05
meme.xml	AAAAKYAGAAYYACTGATRAGGGTCTATGT	MEME-6	AAAAKYAGAAYYACTGATRAGGGTCTATGT	HOCOMOCOv11_full_HUMAN_mono_meme_format	MYOD1_HUMAN.H11MO.0.A	.	VCAGCTGYYBCYGBC	1	4	.	.	.	9.28e+00	1	2	2	3	1.05e-06	9.42e-06
meme.xml	AAAAKYAGAAYYACTGATRAGGGTCTATGT	MEME-6	AAAAKYAGAAYYACTGATRAGGGTCTATGT	HOCOMOCOv11_full_HUMAN_mono_meme_format	MYOD1_HUMAN.H11MO.0.A	.	VCAGCTGYYBCYGBC	1	4	.	.	.	9.28e+00	1	6	2	3	4.18e-06	3.76e-05
meme.xml	AAAAKYAGAAYYACTGATRAGGGTCTATGT	MEME-6	AAAAKYAGAAYYACTGATRAGGGTCTATGT	HOCOMOCOv11_full_HUMAN_mono_meme_format	MYOD1_HUMAN.H11MO.0.A	.	VCAGCTGYYBCYGBC	1	4	.	.	.	9.28e+00	1	7	2	3	4.18e-06	3.76e-05
meme.xml	AAAAKYAGAAYYACTGATRAGGGTCTATGT	MEME-6	AAAAKYAGAAYYACTGATRAGGGTCTATGT	HOCOMOCOv11_full_HUMAN_mono_meme_format	NKX31_HUMAN.H11MO.0.C	.	NTWAAGTGBTTD	1	1	.	.	.	9.28e+00	127	0	2	3	1.05e-06	9.42e-06
meme.xml	AAAAKYAGAAYYACTGATRAGGGTCTATGT	MEME-6	AAAAKYAGAAYYACTGATRAGGGTCTATGT	HOCOMOCOv11_full_HUMAN_mono_meme_format	NKX31_HUMAN.H11MO.0.C	.	NTWAAGTGBTTD	1	1	.	.	.	9.28e+00	127	4	2	3	4.18e-06	3.76e-05
meme.xml	AAAAKYAGAAYYACTGATRAGGGTCTATGT	MEME-6	AAAAKYAGAAYYACTGATRAGGGTCTATGT	HOCOMOCOv11_full_HUMAN_mono_meme_format	NKX31_HUMAN.H11MO.0.C	.	NTWAAGTGBTTD	1	1	.	.	.	9.28e+00	127	5	2	3	4.18e-06	3.76e-05
meme.xml	AAAAKYAGAAYYACTGATRAGGGTCTATGT	MEME-6	AAAAKYAGAAYYACTGATRAGGGTCTATGT	HOCOMOCOv11_full_HUMAN_mono_meme_format	NKX32_HUMAN.H11MO.0.C	.	TTAAGTGBWT	0	0	HOCOMOCOv11_full_HUMAN_mono_meme_format	NKX31_HUMAN.H11MO.0.C	.	9.28e+00	127	0	2	3	1.05e-06	9.42e-06
meme.xml	AAAAKYAGAAYYACTGATRAGGGTCTATGT	MEME-6	AAAAKYAGAAYYACTGATRAGGGTCTATGT	HOCOMOCOv11_full_HUMAN_mono_meme_format	NKX32_HUMAN.H11MO.0.C	.	TTAAGTGBWT	0	0	HOCOMOCOv11_full_HUMAN_mono_meme_format	NKX31_HUMAN.H11MO.0.C	.	9.28e+00	127	4	2	3	4.18e-06	3.76e-05
meme.xml	AAAAKYAGAAYYACTGATRAGGGTCTATGT	MEME-6	AAAAKYAGAAYYACTGATRAGGGTCTATGT	HOCOMOCOv11_full_HUMAN_mono_meme_format	NKX32_HUMAN.H11MO.0.C	.	TTAAGTGBWT	0	0	HOCOMOCOv11_full_HUMAN_mono_meme_format	NKX31_HUMAN.H11MO.0.C	.	9.28e+00	127	5	2	3	4.18e-06	3.76e-05
meme.xml	AAAAKYAGAAYYACTGATRAGGGTCTATGT	MEME-6	AAAAKYAGAAYYACTGATRAGGGTCTATGT	HOCOMOCOv11_full_HUMAN_mono_meme_format	ETS1_HUMAN.H11MO.0.A	.	RRRCMGGAAGTGG	2	0	.	.	.	9.35e+00	35	2	2	3	1.06e-06	9.55e-06
meme.xml	AAAAKYAGAAYYACTGATRAGGGTCTATGT	MEME-6	AAAAKYAGAAYYACTGATRAGGGTCTATGT	HOCOMOCOv11_full_HUMAN_mono_meme_format	ETS1_HUMAN.H11MO.0.A	.	RRRCMGGAAGTGG	2	0	.	.	.	9.35e+00	35	6	2	3	4.24e-06	3.82e-05
meme.xml	AAAAKYAGAAYYACTGATRAGGGTCTATGT	MEME-6	AAAAKYAGAAYYACTGATRAGGGTCTATGT	HOCOMOCOv11_full_HUMAN_mono_meme_format	ETS1_HUMAN.H11MO.0.A	.	RRRCMGGAAGTGG	2	0	.	.	.	9.35e+00	35	7	2	3	4.24e-06	3.82e-05
meme.xml	AAAAKYAGAAYYACTGATRAGGGTCTATGT	MEME-6	AAAAKYAGAAYYACTGATRAGGGTCTATGT	HOCOMOCOv11_full_HUMAN_mono_meme_format	HSF2_HUMAN.H11MO.0.A	.	VGAABRTTCTAGAA	1	0	.	.	.	9.48e+00	43	2	2	3	1.09e-06	9.83e-06
meme.xml	AAAAKYAGAAYYACTGATRAGGGTCTATGT	MEME-6	AAAAKYAGAAYYACTGATRAGGGTCTATGT	HOCOMOCOv11_full_HUMAN_mono_meme_format	HSF2_HUMAN.H11MO.0.A	.	VGAABRTTCTAGAA	1	0	.	.	.	9.48e+00	43	6	2	3	4.37e-06	3.93e-05
meme.xml	AAAAKYAGAAYYACTGATRAGGGTCTATGT	MEME-6	AAAAKYAGAAYYACTGATRAGGGTCTATGT	HOCOMOCOv11_full_HUMAN_mono_meme_format	HSF2_HUMAN.H11MO.0.A	.	VGAABRTTCTAGAA	1	0	.	.	.	9.48e+00	43	7	2	3	4.37e-06	3.93e-05
##
# Detailed descriptions of columns in this file:
#
# prim_db:	The name of the database (file name) that contains the primary motif.
# prim_id:	A name for the primary motif that is unique in the motif database file.
# prim_alt:	An alternate name of the primary motif that may be provided
#		in the motif database file.
# prim_cons:	A consensus sequence computed from the primary motif (see doc/motif-consensus.html).
# sec_db:	The name of the database (file name) that contains the secondary motif.
# sec_id:	A name for the motif that is unique in the motif database file.
# sec_alt:	An alternate name of the secondary motif that may be provided
#		in the motif database file.
# sec_cons:	A consensus sequence computed from the secondary motif (see doc/motif-consensus.html).
# trim_left:	Number of positions trimmed from left of secondary motif
# trim_right:	Number of positions trimmed from right of secondary motif
# If the next three fields are not blank, the motif is redundant with a more significant ('parent') motif.
# red_db:	The database (file name) that contains the parent motif.
# red_id:	A name for the parent motif that is unique in the motif database file.
# red_alt:	An alternate name of the parent motif that may be provided
#		in the motif database file.
# E-value:	The expected number motifs that would have least one
#		spacing as enriched as the best spacing for this secondary.
#		The E-value is the best spacing p-value multiplied by the number of motifs in the
#		input database(s).
# gap:		The distance between the edge of the primary and the (trimmed) secondary motif.
# orient:	The (combination) of quadrants for which occurrences
#		of this spacing are combined.
# count:	The number of occurrences of the secondary motif with the
#		given spacing and orientation to the primary motif.
# total:	The total number of occurrences of the secondary motif within the
#		margins around the best primary motif occurrence.
# adj_p-value:	The p-value of the gap and orientation, adjusted for
#		nine combinations of quadrants times the number of gaps tested
#		(as controlled by the -range switch).
# p-value:	The p-value of the gap and orientation adjusted only for the number of gaps tested.
