#Query ID	Target ID	Optimal offset	p-value	E-value	q-value	Overlap	Query consensus	Target consensus	Orientation
TNTTTKTTTTTDTTKTWKTTKBTTTT	MA1267.1	4	6.94224e-08	9.74691e-05	0.000193267	25	TTTTTTTTTTTGTTTTATTTGCTTTT	TTTTTTTTTTTTTTTACTTTTTTTTTTTT	+
TNTTTKTTTTTDTTKTWKTTKBTTTT	MA1268.1	0	3.09609e-07	0.000434691	0.000430964	26	TTTTTTTTTTTGTTTTATTTGCTTTT	TTTTCACTTTTTCTTTTTTTTTTTTTT	+
TNTTTKTTTTTDTTKTWKTTKBTTTT	MA1281.1	0	1.36978e-06	0.00192317	0.000888475	21	TTTTTTTTTTTGTTTTATTTGCTTTT	TTTTTTTTTTTTTACTTTTTT	-
TNTTTKTTTTTDTTKTWKTTKBTTTT	MA1272.1	2	1.36978e-06	0.00192317	0.000888475	19	TTTTTTTTTTTGTTTTATTTGCTTTT	TTTTTTTTTTTTTACTTTTTT	+
TNTTTKTTTTTDTTKTWKTTKBTTTT	MA1274.1	0	1.59573e-06	0.0022404	0.000888475	21	TTTTTTTTTTTGTTTTATTTGCTTTT	TTTACTTTTTTTTTTTTTTTT	+
TNTTTKTTTTTDTTKTWKTTKBTTTT	MA1277.1	-3	3.89536e-06	0.00546909	0.0018074	21	TTTTTTTTTTTGTTTTATTTGCTTTT	TTTTTTTTACTTTTTCTTTTT	-
TNTTTKTTTTTDTTKTWKTTKBTTTT	MA1278.1	-6	1.05129e-05	0.0147601	0.00415651	20	TTTTTTTTTTTGTTTTATTTGCTTTT	TTTTTTTTTTTTTTACTTTTT	+
TNTTTKTTTTTDTTKTWKTTKBTTTT	MA1159.1	-6	1.19443e-05	0.0167699	0.00415651	15	TTTTTTTTTTTGTTTTATTTGCTTTT	TTTTTGTCTTTTTTT	-
TNTTTKTTTTTDTTKTWKTTKBTTTT	MA1125.1	-2	1.86002e-05	0.0261147	0.00555039	12	TTTTTTTTTTTGTTTTATTTGCTTTT	TTTTTTTTTAAA	-
TNTTTKTTTTTDTTKTWKTTKBTTTT	MA1158.1	-2	1.99373e-05	0.027992	0.00555039	20	TTTTTTTTTTTGTTTTATTTGCTTTT	TTTTTTTTTGTCGTTTTCTG	-
TNTTTKTTTTTDTTKTWKTTKBTTTT	MA1157.1	-2	2.28651e-05	0.0321026	0.00578679	20	TTTTTTTTTTTGTTTTATTTGCTTTT	TTTTTTTTTGTCGTTTTGTG	+
TNTTTKTTTTTDTTKTWKTTKBTTTT	MA1160.1	-2	4.18507e-05	0.0587583	0.00970908	20	TTTTTTTTTTTGTTTTATTTGCTTTT	TTTTTTTTTGTCGTTTTGTG	+
TNTTTKTTTTTDTTKTWKTTKBTTTT	MA1279.1	0	5.50529e-05	0.0772943	0.0115472	21	TTTTTTTTTTTGTTTTATTTGCTTTT	TTTTCACTTTTTCTTTTTTTT	-
TNTTTKTTTTTDTTKTWKTTKBTTTT	MA1156.1	-2	5.80697e-05	0.0815298	0.0115472	20	TTTTTTTTTTTGTTTTATTTGCTTTT	TTTTTTTTTGTCGTTTTCTG	+
TNTTTKTTTTTDTTKTWKTTKBTTTT	MA1273.1	0	9.84614e-05	0.13824	0.0182739	19	TTTTTTTTTTTGTTTTATTTGCTTTT	TTTTTTGCCTTTTTTTTTT	-
TNTTTKTTTTTDTTKTWKTTKBTTTT	MA1270.1	-1	0.000136	0.190943	0.0236632	19	TTTTTTTTTTTGTTTTATTTGCTTTT	TTTACTTTTTGCTTTTTTT	+
TNTTTKTTTTTDTTKTWKTTKBTTTT	MA0277.1	-2	0.000310902	0.436506	0.0485803	9	TTTTTTTTTTTGTTTTATTTGCTTTT	TTTCTTTTT	-
TNTTTKTTTTTDTTKTWKTTKBTTTT	MA1374.1	-2	0.000314106	0.441004	0.0485803	18	TTTTTTTTTTTGTTTTATTTGCTTTT	TTTTTTTGTCGTTTTGTG	-
TNTTTKTTTTTDTTKTWKTTKBTTTT	MA0940.1	0	0.000441249	0.619514	0.0646528	13	TTTTTTTTTTTGTTTTATTTGCTTTT	TTTCCTTTTTTGG	-
GVARAGTAAACAVAMA	MA0593.1	-3	1.76793e-06	0.00248217	0.00339831	11	GAAGAGTAAACAGAAA	AAGTAAACAAA	+
GVARAGTAAACAVAMA	MA0297.1	-5	4.69394e-06	0.00659029	0.00339831	7	GAAGAGTAAACAGAAA	GTAAACA	+
GVARAGTAAACAVAMA	MA0849.1	-5	4.69394e-06	0.00659029	0.00339831	7	GAAGAGTAAACAGAAA	GTAAACA	+
GVARAGTAAACAVAMA	MA0481.2	-3	4.88454e-06	0.00685789	0.00339831	12	GAAGAGTAAACAGAAA	AAGTAAACAGAA	+
GVARAGTAAACAVAMA	MA0546.1	-2	6.11863e-06	0.00859056	0.00340553	10	GAAGAGTAAACAGAAA	AAAGTAAACA	+
GVARAGTAAACAVAMA	MA0042.2	-5	1.61134e-05	0.0226232	0.00640603	7	GAAGAGTAAACAGAAA	GTAAACA	+
GVARAGTAAACAVAMA	MA0848.1	-5	1.61134e-05	0.0226232	0.00640603	7	GAAGAGTAAACAGAAA	GTAAACA	+
GVARAGTAAACAVAMA	MA0847.1	-5	3.11296e-05	0.0437059	0.00962566	7	GAAGAGTAAACAGAAA	GTAAACA	+
GVARAGTAAACAVAMA	MA0850.1	-5	3.11296e-05	0.0437059	0.00962566	7	GAAGAGTAAACAGAAA	GTAAACA	+
GVARAGTAAACAVAMA	MA0033.2	-5	7.05328e-05	0.0990281	0.0196287	7	GAAGAGTAAACAGAAA	GTAAACA	+
GVARAGTAAACAVAMA	MA0846.1	-2	8.75862e-05	0.122971	0.0221586	12	GAAGAGTAAACAGAAA	TAAGTAAACAAA	+
GVARAGTAAACAVAMA	MA0047.2	0	0.000111844	0.157029	0.0259377	12	GAAGAGTAAACAGAAA	CCTAAGTAAACA	-
GVARAGTAAACAVAMA	MA0851.1	0	0.000143059	0.200855	0.0290264	16	GAAGAGTAAACAGAAA	AAAAAGTAAACAAACAC	+
GVARAGTAAACAVAMA	MA0148.3	-1	0.000146023	0.205016	0.0290264	15	GAAGAGTAAACAGAAA	CAAAGTAAACATGGA	-
GVARAGTAAACAVAMA	MA1418.1	2	0.000184421	0.258927	0.0342152	16	GAAGAGTAAACAGAAA	GGGAAACGGAAACCGAAACTG	+
GVARAGTAAACAVAMA	MA0480.1	-4	0.000366009	0.513876	0.0632283	11	GAAGAGTAAACAGAAA	TGTAAACAGGA	-
GVARAGTAAACAVAMA	MA1281.1	1	0.000386243	0.542285	0.0632283	16	GAAGAGTAAACAGAAA	AAAAAAGTAAAAAAAAAAAAA	+
GVARAGTAAACAVAMA	MA0296.1	1	0.000433139	0.608127	0.066966	16	GAAGAGTAAACAGAAA	TGAATTGTAAACAAAGAGGA	+
GVARAGTAAACAVAMA	MA0030.1	0	0.000482008	0.676739	0.0705993	14	GAAGAGTAAACAGAAA	CAAACGTAAACAAT	+
TGCCCTSAGGCW	MA0810.1	0	7.55577e-06	0.0106083	0.00982264	12	TGCCCTCAGGCT	TGCCCCCGGGCA	+
TGCCCTSAGGCW	MA0524.2	0	9.15087e-06	0.0128478	0.00982264	12	TGCCCTCAGGCT	TGCCCTGGGGCA	-
TGCCCTSAGGCW	MA0811.1	0	1.46235e-05	0.0205313	0.00982264	12	TGCCCTCAGGCT	TGCCCTGGGGCA	-
TGCCCTSAGGCW	MA0815.1	0	4.69621e-05	0.0659348	0.0178791	12	TGCCCTCAGGCT	TGCCCTCAGGGCA	-
TGCCCTSAGGCW	MA0872.1	0	5.11197e-05	0.0717721	0.0178791	12	TGCCCTCAGGCT	TGCCCTCAGGGCA	-
TGCCCTSAGGCW	MA0813.1	0	0.000107451	0.150861	0.0300646	12	TGCCCTCAGGCT	TGCCCTGAGGGCA	+
TGCCCTSAGGCW	MA0155.1	0	0.000475663	0.667831	0.102377	12	TGCCCTCAGGCT	CGCCCCCTGACA	-
CTTSTAGACAYTGNCTTAGGCAARKAYTTC	MA1153.1	-2	4.45246e-05	0.0625126	0.125025	8	CTTCTAGACATTGTCTTAGGCAAAGATTTC	TCTAGACA	-
CTTSTAGACAYTGNCTTAGGCAARKAYTTC	MA0795.1	0	0.000140764	0.197632	0.145318	10	CTTCTAGACATTGTCTTAGGCAAAGATTTC	CGTCTAGACA	+
CTTSTAGACAYTGNCTTAGGCAARKAYTTC	MA0263.1	-9	0.000155255	0.217978	0.145318	14	CTTCTAGACATTGTCTTAGGCAAAGATTTC	ATTGGCTTCGTTAA	+
