#Query ID	Target ID	Optimal offset	p-value	E-value	q-value	Overlap	Query consensus	Target consensus	Orientation
GTGTGTGTGYGTGTGT	MA0538.1	0	4.40766e-08	6.18836e-05	0.000123767	15	GTGTGTGTGTGTGTGT	GTGTGTGTGTGCGTG	+
RAAAAAAAMAAAMAAA	MA1274.1	0	8.57166e-09	1.20346e-05	2.38542e-05	16	AAAAAAAAAAAAAAAA	AAAAAAAAAAAAAAAAGTAAA	-
RAAAAAAAMAAAMAAA	MA1268.1	0	4.50423e-08	6.32394e-05	6.26744e-05	16	AAAAAAAAAAAAAAAA	AAAAAAAAAAAAAAGAAAAAGTGAAAA	-
RAAAAAAAMAAAMAAA	MA1267.1	13	2.79662e-06	0.00392645	0.00220189	16	AAAAAAAAAAAAAAAA	AAAAAAAAAAAAGTAAAAAAAAAAAAAAA	-
RAAAAAAAMAAAMAAA	MA1281.1	4	3.16487e-06	0.00444348	0.00220189	16	AAAAAAAAAAAAAAAA	AAAAAAGTAAAAAAAAAAAAA	+
RAAAAAAAMAAAMAAA	MA1279.1	-2	9.01196e-06	0.0126528	0.0050159	14	AAAAAAAAAAAAAAAA	AAAAAAAAGAAAAAGTGAAAA	+
RAAAAAAAMAAAMAAA	MA1159.1	1	1.22566e-05	0.0172082	0.00544186	14	AAAAAAAAAAAAAAAA	AAAAAAAGACAAAAA	+
RAAAAAAAMAAAMAAA	MA1272.1	4	1.36882e-05	0.0192182	0.00544186	16	AAAAAAAAAAAAAAAA	AAAAAAGTAAAAAAAAAAAAA	-
RAAAAAAAMAAAMAAA	MA1125.1	-3	2.59765e-05	0.036471	0.00870657	12	AAAAAAAAAAAAAAAA	TTTAAAAAAAAA	+
RAAAAAAAMAAAMAAA	MA1158.1	2	2.81572e-05	0.0395327	0.00870657	16	AAAAAAAAAAAAAAAA	CAGAAAACGACAAAAAAAAA	+
RAAAAAAAMAAAMAAA	MA1156.1	2	3.55017e-05	0.0498444	0.00923666	16	AAAAAAAAAAAAAAAA	CAGAAAACGACAAAAAAAAA	-
RAAAAAAAMAAAMAAA	MA1277.1	3	3.8564e-05	0.0541439	0.00923666	16	AAAAAAAAAAAAAAAA	AAAAAGAAAAAGTAAAAAAAA	+
RAAAAAAAMAAAMAAA	MA1273.1	0	3.98287e-05	0.0559195	0.00923666	16	AAAAAAAAAAAAAAAA	AAAAAAAAAAGGCAAAAAA	+
RAAAAAAAMAAAMAAA	MA1278.1	7	5.22614e-05	0.073375	0.0111876	14	AAAAAAAAAAAAAAAA	AAAAAGTAAAAAAAAAAAAAA	-
RAAAAAAAMAAAMAAA	MA1157.1	2	6.96391e-05	0.0977732	0.0138428	16	AAAAAAAAAAAAAAAA	CACAAAACGACAAAAAAAAA	-
RAAAAAAAMAAAMAAA	MA1374.1	2	7.65122e-05	0.107423	0.0141951	16	AAAAAAAAAAAAAAAA	CACAAAACGACAAAAAAA	+
RAAAAAAAMAAAMAAA	MA1160.1	3	9.99828e-05	0.140376	0.0173902	16	AAAAAAAAAAAAAAAA	CACAAAACGACAAAAAAAAA	-
RAAAAAAAMAAAMAAA	MA1270.1	0	0.000205965	0.289175	0.0337167	16	AAAAAAAAAAAAAAAA	AAAAAAAGCAAAAAGTAAA	-
RAAAAAAAMAAAMAAA	MA0041.1	-1	0.000375099	0.526639	0.0579927	12	AAAAAAAAAAAAAAAA	AAACAAACATTC	-
RAAAAAAAMAAAMAAA	MA1371.1	2	0.000411816	0.57819	0.0603184	15	AAAAAAAAAAAAAAAA	CACAAAACGACAAAAAA	+
RAAAAAAAMAAAMAAA	MA0757.1	-1	0.000492232	0.691093	0.0684919	14	AAAAAAAAAAAAAAAA	AAAAAATCAATAAT	+
RAAAAAAAMAAAMAAA	MA0277.1	-1	0.000609669	0.855975	0.0807932	9	AAAAAAAAAAAAAAAA	AAAAAGAAA	+
RKCTCMCHGCMMHCYCCNCCHC	MA0528.1	-2	1.91564e-05	0.0268956	0.053638	20	GGCTCCCTGCAATCTCCACCTC	TCCTCCTCCCCCTCCTCCTCC	-
RKCTCMCHGCMMHCYCCNCCHC	MA1260.1	-2	0.000517337	0.726342	0.497393	20	GGCTCCCTGCAATCTCCACCTC	TCCACCGACACCACCACCACC	-
TCCAGCCTGGGTSACAGAGYRASAYYCC	MA0252.1	-11	0.000572368	0.803604	1	6	TCCAGCCTGGGTGACAGAGTAAGATTCC	TGACAG	+
GTGACTCAY	MA0580.1	4	4.10479e-06	0.00576313	0.00494319	9	GTGACTCAC	TCACGTGACTCACG	-
GTGACTCAY	MA0477.1	1	8.42344e-06	0.0118265	0.00494319	9	GTGACTCAC	GGTGACTCATG	+
GTGACTCAY	MA0478.1	2	8.42344e-06	0.0118265	0.00494319	9	GTGACTCAC	GGATGACTCAT	+
GTGACTCAY	MA0099.3	1	1.10719e-05	0.015545	0.00494319	9	GTGACTCAC	GATGACTCAT	-
GTGACTCAY	MA0491.1	1	1.20055e-05	0.0168557	0.00494319	9	GTGACTCAC	GGTGACTCATC	+
GTGACTCAY	MA1135.1	1	1.37912e-05	0.0193629	0.00494319	9	GTGACTCAC	GATGACTCAT	+
GTGACTCAY	MA1138.1	1	1.47906e-05	0.020766	0.00494319	9	GTGACTCAC	GATGACTCAT	+
GTGACTCAY	MA1144.1	1	1.47906e-05	0.020766	0.00494319	9	GTGACTCAC	GATGACTCAT	+
GTGACTCAY	MA0476.1	1	1.79049e-05	0.0251384	0.00494319	9	GTGACTCAC	TGTGACTCATT	+
GTGACTCAY	MA0490.1	2	1.79049e-05	0.0251384	0.00494319	9	GTGACTCAC	GGATGACTCAT	+
GTGACTCAY	MA1130.1	1	2.04943e-05	0.028774	0.00514371	9	GTGACTCAC	GATGACTCATCC	-
GTGACTCAY	MA1141.1	2	2.76795e-05	0.0388621	0.00617893	9	GTGACTCAC	CGATGACTCATCC	-
GTGACTCAY	MA1134.1	2	3.16789e-05	0.0444772	0.00617893	9	GTGACTCAC	GGATGACTCATC	-
GTGACTCAY	MA1128.1	2	3.44772e-05	0.048406	0.00617893	9	GTGACTCAC	TGATGACTCATCC	+
GTGACTCAY	MA1142.1	1	3.4565e-05	0.0485292	0.00617893	9	GTGACTCAC	GATGACTCAT	+
GTGACTCAY	MA0489.1	5	3.58094e-05	0.0502764	0.00617893	9	GTGACTCAC	AGGAGATGACTCAT	+
GTGACTCAY	MA1137.1	2	3.95928e-05	0.0555883	0.0063181	9	GTGACTCAC	TGATGACTCATAC	+
GTGACTCAY	MA0655.1	0	4.1193e-05	0.057835	0.0063181	9	GTGACTCAC	ATGACTCAT	+
GTGACTCAY	MA0303.1	6	4.35771e-05	0.0611823	0.006332	9	GTGACTCAC	TGAAGTATGACTCATCCCTTG	-
GTGACTCAY	MA0272.1	0	8.61958e-05	0.121019	0.0109283	8	GTGACTCAC	GTGACTCT	+
GTGACTCAY	MA1132.1	1	9.1043e-05	0.127824	0.0109283	9	GTGACTCAC	GATGACTCAT	+
GTGACTCAY	MA0841.1	1	0.000117496	0.164964	0.0124763	9	GTGACTCAC	CATGACTCATC	+
GTGACTCAY	MA0501.1	0	0.000329222	0.462228	0.0259691	9	GTGACTCAC	ATGACTCAGCAATTT	+
GTGACTCAY	MA0591.1	3	0.000329222	0.462228	0.0259691	9	GTGACTCAC	AGGATGACTCAGCAC	+
GTGACTCAY	MA1101.1	1	0.000357767	0.502305	0.0274368	9	GTGACTCAC	GATGACTCAGCAAT	+
GTGACTCAY	MA0150.2	4	0.000411889	0.578292	0.0299249	9	GTGACTCAC	CAGCATGACTCAGCA	+
RCAYTNDRYAAATRTTTRCTGA	MA0446.1	-12	0.000227003	0.318713	0.246595	10	ACACTTAGTAAATATTTGCTGA	TGTTTGCTTAA	+
RCAYTNDRYAAATRTTTRCTGA	MA0032.2	-11	0.000379545	0.532881	0.246595	11	ACACTTAGTAAATATTTGCTGA	ATATTTACATA	-
RCAYTNDRYAAATRTTTRCTGA	MA0546.1	-12	0.000591318	0.83021	0.246595	10	ACACTTAGTAAATATTTGCTGA	TGTTTACTTT	-
RCAYTNDRYAAATRTTTRCTGA	MA0846.1	-10	0.000695287	0.976182	0.246595	12	ACACTTAGTAAATATTTGCTGA	TTTGTTTACTTA	-
