#Query ID	Target ID	Optimal offset	p-value	E-value	q-value	Overlap	Query consensus	Target consensus	Orientation
TKTTTTTWTTKYWTTTBHTTTT	CPEB1_HUMAN.H11MO.0.D	-5	2.35606e-07	0.000181653	0.000351982	17	TGTTTTTTTTGTTTTTGTTTTT	TTTTTATTTTTTTTTTT	+
TKTTTTTWTTKYWTTTBHTTTT	PRDM6_HUMAN.H11MO.0.C	-3	8.48076e-06	0.00653867	0.00467835	13	TGTTTTTTTTGTTTTTGTTTTT	TTTTTTTCTTTTT	-
TKTTTTTWTTKYWTTTBHTTTT	FOXJ3_HUMAN.H11MO.1.B	-2	9.39465e-06	0.00724328	0.00467835	13	TGTTTTTTTTGTTTTTGTTTTT	TTGTTTTTGTTTA	+
TKTTTTTWTTKYWTTTBHTTTT	ONEC2_HUMAN.H11MO.0.D	1	6.65362e-05	0.0512994	0.0202216	20	TGTTTTTTTTGTTTTTGTTTTT	GTCTTGTTATTGATTTTTTTT	+
TKTTTTTWTTKYWTTTBHTTTT	FOXL1_HUMAN.H11MO.0.D	-3	7.34849e-05	0.0566568	0.0202216	19	TGTTTTTTTTGTTTTTGTTTTT	TGTTTGTTTGTTTACTTTT	+
TKTTTTTWTTKYWTTTBHTTTT	FOXJ3_HUMAN.H11MO.0.A	-2	8.12146e-05	0.0626165	0.0202216	13	TGTTTTTTTTGTTTTTGTTTTT	TTGTTTATTTTTT	+
TKTTTTTWTTKYWTTTBHTTTT	EVX2_HUMAN.H11MO.0.A	-2	0.000240702	0.185581	0.0435718	13	TGTTTTTTTTGTTTTTGTTTTT	GTTTTATGGCCTT	+
TKTTTTTWTTKYWTTTBHTTTT	FOXG1_HUMAN.H11MO.0.D	-3	0.000241118	0.185902	0.0435718	17	TGTTTTTTTTGTTTTTGTTTTT	ATTGTTTATATTTTTTT	+
TKTTTTTWTTKYWTTTBHTTTT	CDX2_HUMAN.H11MO.0.A	-3	0.00027476	0.21184	0.0435718	12	TGTTTTTTTTGTTTTTGTTTTT	TTTTATTGCTGT	+
TKTTTTTWTTKYWTTTBHTTTT	SRY_HUMAN.H11MO.0.B	-6	0.000291657	0.224868	0.0435718	9	TGTTTTTTTTGTTTTTGTTTTT	TTTTGTTTT	+
TKTTTTTWTTKYWTTTBHTTTT	ANDR_HUMAN.H11MO.0.A	0	0.000347434	0.267872	0.047186	18	TGTTTTTTTTGTTTTTGTTTTT	TGTTCTTTTTTGTTTGCT	+
TKTTTTTWTTKYWTTTBHTTTT	IRF5_HUMAN.H11MO.0.D	-2	0.000412835	0.318296	0.0513959	20	TGTTTTTTTTGTTTTTGTTTTT	TCACTTTTGGCTTTCCTTTA	-
TKTTTTTWTTKYWTTTBHTTTT	HMX1_HUMAN.H11MO.0.D	-3	0.000522095	0.402535	0.0599983	17	TGTTTTTTTTGTTTTTGTTTTT	GTTAATTGTTTTTTAAT	+
TKTTTTTWTTKYWTTTBHTTTT	FUBP1_HUMAN.H11MO.0.D	1	0.000578801	0.446256	0.0610793	11	TGTTTTTTTTGTTTTTGTTTTT	TTGTGTTTTTTT	+
TKTTTTTWTTKYWTTTBHTTTT	FOXJ2_HUMAN.H11MO.0.C	0	0.00063345	0.48839	0.0610793	10	TGTTTTTTTTGTTTTTGTTTTT	TGTTTATTTA	+
TKTTTTTWTTKYWTTTBHTTTT	FOXF1_HUMAN.H11MO.0.D	1	0.000654156	0.504354	0.0610793	10	TGTTTTTTTTGTTTTTGTTTTT	ATGTTTATTTT	+
TKTTTTTWTTKYWTTTBHTTTT	FOXD3_HUMAN.H11MO.0.D	-3	0.000754901	0.582029	0.0663398	15	TGTTTTTTTTGTTTTTGTTTTT	TTTGTTTACTTAGCA	+
TKTTTTTWTTKYWTTTBHTTTT	STAT1_HUMAN.H11MO.1.A	-1	0.000843138	0.650059	0.0673854	19	TGTTTTTTTTGTTTTTGTTTTT	CTTTCAGTTTCATTTTCTT	-
TKTTTTTWTTKYWTTTBHTTTT	PO2F1_HUMAN.H11MO.0.C	-4	0.000857011	0.660756	0.0673854	16	TGTTTTTTTTGTTTTTGTTTTT	TTATTTGCATTCGATT	-
TKTTTTTWTTKYWTTTBHTTTT	FOXK1_HUMAN.H11MO.0.A	0	0.000981443	0.756693	0.0733108	10	TGTTTTTTTTGTTTTTGTTTTT	TGTTTACTTT	+
TKTTTTTWTTKYWTTTBHTTTT	FOXM1_HUMAN.H11MO.0.A	0	0.00117056	0.902502	0.0759847	12	TGTTTTTTTTGTTTTTGTTTTT	TGTTTGCTTTGC	+
TKTTTTTWTTKYWTTTBHTTTT	HXC10_HUMAN.H11MO.0.D	-5	0.00118095	0.910514	0.0759847	17	TGTTTTTTTTGTTTTTGTTTTT	TTTTTAATTTTTTTATTAC	+
TKTTTTTWTTKYWTTTBHTTTT	ZN713_HUMAN.H11MO.0.D	-3	0.0012483	0.962441	0.0759847	19	TGTTTTTTTTGTTTTTGTTTTT	TTTCATGTCATTTTTCTAT	-
TKTTTTTWTTKYWTTTBHTTTT	HXD10_HUMAN.H11MO.0.D	0	0.00126876	0.978211	0.0759847	10	TGTTTTTTTTGTTTTTGTTTTT	TGCTTTAATT	+
TKTTTTTWTTKYWTTTBHTTTT	NFAC1_HUMAN.H11MO.0.B	-6	0.00127155	0.980365	0.0759847	15	TGTTTTTTTTGTTTTTGTTTTT	TTTCTTTTTTTCCAT	-
ARTMAGCAGAGTAAACAGACA	FOXA2_HUMAN.H11MO.0.A	-5	1.75955e-06	0.00135661	0.00268264	12	AGTCAGCAGAGTAAACAGACA	GCTAAGTAAACA	-
ARTMAGCAGAGTAAACAGACA	FOXM1_HUMAN.H11MO.0.A	-5	5.4974e-06	0.00423849	0.00419073	12	AGTCAGCAGAGTAAACAGACA	GCAAAGCAAACA	-
ARTMAGCAGAGTAAACAGACA	FOXA1_HUMAN.H11MO.0.A	-5	1.39977e-05	0.0107922	0.00711374	12	AGTCAGCAGAGTAAACAGACA	CCAAAGTAAACA	-
ARTMAGCAGAGTAAACAGACA	FOXD3_HUMAN.H11MO.0.D	-4	5.08217e-05	0.0391835	0.0169811	15	AGTCAGCAGAGTAAACAGACA	TGCTAAGTAAACAAA	-
ARTMAGCAGAGTAAACAGACA	FOXF2_HUMAN.H11MO.0.D	-6	5.56896e-05	0.0429367	0.0169811	11	AGTCAGCAGAGTAAACAGACA	AAAAGTAAACA	-
ARTMAGCAGAGTAAACAGACA	FOXA3_HUMAN.H11MO.0.B	-6	7.79342e-05	0.0600873	0.0198034	13	AGTCAGCAGAGTAAACAGACA	CAAAGTAAACAAG	-
ARTMAGCAGAGTAAACAGACA	FOXK1_HUMAN.H11MO.0.A	-7	0.000120371	0.0928062	0.0234963	10	AGTCAGCAGAGTAAACAGACA	AAAGTAAACA	-
ARTMAGCAGAGTAAACAGACA	FOXO1_HUMAN.H11MO.0.A	-9	0.000126593	0.0976034	0.0234963	12	AGTCAGCAGAGTAAACAGACA	AGTAAACAGGAA	-
ARTMAGCAGAGTAAACAGACA	FOXP2_HUMAN.H11MO.0.C	-9	0.000138701	0.106939	0.0234963	9	AGTCAGCAGAGTAAACAGACA	TGTAAACAG	-
ARTMAGCAGAGTAAACAGACA	FOXJ2_HUMAN.H11MO.0.C	-11	0.000437409	0.337243	0.0606259	10	AGTCAGCAGAGTAAACAGACA	TAAATAAACA	-
ARTMAGCAGAGTAAACAGACA	FOXO3_HUMAN.H11MO.0.B	-9	0.000437409	0.337243	0.0606259	10	AGTCAGCAGAGTAAACAGACA	TGTAAACAAG	-
ARTMAGCAGAGTAAACAGACA	FOXC2_HUMAN.H11MO.0.D	-5	0.000658852	0.507975	0.0837084	15	AGTCAGCAGAGTAAACAGACA	TCTGGCAAAACAAAC	-
ARTMAGCAGAGTAAACAGACA	FOXP1_HUMAN.H11MO.0.A	-10	0.00101014	0.778816	0.118468	9	AGTCAGCAGAGTAAACAGACA	ATAAACAAA	-
ARTMAGCAGAGTAAACAGACA	MAF_HUMAN.H11MO.1.B	0	0.0011463	0.8838	0.124834	8	AGTCAGCAGAGTAAACAGACA	AGTCAGCA	-
CTGAAACYATAAAAATTCTAGAAGATARCA	HSF1_HUMAN.H11MO.0.A	-15	0.000730761	0.563417	0.622048	15	CTGAAACTATAAAAATTCTAGAAGATAACA	TTCTAGAACCTTCCA	-
CTGAAACYATAAAAATTCTAGAAGATARCA	RUNX1_HUMAN.H11MO.0.A	-2	0.00120656	0.93026	0.622048	11	CTGAAACTATAAAAATTCTAGAAGATAACA	GAAACCACAGA	-
GKGDGTGTGTGTGTKT	RREB1_HUMAN.H11MO.0.D	0	1.52377e-05	0.0117482	0.0234001	16	GTGTGTGTGTGTGTGT	GGGGGGGGGGGTGGTTTGGGGT	+
GKGDGTGTGTGTGTKT	EGR2_HUMAN.H11MO.0.A	0	0.000124224	0.0957769	0.0953842	16	GTGTGTGTGTGTGTGT	GGGGGGGTGTGGGAGGGG	+
GKGDGTGTGTGTGTKT	KLF5_HUMAN.H11MO.0.A	-1	0.000615641	0.47466	0.247104	14	GTGTGTGTGTGTGTGT	AGGGTGGGGCTGGG	+
GKGDGTGTGTGTGTKT	TBX21_HUMAN.H11MO.0.A	0	0.000872596	0.672772	0.247104	13	GTGTGTGTGTGTGTGT	GTGGAGGTGTGAA	+
GKGDGTGTGTGTGTKT	EGR1_HUMAN.H11MO.0.A	0	0.00111056	0.85624	0.247104	16	GTGTGTGTGTGTGTGT	GAGGGCGTGGGCGGGGG	+
GKGDGTGTGTGTGTKT	TBX15_HUMAN.H11MO.0.D	2	0.00114645	0.883912	0.247104	16	GTGTGTGTGTGTGTGT	GGGGGGGGGGGGGTGGGGG	+
GKGDGTGTGTGTGTKT	EGR2_HUMAN.H11MO.1.A	-1	0.00115241	0.888506	0.247104	15	GTGTGTGTGTGTGTGT	GGGGCGTGGGCGGGGG	+
GGTCAYNCTGHCCYSV	RARG_HUMAN.H11MO.0.B	4	1.88433e-07	0.000145281	0.000229641	14	GGTCACGCTGCCCTGA	CCCAGGTCACTCTGACCT	-
GGTCAYNCTGHCCYSV	ESR2_HUMAN.H11MO.0.A	1	3.01044e-07	0.000232105	0.000229641	14	GGTCACGCTGCCCTGA	AGGTCACCCTGACCT	+
GGTCAYNCTGHCCYSV	ESR1_HUMAN.H11MO.0.A	1	5.95639e-07	0.000459237	0.000302908	14	GGTCACGCTGCCCTGA	AGGTCAGGGTGACCT	-
GGTCAYNCTGHCCYSV	RARG_HUMAN.H11MO.1.B	-7	0.000189252	0.145913	0.0412469	8	GGTCACGCTGCCCTGA	CTGACCTC	-
GGTCAYNCTGHCCYSV	PAX1_HUMAN.H11MO.0.D	1	0.000239325	0.18452	0.0456401	16	GGTCACGCTGCCCTGA	TCGTCACGCTTGACTGA	+
GGTCAYNCTGHCCYSV	RARA_HUMAN.H11MO.1.A	-5	0.000515579	0.397512	0.0845646	10	GGTCACGCTGCCCTGA	CCCTGACCTT	-
GGTCAYNCTGHCCYSV	PAX5_HUMAN.H11MO.0.A	-1	0.000600181	0.462739	0.0845646	15	GGTCACGCTGCCCTGA	GTCACGCTCTGCTGCCCAGGC	-
GGTCAYNCTGHCCYSV	THA_HUMAN.H11MO.1.D	-7	0.000609723	0.470096	0.0845646	9	GGTCACGCTGCCCTGA	CTGACCTGAA	-
GGTCAYNCTGHCCYSV	ESR2_HUMAN.H11MO.1.A	-7	0.00108406	0.835811	0.128137	7	GGTCACGCTGCCCTGA	GTGACCT	-
GGTCAYNCTGHCCYSV	KLF14_HUMAN.H11MO.0.D	-1	0.00109186	0.841827	0.128137	13	GGTCACGCTGCCCTGA	GCCACGCCCCCCT	-
ASWGCCTGGMMCWTRGYMGGWDYTTRRTRA	ZKSC1_HUMAN.H11MO.0.B	-7	2.86201e-05	0.0220661	0.0440951	19	AGTGCCTGGCACATGGTAGGTGCTTGATAA	GGCACACAGTAGGTCCTCA	-
ASWGCCTGGMMCWTRGYMGGWDYTTRRTRA	SMAD4_HUMAN.H11MO.0.B	-1	0.000149817	0.115509	0.115412	13	AGTGCCTGGCACATGGTAGGTGCTTGATAA	CTGTCTGGCACCT	+
ASWGCCTGGMMCWTRGYMGGWDYTTRRTRA	HIC2_HUMAN.H11MO.0.D	-3	0.000508967	0.392414	0.261389	11	AGTGCCTGGCACATGGTAGGTGCTTGATAA	GCCTGGCATGT	-
ASWGCCTGGMMCWTRGYMGGWDYTTRRTRA	HAND1_HUMAN.H11MO.1.D	-2	0.00103066	0.794639	0.379137	7	AGTGCCTGGCACATGGTAGGTGCTTGATAA	GGCCTGG	+
ASWGCCTGGMMCWTRGYMGGWDYTTRRTRA	SMAD2_HUMAN.H11MO.0.A	-2	0.0012304	0.948639	0.379137	12	AGTGCCTGGCACATGGTAGGTGCTTGATAA	TGTCTGTCACCT	+
