# motif_id	motif_alt_id	sequence_name	start	stop	strand	score	p-value	q-value	matched_sequence
RCTCACTGCAACCTCYRCCTCCYGGGYTCA	MEME-1	chr20	48758919	48758948	+	51.0182	5.2e-19	2.4e-13	gctcactgcaacctccgcctcctgggttca
RCTCACTGCAACCTCYRCCTCCYGGGYTCA	MEME-1	chrX	140222302	140222331	-	49.4455	7.32e-18	1.69e-12	GCTCACTGCAACCTCCACCTCCCGGGTTCA
RCTCACTGCAACCTCYRCCTCCYGGGYTCA	MEME-1	chr7	130858270	130858299	-	48.7091	1.77e-17	2.72e-12	ACTCACTGCAACCTCCACCTCCTGGGTTCA
RCTCACTGCAACCTCYRCCTCCYGGGYTCA	MEME-1	chr12	112574719	112574748	-	48.0636	3.95e-17	4.56e-12	GCTCACTGCAACCTCCACCTCCCAGGTTCA
RCTCACTGCAACCTCYRCCTCCYGGGYTCA	MEME-1	chr6	33512233	33512262	-	46.7273	2.24e-16	2.07e-11	GCTCACCGCAACCTCTGCCTCCCGGGTTCA
RCTCACTGCAACCTCYRCCTCCYGGGYTCA	MEME-1	chr15	63789009	63789038	+	45.1545	1.16e-15	8.91e-11	gctcactgcagcctcaacctcctgggctca
RCTCACTGCAACCTCYRCCTCCYGGGYTCA	MEME-1	chr2	70882633	70882662	+	44.7364	1.78e-15	1.17e-10	gctcaccgcaacctccgcctcttgggttca
RCTCACTGCAACCTCYRCCTCCYGGGYTCA	MEME-1	chr12	32827966	32827995	+	44.3455	2.55e-15	1.47e-10	gctcactgaaacttccgcctcccgggttca
RCTCACTGCAACCTCYRCCTCCYGGGYTCA	MEME-1	chr5	133974391	133974420	-	43.6364	4.79e-15	2.45e-10	GCTCACTGTAACCTCTGCCTCCTAGATTCA
RCTCACTGCAACCTCYRCCTCCYGGGYTCA	MEME-1	chr11	69329190	69329219	-	40.9727	4.45e-14	2.05e-09	GCTCACTGCAAGCTCTGCCTCCCGGGTTCA
RCTCACTGCAACCTCYRCCTCCYGGGYTCA	MEME-1	chr9	136608759	136608788	+	40.7182	5.4e-14	2.26e-09	gctcactgcaacctccacctcccgagttca
RCTCACTGCAACCTCYRCCTCCYGGGYTCA	MEME-1	chr20	49358309	49358338	+	39.6545	1.18e-13	4.55e-09	actcactgcaacctccgcctcccaggttct
RCTCACTGCAACCTCYRCCTCCYGGGYTCA	MEME-1	chr17	4681569	4681598	-	38.7364	2.27e-13	7.93e-09	GCTCACTGCATCCTCAACCTCCTGGGCTCA
RCTCACTGCAACCTCYRCCTCCYGGGYTCA	MEME-1	chr11	71856157	71856186	-	38.6545	2.41e-13	7.93e-09	GCTAACTGCAACCTATGCCTCCCAGGCCCA
RCTCACTGCAACCTCYRCCTCCYGGGYTCA	MEME-1	chr22	41107509	41107538	-	38.3455	2.95e-13	9.06e-09	GCTCACTGTGACCTCAGTATCCTGGGTTCA
RCTCACTGCAACCTCYRCCTCCYGGGYTCA	MEME-1	chr16	89909952	89909981	+	38.2273	3.23e-13	9.06e-09	gttcactgcaacctccacccctcaggctca
RCTCACTGCAACCTCYRCCTCCYGGGYTCA	MEME-1	chr12	112555325	112555354	-	38.0909	3.5e-13	9.06e-09	GCTCACGGCAACCTCCTCCTCCCAGGTTCA
RCTCACTGCAACCTCYRCCTCCYGGGYTCA	MEME-1	chr7	75735510	75735539	-	38.0818	3.53e-13	9.06e-09	ACTCACTGCAGCCTTGAACTCCTGGGCTCA
RCTCACTGCAACCTCYRCCTCCYGGGYTCA	MEME-1	chr17	57919905	57919934	+	37.5	5.19e-13	1.26e-08	gctcactgccacttccgcctcccaggttca
RCTCACTGCAACCTCYRCCTCCYGGGYTCA	MEME-1	chr14	77512025	77512054	+	37.4091	5.51e-13	1.27e-08	gctcactgcaatctccacctcctgggctta
RCTCACTGCAACCTCYRCCTCCYGGGYTCA	MEME-1	chr8	17663716	17663745	+	35.8818	1.43e-12	3.14e-08	gctcaccacaacctctacctcctaggttca
RCTCACTGCAACCTCYRCCTCCYGGGYTCA	MEME-1	chr22	30190708	30190737	+	34.8182	2.68e-12	5.62e-08	tgatcttgcaacctccgcctcctgggctca
RCTCACTGCAACCTCYRCCTCCYGGGYTCA	MEME-1	chr17	76742868	76742897	-	30.4818	2.82e-11	5.66e-07	GCTCACTGCAGCCTTGACCTCCTGAGCCCA
RCTCACTGCAACCTCYRCCTCCYGGGYTCA	MEME-1	chr8	131045252	131045281	-	29.1636	5.43e-11	1.04e-06	GCTCACCACAACATCCACCTCCCGGGTTCA
RCTCACTGCAACCTCYRCCTCCYGGGYTCA	MEME-1	chr5	177508511	177508540	-	28.0545	9.25e-11	1.71e-06	GCACACTGCAACCTCCGACACCCTGGTTCA
RCTCACTGCAACCTCYRCCTCCYGGGYTCA	MEME-1	chr16	54963692	54963721	-	22.8545	9.36e-10	1.66e-05	ACGCCTCGCAGCCTCTTTCTCCCGGTTTTC
RCTCACTGCAACCTCYRCCTCCYGGGYTCA	MEME-1	chr16	89970655	89970684	-	20.2818	2.67e-09	4.57e-05	GCTCACTGTACCTTTGACCTCCCAGGCACA
RCTCACTGCAACCTCYRCCTCCYGGGYTCA	MEME-1	chr7	99935741	99935770	-	13.7727	3.03e-08	0.0005	GCTCACTGCCAGCTCTGCCCCCGGGGTTCG
RCTCACTGCAACCTCYRCCTCCYGGGYTCA	MEME-1	chr17	38478662	38478691	+	7.99091	2.09e-07	0.00332	TCCCCCCGGAGCCTCTGTCCCCTGGGTCCT
RCTCACTGCAACCTCYRCCTCCYGGGYTCA	MEME-1	chr9	114654113	114654142	-	1.7	1.39e-06	0.0214	TTCACTGCAAACCTCCACCTCCCGGATTTA
RCTCACTGCAACCTCYRCCTCCYGGGYTCA	MEME-1	chr5	141258461	141258490	-	1.24545	1.58e-06	0.0235	GGTCCCATTAGCCTCCTCCTCCCACGGTCC
RCTCACTGCAACCTCYRCCTCCYGGGYTCA	MEME-1	chr12	50595682	50595711	-	-2.14545	4.04e-06	0.0582	GCTAGCTGCCAGCTCCTCCTCACAGATGCA
RCTCACTGCAACCTCYRCCTCCYGGGYTCA	MEME-1	chr10	33562115	33562144	-	-3.31818	5.53e-06	0.0772	GAAATTTGCAAACTCAGGATCCTGGGCTTC
RCTCACTGCAACCTCYRCCTCCYGGGYTCA	MEME-1	chrX	129243560	129243589	-	-4.88182	8.31e-06	0.113	TCTCCCCGACTCTCCCGCCTCCGGGTTCCC
RCTCACTGCAACCTCYRCCTCCYGGGYTCA	MEME-1	chr5	142625357	142625386	+	-5.48182	9.68e-06	0.128	TCTCAGTGCCCCCTCCGCTTCAGGGGCTTA
RCTCACTGCAACCTCYRCCTCCYGGGYTCA	MEME-1	chr19	47324073	47324102	+	-6.13636	1.14e-05	0.147	GCGAATGTCATCTTCCGCCTCTCATTCTCC
RCTCACTGCAACCTCYRCCTCCYGGGYTCA	MEME-1	chr14	76032376	76032405	-	-6.27273	1.18e-05	0.148	ACTCAGTGTCACCTCTGTGCCTGGGCCCCA
RCTCACTGCAACCTCYRCCTCCYGGGYTCA	MEME-1	chr9	140121298	140121327	-	-6.51818	1.26e-05	0.153	ACGCCTGGAGACCTCTGCATGCCACGCGCC
RCTCACTGCAACCTCYRCCTCCYGGGYTCA	MEME-1	chr4	56264749	56264778	-	-6.89091	1.38e-05	0.163	TTGACATGCAACTACTTCAACCCAGTCTTA
RCTCACTGCAACCTCYRCCTCCYGGGYTCA	MEME-1	chr21	16242665	16242694	+	-6.97273	1.41e-05	0.163	GGTTACTGCACACACTATCTCCATGGTTTC
RCTCACTGCAACCTCYRCCTCCYGGGYTCA	MEME-1	chr10	117469739	117469768	-	-7.31818	1.54e-05	0.164	ACTCATTGCAGCCACCATCTTCAAAATGTA
RCTCACTGCAACCTCYRCCTCCYGGGYTCA	MEME-1	chr7	101525207	101525236	-	-7.38182	1.56e-05	0.164	GCTCACTGCAAGCTCCCACCTCCCAGCCTC
RCTCACTGCAACCTCYRCCTCCYGGGYTCA	MEME-1	chr8	145030453	145030482	-	-7.4	1.57e-05	0.164	GCTCACTGCAGCCTTGGGTGGGCTGGTTCA
RCTCACTGCAACCTCYRCCTCCYGGGYTCA	MEME-1	chr21	46823252	46823281	-	-7.46364	1.59e-05	0.164	GGTCCTGGTGGCTTCTCCTCCCGAGGCTCC
RCTCACTGCAACCTCYRCCTCCYGGGYTCA	MEME-1	chr4	5367261	5367290	+	-7.60909	1.65e-05	0.164	GCAGAAAGTGGCCTCAATCCCCTGGGCCTT
RCTCACTGCAACCTCYRCCTCCYGGGYTCA	MEME-1	chr6	15908299	15908328	+	-7.62727	1.66e-05	0.164	GTTTATTAAGGGCTCAGTCCCCTAGGGGCA
RCTCACTGCAACCTCYRCCTCCYGGGYTCA	MEME-1	chr17	76370063	76370092	+	-7.66364	1.67e-05	0.164	gggtcatgcagcctctggctccaagaatct
RCTCACTGCAACCTCYRCCTCCYGGGYTCA	MEME-1	chr17	78830251	78830280	-	-7.91818	1.78e-05	0.171	GCTATTTGTGGCCTCAGGCACCTGGAGTGA
RCTCACTGCAACCTCYRCCTCCYGGGYTCA	MEME-1	chr11	70029532	70029561	-	-8.01818	1.83e-05	0.172	GGAACAAGCAGCCCTGTCCTCCCAGTGTCA
RCTCACTGCAACCTCYRCCTCCYGGGYTCA	MEME-1	chr2	101734218	101734247	+	-8.24545	1.93e-05	0.178	TCTCTCAGTAACTTCCTCCTCCTTGACATG
RCTCACTGCAACCTCYRCCTCCYGGGYTCA	MEME-1	chr1	211908949	211908978	-	-8.6	2.11e-05	0.191	TATGCCTGCCCTGTCTGCCTCCCGGGTTCC
RCTCACTGCAACCTCYRCCTCCYGGGYTCA	MEME-1	chr1	118623948	118623977	+	-9.35455	2.53e-05	0.224	ACACCTTGAAGGCTCGTTCTACTTCATTCC
RCTCACTGCAACCTCYRCCTCCYGGGYTCA	MEME-1	chr10	33587556	33587585	+	-9.41818	2.57e-05	0.224	acgaattctagctGTCATATTCCAGGCCTA
RCTCACTGCAACCTCYRCCTCCYGGGYTCA	MEME-1	chr16	72963154	72963183	-	-9.73636	2.77e-05	0.237	ATGACCTGTAAGCTTTGCCAAATAGTCTTA
RCTCACTGCAACCTCYRCCTCCYGGGYTCA	MEME-1	chr4	5367412	5367441	+	-10.1727	3.07e-05	0.258	TTTGCTCGCACCTTCTTCCTCTTACCTTCC
RCTCACTGCAACCTCYRCCTCCYGGGYTCA	MEME-1	chr20	49039654	49039683	+	-10.2727	3.15e-05	0.259	GCTCGCTGATGACTCGGCCTTCTGCCTTCC
RCTCACTGCAACCTCYRCCTCCYGGGYTCA	MEME-1	chr2	14683357	14683386	-	-10.6	3.4e-05	0.272	TCAATCTGATAGCACCGTCTCCAGGTTTCC
RCTCACTGCAACCTCYRCCTCCYGGGYTCA	MEME-1	chr20	61720409	61720438	-	-10.6273	3.42e-05	0.272	ACACACAGGTGCCTCCCGCTCTTGGGGTTA
RCTCACTGCAACCTCYRCCTCCYGGGYTCA	MEME-1	chrX	129299310	129299339	+	-10.7364	3.51e-05	0.274	ACATTACGCAGACTCCTCCTCCCAGCTCCG
RCTCACTGCAACCTCYRCCTCCYGGGYTCA	MEME-1	chr9	88358107	88358136	-	-10.8	3.56e-05	0.274	GTTTATTTCAACTTCATACACGTGGGATCT
RCTCACTGCAACCTCYRCCTCCYGGGYTCA	MEME-1	chr13	52165084	52165113	+	-11.0273	3.76e-05	0.28	AGTCTCTGCAACCATATCATCCTAAAATCT
RCTCACTGCAACCTCYRCCTCCYGGGYTCA	MEME-1	chr11	2211971	2212000	-	-11.0364	3.76e-05	0.28	TCCCTCTGCAATCTCAGCCACCTGCATCCG
RCTCACTGCAACCTCYRCCTCCYGGGYTCA	MEME-1	chr20	58707311	58707340	-	-11.1364	3.86e-05	0.282	ACCCACTGTCACCAACACAGCTTTGGTTTC
RCTCACTGCAACCTCYRCCTCCYGGGYTCA	MEME-1	chr20	49358203	49358232	-	-11.4545	4.15e-05	0.299	ATTAAGTGTAACTTCTGCCTTACTGATGCC
RCTCACTGCAACCTCYRCCTCCYGGGYTCA	MEME-1	chr15	100026346	100026375	-	-11.5636	4.26e-05	0.302	GGGTACCGCCCCCTGCTTCTCCCGCCCCCA
RCTCACTGCAACCTCYRCCTCCYGGGYTCA	MEME-1	chr7	55008453	55008482	-	-11.9	4.61e-05	0.312	TCTCTCTCCAGTGTTTACCTTTTGGTCTTA
RCTCACTGCAACCTCYRCCTCCYGGGYTCA	MEME-1	chr19	4706646	4706675	+	-11.9273	4.63e-05	0.312	aatcaccccgacctcaaaccactgATTTAA
RCTCACTGCAACCTCYRCCTCCYGGGYTCA	MEME-1	chr16	85456007	85456036	-	-12.0273	4.74e-05	0.312	TCACTCCCTGGCTCCGGCCTCCCAAGTCCC
RCTCACTGCAACCTCYRCCTCCYGGGYTCA	MEME-1	chr4	6752623	6752652	-	-12.1091	4.83e-05	0.312	GGACATTCCAACCTCGGGACCTCCAGCACA
RCTCACTGCAACCTCYRCCTCCYGGGYTCA	MEME-1	chr2	154449644	154449673	+	-12.1909	4.92e-05	0.312	gcagagtgaggcctgtgactgctggctttc
RCTCACTGCAACCTCYRCCTCCYGGGYTCA	MEME-1	chr2	438851	438880	-	-12.2	4.93e-05	0.312	TCTCACTGCCTCTACTCTCTTCCGGGCTGC
RCTCACTGCAACCTCYRCCTCCYGGGYTCA	MEME-1	chr17	37925958	37925987	-	-12.2273	4.97e-05	0.312	AATTACTGTAGTTTACCCTTTCTGGGTTTC
RCTCACTGCAACCTCYRCCTCCYGGGYTCA	MEME-1	chr4	26320687	26320716	-	-12.3182	5.07e-05	0.312	AGACACCGCGCCCCCCGCCTCCGGGAGCTG
RCTCACTGCAACCTCYRCCTCCYGGGYTCA	MEME-1	chr5	77995198	77995227	+	-12.3182	5.07e-05	0.312	GCTCCCTGCCACACCCACACCCAGCACACA
RCTCACTGCAACCTCYRCCTCCYGGGYTCA	MEME-1	chr3	158440655	158440684	-	-12.3636	5.12e-05	0.312	ATTACCTGTGAGCTCGTCCCCACCCACCCA
RCTCACTGCAACCTCYRCCTCCYGGGYTCA	MEME-1	chrX	39473610	39473639	+	-12.4091	5.18e-05	0.312	GCATGCTGTGACCTTTGGCTCCTCCTCCCG
RCTCACTGCAACCTCYRCCTCCYGGGYTCA	MEME-1	chr20	50366608	50366637	+	-12.4364	5.21e-05	0.312	GTGGGCTGATGACTCATTCTCCTGGGCCCT
RCTCACTGCAACCTCYRCCTCCYGGGYTCA	MEME-1	chr7	373357	373386	-	-12.7364	5.58e-05	0.324	ACGCCCAGAAGCCTCCGGAGCTCGCTTCTC
RCTCACTGCAACCTCYRCCTCCYGGGYTCA	MEME-1	chr3	46700627	46700656	+	-12.7636	5.61e-05	0.324	ccacacagcagctcagggctgccagactcc
RCTCACTGCAACCTCYRCCTCCYGGGYTCA	MEME-1	chr6	33512201	33512230	-	-12.7727	5.62e-05	0.324	CGATTCTCCTTCCTCAGCCTCCCAGGCACA
RCTCACTGCAACCTCYRCCTCCYGGGYTCA	MEME-1	chr2	217657129	217657158	+	-12.8818	5.77e-05	0.329	TTCCATTGCACCCTATGCCTCTCCAGTCTG
RCTCACTGCAACCTCYRCCTCCYGGGYTCA	MEME-1	chr13	110650963	110650992	+	-13.0273	5.96e-05	0.333	TTTTCCAACAGCCTCTTTCTCCTGAATGCT
RCTCACTGCAACCTCYRCCTCCYGGGYTCA	MEME-1	chr17	57922557	57922586	+	-13.0545	6e-05	0.333	CCTGCTCTCCACCCAAGCACCCTGGATTCA
RCTCACTGCAACCTCYRCCTCCYGGGYTCA	MEME-1	chr16	89909984	89910013	+	-13.2818	6.32e-05	0.347	tgatcctcccacctcagtctcccgagtagc
RCTCACTGCAACCTCYRCCTCCYGGGYTCA	MEME-1	chr16	50431065	50431094	-	-13.4182	6.5e-05	0.353	AATCACCTCCACCTGGTAATCTCTGATTCA
RCTCACTGCAACCTCYRCCTCCYGGGYTCA	MEME-1	chr13	33693723	33693752	-	-13.6091	6.8e-05	0.357	TCACACTGAAGTATTTACCTTCAGGGCATC
RCTCACTGCAACCTCYRCCTCCYGGGYTCA	MEME-1	chr22	36000847	36000876	-	-13.6636	6.87e-05	0.357	GGAAACTGTGATCGCTTTTGCCTGGGACCA
RCTCACTGCAACCTCYRCCTCCYGGGYTCA	MEME-1	chr12	115912561	115912590	+	-13.6636	6.87e-05	0.357	CTGCACTGTAAACATGATCTCCAGGACCAA
RCTCACTGCAACCTCYRCCTCCYGGGYTCA	MEME-1	chr17	36442248	36442277	+	-13.7455	7e-05	0.357	CTGCCCTGGGTCCTCTGGCTTGTGGTTTCA
RCTCACTGCAACCTCYRCCTCCYGGGYTCA	MEME-1	chr11	69329919	69329948	+	-13.7455	7e-05	0.357	AGTCATCCTGACCTTGGGCCTGCAGATCCA
RCTCACTGCAACCTCYRCCTCCYGGGYTCA	MEME-1	chr10	127258077	127258106	+	-13.7636	7.03e-05	0.357	atacacaggtgcctctgtcccatgggatct
RCTCACTGCAACCTCYRCCTCCYGGGYTCA	MEME-1	chr1	94535147	94535176	-	-13.9273	7.3e-05	0.359	AGTGCCTTCGGCCTCTAACTCACCATTCCA
RCTCACTGCAACCTCYRCCTCCYGGGYTCA	MEME-1	chr5	100999111	100999140	+	-13.9273	7.3e-05	0.359	GCTTATTGTGACCTTTCCCATAGGAGCTCA
RCTCACTGCAACCTCYRCCTCCYGGGYTCA	MEME-1	chr8	134781293	134781322	+	-13.9364	7.31e-05	0.359	ACAGGTCCTGACCTTTGACCTTTGGGCTCC
RCTCACTGCAACCTCYRCCTCCYGGGYTCA	MEME-1	chr21	43476050	43476079	+	-13.9909	7.4e-05	0.359	catctctccaacctctgcctccTCGGAGTC
RCTCACTGCAACCTCYRCCTCCYGGGYTCA	MEME-1	chr6	19526922	19526951	+	-14.1909	7.74e-05	0.363	gttcattgtagattctggatattagtcctt
RCTCACTGCAACCTCYRCCTCCYGGGYTCA	MEME-1	chr5	104246660	104246689	-	-14.1909	7.74e-05	0.363	GCTCACAGCTGAGTTCATCTCCTGTTATTA
RCTCACTGCAACCTCYRCCTCCYGGGYTCA	MEME-1	chr1	226320492	226320521	-	-14.2091	7.77e-05	0.363	TCCCAGCCTGGCCTTTGTTCCTTGGTCTCC
RCTCACTGCAACCTCYRCCTCCYGGGYTCA	MEME-1	chr15	75871998	75872027	-	-14.2182	7.79e-05	0.363	GATTCCTTCCACCTAAGCATCCTGGCCTGG
RCTCACTGCAACCTCYRCCTCCYGGGYTCA	MEME-1	chr13	98945438	98945467	-	-14.2909	7.92e-05	0.365	TATCCCTGTGCCATTTGCAGCCTGCTTCCA
RCTCACTGCAACCTCYRCCTCCYGGGYTCA	MEME-1	chr15	90236461	90236490	-	-14.3818	8.08e-05	0.369	TCAGCCTCTTGCTTTGGCCTCTCAGCTTTC
RCTCACTGCAACCTCYRCCTCCYGGGYTCA	MEME-1	chr14	24163413	24163442	-	-14.4364	8.18e-05	0.369	ATTCACTGCATCTTCTGGTGCATTGGCTTC
RCTCACTGCAACCTCYRCCTCCYGGGYTCA	MEME-1	chr22	41107477	41107506	-	-14.5273	8.35e-05	0.369	TGATCCTCCTGCCTCAGCCTCCCAAGTAGC
RCTCACTGCAACCTCYRCCTCCYGGGYTCA	MEME-1	chr6	42098018	42098047	-	-14.5364	8.36e-05	0.369	GGTCCAGGTAGCCACATCACGTCAGGTCTA
RCTCACTGCAACCTCYRCCTCCYGGGYTCA	MEME-1	chr12	117173927	117173956	-	-14.6364	8.54e-05	0.369	GTTTTCTGCCACCTCAGACACCTCCTCACA
RCTCACTGCAACCTCYRCCTCCYGGGYTCA	MEME-1	chr13	34729874	34729903	+	-14.6636	8.59e-05	0.369	TCTTTCTCTAATCTCTTCCTCAAGGTCTGA
RCTCACTGCAACCTCYRCCTCCYGGGYTCA	MEME-1	chr22	26338999	26339028	+	-14.7182	8.7e-05	0.369	atttctttccacttccaccccttccacccc
RCTCACTGCAACCTCYRCCTCCYGGGYTCA	MEME-1	chr7	966898	966927	+	-14.8455	8.95e-05	0.369	GCTGTTTGCACCTTCAAGCTCCTGAACACC
RCTCACTGCAACCTCYRCCTCCYGGGYTCA	MEME-1	chr3	50950619	50950648	+	-14.8818	9.02e-05	0.369	tggagttgcaagctgtgcagcctggggcta
RCTCACTGCAACCTCYRCCTCCYGGGYTCA	MEME-1	chr16	74642792	74642821	-	-14.9	9.05e-05	0.369	GCAATCTGTGGCTGTGGTTTCCTCAGTTCA
RCTCACTGCAACCTCYRCCTCCYGGGYTCA	MEME-1	chr17	15254321	15254350	-	-14.9091	9.07e-05	0.369	GCTATCTGCCACCTTCATCTCCACAGCCTG
RCTCACTGCAACCTCYRCCTCCYGGGYTCA	MEME-1	chr20	50077207	50077236	+	-14.9273	9.11e-05	0.369	acatccctcaccctctgtgccccaatctct
RCTCACTGCAACCTCYRCCTCCYGGGYTCA	MEME-1	chr10	106232262	106232291	+	-14.9273	9.11e-05	0.369	gctctcagttacttgagttcctcagttcca
RCTCACTGCAACCTCYRCCTCCYGGGYTCA	MEME-1	chr2	182885139	182885168	+	-14.9273	9.11e-05	0.369	AGTCACtgaacccacttcaatttggctttc
RCTCACTGCAACCTCYRCCTCCYGGGYTCA	MEME-1	chr19	45245216	45245245	-	-15.1636	9.6e-05	0.385	GCTCCCTGAGGCTGCTCTGCCCCACCCCCA
RCTCACTGCAACCTCYRCCTCCYGGGYTCA	MEME-1	chr1	230220139	230220168	+	-15.2364	9.75e-05	0.388	CCACATGGGGGACCATGCCTCACAGGTTCA
RCTCACTGCAACCTCYRCCTCCYGGGYTCA	MEME-1	chr17	4681537	4681566	-	-15.2727	9.84e-05	0.388	TGATCTTCTCACCTCGGCCTCCCGAGTAGC
