prim_db	prim_id	prim_alt	prim_cons	sec_db	sec_id	sec_alt	sec_cons	trim_left	trim_right	red_db	red_id	red_alt	E-value	gap	orient	count	total	adj_p-value	p-value
meme.xml	SBKGTGKGKGTGTGTGKGTGTG	MEME-3	SBKGTGKGKGTGTGTGKGTGTG	JASPAR2018_CORE_non-redundant	MA1399.1	At5g08520	DWWDWRGATAAGR	1	0	.	.	.	5.74e-01	82	1	3	8	3.60e-08	3.24e-07
meme.xml	SBKGTGKGKGTGTGTGKGTGTG	MEME-3	SBKGTGKGKGTGTGTGKGTGTG	JASPAR2018_CORE_non-redundant	MA1399.1	At5g08520	DWWDWRGATAAGR	1	0	.	.	.	5.74e-01	82	4	3	8	2.86e-07	2.57e-06
meme.xml	SBKGTGKGKGTGTGTGKGTGTG	MEME-3	SBKGTGKGKGTGTGTGKGTGTG	JASPAR2018_CORE_non-redundant	MA1399.1	At5g08520	DWWDWRGATAAGR	1	0	.	.	.	5.74e-01	82	6	3	8	2.86e-07	2.57e-06
meme.xml	SBKGTGKGKGTGTGTGKGTGTG	MEME-3	SBKGTGKGKGTGTGTGKGTGTG	JASPAR2018_CORE_non-redundant	MA1399.1	At5g08520	DWWDWRGATAAGR	1	0	.	.	.	5.74e-01	82	8	3	8	2.26e-06	2.03e-05
meme.xml	SBKGTGKGKGTGTGTGKGTGTG	MEME-3	SBKGTGKGKGTGTGTGKGTGTG	JASPAR2018_CORE_non-redundant	MA1195.1	AT5G56840	AAYCTTATCCAWWWH	0	1	JASPAR2018_CORE_non-redundant	MA1399.1	At5g08520	5.90e-01	82	0	3	8	3.76e-08	3.38e-07
meme.xml	SBKGTGKGKGTGTGTGKGTGTG	MEME-3	SBKGTGKGKGTGTGTGKGTGTG	JASPAR2018_CORE_non-redundant	MA1195.1	AT5G56840	AAYCTTATCCAWWWH	0	1	JASPAR2018_CORE_non-redundant	MA1399.1	At5g08520	5.90e-01	82	4	3	8	2.98e-07	2.69e-06
meme.xml	SBKGTGKGKGTGTGTGKGTGTG	MEME-3	SBKGTGKGKGTGTGTGKGTGTG	JASPAR2018_CORE_non-redundant	MA1195.1	AT5G56840	AAYCTTATCCAWWWH	0	1	JASPAR2018_CORE_non-redundant	MA1399.1	At5g08520	5.90e-01	82	5	3	8	2.98e-07	2.69e-06
meme.xml	SBKGTGKGKGTGTGTGKGTGTG	MEME-3	SBKGTGKGKGTGTGTGKGTGTG	JASPAR2018_CORE_non-redundant	MA1195.1	AT5G56840	AAYCTTATCCAWWWH	0	1	JASPAR2018_CORE_non-redundant	MA1399.1	At5g08520	5.90e-01	82	8	3	8	2.35e-06	2.12e-05
meme.xml	SBKGTGKGKGTGTGTGKGTGTG	MEME-3	SBKGTGKGKGTGTGTGKGTGTG	JASPAR2018_CORE_non-redundant	MA1189.1	AT5G61620	DWWWTGGATAAGRWW	1	0	JASPAR2018_CORE_non-redundant	MA1399.1	At5g08520	2.31e+00	82	1	3	12	1.47e-07	1.32e-06
meme.xml	SBKGTGKGKGTGTGTGKGTGTG	MEME-3	SBKGTGKGKGTGTGTGKGTGTG	JASPAR2018_CORE_non-redundant	MA1189.1	AT5G61620	DWWWTGGATAAGRWW	1	0	JASPAR2018_CORE_non-redundant	MA1399.1	At5g08520	2.31e+00	82	4	3	12	1.16e-06	1.04e-05
meme.xml	SBKGTGKGKGTGTGTGKGTGTG	MEME-3	SBKGTGKGKGTGTGTGKGTGTG	JASPAR2018_CORE_non-redundant	MA1189.1	AT5G61620	DWWWTGGATAAGRWW	1	0	JASPAR2018_CORE_non-redundant	MA1399.1	At5g08520	2.31e+00	82	6	3	12	1.16e-06	1.04e-05
meme.xml	SBKGTGKGKGTGTGTGKGTGTG	MEME-3	SBKGTGKGKGTGTGTGKGTGTG	JASPAR2018_CORE_non-redundant	MA1192.1	At5g58900	WDWRGATAAGRTTWD	0	2	JASPAR2018_CORE_non-redundant	MA1399.1	At5g08520	2.95e+00	83	1	3	13	1.86e-07	1.68e-06
meme.xml	SBKGTGKGKGTGTGTGKGTGTG	MEME-3	SBKGTGKGKGTGTGTGKGTGTG	JASPAR2018_CORE_non-redundant	MA1192.1	At5g58900	WDWRGATAAGRTTWD	0	2	JASPAR2018_CORE_non-redundant	MA1399.1	At5g08520	2.95e+00	83	8	4	13	2.08e-07	1.87e-06
meme.xml	SBKGTGKGKGTGTGTGKGTGTG	MEME-3	SBKGTGKGKGTGTGTGKGTGTG	JASPAR2018_CORE_non-redundant	MA1192.1	At5g58900	WDWRGATAAGRTTWD	0	2	JASPAR2018_CORE_non-redundant	MA1399.1	At5g08520	2.95e+00	83	4	3	13	1.47e-06	1.32e-05
meme.xml	SBKGTGKGKGTGTGTGKGTGTG	MEME-3	SBKGTGKGKGTGTGTGKGTGTG	JASPAR2018_CORE_non-redundant	MA1192.1	At5g58900	WDWRGATAAGRTTWD	0	2	JASPAR2018_CORE_non-redundant	MA1399.1	At5g08520	2.95e+00	83	6	3	13	1.47e-06	1.32e-05
meme.xml	SBKGTGKGKGTGTGTGKGTGTG	MEME-3	SBKGTGKGKGTGTGTGKGTGTG	JASPAR2018_CORE_non-redundant	MA1186.1	At1g49010	HWWAWYCTTATCYWH	3	1	JASPAR2018_CORE_non-redundant	MA1399.1	At5g08520	8.11e+00	85	0	3	18	5.06e-07	4.55e-06
meme.xml	SBKGTGKGKGTGTGTGKGTGTG	MEME-3	SBKGTGKGKGTGTGTGKGTGTG	JASPAR2018_CORE_non-redundant	MA1186.1	At1g49010	HWWAWYCTTATCYWH	3	1	JASPAR2018_CORE_non-redundant	MA1399.1	At5g08520	8.11e+00	85	4	3	18	3.97e-06	3.57e-05
meme.xml	SBKGTGKGKGTGTGTGKGTGTG	MEME-3	SBKGTGKGKGTGTGTGKGTGTG	JASPAR2018_CORE_non-redundant	MA1186.1	At1g49010	HWWAWYCTTATCYWH	3	1	JASPAR2018_CORE_non-redundant	MA1399.1	At5g08520	8.11e+00	85	5	3	18	3.97e-06	3.57e-05
meme.xml	SBKGTGKGKGTGTGTGKGTGTG	MEME-3	SBKGTGKGKGTGTGTGKGTGTG	JASPAR2018_CORE_non-redundant	MA1188.1	At3g11280	AWYCTTATCTTHWY	0	0	JASPAR2018_CORE_non-redundant	MA1399.1	At5g08520	8.46e+00	82	0	3	18	5.40e-07	4.86e-06
meme.xml	SBKGTGKGKGTGTGTGKGTGTG	MEME-3	SBKGTGKGKGTGTGTGKGTGTG	JASPAR2018_CORE_non-redundant	MA1188.1	At3g11280	AWYCTTATCTTHWY	0	0	JASPAR2018_CORE_non-redundant	MA1399.1	At5g08520	8.46e+00	82	4	3	18	4.23e-06	3.81e-05
meme.xml	SBKGTGKGKGTGTGTGKGTGTG	MEME-3	SBKGTGKGKGTGTGTGKGTGTG	JASPAR2018_CORE_non-redundant	MA1188.1	At3g11280	AWYCTTATCTTHWY	0	0	JASPAR2018_CORE_non-redundant	MA1399.1	At5g08520	8.46e+00	82	5	3	18	4.23e-06	3.81e-05
meme.xml	SBKGTGKGKGTGTGTGKGTGTG	MEME-3	SBKGTGKGKGTGTGTGKGTGTG	JASPAR2018_CORE_non-redundant	MA0687.1	SPIC	HAAAAGVGGAAGTA	1	0	.	.	.	2.10e+00	124	7	4	22	1.33e-07	1.20e-06
meme.xml	SBKGTGKGKGTGTGTGKGTGTG	MEME-3	SBKGTGKGKGTGTGTGKGTGTG	JASPAR2018_CORE_non-redundant	MA0687.1	SPIC	HAAAAGVGGAAGTA	1	0	.	.	.	2.10e+00	124	2	3	22	9.91e-07	8.92e-06
meme.xml	SBKGTGKGKGTGTGTGKGTGTG	MEME-3	SBKGTGKGKGTGTGTGKGTGTG	JASPAR2018_CORE_non-redundant	MA0687.1	SPIC	HAAAAGVGGAAGTA	1	0	.	.	.	2.10e+00	124	8	4	22	2.02e-06	1.82e-05
##
# Detailed descriptions of columns in this file:
#
# prim_db:	The name of the database (file name) that contains the primary motif.
# prim_id:	A name for the primary motif that is unique in the motif database file.
# prim_alt:	An alternate name of the primary motif that may be provided
#		in the motif database file.
# prim_cons:	A consensus sequence computed from the primary motif (see doc/motif-consensus.html).
# sec_db:	The name of the database (file name) that contains the secondary motif.
# sec_id:	A name for the motif that is unique in the motif database file.
# sec_alt:	An alternate name of the secondary motif that may be provided
#		in the motif database file.
# sec_cons:	A consensus sequence computed from the secondary motif (see doc/motif-consensus.html).
# trim_left:	Number of positions trimmed from left of secondary motif
# trim_right:	Number of positions trimmed from right of secondary motif
# If the next three fields are not blank, the motif is redundant with a more significant ('parent') motif.
# red_db:	The database (file name) that contains the parent motif.
# red_id:	A name for the parent motif that is unique in the motif database file.
# red_alt:	An alternate name of the parent motif that may be provided
#		in the motif database file.
# E-value:	The expected number motifs that would have least one
#		spacing as enriched as the best spacing for this secondary.
#		The E-value is the best spacing p-value multiplied by the number of motifs in the
#		input database(s).
# gap:		The distance between the edge of the primary and the (trimmed) secondary motif.
# orient:	The (combination) of quadrants for which occurrences
#		of this spacing are combined.
# count:	The number of occurrences of the secondary motif with the
#		given spacing and orientation to the primary motif.
# total:	The total number of occurrences of the secondary motif within the
#		margins around the best primary motif occurrence.
# adj_p-value:	The p-value of the gap and orientation, adjusted for
#		nine combinations of quadrants times the number of gaps tested
#		(as controlled by the -range switch).
# p-value:	The p-value of the gap and orientation adjusted only for the number of gaps tested.
