# motif_id	motif_alt_id	sequence_name	start	stop	strand	score	p-value	q-value	matched_sequence
RYAAAYA	DREME-2	chr7	373312	373318	-	11.3881	6.39e-05	0.201	GCAAACA
RYAAAYA	DREME-2	chr2	437611	437617	-	11.3881	6.39e-05	0.201	GCAAACA
RYAAAYA	DREME-2	chr7	966950	966956	-	11.3881	6.39e-05	0.201	GCAAACA
RYAAAYA	DREME-2	chr2	1235370	1235376	+	11.3881	6.39e-05	0.201	gcaaaca
RYAAAYA	DREME-2	chr12	3458918	3458924	+	11.3881	6.39e-05	0.201	GCAAACA
RYAAAYA	DREME-2	chr17	4681706	4681712	+	11.3881	6.39e-05	0.201	gcaaaCA
RYAAAYA	DREME-2	chr3	4786203	4786209	-	11.3881	6.39e-05	0.201	GCAAACA
RYAAAYA	DREME-2	chr19	5046524	5046530	-	11.3881	6.39e-05	0.201	GCAAACA
RYAAAYA	DREME-2	chr19	5046578	5046584	-	11.3881	6.39e-05	0.201	GCAAACA
RYAAAYA	DREME-2	chr7	5262253	5262259	-	11.3881	6.39e-05	0.201	GCAAACA
RYAAAYA	DREME-2	chr4	5367460	5367466	-	11.3881	6.39e-05	0.201	GCAAACA
RYAAAYA	DREME-2	chr17	6280498	6280504	+	11.3881	6.39e-05	0.201	GCAAACA
RYAAAYA	DREME-2	chr6	7201376	7201382	+	11.3881	6.39e-05	0.201	GCAAACA
RYAAAYA	DREME-2	chr10	7330012	7330018	+	11.3881	6.39e-05	0.201	GCAAACA
RYAAAYA	DREME-2	chr17	7381055	7381061	+	11.3881	6.39e-05	0.201	GCAAACA
RYAAAYA	DREME-2	chr6	7561422	7561428	-	11.3881	6.39e-05	0.201	GCAAACA
RYAAAYA	DREME-2	chr6	8083532	8083538	+	11.3881	6.39e-05	0.201	GCAAACA
RYAAAYA	DREME-2	chr3	8542191	8542197	+	11.3881	6.39e-05	0.201	GCAAACA
RYAAAYA	DREME-2	chr1	8971050	8971056	-	11.3881	6.39e-05	0.201	GCAAACA
RYAAAYA	DREME-2	chr11	9124889	9124895	-	11.3881	6.39e-05	0.201	GCAAACA
RYAAAYA	DREME-2	chr1	9173081	9173087	-	11.3881	6.39e-05	0.201	GCAAACA
RYAAAYA	DREME-2	chr3	9191145	9191151	-	11.3881	6.39e-05	0.201	GCAAACA
RYAAAYA	DREME-2	chr11	10416210	10416216	-	11.3881	6.39e-05	0.201	GCAAACA
RYAAAYA	DREME-2	chr8	10532359	10532365	-	11.3881	6.39e-05	0.201	GCAAACA
RYAAAYA	DREME-2	chr8	10532379	10532385	-	11.3881	6.39e-05	0.201	GCAAACA
RYAAAYA	DREME-2	chr19	10728510	10728516	-	11.3881	6.39e-05	0.201	GCAAACA
RYAAAYA	DREME-2	chr8	11219093	11219099	-	11.3881	6.39e-05	0.201	GCAAACA
RYAAAYA	DREME-2	chr12	11585026	11585032	+	11.3881	6.39e-05	0.201	GCAAACA
RYAAAYA	DREME-2	chr12	11585046	11585052	+	11.3881	6.39e-05	0.201	GCAAACA
RYAAAYA	DREME-2	chr6	12336438	12336444	+	11.3881	6.39e-05	0.201	GCAAACA
RYAAAYA	DREME-2	chr1	12538012	12538018	+	11.3881	6.39e-05	0.201	GCAAACA
RYAAAYA	DREME-2	chr3	13236268	13236274	-	11.3881	6.39e-05	0.201	GCAAACA
RYAAAYA	DREME-2	chr3	14307049	14307055	+	11.3881	6.39e-05	0.201	gcaaaca
RYAAAYA	DREME-2	chr5	14768095	14768101	+	11.3881	6.39e-05	0.201	GCAAACA
RYAAAYA	DREME-2	chr6	15037050	15037056	-	11.3881	6.39e-05	0.201	GCAAACA
RYAAAYA	DREME-2	chr12	15942716	15942722	+	11.3881	6.39e-05	0.201	GCAAACA
RYAAAYA	DREME-2	chr5	16573313	16573319	-	11.3881	6.39e-05	0.201	GCAAACA
RYAAAYA	DREME-2	chr1	16930670	16930676	-	11.3881	6.39e-05	0.201	GCAAACA
RYAAAYA	DREME-2	chr1	17738392	17738398	+	11.3881	6.39e-05	0.201	GCAAACA
RYAAAYA	DREME-2	chr1	17738509	17738515	+	11.3881	6.39e-05	0.201	GCAAACA
RYAAAYA	DREME-2	chr19	18557457	18557463	+	11.3881	6.39e-05	0.201	GCAAACA
RYAAAYA	DREME-2	chr8	18858414	18858420	+	11.3881	6.39e-05	0.201	gcaaaca
RYAAAYA	DREME-2	chr2	19338185	19338191	+	11.3881	6.39e-05	0.201	GCAAACA
RYAAAYA	DREME-2	chr13	20368526	20368532	-	11.3881	6.39e-05	0.201	GCAAACA
RYAAAYA	DREME-2	chr22	21241702	21241708	-	11.3881	6.39e-05	0.201	GCAAACA
RYAAAYA	DREME-2	chr9	22124794	22124800	+	11.3881	6.39e-05	0.201	gcaaaca
RYAAAYA	DREME-2	chrX	22135803	22135809	-	11.3881	6.39e-05	0.201	GCAAACA
RYAAAYA	DREME-2	chrX	22135827	22135833	-	11.3881	6.39e-05	0.201	GCAAACA
RYAAAYA	DREME-2	chr14	23082885	23082891	+	11.3881	6.39e-05	0.201	GCAAACA
RYAAAYA	DREME-2	chr19	24065430	24065436	+	11.3881	6.39e-05	0.201	gcaaaca
RYAAAYA	DREME-2	chr6	24779810	24779816	-	11.3881	6.39e-05	0.201	GCAAACA
RYAAAYA	DREME-2	chr8	25105650	25105656	+	11.3881	6.39e-05	0.201	GCAAACA
RYAAAYA	DREME-2	chr13	25691111	25691117	-	11.3881	6.39e-05	0.201	GCAAACA
RYAAAYA	DREME-2	chr6	26257486	26257492	-	11.3881	6.39e-05	0.201	GCAAACA
RYAAAYA	DREME-2	chr22	26339018	26339024	-	11.3881	6.39e-05	0.201	GCAAACA
RYAAAYA	DREME-2	chr10	29192070	29192076	+	11.3881	6.39e-05	0.201	GCAAACA
RYAAAYA	DREME-2	chr10	29311423	29311429	-	11.3881	6.39e-05	0.201	GCAAACA
RYAAAYA	DREME-2	chr19	30162050	30162056	-	11.3881	6.39e-05	0.201	GCAAACA
RYAAAYA	DREME-2	chr20	31779038	31779044	-	11.3881	6.39e-05	0.201	GCAAACA
RYAAAYA	DREME-2	chr22	31976127	31976133	-	11.3881	6.39e-05	0.201	GCAAACA
RYAAAYA	DREME-2	chr12	32339858	32339864	-	11.3881	6.39e-05	0.201	GCAAACA
RYAAAYA	DREME-2	chr12	32339918	32339924	+	11.3881	6.39e-05	0.201	GCAAACA
RYAAAYA	DREME-2	chr12	32339959	32339965	+	11.3881	6.39e-05	0.201	GCAAACA
RYAAAYA	DREME-2	chr3	32625272	32625278	+	11.3881	6.39e-05	0.201	GCAAACA
RYAAAYA	DREME-2	chr9	32701764	32701770	-	11.3881	6.39e-05	0.201	GCAAACA
RYAAAYA	DREME-2	chr10	33562241	33562247	+	11.3881	6.39e-05	0.201	GCAAACA
RYAAAYA	DREME-2	chr13	33690371	33690377	-	11.3881	6.39e-05	0.201	GCAAACA
RYAAAYA	DREME-2	chr6	33955918	33955924	-	11.3881	6.39e-05	0.201	GCAAACA
RYAAAYA	DREME-2	chr19	34709187	34709193	+	11.3881	6.39e-05	0.201	GCAAACA
RYAAAYA	DREME-2	chr13	34729836	34729842	+	11.3881	6.39e-05	0.201	GCAAACA
RYAAAYA	DREME-2	chr19	35135864	35135870	+	11.3881	6.39e-05	0.201	GCAAACA
RYAAAYA	DREME-2	chr21	36260087	36260093	+	11.3881	6.39e-05	0.201	GCAAACA
RYAAAYA	DREME-2	chr14	37325167	37325173	-	11.3881	6.39e-05	0.201	GCAAACA
RYAAAYA	DREME-2	chr6	37511735	37511741	-	11.3881	6.39e-05	0.201	GCAAACA
RYAAAYA	DREME-2	chr21	39008451	39008457	+	11.3881	6.39e-05	0.201	GCAAACA
RYAAAYA	DREME-2	chr19	39684606	39684612	-	11.3881	6.39e-05	0.201	GCAAACA
RYAAAYA	DREME-2	chr15	40390985	40390991	+	11.3881	6.39e-05	0.201	GCAAACA
RYAAAYA	DREME-2	chr7	41188319	41188325	+	11.3881	6.39e-05	0.201	GCAAACA
RYAAAYA	DREME-2	chr21	41754589	41754595	+	11.3881	6.39e-05	0.201	GCAAACA
RYAAAYA	DREME-2	chr21	43203464	43203470	+	11.3881	6.39e-05	0.201	gcaaaca
RYAAAYA	DREME-2	chr21	43475977	43475983	+	11.3881	6.39e-05	0.201	GCAAACA
RYAAAYA	DREME-2	chr21	43783360	43783366	+	11.3881	6.39e-05	0.201	GCAAACA
RYAAAYA	DREME-2	chr2	43861812	43861818	-	11.3881	6.39e-05	0.201	GCAAACA
RYAAAYA	DREME-2	chr4	44159865	44159871	+	11.3881	6.39e-05	0.201	GCAAACA
RYAAAYA	DREME-2	chr14	44249412	44249418	+	11.3881	6.39e-05	0.201	gcaaaca
RYAAAYA	DREME-2	chr1	44855950	44855956	+	11.3881	6.39e-05	0.201	GCAAACA
RYAAAYA	DREME-2	chr22	45501188	45501194	+	11.3881	6.39e-05	0.201	gcaaaca
RYAAAYA	DREME-2	chr20	46018692	46018698	+	11.3881	6.39e-05	0.201	GCAAACA
RYAAAYA	DREME-2	chr21	46129961	46129967	-	11.3881	6.39e-05	0.201	GCAAACA
RYAAAYA	DREME-2	chr21	46193240	46193246	-	11.3881	6.39e-05	0.201	GCAAACA
RYAAAYA	DREME-2	chr2	46391255	46391261	+	11.3881	6.39e-05	0.201	GCAAACA
RYAAAYA	DREME-2	chr7	46926225	46926231	-	11.3881	6.39e-05	0.201	GCAAACA
RYAAAYA	DREME-2	chr7	46926251	46926257	-	11.3881	6.39e-05	0.201	GCAAACA
RYAAAYA	DREME-2	chr20	47377514	47377520	+	11.3881	6.39e-05	0.201	gcaaaca
RYAAAYA	DREME-2	chr7	47552168	47552174	-	11.3881	6.39e-05	0.201	GCAAACA
RYAAAYA	DREME-2	chr10	48548575	48548581	-	11.3881	6.39e-05	0.201	GCAAACA
RYAAAYA	DREME-2	chr20	49261969	49261975	-	11.3881	6.39e-05	0.201	GCAAACA
RYAAAYA	DREME-2	chr20	49358230	49358236	-	11.3881	6.39e-05	0.201	GCAAACA
RYAAAYA	DREME-2	chr6	49858749	49858755	+	11.3881	6.39e-05	0.201	gcaaaca
RYAAAYA	DREME-2	chr20	50351368	50351374	+	11.3881	6.39e-05	0.201	GCAAACA
RYAAAYA	DREME-2	chr19	51574341	51574347	+	11.3881	6.39e-05	0.201	gcaaaca
RYAAAYA	DREME-2	chr20	51961311	51961317	+	11.3881	6.39e-05	0.201	GCAAACA
RYAAAYA	DREME-2	chr20	52130124	52130130	+	11.3881	6.39e-05	0.201	GCAAACA
RYAAAYA	DREME-2	chr8	52683672	52683678	+	11.3881	6.39e-05	0.201	GCAAACA
RYAAAYA	DREME-2	chr8	52683706	52683712	+	11.3881	6.39e-05	0.201	GCAAACA
RYAAAYA	DREME-2	chr12	54372723	54372729	-	11.3881	6.39e-05	0.201	GCAAACA
RYAAAYA	DREME-2	chr1	54481786	54481792	+	11.3881	6.39e-05	0.201	GCAAACA
RYAAAYA	DREME-2	chr16	54963614	54963620	-	11.3881	6.39e-05	0.201	GCAAACA
RYAAAYA	DREME-2	chr17	55418058	55418064	-	11.3881	6.39e-05	0.201	GCAAACA
RYAAAYA	DREME-2	chr19	56037712	56037718	+	11.3881	6.39e-05	0.201	GCAAACA
RYAAAYA	DREME-2	chr19	56037707	56037713	-	11.3881	6.39e-05	0.201	GCAAACA
RYAAAYA	DREME-2	chr2	56070491	56070497	-	11.3881	6.39e-05	0.201	GCAAACA
RYAAAYA	DREME-2	chr17	57863894	57863900	-	11.3881	6.39e-05	0.201	GCAAACA
RYAAAYA	DREME-2	chr17	57922503	57922509	-	11.3881	6.39e-05	0.201	GCAAACA
RYAAAYA	DREME-2	chr20	58628429	58628435	+	11.3881	6.39e-05	0.201	GCAAACA
RYAAAYA	DREME-2	chr8	58991387	58991393	-	11.3881	6.39e-05	0.201	GCAAACA
RYAAAYA	DREME-2	chr11	60144003	60144009	-	11.3881	6.39e-05	0.201	GCAAACA
RYAAAYA	DREME-2	chr15	60188901	60188907	-	11.3881	6.39e-05	0.201	GCAAACA
RYAAAYA	DREME-2	chr11	60709644	60709650	-	11.3881	6.39e-05	0.201	GCAAACA
RYAAAYA	DREME-2	chr20	61745882	61745888	-	11.3881	6.39e-05	0.201	GCAAACA
RYAAAYA	DREME-2	chr3	64142775	64142781	+	11.3881	6.39e-05	0.201	GCAAACA
RYAAAYA	DREME-2	chr3	64142823	64142829	+	11.3881	6.39e-05	0.201	GCAAACA
RYAAAYA	DREME-2	chr3	64487048	64487054	-	11.3881	6.39e-05	0.201	GCAAACA
RYAAAYA	DREME-2	chr3	65565895	65565901	+	11.3881	6.39e-05	0.201	GCAAACA
RYAAAYA	DREME-2	chr11	68147641	68147647	-	11.3881	6.39e-05	0.201	GCAAACA
RYAAAYA	DREME-2	chr11	68147683	68147689	-	11.3881	6.39e-05	0.201	GCAAACA
RYAAAYA	DREME-2	chr7	69197286	69197292	+	11.3881	6.39e-05	0.201	GCAAACA
RYAAAYA	DREME-2	chr11	69469710	69469716	-	11.3881	6.39e-05	0.201	GCAAACA
RYAAAYA	DREME-2	chr11	69706280	69706286	+	11.3881	6.39e-05	0.201	GCAAACA
RYAAAYA	DREME-2	chr15	69846714	69846720	+	11.3881	6.39e-05	0.201	GCAAACA
RYAAAYA	DREME-2	chr15	70384262	70384268	-	11.3881	6.39e-05	0.201	GCAAACA
RYAAAYA	DREME-2	chr16	70779864	70779870	+	11.3881	6.39e-05	0.201	GCAAACA
RYAAAYA	DREME-2	chr11	71192349	71192355	+	11.3881	6.39e-05	0.201	GCAAACA
RYAAAYA	DREME-2	chr18	71510017	71510023	+	11.3881	6.39e-05	0.201	GCAAACA
RYAAAYA	DREME-2	chr3	72359838	72359844	+	11.3881	6.39e-05	0.201	GCAAACA
RYAAAYA	DREME-2	chr3	72677175	72677181	-	11.3881	6.39e-05	0.201	GCAAACA
RYAAAYA	DREME-2	chr3	72677350	72677356	-	11.3881	6.39e-05	0.201	GCAAACA
RYAAAYA	DREME-2	chr16	72882522	72882528	+	11.3881	6.39e-05	0.201	GCAAACA
RYAAAYA	DREME-2	chr11	72983021	72983027	+	11.3881	6.39e-05	0.201	gcaaaca
RYAAAYA	DREME-2	chr15	74207422	74207428	+	11.3881	6.39e-05	0.201	gcaaaca
RYAAAYA	DREME-2	chr8	74332077	74332083	-	11.3881	6.39e-05	0.201	GCAAACA
RYAAAYA	DREME-2	chr18	74805354	74805360	-	11.3881	6.39e-05	0.201	GCAAACA
RYAAAYA	DREME-2	chr5	76721979	76721985	-	11.3881	6.39e-05	0.201	GCAAACA
RYAAAYA	DREME-2	chr14	77385043	77385049	-	11.3881	6.39e-05	0.201	GCAAACA
RYAAAYA	DREME-2	chr16	77469645	77469651	-	11.3881	6.39e-05	0.201	GCAAACA
RYAAAYA	DREME-2	chr16	78087012	78087018	-	11.3881	6.39e-05	0.201	GCAAACA
RYAAAYA	DREME-2	chr17	80255929	80255935	-	11.3881	6.39e-05	0.201	GCAAACA
RYAAAYA	DREME-2	chr11	80431596	80431602	-	11.3881	6.39e-05	0.201	GCAAACA
RYAAAYA	DREME-2	chr9	83718454	83718460	-	11.3881	6.39e-05	0.201	GCAAACA
RYAAAYA	DREME-2	chr1	84092664	84092670	-	11.3881	6.39e-05	0.201	GCAAACA
RYAAAYA	DREME-2	chr16	84628761	84628767	-	11.3881	6.39e-05	0.201	GCAAACA
RYAAAYA	DREME-2	chr16	84918134	84918140	-	11.3881	6.39e-05	0.201	GCAAACA
RYAAAYA	DREME-2	chr1	85422436	85422442	+	11.3881	6.39e-05	0.201	gcaaaca
RYAAAYA	DREME-2	chr16	85548311	85548317	-	11.3881	6.39e-05	0.201	GCAAACA
RYAAAYA	DREME-2	chr16	85548347	85548353	-	11.3881	6.39e-05	0.201	GCAAACA
RYAAAYA	DREME-2	chr2	88895588	88895594	+	11.3881	6.39e-05	0.201	gcaaaca
RYAAAYA	DREME-2	chr16	89497216	89497222	-	11.3881	6.39e-05	0.201	GCAAACA
RYAAAYA	DREME-2	chr16	89904104	89904110	-	11.3881	6.39e-05	0.201	GCAAACA
RYAAAYA	DREME-2	chr16	89970810	89970816	+	11.3881	6.39e-05	0.201	gcaaaCA
RYAAAYA	DREME-2	chr9	90185575	90185581	+	11.3881	6.39e-05	0.201	GCAAACA
RYAAAYA	DREME-2	chr9	90185785	90185791	-	11.3881	6.39e-05	0.201	GCAAACA
RYAAAYA	DREME-2	chr15	92170731	92170737	-	11.3881	6.39e-05	0.201	GCAAACA
RYAAAYA	DREME-2	chr15	93160697	93160703	+	11.3881	6.39e-05	0.201	GCAAACA
RYAAAYA	DREME-2	chr15	93187355	93187361	+	11.3881	6.39e-05	0.201	GCAAACA
RYAAAYA	DREME-2	chr15	93289088	93289094	+	11.3881	6.39e-05	0.201	gcaaaca
RYAAAYA	DREME-2	chr8	93977000	93977006	+	11.3881	6.39e-05	0.201	GCAAACA
RYAAAYA	DREME-2	chr1	94510921	94510927	-	11.3881	6.39e-05	0.201	GCAAACA
RYAAAYA	DREME-2	chr1	94535083	94535089	+	11.3881	6.39e-05	0.201	GCAAACA
RYAAAYA	DREME-2	chr1	94535258	94535264	+	11.3881	6.39e-05	0.201	GCAAACA
RYAAAYA	DREME-2	chr15	96613795	96613801	-	11.3881	6.39e-05	0.201	GCAAACA
RYAAAYA	DREME-2	chr13	97126616	97126622	+	11.3881	6.39e-05	0.201	GCAAACA
RYAAAYA	DREME-2	chr2	97554292	97554298	-	11.3881	6.39e-05	0.201	GCAAACA
RYAAAYA	DREME-2	chr9	97811050	97811056	+	11.3881	6.39e-05	0.201	GCAAACA
RYAAAYA	DREME-2	chr9	97856114	97856120	-	11.3881	6.39e-05	0.201	GCAAACA
RYAAAYA	DREME-2	chr14	99240325	99240331	-	11.3881	6.39e-05	0.201	GCAAACA
RYAAAYA	DREME-2	chr13	100629809	100629815	-	11.3881	6.39e-05	0.201	GCAAACA
RYAAAYA	DREME-2	chr15	101389691	101389697	-	11.3881	6.39e-05	0.201	GCAAACA
RYAAAYA	DREME-2	chr7	101526105	101526111	-	11.3881	6.39e-05	0.201	GCAAACA
RYAAAYA	DREME-2	chr5	101842221	101842227	-	11.3881	6.39e-05	0.201	GCAAACA
RYAAAYA	DREME-2	chr8	102619545	102619551	-	11.3881	6.39e-05	0.201	GCAAACA
RYAAAYA	DREME-2	chr14	102948169	102948175	-	11.3881	6.39e-05	0.201	GCAAACA
RYAAAYA	DREME-2	chr3	103156824	103156830	+	11.3881	6.39e-05	0.201	gcaaaca
RYAAAYA	DREME-2	chr5	104246668	104246674	+	11.3881	6.39e-05	0.201	gcaaaca
RYAAAYA	DREME-2	chr5	104246748	104246754	+	11.3881	6.39e-05	0.201	gcaaaca
RYAAAYA	DREME-2	chr10	105649700	105649706	+	11.3881	6.39e-05	0.201	GCAAACA
RYAAAYA	DREME-2	chr10	105649871	105649877	+	11.3881	6.39e-05	0.201	gcaaaca
RYAAAYA	DREME-2	chr7	105712470	105712476	-	11.3881	6.39e-05	0.201	GCAAACA
RYAAAYA	DREME-2	chr10	106232231	106232237	-	11.3881	6.39e-05	0.201	GCAAACA
RYAAAYA	DREME-2	chr4	108979818	108979824	+	11.3881	6.39e-05	0.201	gcaaaca
RYAAAYA	DREME-2	chr4	108979872	108979878	-	11.3881	6.39e-05	0.201	GCAAACA
RYAAAYA	DREME-2	chr13	109571594	109571600	-	11.3881	6.39e-05	0.201	GCAAACA
RYAAAYA	DREME-2	chr1	110268303	110268309	+	11.3881	6.39e-05	0.201	gcaaaca
RYAAAYA	DREME-2	chr13	110650985	110650991	-	11.3881	6.39e-05	0.201	GCAAACA
RYAAAYA	DREME-2	chr2	111526223	111526229	-	11.3881	6.39e-05	0.201	GCAAACA
RYAAAYA	DREME-2	chr11	112455820	112455826	+	11.3881	6.39e-05	0.201	GCAAACA
RYAAAYA	DREME-2	chr11	112455874	112455880	+	11.3881	6.39e-05	0.201	GCAAACA
RYAAAYA	DREME-2	chr12	113683515	113683521	+	11.3881	6.39e-05	0.201	GCAAACA
RYAAAYA	DREME-2	chr12	113683635	113683641	+	11.3881	6.39e-05	0.201	GCAAACA
RYAAAYA	DREME-2	chr12	117174087	117174093	-	11.3881	6.39e-05	0.201	GCAAACA
RYAAAYA	DREME-2	chr12	117580640	117580646	+	11.3881	6.39e-05	0.201	GCAAACA
RYAAAYA	DREME-2	chr12	117580635	117580641	-	11.3881	6.39e-05	0.201	GCAAACA
RYAAAYA	DREME-2	chr12	117580736	117580742	+	11.3881	6.39e-05	0.201	GCAAACA
RYAAAYA	DREME-2	chr11	120151436	120151442	-	11.3881	6.39e-05	0.201	GCAAACA
RYAAAYA	DREME-2	chr7	122831263	122831269	-	11.3881	6.39e-05	0.201	GCAAACA
RYAAAYA	DREME-2	chr3	124556659	124556665	-	11.3881	6.39e-05	0.201	GCAAACA
RYAAAYA	DREME-2	chr12	124716527	124716533	-	11.3881	6.39e-05	0.201	GCAAACA
RYAAAYA	DREME-2	chr12	124716652	124716658	-	11.3881	6.39e-05	0.201	GCAAACA
RYAAAYA	DREME-2	chr5	124982504	124982510	+	11.3881	6.39e-05	0.201	gcaaaca
RYAAAYA	DREME-2	chr8	125192647	125192653	-	11.3881	6.39e-05	0.201	GCAAACA
RYAAAYA	DREME-2	chr8	126123160	126123166	-	11.3881	6.39e-05	0.201	GCAAACA
RYAAAYA	DREME-2	chr9	130769064	130769070	-	11.3881	6.39e-05	0.201	GCAAACA
RYAAAYA	DREME-2	chr12	130824611	130824617	-	11.3881	6.39e-05	0.201	GCAAACA
RYAAAYA	DREME-2	chr5	132581039	132581045	-	11.3881	6.39e-05	0.201	GCAAACA
RYAAAYA	DREME-2	chr9	134180354	134180360	+	11.3881	6.39e-05	0.201	gcaaaca
RYAAAYA	DREME-2	chr9	134180407	134180413	+	11.3881	6.39e-05	0.201	gcaaaca
RYAAAYA	DREME-2	chr9	134622818	134622824	+	11.3881	6.39e-05	0.201	GCAAACA
RYAAAYA	DREME-2	chr5	137566560	137566566	-	11.3881	6.39e-05	0.201	GCAAACA
RYAAAYA	DREME-2	chr5	142974451	142974457	-	11.3881	6.39e-05	0.201	GCAAACA
RYAAAYA	DREME-2	chrX	143455774	143455780	-	11.3881	6.39e-05	0.201	GCAAACA
RYAAAYA	DREME-2	chr2	149876909	149876915	+	11.3881	6.39e-05	0.201	GCAAACA
RYAAAYA	DREME-2	chr1	151170325	151170331	+	11.3881	6.39e-05	0.201	gcaaaca
RYAAAYA	DREME-2	chrX	152029605	152029611	-	11.3881	6.39e-05	0.201	GCAAACA
RYAAAYA	DREME-2	chr1	153517728	153517734	+	11.3881	6.39e-05	0.201	GCAAACA
RYAAAYA	DREME-2	chr3	156530166	156530172	-	11.3881	6.39e-05	0.201	GCAAACA
RYAAAYA	DREME-2	chr7	157794196	157794202	+	11.3881	6.39e-05	0.201	GCAAACA
RYAAAYA	DREME-2	chr5	159687816	159687822	+	11.3881	6.39e-05	0.201	GCAAACA
RYAAAYA	DREME-2	chr2	161078199	161078205	+	11.3881	6.39e-05	0.201	GCAAACA
RYAAAYA	DREME-2	chr3	161138478	161138484	+	11.3881	6.39e-05	0.201	gcaaaca
RYAAAYA	DREME-2	chr1	169088547	169088553	+	11.3881	6.39e-05	0.201	GCAAACA
RYAAAYA	DREME-2	chr2	171095306	171095312	+	11.3881	6.39e-05	0.201	GCAAACA
RYAAAYA	DREME-2	chr2	175449832	175449838	+	11.3881	6.39e-05	0.201	GCAAACA
RYAAAYA	DREME-2	chr2	177750445	177750451	+	11.3881	6.39e-05	0.201	GCAAACA
RYAAAYA	DREME-2	chr2	177750535	177750541	+	11.3881	6.39e-05	0.201	GCAAACA
RYAAAYA	DREME-2	chr1	180126856	180126862	-	11.3881	6.39e-05	0.201	GCAAACA
RYAAAYA	DREME-2	chr4	186558424	186558430	-	11.3881	6.39e-05	0.201	GCAAACA
RYAAAYA	DREME-2	chr3	189022370	189022376	-	11.3881	6.39e-05	0.201	GCAAACA
RYAAAYA	DREME-2	chr2	190406259	190406265	-	11.3881	6.39e-05	0.201	GCAAACA
RYAAAYA	DREME-2	chr3	192315232	192315238	+	11.3881	6.39e-05	0.201	GCAAACA
RYAAAYA	DREME-2	chr3	193429920	193429926	-	11.3881	6.39e-05	0.201	GCAAACA
RYAAAYA	DREME-2	chr1	202025861	202025867	+	11.3881	6.39e-05	0.201	GCAAACA
RYAAAYA	DREME-2	chr2	205204487	205204493	+	11.3881	6.39e-05	0.201	gcaaaca
RYAAAYA	DREME-2	chr2	205204525	205204531	+	11.3881	6.39e-05	0.201	gcaaaca
RYAAAYA	DREME-2	chr2	208693831	208693837	+	11.3881	6.39e-05	0.201	GCAAACA
RYAAAYA	DREME-2	chr2	217615364	217615370	+	11.3881	6.39e-05	0.201	gcaaaca
RYAAAYA	DREME-2	chr2	226199182	226199188	-	11.3881	6.39e-05	0.201	GCAAACA
RYAAAYA	DREME-2	chr2	226199204	226199210	-	11.3881	6.39e-05	0.201	GCAAACA
RYAAAYA	DREME-2	chr1	230220260	230220266	-	11.3881	6.39e-05	0.201	GCAAACA
RYAAAYA	DREME-2	chr1	233004558	233004564	+	11.3881	6.39e-05	0.201	GCAAACA
RYAAAYA	DREME-2	chr1	235110469	235110475	+	11.3881	6.39e-05	0.201	GCAAACA
RYAAAYA	DREME-2	chr2	235372512	235372518	-	11.3881	6.39e-05	0.201	GCAAACA
RYAAAYA	DREME-2	chr1	244532741	244532747	-	11.3881	6.39e-05	0.201	GCAAACA
RYAAAYA	DREME-2	chr1	244532783	244532789	-	11.3881	6.39e-05	0.201	GCAAACA
