********************************************************************************
MEME - Motif discovery tool
********************************************************************************
MEME version 4.12.0 (Release date: Tue Jun 27 16:22:50 2017 -0700)

For further information on how to interpret these results or to get
a copy of the MEME software please access http://meme-suite.org .

This file may be used as input to the MAST algorithm for searching
sequence databases for matches to groups of motifs.  MAST is available
for interactive use and downloading at http://meme-suite.org .
********************************************************************************


********************************************************************************
REFERENCE
********************************************************************************
If you use this program in your research, please cite:

Timothy L. Bailey and Charles Elkan,
"Fitting a mixture model by expectation maximization to discover
motifs in biopolymers", Proceedings of the Second International
Conference on Intelligent Systems for Molecular Biology, pp. 28-36,
AAAI Press, Menlo Park, California, 1994.
********************************************************************************


********************************************************************************
TRAINING SET
********************************************************************************
DATAFILE= results/AHRpeaks_not-in-DHSs-noAHREs.bed-299.fa/hocomoco/seqs-centered
ALPHABET= ACGT
Sequence name            Weight Length  Sequence name            Weight Length  
-------------            ------ ------  -------------            ------ ------  
chr11:102323700-10232414 1.0000    100  chr6:473950-474699       1.0000    100  
chr5:14187700-14188249   1.0000    100  chr14:51331750-51332699  1.0000    100  
chr3:133718450-133718949 1.0000    100  chr3:42538300-42538749   1.0000    100  
chr3:197391550-197391999 1.0000    100  chr3:100314500-100315199 1.0000    100  
chr5:42620500-42620999   1.0000    100  chr6:164129450-164129999 1.0000    100  
chr9:136608600-136609099 1.0000    100  chr13:111252450-11125309 1.0000    100  
chrX:143455700-143456199 1.0000    100  chr14:34682250-34682949  1.0000    100  
chr9:77463250-77463649   1.0000    100  chrX:142490150-142490549 1.0000    100  
chr1:523900-524399       1.0000    100  chr9:22124600-22125049   1.0000    100  
chr13:100629600-10063024 1.0000    100  chr13:76836050-76836549  1.0000    100  
chr6:171042750-171043199 1.0000    100  chr2:142015050-142015599 1.0000    100  
chr11:86289250-86289799  1.0000    100  chr18:71509800-71510299  1.0000    100  
chr19:24065200-24065649  1.0000    100  chr15:40377300-40377849  1.0000    100  
chr19:28916200-28916699  1.0000    100  chr6:67444900-67445299   1.0000    100  
chr2:5504450-5505199     1.0000    100  chr1:153650950-153651299 1.0000    100  
chr6:16832050-16832599   1.0000    100  chr6:26257300-26257949   1.0000    100  
chr6:10317300-10318049   1.0000    100  chr12:114182450-11418309 1.0000    100  
chr18:32629450-32630099  1.0000    100  chr6:44826100-44826549   1.0000    100  
chr12:115912450-11591299 1.0000    100  chr6:16992350-16992899   1.0000    100  
********************************************************************************

********************************************************************************
COMMAND LINE SUMMARY
********************************************************************************
This information can also be useful in the event you wish to report a
problem with the MEME software.

command: meme results/AHRpeaks_not-in-DHSs-noAHREs.bed-299.fa/hocomoco/seqs-centered -oc results/AHRpeaks_not-in-DHSs-noAHREs.bed-299.fa/hocomoco/meme_out -mod zoops -nmotifs 7 -minw 5 -maxw 30 -bfile results/AHRpeaks_not-in-DHSs-noAHREs.bed-299.fa/hocomoco/background -dna -revcomp -nostatus 

model:  mod=         zoops    nmotifs=         7    evt=           inf
object function=  E-value of product of p-values
width:  minw=            5    maxw=           30
width:  wg=             11    ws=              1    endgaps=       yes
nsites: minsites=        2    maxsites=       38    wnsites=       0.8
theta:  spmap=         uni    spfuzz=        0.5
global: substring=     yes    branching=      no    wbranch=        no
em:     prior=   dirichlet    b=            0.01    maxiter=        50
        distance=    1e-05
data:   n=            3800    N=              38    shuffle=        -1
strands: + -
sample: seed=            0    ctfrac=         -1    maxwords=       -1
Letter frequencies in dataset:
A 0.276 C 0.224 G 0.224 T 0.276 
Background letter frequencies (from results/AHRpeaks_not-in-DHSs-noAHREs.bed-299.fa/hocomoco/background):
A 0.278 C 0.222 G 0.222 T 0.278 
********************************************************************************


********************************************************************************
MOTIF SDSTSTGTGCSTGCSTCMGTS MEME-1	width =  21  sites =  10  llr = 154  E-value = 2.6e-002
********************************************************************************
--------------------------------------------------------------------------------
	Motif SDSTSTGTGCSTGCSTCMGTS MEME-1 Description
--------------------------------------------------------------------------------
Simplified        A  :4::::2:1:13:::::321:
pos.-specific     C  515242222a5:176:76::4
probability       G  525:616:5:4:9:3:3:726
matrix            T  :3:8:7:82::7:31a:117:

         bits    2.2          *           
                 2.0          *     *     
                 1.7          *  *  *     
                 1.5          *  *  *     
Relative         1.3     *    *  *  **   *
Entropy          1.1 * ***  * *  ** **   *
(22.3 bits)      0.9 * **** * ******** * *
                 0.7 * ****** ************
                 0.4 * ****** ************
                 0.2 * *******************
                 0.0 ---------------------

Multilevel           CACTGTGTGCCTGCCTCCGTG
consensus            GTGCCCACC GA TG GAAGC
sequence              G    C T            
                                          
--------------------------------------------------------------------------------

--------------------------------------------------------------------------------
	Motif SDSTSTGTGCSTGCSTCMGTS MEME-1 sites sorted by position p-value
--------------------------------------------------------------------------------
Sequence name            Strand  Start   P-value                    Site       
-------------            ------  ----- ---------            ---------------------
chr3:197391550-197391999     +     51  8.50e-12 cacacgtgtg gagtgtgtgcgtgcgtccgtg cctgggtgtg
chr6:171042750-171043199     +     55  8.83e-11 gggtgtgtct gtctgtgtgcgtgCCTCAGTC TTTTCTGAAT
chr1:523900-524399           -     76  1.56e-09       GTCT GTCTGTGTGCGTGCCTCAATC TTTTCTGAAT
chr6:26257300-26257949       +     21  3.84e-09 ctttgaacat ccgtgtgtgcgtgtgtgcgtg acattccctg
chr6:10317300-10318049       -     36  3.51e-08 GTTACACAGG CGGCCTCTGCCTGCCTCCTTC CAGTTGACCC
chr9:136608600-136609099     -     79  6.94e-08          C CACTGCACTCCAGCCTGCGTG ACGGGAGCAA
chr19:24065200-24065649      -      6  1.93e-07 GTTGCTCTAA CACTGTGTACCTGTGTCTGAG TACTC     
chr15:40377300-40377849      -      2  2.34e-07 GAGGTAACAG GAGTCTCTTCCAGCCTGAAGG C         
chr6:164129450-164129999     -     24  2.99e-07 AAAGGGTGAG GTCTCCATCCCTCCTTCCGTG ACAAAAGTAA
chr1:153650950-153651299     -     54  1.42e-06 AAGGGGCGTC CGGCCGGCCCAAGTCTCCGGC TATCCGGAGG
--------------------------------------------------------------------------------

--------------------------------------------------------------------------------
	Motif SDSTSTGTGCSTGCSTCMGTS MEME-1 block diagrams
--------------------------------------------------------------------------------
SEQUENCE NAME            POSITION P-VALUE  MOTIF DIAGRAM
-------------            ----------------  -------------
chr3:197391550-197391999          8.5e-12  50_[+1]_29
chr6:171042750-171043199          8.8e-11  54_[+1]_25
chr1:523900-524399                1.6e-09  75_[-1]_4
chr6:26257300-26257949            3.8e-09  20_[+1]_59
chr6:10317300-10318049            3.5e-08  35_[-1]_44
chr9:136608600-136609099          6.9e-08  78_[-1]_1
chr19:24065200-24065649           1.9e-07  5_[-1]_74
chr15:40377300-40377849           2.3e-07  1_[-1]_78
chr6:164129450-164129999            3e-07  23_[-1]_56
chr1:153650950-153651299          1.4e-06  53_[-1]_26
--------------------------------------------------------------------------------

--------------------------------------------------------------------------------
	Motif SDSTSTGTGCSTGCSTCMGTS MEME-1 in BLOCKS format
--------------------------------------------------------------------------------
BL   MOTIF SDSTSTGTGCSTGCSTCMGTS width=21 seqs=10
chr3:197391550-197391999 (   51) GAGTGTGTGCGTGCGTCCGTG  1 
chr6:171042750-171043199 (   55) GTCTGTGTGCGTGCCTCAGTC  1 
chr1:523900-524399       (   76) GTCTGTGTGCGTGCCTCAATC  1 
chr6:26257300-26257949   (   21) CCGTGTGTGCGTGTGTGCGTG  1 
chr6:10317300-10318049   (   36) CGGCCTCTGCCTGCCTCCTTC  1 
chr9:136608600-136609099 (   79) CACTGCACTCCAGCCTGCGTG  1 
chr19:24065200-24065649  (    6) CACTGTGTACCTGTGTCTGAG  1 
chr15:40377300-40377849  (    2) GAGTCTCTTCCAGCCTGAAGG  1 
chr6:164129450-164129999 (   24) GTCTCCATCCCTCCTTCCGTG  1 
chr1:153650950-153651299 (   54) CGGCCGGCCCAAGTCTCCGGC  1 
//

--------------------------------------------------------------------------------

--------------------------------------------------------------------------------
	Motif SDSTSTGTGCSTGCSTCMGTS MEME-1 position-specific scoring matrix
--------------------------------------------------------------------------------
log-odds matrix: alength= 4 w= 21 n= 3040 bayes= 7.67529 E= 2.6e-002 
  -997    117    117   -997 
    53   -115    -15     11 
  -997    117    117   -997 
  -997    -15   -997    153 
  -997     85    143   -997 
  -997    -15   -115    133 
   -47    -15    143   -997 
  -997    -15   -997    153 
  -147    -15    117    -47 
  -997    217   -997   -997 
  -147    117     85   -997 
    11   -997   -997    133 
  -997   -115    202   -997 
  -997    165   -997     11 
  -997    143     43   -147 
  -997   -997   -997    185 
  -997    165     43   -997 
    11    143   -997   -147 
   -47   -997    165   -147 
  -147   -997    -15    133 
  -997     85    143   -997 
--------------------------------------------------------------------------------

--------------------------------------------------------------------------------
	Motif SDSTSTGTGCSTGCSTCMGTS MEME-1 position-specific probability matrix
--------------------------------------------------------------------------------
letter-probability matrix: alength= 4 w= 21 nsites= 10 E= 2.6e-002 
 0.000000  0.500000  0.500000  0.000000 
 0.400000  0.100000  0.200000  0.300000 
 0.000000  0.500000  0.500000  0.000000 
 0.000000  0.200000  0.000000  0.800000 
 0.000000  0.400000  0.600000  0.000000 
 0.000000  0.200000  0.100000  0.700000 
 0.200000  0.200000  0.600000  0.000000 
 0.000000  0.200000  0.000000  0.800000 
 0.100000  0.200000  0.500000  0.200000 
 0.000000  1.000000  0.000000  0.000000 
 0.100000  0.500000  0.400000  0.000000 
 0.300000  0.000000  0.000000  0.700000 
 0.000000  0.100000  0.900000  0.000000 
 0.000000  0.700000  0.000000  0.300000 
 0.000000  0.600000  0.300000  0.100000 
 0.000000  0.000000  0.000000  1.000000 
 0.000000  0.700000  0.300000  0.000000 
 0.300000  0.600000  0.000000  0.100000 
 0.200000  0.000000  0.700000  0.100000 
 0.100000  0.000000  0.200000  0.700000 
 0.000000  0.400000  0.600000  0.000000 
--------------------------------------------------------------------------------

--------------------------------------------------------------------------------
	Motif SDSTSTGTGCSTGCSTCMGTS MEME-1 regular expression
--------------------------------------------------------------------------------
[CG][ATG][CG][TC][GC][TC][GAC][TC][GCT]C[CG][TA]G[CT][CG]T[CG][CA][GA][TG][GC]
--------------------------------------------------------------------------------




Time  1.02 secs.

********************************************************************************


********************************************************************************
MOTIF GGGADGGGGAGA MEME-2	width =  12  sites =   7  llr = 89  E-value = 2.9e+002
********************************************************************************
--------------------------------------------------------------------------------
	Motif GGGADGGGGAGA MEME-2 Description
--------------------------------------------------------------------------------
Simplified        A  :::a3::116:a
pos.-specific     C  :::::::::1::
probability       G  aaa:4799919:
matrix            T  ::::331::11:

         bits    2.2 ***         
                 2.0 ****       *
                 1.7 ****       *
                 1.5 ****  *** **
Relative         1.3 **** **** **
Entropy          1.1 **** **** **
(18.3 bits)      0.9 **** **** **
                 0.7 **** **** **
                 0.4 ********* **
                 0.2 ************
                 0.0 ------------

Multilevel           GGGAGGGGGAGA
consensus                AT      
sequence                 T       
                                 
--------------------------------------------------------------------------------

--------------------------------------------------------------------------------
	Motif GGGADGGGGAGA MEME-2 sites sorted by position p-value
--------------------------------------------------------------------------------
Sequence name            Strand  Start   P-value                Site  
-------------            ------  ----- ---------            ------------
chr14:34682250-34682949      +     51  1.79e-07 CTTTTTTGTG GGGAGGGGGCGA ATCTGATGCC
chr6:171042750-171043199     -     89  4.08e-07          . GGGATTGGGAGA GAAATTCAGA
chr1:523900-524399           +     51  4.08e-07 AAGAGAGACG GGGATTGGGAGA GAAATTCAGA
chr18:71509800-71510299      -      5  6.19e-07 TTAAACATTA GGGAGGGAGAGA TTTG      
chr11:102323700-10232414     +     82  1.06e-06 CAGCCTAAGG GGGAAGTGGAGA AAAACAG   
chr5:14187700-14188249       +     19  1.69e-06 TGAGACTTAT GGGAGGGGAGGA AGGAATTATT
chr12:115912450-11591299     -     39  3.46e-06 TTGAACTTAA GGGAAGGGGTTA GGTGAGGAAG
--------------------------------------------------------------------------------

--------------------------------------------------------------------------------
	Motif GGGADGGGGAGA MEME-2 block diagrams
--------------------------------------------------------------------------------
SEQUENCE NAME            POSITION P-VALUE  MOTIF DIAGRAM
-------------            ----------------  -------------
chr14:34682250-34682949           1.8e-07  50_[+2]_38
chr6:171042750-171043199          4.1e-07  88_[-2]
chr1:523900-524399                4.1e-07  50_[+2]_38
chr18:71509800-71510299           6.2e-07  4_[-2]_84
chr11:102323700-10232414          1.1e-06  81_[+2]_7
chr5:14187700-14188249            1.7e-06  18_[+2]_70
chr12:115912450-11591299          3.5e-06  38_[-2]_50
--------------------------------------------------------------------------------

--------------------------------------------------------------------------------
	Motif GGGADGGGGAGA MEME-2 in BLOCKS format
--------------------------------------------------------------------------------
BL   MOTIF GGGADGGGGAGA width=12 seqs=7
chr14:34682250-34682949  (   51) GGGAGGGGGCGA  1 
chr6:171042750-171043199 (   89) GGGATTGGGAGA  1 
chr1:523900-524399       (   51) GGGATTGGGAGA  1 
chr18:71509800-71510299  (    5) GGGAGGGAGAGA  1 
chr11:102323700-10232414 (   82) GGGAAGTGGAGA  1 
chr5:14187700-14188249   (   19) GGGAGGGGAGGA  1 
chr12:115912450-11591299 (   39) GGGAAGGGGTTA  1 
//

--------------------------------------------------------------------------------

--------------------------------------------------------------------------------
	Motif GGGADGGGGAGA MEME-2 position-specific scoring matrix
--------------------------------------------------------------------------------
log-odds matrix: alength= 4 w= 12 n= 3382 bayes= 9.52006 E= 2.9e+002 
  -945   -945    217   -945 
  -945   -945    217   -945 
  -945   -945    217   -945 
   185   -945   -945   -945 
     4   -945     95      4 
  -945   -945    168      4 
  -945   -945    195    -96 
   -96   -945    195   -945 
   -96   -945    195   -945 
   104    -64    -64    -96 
  -945   -945    195    -96 
   185   -945   -945   -945 
--------------------------------------------------------------------------------

--------------------------------------------------------------------------------
	Motif GGGADGGGGAGA MEME-2 position-specific probability matrix
--------------------------------------------------------------------------------
letter-probability matrix: alength= 4 w= 12 nsites= 7 E= 2.9e+002 
 0.000000  0.000000  1.000000  0.000000 
 0.000000  0.000000  1.000000  0.000000 
 0.000000  0.000000  1.000000  0.000000 
 1.000000  0.000000  0.000000  0.000000 
 0.285714  0.000000  0.428571  0.285714 
 0.000000  0.000000  0.714286  0.285714 
 0.000000  0.000000  0.857143  0.142857 
 0.142857  0.000000  0.857143  0.000000 
 0.142857  0.000000  0.857143  0.000000 
 0.571429  0.142857  0.142857  0.142857 
 0.000000  0.000000  0.857143  0.142857 
 1.000000  0.000000  0.000000  0.000000 
--------------------------------------------------------------------------------

--------------------------------------------------------------------------------
	Motif GGGADGGGGAGA MEME-2 regular expression
--------------------------------------------------------------------------------
GGGA[GAT][GT]GGGAGA
--------------------------------------------------------------------------------




Time  2.02 secs.

********************************************************************************


********************************************************************************
MOTIF YTTWWTTTRTTKRAYTTSYTWTTKWKTTTT MEME-3	width =  30  sites =   7  llr = 142  E-value = 2.6e+003
********************************************************************************
--------------------------------------------------------------------------------
	Motif YTTWWTTTRTTKRAYTTSYTWTTKWKTTTT MEME-3 Description
--------------------------------------------------------------------------------
Simplified        A  ::13311:3::147:::11:43::31::::
pos.-specific     C  4111::::1::11:6:134:1:::::111:
probability       G  ::1:1::16:144::::41:1::414:1:1
matrix            T  69666999:a93:34a913a37a6649799

         bits    2.2                               
                 2.0          *     *   *  *       
                 1.7          *     *   *  *       
                 1.5          *     *   *  *       
Relative         1.3  *   *** **    **  *  *   * **
Entropy          1.1 **   *** **  ****  * ***  * **
(29.2 bits)      0.9 **   *** **  ****  * ***  ****
                 0.7 **   ****** *****  * ***  ****
                 0.4 ** ******** *****  * *********
                 0.2 ******************** *********
                 0.0 ------------------------------

Multilevel           TTTTTTTTGTTGAACTTGCTATTTTGTTTT
consensus            C  AA   A  TGTT  CT TA GAT    
sequence                                           
                                                   
--------------------------------------------------------------------------------

--------------------------------------------------------------------------------
	Motif YTTWWTTTRTTKRAYTTSYTWTTKWKTTTT MEME-3 sites sorted by position p-value
--------------------------------------------------------------------------------
Sequence name            Strand  Start   P-value                         Site           
-------------            ------  ----- ---------            ------------------------------
chr5:42620500-42620999       +     47  1.87e-13 ggtaggAATT CTTCatttgttggacttgctaatttttttt ggtgtaaata
chr9:136608600-136609099     +     19  3.63e-11 ttttctagtt ttttgtttgtttgttttgttcttgtgtgtt tgtttttttg
chr3:100314500-100315199     +     32  8.88e-11 ctatttatct ttgtttttattgcatttgcttttgggttct tggtcatgaa
chrX:143455700-143456199     +     14  2.58e-10 ctttctgagg ctctatttatttatcttcttttttttcttt ctattgtatc
chr9:77463250-77463649       +     15  4.19e-10 ccataaattg ctttttttctgggattttctatttaatctt tttggcccat
chr6:44826100-44826549       -     28  4.51e-09 TGCCAACAGT TTTATATGGTTCAACTTAGTAATTATTTTG ATCTGTTATC
chr3:42538300-42538749       +     33  4.51e-09 TCTGGTGGCA TCAATTATGTTAAACTCCATGTTGTGTTTT GTCCTGCCTA
--------------------------------------------------------------------------------

--------------------------------------------------------------------------------
	Motif YTTWWTTTRTTKRAYTTSYTWTTKWKTTTT MEME-3 block diagrams
--------------------------------------------------------------------------------
SEQUENCE NAME            POSITION P-VALUE  MOTIF DIAGRAM
-------------            ----------------  -------------
chr5:42620500-42620999            1.9e-13  46_[+3]_24
chr9:136608600-136609099          3.6e-11  18_[+3]_52
chr3:100314500-100315199          8.9e-11  31_[+3]_39
chrX:143455700-143456199          2.6e-10  13_[+3]_57
chr9:77463250-77463649            4.2e-10  14_[+3]_56
chr6:44826100-44826549            4.5e-09  27_[-3]_43
chr3:42538300-42538749            4.5e-09  32_[+3]_38
--------------------------------------------------------------------------------

--------------------------------------------------------------------------------
	Motif YTTWWTTTRTTKRAYTTSYTWTTKWKTTTT MEME-3 in BLOCKS format
--------------------------------------------------------------------------------
BL   MOTIF YTTWWTTTRTTKRAYTTSYTWTTKWKTTTT width=30 seqs=7
chr5:42620500-42620999   (   47) CTTCATTTGTTGGACTTGCTAATTTTTTTT  1 
chr9:136608600-136609099 (   19) TTTTGTTTGTTTGTTTTGTTCTTGTGTGTT  1 
chr3:100314500-100315199 (   32) TTGTTTTTATTGCATTTGCTTTTGGGTTCT  1 
chrX:143455700-143456199 (   14) CTCTATTTATTTATCTTCTTTTTTTTCTTT  1 
chr9:77463250-77463649   (   15) CTTTTTTTCTGGGATTTTCTATTTAATCTT  1 
chr6:44826100-44826549   (   28) TTTATATGGTTCAACTTAGTAATTATTTTG  1 
chr3:42538300-42538749   (   33) TCAATTATGTTAAACTCCATGTTGTGTTTT  1 
//

--------------------------------------------------------------------------------

--------------------------------------------------------------------------------
	Motif YTTWWTTTRTTKRAYTTSYTWTTKWKTTTT MEME-3 position-specific scoring matrix
--------------------------------------------------------------------------------
log-odds matrix: alength= 4 w= 30 n= 2698 bayes= 8.43002 E= 2.6e+003 
  -945     95   -945    104 
  -945    -64   -945    162 
   -96    -64    -64    104 
     4    -64   -945    104 
     4   -945    -64    104 
   -96   -945   -945    162 
   -96   -945   -945    162 
  -945   -945    -64    162 
     4    -64    136   -945 
  -945   -945   -945    185 
  -945   -945    -64    162 
   -96    -64     95      4 
    63    -64     95   -945 
   136   -945   -945      4 
  -945    136   -945     63 
  -945   -945   -945    185 
  -945    -64   -945    162 
   -96     36     95    -96 
   -96     95    -64      4 
  -945   -945   -945    185 
    63    -64    -64      4 
     4   -945   -945    136 
  -945   -945   -945    185 
  -945   -945     95    104 
     4   -945    -64    104 
   -96   -945     95     63 
  -945    -64   -945    162 
  -945    -64    -64    136 
  -945    -64   -945    162 
  -945   -945    -64    162 
--------------------------------------------------------------------------------

--------------------------------------------------------------------------------
	Motif YTTWWTTTRTTKRAYTTSYTWTTKWKTTTT MEME-3 position-specific probability matrix
--------------------------------------------------------------------------------
letter-probability matrix: alength= 4 w= 30 nsites= 7 E= 2.6e+003 
 0.000000  0.428571  0.000000  0.571429 
 0.000000  0.142857  0.000000  0.857143 
 0.142857  0.142857  0.142857  0.571429 
 0.285714  0.142857  0.000000  0.571429 
 0.285714  0.000000  0.142857  0.571429 
 0.142857  0.000000  0.000000  0.857143 
 0.142857  0.000000  0.000000  0.857143 
 0.000000  0.000000  0.142857  0.857143 
 0.285714  0.142857  0.571429  0.000000 
 0.000000  0.000000  0.000000  1.000000 
 0.000000  0.000000  0.142857  0.857143 
 0.142857  0.142857  0.428571  0.285714 
 0.428571  0.142857  0.428571  0.000000 
 0.714286  0.000000  0.000000  0.285714 
 0.000000  0.571429  0.000000  0.428571 
 0.000000  0.000000  0.000000  1.000000 
 0.000000  0.142857  0.000000  0.857143 
 0.142857  0.285714  0.428571  0.142857 
 0.142857  0.428571  0.142857  0.285714 
 0.000000  0.000000  0.000000  1.000000 
 0.428571  0.142857  0.142857  0.285714 
 0.285714  0.000000  0.000000  0.714286 
 0.000000  0.000000  0.000000  1.000000 
 0.000000  0.000000  0.428571  0.571429 
 0.285714  0.000000  0.142857  0.571429 
 0.142857  0.000000  0.428571  0.428571 
 0.000000  0.142857  0.000000  0.857143 
 0.000000  0.142857  0.142857  0.714286 
 0.000000  0.142857  0.000000  0.857143 
 0.000000  0.000000  0.142857  0.857143 
--------------------------------------------------------------------------------

--------------------------------------------------------------------------------
	Motif YTTWWTTTRTTKRAYTTSYTWTTKWKTTTT MEME-3 regular expression
--------------------------------------------------------------------------------
[TC]TT[TA][TA]TTT[GA]TT[GT][AG][AT][CT]TT[GC][CT]T[AT][TA]T[TG][TA][GT]TTTT
--------------------------------------------------------------------------------




Time  2.96 secs.

********************************************************************************


********************************************************************************
MOTIF GRVBTGGWCACGCGA MEME-4	width =  15  sites =   4  llr = 67  E-value = 1.2e+004
********************************************************************************
--------------------------------------------------------------------------------
	Motif GRVBTGGWCACGCGA MEME-4 Description
--------------------------------------------------------------------------------
Simplified        A  :55::::5:a::3:a
pos.-specific     C  ::35::::a:a:8::
probability       G  a5333aa::::a:a:
matrix            T  :::38::5:::::::

         bits    2.2 *    ** * ** * 
                 2.0 *    ** **** **
                 1.7 *    ** **** **
                 1.5 *    ** **** **
Relative         1.3 *    ** *******
Entropy          1.1 **  *** *******
(24.2 bits)      0.9 **  ***********
                 0.7 ** ************
                 0.4 ***************
                 0.2 ***************
                 0.0 ---------------

Multilevel           GAACTGGACACGCGA
consensus             GCGG  T    A  
sequence               GT           
                                    
--------------------------------------------------------------------------------

--------------------------------------------------------------------------------
	Motif GRVBTGGWCACGCGA MEME-4 sites sorted by position p-value
--------------------------------------------------------------------------------
Sequence name            Strand  Start   P-value                 Site    
-------------            ------  ----- ---------            ---------------
chr2:5504450-5505199         +     11  6.61e-09 AGGGAACAAG GGAGTGGTCACGCGA TTATACAACA
chr6:164129450-164129999     -     81  6.61e-09      CCCAC GAGCTGGACACGCGA CACCTGGGGC
chr11:86289250-86289799      +     66  2.40e-08 CGGGGTGCCA GAACTGGACACGAGA CAACCAAGGA
chr11:102323700-10232414     -     62  4.34e-08 TTCCCCCTTA GGCTGGGTCACGCGA GGGGAAAGCT
--------------------------------------------------------------------------------

--------------------------------------------------------------------------------
	Motif GRVBTGGWCACGCGA MEME-4 block diagrams
--------------------------------------------------------------------------------
SEQUENCE NAME            POSITION P-VALUE  MOTIF DIAGRAM
-------------            ----------------  -------------
chr2:5504450-5505199              6.6e-09  10_[+4]_75
chr6:164129450-164129999          6.6e-09  80_[-4]_5
chr11:86289250-86289799           2.4e-08  65_[+4]_20
chr11:102323700-10232414          4.3e-08  61_[-4]_24
--------------------------------------------------------------------------------

--------------------------------------------------------------------------------
	Motif GRVBTGGWCACGCGA MEME-4 in BLOCKS format
--------------------------------------------------------------------------------
BL   MOTIF GRVBTGGWCACGCGA width=15 seqs=4
chr2:5504450-5505199     (   11) GGAGTGGTCACGCGA  1 
chr6:164129450-164129999 (   81) GAGCTGGACACGCGA  1 
chr11:86289250-86289799  (   66) GAACTGGACACGAGA  1 
chr11:102323700-10232414 (   62) GGCTGGGTCACGCGA  1 
//

--------------------------------------------------------------------------------

--------------------------------------------------------------------------------
	Motif GRVBTGGWCACGCGA MEME-4 position-specific scoring matrix
--------------------------------------------------------------------------------
log-odds matrix: alength= 4 w= 15 n= 3268 bayes= 7.90264 E= 1.2e+004 
  -865   -865    217   -865 
    85   -865    117   -865 
    85     17     17   -865 
  -865    117     17    -15 
  -865   -865     17    143 
  -865   -865    217   -865 
  -865   -865    217   -865 
    85   -865   -865     85 
  -865    217   -865   -865 
   185   -865   -865   -865 
  -865    217   -865   -865 
  -865   -865    217   -865 
   -15    175   -865   -865 
  -865   -865    217   -865 
   185   -865   -865   -865 
--------------------------------------------------------------------------------

--------------------------------------------------------------------------------
	Motif GRVBTGGWCACGCGA MEME-4 position-specific probability matrix
--------------------------------------------------------------------------------
letter-probability matrix: alength= 4 w= 15 nsites= 4 E= 1.2e+004 
 0.000000  0.000000  1.000000  0.000000 
 0.500000  0.000000  0.500000  0.000000 
 0.500000  0.250000  0.250000  0.000000 
 0.000000  0.500000  0.250000  0.250000 
 0.000000  0.000000  0.250000  0.750000 
 0.000000  0.000000  1.000000  0.000000 
 0.000000  0.000000  1.000000  0.000000 
 0.500000  0.000000  0.000000  0.500000 
 0.000000  1.000000  0.000000  0.000000 
 1.000000  0.000000  0.000000  0.000000 
 0.000000  1.000000  0.000000  0.000000 
 0.000000  0.000000  1.000000  0.000000 
 0.250000  0.750000  0.000000  0.000000 
 0.000000  0.000000  1.000000  0.000000 
 1.000000  0.000000  0.000000  0.000000 
--------------------------------------------------------------------------------

--------------------------------------------------------------------------------
	Motif GRVBTGGWCACGCGA MEME-4 regular expression
--------------------------------------------------------------------------------
G[AG][ACG][CGT][TG]GG[AT]CACG[CA]GA
--------------------------------------------------------------------------------




Time  3.85 secs.

********************************************************************************


********************************************************************************
MOTIF CAAYTAGRKCTCYRCCTGGCYA MEME-5	width =  22  sites =   5  llr = 98  E-value = 1.6e+004
********************************************************************************
--------------------------------------------------------------------------------
	Motif CAAYTAGRKCTCYRCCTGGCYA MEME-5 Description
--------------------------------------------------------------------------------
Simplified        A  :a6::6:4:::::4:::::2:8
pos.-specific     C  8:24:::::8:84:66:::862
probability       G  2::::28662:2:6222aa:::
matrix            T  ::26a22:4:a:6:228:::4:

         bits    2.2                  **   
                 2.0  *  *     *      **   
                 1.7  *  *     *      **   
                 1.5 **  *    ***     **   
Relative         1.3 **  * *  ***     ***  
Entropy          1.1 ** ** ********  ******
(28.2 bits)      0.9 ** ** ********  ******
                 0.7 ** ** ****************
                 0.4 **********************
                 0.2 **********************
                 0.0 ----------------------

Multilevel           CAATTAGGGCTCTGCCTGGCCA
consensus            G CC GTATG GCAGGG  ATC
sequence               T  T        TT      
                                           
--------------------------------------------------------------------------------

--------------------------------------------------------------------------------
	Motif CAAYTAGRKCTCYRCCTGGCYA MEME-5 sites sorted by position p-value
--------------------------------------------------------------------------------
Sequence name            Strand  Start   P-value                     Site       
-------------            ------  ----- ---------            ----------------------
chr19:24065200-24065649      +     33  8.57e-11 agtgttagag caactaggggtctgcctggctc tagtggccaa
chr6:164129450-164129999     -     59  1.52e-10 GGACACGCGA CACCTGGGGCTCCAGCTGGCCA TGCAAAAGGG
chr14:34682250-34682949      +      1  5.42e-10          . CAATTAGATCTCCGCGTGGATA GACAGTTGAG
chr15:40377300-40377849      +     62  7.02e-10 acgtgggtgg catttagggctgtgctgggcca gagaaactta
chr3:133718450-133718949     +     63  5.11e-09 AGAAGCTACG GAATTTTATCTCTATCTGGCCA TCACCGAAGA
--------------------------------------------------------------------------------

--------------------------------------------------------------------------------
	Motif CAAYTAGRKCTCYRCCTGGCYA MEME-5 block diagrams
--------------------------------------------------------------------------------
SEQUENCE NAME            POSITION P-VALUE  MOTIF DIAGRAM
-------------            ----------------  -------------
chr19:24065200-24065649           8.6e-11  32_[+5]_46
chr6:164129450-164129999          1.5e-10  58_[-5]_20
chr14:34682250-34682949           5.4e-10  [+5]_78
chr15:40377300-40377849             7e-10  61_[+5]_17
chr3:133718450-133718949          5.1e-09  62_[+5]_16
--------------------------------------------------------------------------------

--------------------------------------------------------------------------------
	Motif CAAYTAGRKCTCYRCCTGGCYA MEME-5 in BLOCKS format
--------------------------------------------------------------------------------
BL   MOTIF CAAYTAGRKCTCYRCCTGGCYA width=22 seqs=5
chr19:24065200-24065649  (   33) CAACTAGGGGTCTGCCTGGCTC  1 
chr6:164129450-164129999 (   59) CACCTGGGGCTCCAGCTGGCCA  1 
chr14:34682250-34682949  (    1) CAATTAGATCTCCGCGTGGATA  1 
chr15:40377300-40377849  (   62) CATTTAGGGCTGTGCTGGGCCA  1 
chr3:133718450-133718949 (   63) GAATTTTATCTCTATCTGGCCA  1 
//

--------------------------------------------------------------------------------

--------------------------------------------------------------------------------
	Motif CAAYTAGRKCTCYRCCTGGCYA MEME-5 position-specific scoring matrix
--------------------------------------------------------------------------------
log-odds matrix: alength= 4 w= 22 n= 3002 bayes= 9.4793 E= 1.6e+004 
  -897    185    -15   -897 
   185   -897   -897   -897 
   111    -15   -897    -47 
  -897     85   -897    111 
  -897   -897   -897    185 
   111   -897    -15    -47 
  -897   -897    185    -47 
    53   -897    143   -897 
  -897   -897    143     53 
  -897    185    -15   -897 
  -897   -897   -897    185 
  -897    185    -15   -897 
  -897     85   -897    111 
    53   -897    143   -897 
  -897    143    -15    -47 
  -897    143    -15    -47 
  -897   -897    -15    152 
  -897   -897    217   -897 
  -897   -897    217   -897 
   -47    185   -897   -897 
  -897    143   -897     53 
   152    -15   -897   -897 
--------------------------------------------------------------------------------

--------------------------------------------------------------------------------
	Motif CAAYTAGRKCTCYRCCTGGCYA MEME-5 position-specific probability matrix
--------------------------------------------------------------------------------
letter-probability matrix: alength= 4 w= 22 nsites= 5 E= 1.6e+004 
 0.000000  0.800000  0.200000  0.000000 
 1.000000  0.000000  0.000000  0.000000 
 0.600000  0.200000  0.000000  0.200000 
 0.000000  0.400000  0.000000  0.600000 
 0.000000  0.000000  0.000000  1.000000 
 0.600000  0.000000  0.200000  0.200000 
 0.000000  0.000000  0.800000  0.200000 
 0.400000  0.000000  0.600000  0.000000 
 0.000000  0.000000  0.600000  0.400000 
 0.000000  0.800000  0.200000  0.000000 
 0.000000  0.000000  0.000000  1.000000 
 0.000000  0.800000  0.200000  0.000000 
 0.000000  0.400000  0.000000  0.600000 
 0.400000  0.000000  0.600000  0.000000 
 0.000000  0.600000  0.200000  0.200000 
 0.000000  0.600000  0.200000  0.200000 
 0.000000  0.000000  0.200000  0.800000 
 0.000000  0.000000  1.000000  0.000000 
 0.000000  0.000000  1.000000  0.000000 
 0.200000  0.800000  0.000000  0.000000 
 0.000000  0.600000  0.000000  0.400000 
 0.800000  0.200000  0.000000  0.000000 
--------------------------------------------------------------------------------

--------------------------------------------------------------------------------
	Motif CAAYTAGRKCTCYRCCTGGCYA MEME-5 regular expression
--------------------------------------------------------------------------------
[CG]A[ACT][TC]T[AGT][GT][GA][GT][CG]T[CG][TC][GA][CGT][CGT][TG]GG[CA][CT][AC]
--------------------------------------------------------------------------------




Time  4.71 secs.

********************************************************************************


********************************************************************************
MOTIF GRGBGGTCGGAGVT MEME-6	width =  14  sites =   4  llr = 62  E-value = 4.3e+004
********************************************************************************
--------------------------------------------------------------------------------
	Motif GRGBGGTCGGAGVT MEME-6 Description
--------------------------------------------------------------------------------
Simplified        A  :5::::::::a:3:
pos.-specific     C  :::3:::83:::5:
probability       G  a5a5a8::8a:a3:
matrix            T  :::3:3a3:::::a

         bits    2.2 * * *    * *  
                 2.0 * * * *  *** *
                 1.7 * * * *  *** *
                 1.5 * * * *  *** *
Relative         1.3 * * ******** *
Entropy          1.1 *** ******** *
(22.5 bits)      0.9 *** ******** *
                 0.7 **************
                 0.4 **************
                 0.2 **************
                 0.0 --------------

Multilevel           GAGGGGTCGGAGCT
consensus             G C T TC   A 
sequence                T        G 
                                   
--------------------------------------------------------------------------------

--------------------------------------------------------------------------------
	Motif GRGBGGTCGGAGVT MEME-6 sites sorted by position p-value
--------------------------------------------------------------------------------
Sequence name            Strand  Start   P-value                 Site   
-------------            ------  ----- ---------            --------------
chr11:102323700-10232414     +     42  5.90e-09 AAGGAGTCCT GGGCGGTCGGAGCT TTCCCCTCGC
chr1:153650950-153651299     +      8  2.95e-08    TGGGAGG GAGGGTTCGGAGCT TGGCTCGGGT
chr19:28916200-28916699      +      8  9.82e-08    AACGCGA GAGGGGTTGGAGAT TTATCTGAAA
chr6:473950-474699           -     80  1.13e-07    GGACTCC GGGTGGTCCGAGGT GCAACAAGGC
--------------------------------------------------------------------------------

--------------------------------------------------------------------------------
	Motif GRGBGGTCGGAGVT MEME-6 block diagrams
--------------------------------------------------------------------------------
SEQUENCE NAME            POSITION P-VALUE  MOTIF DIAGRAM
-------------            ----------------  -------------
chr11:102323700-10232414          5.9e-09  41_[+6]_45
chr1:153650950-153651299            3e-08  7_[+6]_79
chr19:28916200-28916699           9.8e-08  7_[+6]_79
chr6:473950-474699                1.1e-07  79_[-6]_7
--------------------------------------------------------------------------------

--------------------------------------------------------------------------------
	Motif GRGBGGTCGGAGVT MEME-6 in BLOCKS format
--------------------------------------------------------------------------------
BL   MOTIF GRGBGGTCGGAGVT width=14 seqs=4
chr11:102323700-10232414 (   42) GGGCGGTCGGAGCT  1 
chr1:153650950-153651299 (    8) GAGGGTTCGGAGCT  1 
chr19:28916200-28916699  (    8) GAGGGGTTGGAGAT  1 
chr6:473950-474699       (   80) GGGTGGTCCGAGGT  1 
//

--------------------------------------------------------------------------------

--------------------------------------------------------------------------------
	Motif GRGBGGTCGGAGVT MEME-6 position-specific scoring matrix
--------------------------------------------------------------------------------
log-odds matrix: alength= 4 w= 14 n= 3306 bayes= 9.68912 E= 4.3e+004 
  -865   -865    217   -865 
    85   -865    117   -865 
  -865   -865    217   -865 
  -865     17    117    -15 
  -865   -865    217   -865 
  -865   -865    175    -15 
  -865   -865   -865    185 
  -865    175   -865    -15 
  -865     17    175   -865 
  -865   -865    217   -865 
   185   -865   -865   -865 
  -865   -865    217   -865 
   -15    117     17   -865 
  -865   -865   -865    185 
--------------------------------------------------------------------------------

--------------------------------------------------------------------------------
	Motif GRGBGGTCGGAGVT MEME-6 position-specific probability matrix
--------------------------------------------------------------------------------
letter-probability matrix: alength= 4 w= 14 nsites= 4 E= 4.3e+004 
 0.000000  0.000000  1.000000  0.000000 
 0.500000  0.000000  0.500000  0.000000 
 0.000000  0.000000  1.000000  0.000000 
 0.000000  0.250000  0.500000  0.250000 
 0.000000  0.000000  1.000000  0.000000 
 0.000000  0.000000  0.750000  0.250000 
 0.000000  0.000000  0.000000  1.000000 
 0.000000  0.750000  0.000000  0.250000 
 0.000000  0.250000  0.750000  0.000000 
 0.000000  0.000000  1.000000  0.000000 
 1.000000  0.000000  0.000000  0.000000 
 0.000000  0.000000  1.000000  0.000000 
 0.250000  0.500000  0.250000  0.000000 
 0.000000  0.000000  0.000000  1.000000 
--------------------------------------------------------------------------------

--------------------------------------------------------------------------------
	Motif GRGBGGTCGGAGVT MEME-6 regular expression
--------------------------------------------------------------------------------
G[AG]G[GCT]G[GT]T[CT][GC]GAG[CAG]T
--------------------------------------------------------------------------------




Time  5.55 secs.

********************************************************************************


********************************************************************************
MOTIF CWGGSMRKRKGCCAGVMKGRGS MEME-7	width =  22  sites =   3  llr = 71  E-value = 6.7e+004
********************************************************************************
--------------------------------------------------------------------------------
	Motif CWGGSMRKRKGCCAGVMKGRGS MEME-7 Description
--------------------------------------------------------------------------------
Simplified        A  :7:::37:3::::a:37::3::
pos.-specific     C  a:::37:::::aa::33::::3
probability       G  ::aa7:3777a:::a3:7a7a7
matrix            T  :3:::::3:3:::::::3::::

         bits    2.2 * **      *** *   * * 
                 2.0 * **      *****   * * 
                 1.7 * **      *****   * * 
                 1.5 * **      *****   * * 
Relative         1.3 * ***     *****   * **
Entropy          1.1 * ************* ******
(34.2 bits)      0.9 *************** ******
                 0.7 *************** ******
                 0.4 **********************
                 0.2 **********************
                 0.0 ----------------------

Multilevel           CAGGGCAGGGGCCAGAAGGGGG
consensus             T  CAGTAT     CCT A C
sequence                            G      
                                           
--------------------------------------------------------------------------------

--------------------------------------------------------------------------------
	Motif CWGGSMRKRKGCCAGVMKGRGS MEME-7 sites sorted by position p-value
--------------------------------------------------------------------------------
Sequence name            Strand  Start   P-value                     Site       
-------------            ------  ----- ---------            ----------------------
chr13:111252450-11125309     +     25  9.25e-13 gcacagtctg cagggcaggggccaggctgggg acaagggagc
chr1:523900-524399           +      1  1.93e-11          . CTGGCCAGAGGCCAGCAGGAGG GAAACACCGA
chr1:153650950-153651299     -     78  4.46e-11          C CAGGGAGTGTGCCAGAAGGGGC GTCCGGCCGG
--------------------------------------------------------------------------------

--------------------------------------------------------------------------------
	Motif CWGGSMRKRKGCCAGVMKGRGS MEME-7 block diagrams
--------------------------------------------------------------------------------
SEQUENCE NAME            POSITION P-VALUE  MOTIF DIAGRAM
-------------            ----------------  -------------
chr13:111252450-11125309          9.3e-13  24_[+7]_54
chr1:523900-524399                1.9e-11  [+7]_78
chr1:153650950-153651299          4.5e-11  77_[-7]_1
--------------------------------------------------------------------------------

--------------------------------------------------------------------------------
	Motif CWGGSMRKRKGCCAGVMKGRGS MEME-7 in BLOCKS format
--------------------------------------------------------------------------------
BL   MOTIF CWGGSMRKRKGCCAGVMKGRGS width=22 seqs=3
chr13:111252450-11125309 (   25) CAGGGCAGGGGCCAGGCTGGGG  1 
chr1:523900-524399       (    1) CTGGCCAGAGGCCAGCAGGAGG  1 
chr1:153650950-153651299 (   78) CAGGGAGTGTGCCAGAAGGGGC  1 
//

--------------------------------------------------------------------------------

--------------------------------------------------------------------------------
	Motif CWGGSMRKRKGCCAGVMKGRGS MEME-7 position-specific scoring matrix
--------------------------------------------------------------------------------
log-odds matrix: alength= 4 w= 22 n= 3002 bayes= 10.4131 E= 6.7e+004 
  -823    217   -823   -823 
   126   -823   -823     26 
  -823   -823    217   -823 
  -823   -823    217   -823 
  -823     58    158   -823 
    26    158   -823   -823 
   126   -823     58   -823 
  -823   -823    158     26 
    26   -823    158   -823 
  -823   -823    158     26 
  -823   -823    217   -823 
  -823    217   -823   -823 
  -823    217   -823   -823 
   184   -823   -823   -823 
  -823   -823    217   -823 
    26     58     58   -823 
   126     58   -823   -823 
  -823   -823    158     26 
  -823   -823    217   -823 
    26   -823    158   -823 
  -823   -823    217   -823 
  -823     58    158   -823 
--------------------------------------------------------------------------------

--------------------------------------------------------------------------------
	Motif CWGGSMRKRKGCCAGVMKGRGS MEME-7 position-specific probability matrix
--------------------------------------------------------------------------------
letter-probability matrix: alength= 4 w= 22 nsites= 3 E= 6.7e+004 
 0.000000  1.000000  0.000000  0.000000 
 0.666667  0.000000  0.000000  0.333333 
 0.000000  0.000000  1.000000  0.000000 
 0.000000  0.000000  1.000000  0.000000 
 0.000000  0.333333  0.666667  0.000000 
 0.333333  0.666667  0.000000  0.000000 
 0.666667  0.000000  0.333333  0.000000 
 0.000000  0.000000  0.666667  0.333333 
 0.333333  0.000000  0.666667  0.000000 
 0.000000  0.000000  0.666667  0.333333 
 0.000000  0.000000  1.000000  0.000000 
 0.000000  1.000000  0.000000  0.000000 
 0.000000  1.000000  0.000000  0.000000 
 1.000000  0.000000  0.000000  0.000000 
 0.000000  0.000000  1.000000  0.000000 
 0.333333  0.333333  0.333333  0.000000 
 0.666667  0.333333  0.000000  0.000000 
 0.000000  0.000000  0.666667  0.333333 
 0.000000  0.000000  1.000000  0.000000 
 0.333333  0.000000  0.666667  0.000000 
 0.000000  0.000000  1.000000  0.000000 
 0.000000  0.333333  0.666667  0.000000 
--------------------------------------------------------------------------------

--------------------------------------------------------------------------------
	Motif CWGGSMRKRKGCCAGVMKGRGS MEME-7 regular expression
--------------------------------------------------------------------------------
C[AT]GG[GC][CA][AG][GT][GA][GT]GCCAG[ACG][AC][GT]G[GA]G[GC]
--------------------------------------------------------------------------------




Time  6.34 secs.

********************************************************************************


********************************************************************************
SUMMARY OF MOTIFS
********************************************************************************

--------------------------------------------------------------------------------
	Combined block diagrams: non-overlapping sites with p-value < 0.0001
--------------------------------------------------------------------------------
SEQUENCE NAME            COMBINED P-VALUE  MOTIF DIAGRAM
-------------            ----------------  -------------
chr11:102323700-10232414         8.44e-12  41_[+6(5.90e-09)]_6_[-4(4.34e-08)]_\
    5_[+2(1.06e-06)]_7
chr6:473950-474699               3.53e-03  79_[-6(1.13e-07)]_7
chr5:14187700-14188249           7.79e-02  18_[+2(1.69e-06)]_70
chr14:51331750-51332699          5.24e-01  100
chr3:133718450-133718949         9.37e-05  62_[+5(5.11e-09)]_16
chr3:42538300-42538749           4.99e-05  32_[+3(4.51e-09)]_38
chr3:197391550-197391999         2.88e-07  5_[+1(5.45e-07)]_24_[+1(8.50e-12)]_\
    29
chr3:100314500-100315199         1.92e-05  31_[+3(8.88e-11)]_39
chr5:42620500-42620999           5.01e-07  46_[+3(1.87e-13)]_24
chr6:164129450-164129999         6.02e-16  23_[-1(2.99e-07)]_14_[-5(1.52e-10)]_\
    [-4(6.61e-09)]_5
chr9:136608600-136609099         3.52e-09  18_[+3(3.63e-11)]_30_[-1(6.94e-08)]_\
    1
chr13:111252450-11125309         1.69e-08  24_[+7(9.25e-13)]_54
chrX:143455700-143456199         2.97e-05  13_[+3(2.58e-10)]_57
chr14:34682250-34682949          1.12e-09  [+5(5.42e-10)]_28_[+2(1.79e-07)]_38
chr9:77463250-77463649           3.36e-04  14_[+3(4.19e-10)]_56
chrX:142490150-142490549         9.78e-01  100
chr1:523900-524399               1.25e-14  [+7(1.93e-11)]_28_[+2(4.08e-07)]_13_\
    [-1(1.56e-09)]_4
chr9:22124600-22125049           9.50e-01  100
chr13:100629600-10063024         2.01e-01  100
chr13:76836050-76836549          5.34e-01  100
chr6:171042750-171043199         1.39e-09  2_[+1(3.61e-06)]_31_[+1(8.83e-11)]_\
    13_[-2(4.08e-07)]
chr2:142015050-142015599         7.59e-01  100
chr11:86289250-86289799          1.49e-04  65_[+4(2.40e-08)]_20
chr18:71509800-71510299          3.58e-04  4_[-2(6.19e-07)]_3_[-5(4.81e-05)]_\
    36_[-2(1.58e-05)]_11
chr19:24065200-24065649          5.49e-08  5_[-1(1.93e-07)]_6_[+5(8.57e-11)]_\
    46
chr15:40377300-40377849          7.07e-08  1_[-1(2.34e-07)]_39_[+5(7.02e-10)]_\
    17
chr19:28916200-28916699          9.57e-05  7_[+6(9.82e-08)]_79
chr6:67444900-67445299           1.78e-01  100
chr2:5504450-5505199             3.47e-04  10_[+4(6.61e-09)]_75
chr1:153650950-153651299         7.15e-14  7_[+6(2.95e-08)]_32_[-1(1.42e-06)]_\
    3_[-7(4.46e-11)]_1
chr6:16832050-16832599           4.35e-01  100
chr6:26257300-26257949           6.97e-05  20_[+1(3.84e-09)]_59
chr6:10317300-10318049           3.01e-05  35_[-1(3.51e-08)]_44
chr12:114182450-11418309         6.07e-01  100
chr18:32629450-32630099          8.94e-01  100
chr6:44826100-44826549           3.11e-03  27_[-3(4.51e-09)]_43
chr12:115912450-11591299         3.50e-03  38_[-2(3.46e-06)]_50
chr6:16992350-16992899           4.01e-01  100
--------------------------------------------------------------------------------

********************************************************************************


********************************************************************************
Stopped because requested number of motifs (7) found.
********************************************************************************

CPU: Sudins-iMac.local

********************************************************************************
