# motif_id	motif_alt_id	sequence_name	start	stop	strand	score	p-value	q-value	matched_sequence
ATGACTMA	DREME-6	chr17	1018356	1018363	+	15.0341	1.9e-05	0.183	ATGACTCA
ATGACTMA	DREME-6	chr10	4768335	4768342	+	15.0341	1.9e-05	0.183	ATGACTCA
ATGACTMA	DREME-6	chr4	6690863	6690870	-	15.0341	1.9e-05	0.183	ATGACTCA
ATGACTMA	DREME-6	chr10	8768070	8768077	+	15.0341	1.9e-05	0.183	ATGACTCA
ATGACTMA	DREME-6	chr16	10719997	10720004	-	15.0341	1.9e-05	0.183	ATGACTCA
ATGACTMA	DREME-6	chr16	11085572	11085579	-	15.0341	1.9e-05	0.183	ATGACTCA
ATGACTMA	DREME-6	chr7	11301159	11301166	-	15.0341	1.9e-05	0.183	ATGACTCA
ATGACTMA	DREME-6	chr6	12492742	12492749	+	15.0341	1.9e-05	0.183	ATGACTCA
ATGACTMA	DREME-6	chr9	12814493	12814500	+	15.0341	1.9e-05	0.183	ATGACTCA
ATGACTMA	DREME-6	chr9	13023650	13023657	+	15.0341	1.9e-05	0.183	ATGACTCA
ATGACTMA	DREME-6	chr21	16665706	16665713	-	15.0341	1.9e-05	0.183	ATGACTCA
ATGACTMA	DREME-6	chr1	16934664	16934671	-	15.0341	1.9e-05	0.183	ATGACTCA
ATGACTMA	DREME-6	chr13	20749096	20749103	-	15.0341	1.9e-05	0.183	ATGACTCA
ATGACTMA	DREME-6	chr4	21771182	21771189	-	15.0341	1.9e-05	0.183	ATGACTCA
ATGACTMA	DREME-6	chr1	21965159	21965166	+	15.0341	1.9e-05	0.183	atgactca
ATGACTMA	DREME-6	chr1	21965220	21965227	+	15.0341	1.9e-05	0.183	atgactca
ATGACTMA	DREME-6	chr20	22902507	22902514	-	15.0341	1.9e-05	0.183	ATGACTCA
ATGACTMA	DREME-6	chr14	24134504	24134511	-	15.0341	1.9e-05	0.183	ATGACTCA
ATGACTMA	DREME-6	chr22	27290918	27290925	+	15.0341	1.9e-05	0.183	ATGACTCA
ATGACTMA	DREME-6	chr12	27776570	27776577	-	15.0341	1.9e-05	0.183	ATGACTCA
ATGACTMA	DREME-6	chr14	29098967	29098974	+	15.0341	1.9e-05	0.183	atgactca
ATGACTMA	DREME-6	chr12	31902162	31902169	-	15.0341	1.9e-05	0.183	ATGACTCA
ATGACTMA	DREME-6	chr9	33233942	33233949	+	15.0341	1.9e-05	0.183	ATGACTCA
ATGACTMA	DREME-6	chr13	33365634	33365641	-	15.0341	1.9e-05	0.183	ATGACTCA
ATGACTMA	DREME-6	chr12	33741178	33741185	+	15.0341	1.9e-05	0.183	atgactca
ATGACTMA	DREME-6	chr10	33798132	33798139	-	15.0341	1.9e-05	0.183	ATGACTCA
ATGACTMA	DREME-6	chr7	34097236	34097243	-	15.0341	1.9e-05	0.183	ATGACTCA
ATGACTMA	DREME-6	chr13	34699280	34699287	+	15.0341	1.9e-05	0.183	ATGACTCA
ATGACTMA	DREME-6	chr22	38574108	38574115	+	15.0341	1.9e-05	0.183	ATGactca
ATGACTMA	DREME-6	chr2	38918015	38918022	+	15.0341	1.9e-05	0.183	ATGACTCA
ATGACTMA	DREME-6	chr22	39320379	39320386	+	15.0341	1.9e-05	0.183	atgactca
ATGACTMA	DREME-6	chr21	40159591	40159598	+	15.0341	1.9e-05	0.183	ATGACTCA
ATGACTMA	DREME-6	chr19	43942551	43942558	+	15.0341	1.9e-05	0.183	ATGACTCA
ATGACTMA	DREME-6	chr5	44002263	44002270	-	15.0341	1.9e-05	0.183	ATGACTCA
ATGACTMA	DREME-6	chr7	45387333	45387340	+	15.0341	1.9e-05	0.183	atgactca
ATGACTMA	DREME-6	chr14	51422563	51422570	-	15.0341	1.9e-05	0.183	ATGACTCA
ATGACTMA	DREME-6	chr1	52035513	52035520	-	15.0341	1.9e-05	0.183	ATGACTCA
ATGACTMA	DREME-6	chr12	58704572	58704579	-	15.0341	1.9e-05	0.183	ATGACTCA
ATGACTMA	DREME-6	chr12	58704609	58704616	-	15.0341	1.9e-05	0.183	ATGACTCA
ATGACTMA	DREME-6	chr11	60138212	60138219	+	15.0341	1.9e-05	0.183	ATGACTCA
ATGACTMA	DREME-6	chr17	64271770	64271777	+	15.0341	1.9e-05	0.183	ATGACTCA
ATGACTMA	DREME-6	chr12	64372339	64372346	-	15.0341	1.9e-05	0.183	ATGACTCA
ATGACTMA	DREME-6	chr17	64948112	64948119	-	15.0341	1.9e-05	0.183	ATGACTCA
ATGACTMA	DREME-6	chr2	66617014	66617021	-	15.0341	1.9e-05	0.183	ATGACTCA
ATGACTMA	DREME-6	chr5	74333000	74333007	+	15.0341	1.9e-05	0.183	ATGACTCA
ATGACTMA	DREME-6	chr14	76028350	76028357	+	15.0341	1.9e-05	0.183	ATGACTCA
ATGACTMA	DREME-6	chr3	80049252	80049259	-	15.0341	1.9e-05	0.183	ATGACTCA
ATGACTMA	DREME-6	chr10	80218879	80218886	+	15.0341	1.9e-05	0.183	ATGACTCA
ATGACTMA	DREME-6	chr10	82868435	82868442	+	15.0341	1.9e-05	0.183	ATGACTCA
ATGACTMA	DREME-6	chr10	82875974	82875981	+	15.0341	1.9e-05	0.183	atgaCTCA
ATGACTMA	DREME-6	chr16	83847940	83847947	-	15.0341	1.9e-05	0.183	ATGACTCA
ATGACTMA	DREME-6	chr16	85925015	85925022	-	15.0341	1.9e-05	0.183	ATGACTCA
ATGACTMA	DREME-6	chr10	89465193	89465200	-	15.0341	1.9e-05	0.183	ATGACTCA
ATGACTMA	DREME-6	chr1	90355883	90355890	-	15.0341	1.9e-05	0.183	ATGACTCA
ATGACTMA	DREME-6	chr8	91899869	91899876	+	15.0341	1.9e-05	0.183	ATGACTCA
ATGACTMA	DREME-6	chr15	95335584	95335591	+	15.0341	1.9e-05	0.183	ATGACTCA
ATGACTMA	DREME-6	chr9	96075425	96075432	-	15.0341	1.9e-05	0.183	ATGACTCA
ATGACTMA	DREME-6	chr15	96103089	96103096	-	15.0341	1.9e-05	0.183	ATGACTCA
ATGACTMA	DREME-6	chr14	97966319	97966326	+	15.0341	1.9e-05	0.183	ATGACTCA
ATGACTMA	DREME-6	chr7	99639121	99639128	-	15.0341	1.9e-05	0.183	ATGACTCA
ATGACTMA	DREME-6	chr8	102388253	102388260	-	15.0341	1.9e-05	0.183	ATGACTCA
ATGACTMA	DREME-6	chrX	104381560	104381567	-	15.0341	1.9e-05	0.183	ATGACTCA
ATGACTMA	DREME-6	chr7	105470967	105470974	-	15.0341	1.9e-05	0.183	ATGACTCA
ATGACTMA	DREME-6	chr5	105576967	105576974	-	15.0341	1.9e-05	0.183	ATGACTCA
ATGACTMA	DREME-6	chr5	107675112	107675119	+	15.0341	1.9e-05	0.183	ATGACTCA
ATGACTMA	DREME-6	chr1	108136224	108136231	-	15.0341	1.9e-05	0.183	ATGACTCA
ATGACTMA	DREME-6	chr9	110006090	110006097	-	15.0341	1.9e-05	0.183	ATGACTCA
ATGACTMA	DREME-6	chr2	110316164	110316171	+	15.0341	1.9e-05	0.183	ATGACTCA
ATGACTMA	DREME-6	chr7	111139224	111139231	-	15.0341	1.9e-05	0.183	ATGACTCA
ATGACTMA	DREME-6	chr7	111139290	111139297	+	15.0341	1.9e-05	0.183	atgactca
ATGACTMA	DREME-6	chr2	114779866	114779873	+	15.0341	1.9e-05	0.183	ATGACTCA
ATGACTMA	DREME-6	chr10	115311958	115311965	+	15.0341	1.9e-05	0.183	ATGACTCA
ATGACTMA	DREME-6	chr12	117353841	117353848	-	15.0341	1.9e-05	0.183	ATGACTCA
ATGACTMA	DREME-6	chr5	118873441	118873448	-	15.0341	1.9e-05	0.183	ATGACTCA
ATGACTMA	DREME-6	chr8	119451916	119451923	+	15.0341	1.9e-05	0.183	ATGACTCA
ATGACTMA	DREME-6	chr10	123084550	123084557	-	15.0341	1.9e-05	0.183	ATGACTCA
ATGACTMA	DREME-6	chr5	123149926	123149933	+	15.0341	1.9e-05	0.183	ATGACTCA
ATGACTMA	DREME-6	chr12	124673140	124673147	-	15.0341	1.9e-05	0.183	ATGACTCA
ATGACTMA	DREME-6	chr8	125193835	125193842	+	15.0341	1.9e-05	0.183	atgactca
ATGACTMA	DREME-6	chr8	129189075	129189082	-	15.0341	1.9e-05	0.183	ATGACTCA
ATGACTMA	DREME-6	chrX	130699860	130699867	-	15.0341	1.9e-05	0.183	ATGACTCA
ATGACTMA	DREME-6	chr2	143632016	143632023	+	15.0341	1.9e-05	0.183	atgactca
ATGACTMA	DREME-6	chr2	146351004	146351011	+	15.0341	1.9e-05	0.183	ATGACTCA
ATGACTMA	DREME-6	chr3	149018024	149018031	+	15.0341	1.9e-05	0.183	atgactca
ATGACTMA	DREME-6	chr3	149104872	149104879	-	15.0341	1.9e-05	0.183	ATGACTCA
ATGACTMA	DREME-6	chr4	183672643	183672650	-	15.0341	1.9e-05	0.183	ATGACTCA
ATGACTMA	DREME-6	chr1	184132868	184132875	-	15.0341	1.9e-05	0.183	ATGACTCA
ATGACTMA	DREME-6	chr3	185658763	185658770	+	15.0341	1.9e-05	0.183	ATGACTCA
ATGACTMA	DREME-6	chr2	190234369	190234376	-	15.0341	1.9e-05	0.183	ATGACTCA
ATGACTMA	DREME-6	chr1	191671398	191671405	+	15.0341	1.9e-05	0.183	atgactca
ATGACTMA	DREME-6	chr3	195266344	195266351	-	15.0341	1.9e-05	0.183	ATGACTCA
ATGACTMA	DREME-6	chr1	211765537	211765544	+	15.0341	1.9e-05	0.183	ATGACTCA
ATGACTMA	DREME-6	chr2	216847141	216847148	+	15.0341	1.9e-05	0.183	ATGACTCA
ATGACTMA	DREME-6	chr2	223843567	223843574	+	15.0341	1.9e-05	0.183	atgactca
ATGACTMA	DREME-6	chr1	242389159	242389166	-	15.0341	1.9e-05	0.183	ATGACTCA
ATGACTMA	DREME-6	chr1	243723052	243723059	-	15.0341	1.9e-05	0.183	ATGACTCA
ATGACTMA	DREME-6	chrX	10601774	10601781	-	13.7159	4.54e-05	0.282	ATGACTAA
ATGACTMA	DREME-6	chr2	19172748	19172755	-	13.7159	4.54e-05	0.282	ATGACTAA
ATGACTMA	DREME-6	chr20	20529523	20529530	+	13.7159	4.54e-05	0.282	ATGACTAA
ATGACTMA	DREME-6	chr20	33249762	33249769	+	13.7159	4.54e-05	0.282	atgactaa
ATGACTMA	DREME-6	chr21	33867666	33867673	+	13.7159	4.54e-05	0.282	ATGACTAA
ATGACTMA	DREME-6	chr5	39712829	39712836	+	13.7159	4.54e-05	0.282	atgactaa
ATGACTMA	DREME-6	chr21	43539821	43539828	+	13.7159	4.54e-05	0.282	atgactaa
ATGACTMA	DREME-6	chr19	43769287	43769294	+	13.7159	4.54e-05	0.282	atgactaa
ATGACTMA	DREME-6	chr4	48123298	48123305	-	13.7159	4.54e-05	0.282	ATGACTAA
ATGACTMA	DREME-6	chr10	50023120	50023127	-	13.7159	4.54e-05	0.282	ATGACTAA
ATGACTMA	DREME-6	chr5	53039857	53039864	+	13.7159	4.54e-05	0.282	atgactaa
ATGACTMA	DREME-6	chr8	53379570	53379577	-	13.7159	4.54e-05	0.282	ATGACTAA
ATGACTMA	DREME-6	chr7	54551427	54551434	-	13.7159	4.54e-05	0.282	ATGACTAA
ATGACTMA	DREME-6	chr2	55180127	55180134	-	13.7159	4.54e-05	0.282	ATGACTAA
ATGACTMA	DREME-6	chr6	55761075	55761082	-	13.7159	4.54e-05	0.282	ATGACTAA
ATGACTMA	DREME-6	chr12	58704475	58704482	-	13.7159	4.54e-05	0.282	ATGACTAA
ATGACTMA	DREME-6	chr14	59745001	59745008	+	13.7159	4.54e-05	0.282	atgactaa
ATGACTMA	DREME-6	chr14	64144784	64144791	-	13.7159	4.54e-05	0.282	ATGACTAA
ATGACTMA	DREME-6	chr8	69534712	69534719	-	13.7159	4.54e-05	0.282	ATGACTAA
ATGACTMA	DREME-6	chr15	69884360	69884367	+	13.7159	4.54e-05	0.282	ATGACTAA
ATGACTMA	DREME-6	chr17	73696601	73696608	+	13.7159	4.54e-05	0.282	ATGACTAA
ATGACTMA	DREME-6	chr2	74050706	74050713	+	13.7159	4.54e-05	0.282	atgactaa
ATGACTMA	DREME-6	chr14	77770260	77770267	+	13.7159	4.54e-05	0.282	ATGACTAA
ATGACTMA	DREME-6	chr16	79712120	79712127	+	13.7159	4.54e-05	0.282	atgactaa
ATGACTMA	DREME-6	chr5	79862613	79862620	-	13.7159	4.54e-05	0.282	ATGACTAA
ATGACTMA	DREME-6	chr7	80928775	80928782	+	13.7159	4.54e-05	0.282	ATGACTAA
ATGACTMA	DREME-6	chr7	82329223	82329230	-	13.7159	4.54e-05	0.282	ATGACTAA
ATGACTMA	DREME-6	chr7	83652258	83652265	-	13.7159	4.54e-05	0.282	ATGACTAA
ATGACTMA	DREME-6	chr11	86181138	86181145	+	13.7159	4.54e-05	0.282	ATGACTAA
ATGACTMA	DREME-6	chr10	89465350	89465357	+	13.7159	4.54e-05	0.282	atgactaa
ATGACTMA	DREME-6	chr8	94205762	94205769	+	13.7159	4.54e-05	0.282	ATGACTAA
ATGACTMA	DREME-6	chr8	95417437	95417444	-	13.7159	4.54e-05	0.282	ATGACTAA
ATGACTMA	DREME-6	chr12	95712120	95712127	+	13.7159	4.54e-05	0.282	ATGACTAA
ATGACTMA	DREME-6	chr12	96199913	96199920	+	13.7159	4.54e-05	0.282	ATGACTAA
ATGACTMA	DREME-6	chr2	102648989	102648996	+	13.7159	4.54e-05	0.282	atgactaa
ATGACTMA	DREME-6	chr6	103385034	103385041	+	13.7159	4.54e-05	0.282	atgactaa
ATGACTMA	DREME-6	chr7	107992267	107992274	-	13.7159	4.54e-05	0.282	ATGACTAA
ATGACTMA	DREME-6	chr13	108614411	108614418	+	13.7159	4.54e-05	0.282	ATGACTAA
ATGACTMA	DREME-6	chr1	110240585	110240592	-	13.7159	4.54e-05	0.282	ATGACTAA
ATGACTMA	DREME-6	chr6	110830956	110830963	-	13.7159	4.54e-05	0.282	ATGACTAA
ATGACTMA	DREME-6	chr6	113754131	113754138	-	13.7159	4.54e-05	0.282	ATGACTAA
ATGACTMA	DREME-6	chr5	127270625	127270632	-	13.7159	4.54e-05	0.282	ATGACTAA
ATGACTMA	DREME-6	chr9	128617277	128617284	+	13.7159	4.54e-05	0.282	ATGACTAA
ATGACTMA	DREME-6	chr6	128945000	128945007	+	13.7159	4.54e-05	0.282	atgactaa
ATGACTMA	DREME-6	chr7	141362860	141362867	-	13.7159	4.54e-05	0.282	ATGACTAA
ATGACTMA	DREME-6	chr2	143661512	143661519	+	13.7159	4.54e-05	0.282	atgactaa
ATGACTMA	DREME-6	chr3	156469590	156469597	+	13.7159	4.54e-05	0.282	ATGACTAA
ATGACTMA	DREME-6	chr6	161543315	161543322	-	13.7159	4.54e-05	0.282	ATGACTAA
ATGACTMA	DREME-6	chr5	172942659	172942666	+	13.7159	4.54e-05	0.282	ATGACTAA
ATGACTMA	DREME-6	chr1	178624793	178624800	+	13.7159	4.54e-05	0.282	ATGACTAA
ATGACTMA	DREME-6	chr2	221547451	221547458	+	13.7159	4.54e-05	0.282	ATGACTAA
ATGACTMA	DREME-6	chr2	223843462	223843469	-	13.7159	4.54e-05	0.282	ATGACTAA
ATGACTMA	DREME-6	chr2	224679996	224680003	-	13.7159	4.54e-05	0.282	ATGACTAA
ATGACTMA	DREME-6	chr7	3443947	3443954	+	4.70455	9.09e-05	0.42	ATGACTGA
ATGACTMA	DREME-6	chr3	4818640	4818647	-	4.70455	9.09e-05	0.42	ATGACTGA
ATGACTMA	DREME-6	chr6	21103807	21103814	+	4.70455	9.09e-05	0.42	ATGACTGA
ATGACTMA	DREME-6	chr4	24755126	24755133	-	4.70455	9.09e-05	0.42	ATGACTGA
ATGACTMA	DREME-6	chr3	25732807	25732814	+	4.70455	9.09e-05	0.42	ATGACTTA
ATGACTMA	DREME-6	chr10	27926511	27926518	+	4.70455	9.09e-05	0.42	ATGACTGA
ATGACTMA	DREME-6	chr8	29413084	29413091	+	4.70455	9.09e-05	0.42	ATGACTGA
ATGACTMA	DREME-6	chr10	33560935	33560942	+	4.70455	9.09e-05	0.42	ATGACTTA
ATGACTMA	DREME-6	chr13	33920009	33920016	-	4.70455	9.09e-05	0.42	ATGACTGA
ATGACTMA	DREME-6	chr19	35810181	35810188	+	4.70455	9.09e-05	0.42	ATGACTGA
ATGACTMA	DREME-6	chr5	37002423	37002430	-	4.70455	9.09e-05	0.42	ATGACTGA
ATGACTMA	DREME-6	chr14	41099754	41099761	+	4.70455	9.09e-05	0.42	ATGACTTA
ATGACTMA	DREME-6	chr19	43769303	43769310	-	4.70455	9.09e-05	0.42	ATGACTGA
ATGACTMA	DREME-6	chr7	44658445	44658452	-	4.70455	9.09e-05	0.42	ATGACTGA
ATGACTMA	DREME-6	chr8	51028382	51028389	-	4.70455	9.09e-05	0.42	ATGACTGA
ATGACTMA	DREME-6	chr14	52120071	52120078	-	4.70455	9.09e-05	0.42	ATGACTTA
ATGACTMA	DREME-6	chr17	56468798	56468805	-	4.70455	9.09e-05	0.42	ATGACTGA
ATGACTMA	DREME-6	chr1	61962167	61962174	-	4.70455	9.09e-05	0.42	ATGACTTA
ATGACTMA	DREME-6	chr17	62224751	62224758	+	4.70455	9.09e-05	0.42	ATGACTTA
ATGACTMA	DREME-6	chr15	63124281	63124288	-	4.70455	9.09e-05	0.42	ATGACTTA
ATGACTMA	DREME-6	chr16	64090157	64090164	-	4.70455	9.09e-05	0.42	ATGACTTA
ATGACTMA	DREME-6	chr14	65340748	65340755	+	4.70455	9.09e-05	0.42	ATGACTTA
ATGACTMA	DREME-6	chr5	66502845	66502852	-	4.70455	9.09e-05	0.42	ATGACTGA
ATGACTMA	DREME-6	chr5	66502997	66503004	+	4.70455	9.09e-05	0.42	ATGACTGA
ATGACTMA	DREME-6	chr5	66530333	66530340	+	4.70455	9.09e-05	0.42	ATGACTTA
ATGACTMA	DREME-6	chr11	70651967	70651974	+	4.70455	9.09e-05	0.42	atgactga
ATGACTMA	DREME-6	chr17	70712446	70712453	+	4.70455	9.09e-05	0.42	ATGACTGA
ATGACTMA	DREME-6	chr17	70712522	70712529	+	4.70455	9.09e-05	0.42	ATGACTGA
ATGACTMA	DREME-6	chr15	70983186	70983193	+	4.70455	9.09e-05	0.42	ATGACTGA
ATGACTMA	DREME-6	chr9	71115686	71115693	-	4.70455	9.09e-05	0.42	ATGACTTA
ATGACTMA	DREME-6	chr12	79941388	79941395	+	4.70455	9.09e-05	0.42	ATGACTTA
ATGACTMA	DREME-6	chr10	82875993	82876000	+	4.70455	9.09e-05	0.42	ATGACTTA
ATGACTMA	DREME-6	chr15	84422481	84422488	-	4.70455	9.09e-05	0.42	ATGACTTA
ATGACTMA	DREME-6	chr15	85652831	85652838	+	4.70455	9.09e-05	0.42	ATGACTTA
ATGACTMA	DREME-6	chr8	88674702	88674709	+	4.70455	9.09e-05	0.42	atgactga
ATGACTMA	DREME-6	chr15	93425348	93425355	-	4.70455	9.09e-05	0.42	ATGACTGA
ATGACTMA	DREME-6	chr7	107939810	107939817	-	4.70455	9.09e-05	0.42	ATGACTGA
ATGACTMA	DREME-6	chr10	123269845	123269852	-	4.70455	9.09e-05	0.42	ATGACTTA
ATGACTMA	DREME-6	chr5	123598871	123598878	-	4.70455	9.09e-05	0.42	ATGACTGA
ATGACTMA	DREME-6	chr12	125405862	125405869	-	4.70455	9.09e-05	0.42	ATGACTGA
ATGACTMA	DREME-6	chr8	126082164	126082171	+	4.70455	9.09e-05	0.42	ATGACTGA
ATGACTMA	DREME-6	chrX	127733786	127733793	+	4.70455	9.09e-05	0.42	ATGACTTA
ATGACTMA	DREME-6	chr6	148628640	148628647	+	4.70455	9.09e-05	0.42	ATGACTGA
ATGACTMA	DREME-6	chr2	155693634	155693641	+	4.70455	9.09e-05	0.42	ATGACTGA
ATGACTMA	DREME-6	chr4	183689590	183689597	+	4.70455	9.09e-05	0.42	ATGACTGA
ATGACTMA	DREME-6	chr4	186190226	186190233	-	4.70455	9.09e-05	0.42	ATGACTTA
ATGACTMA	DREME-6	chr3	189176377	189176384	+	4.70455	9.09e-05	0.42	atgactta
ATGACTMA	DREME-6	chr2	214126705	214126712	+	4.70455	9.09e-05	0.42	atgactga
ATGACTMA	DREME-6	chr1	215663237	215663244	+	4.70455	9.09e-05	0.42	ATGACTGA
ATGACTMA	DREME-6	chr2	218112314	218112321	+	4.70455	9.09e-05	0.42	ATGACTGA
ATGACTMA	DREME-6	chr2	237727087	237727094	+	4.70455	9.09e-05	0.42	ATGACTGA
