DB 2 MOTIF	MA0564.1	ABI3
 -95.0	3
 -94.0	0.5
 -93.0	2.83333
 -92.0	0
 -91.0	2
 -90.0	1
 -89.0	2.33333
 -88.0	0
 -87.0	4.5
 -86.0	2
 -85.0	3.33333
 -84.0	3.5
 -83.0	0
 -82.0	3.5
 -81.0	2.5
 -80.0	1
 -79.0	0
 -78.0	3
 -77.0	5
 -76.0	2.5
 -75.0	3.5
 -74.0	1
 -73.0	2
 -72.0	3
 -71.0	2
 -70.0	3
 -69.0	2
 -68.0	3
 -67.0	1
 -66.0	1
 -65.0	2
 -64.0	2
 -63.0	1
 -62.0	3
 -61.0	2
 -60.0	1
 -59.0	3
 -58.0	0
 -57.0	1
 -56.0	0
 -55.0	2
 -54.0	4
 -53.0	5
 -52.0	3.5
 -51.0	2.5
 -50.0	1
 -49.0	1
 -48.0	3
 -47.0	3.5
 -46.0	3
 -45.0	2.5
 -44.0	2
 -43.0	2
 -42.0	2
 -41.0	8.5
 -40.0	2
 -39.0	5
 -38.0	6.5
 -37.0	2.5
 -36.0	2
 -35.0	3
 -34.0	0
 -33.0	2
 -32.0	4.5
 -31.0	3
 -30.0	1
 -29.0	2
 -28.0	2
 -27.0	1
 -26.0	3
 -25.0	1
 -24.0	2
 -23.0	2
 -22.0	4.5
 -21.0	2
 -20.0	2
 -19.0	2.5
 -18.0	5
 -17.0	6
 -16.0	5.5
 -15.0	4
 -14.0	2
 -13.0	1
 -12.0	3.5
 -11.0	2.5
 -10.0	4
  -9.0	5
  -8.0	2.5
  -7.0	2.5
  -6.0	2
  -5.0	4
  -4.0	4.5
  -3.0	4.5
  -2.0	2
  -1.0	2
   0.0	2
   1.0	2.5
   2.0	1.5
   3.0	3
   4.0	1
   5.0	2
   6.0	2.5
   7.0	4.5
   8.0	3.5
   9.0	6
  10.0	2.5
  11.0	1.5
  12.0	4.5
  13.0	6
  14.0	2
  15.0	3
  16.0	4
  17.0	2.5
  18.0	1.5
  19.0	7
  20.0	5.33333
  21.0	6.5
  22.0	2.5
  23.0	0
  24.0	3.33333
  25.0	3
  26.0	2
  27.0	2
  28.0	3.5
  29.0	1
  30.0	4.5
  31.0	2
  32.0	1
  33.0	3
  34.0	3.5
  35.0	5.5
  36.0	0
  37.0	2
  38.0	2
  39.0	1
  40.0	0.5
  41.0	4
  42.0	3
  43.0	0
  44.0	1.5
  45.0	2.5
  46.0	3
  47.0	0.333333
  48.0	2
  49.0	2
  50.0	2
  51.0	2
  52.0	0
  53.0	2
  54.0	1
  55.0	0
  56.0	3
  57.0	1
  58.0	2
  59.0	1.5
  60.0	2.5
  61.0	3
  62.0	2.5
  63.0	2.5
  64.0	3.5
  65.0	3
  66.0	0
  67.0	2
  68.0	0
  69.0	4
  70.0	5
  71.0	2
  72.0	1
  73.0	0.5
  74.0	4.5
  75.0	1
  76.0	1
  77.0	2
  78.0	1
  79.0	0.5
  80.0	0.5
  81.0	0
  82.0	0
  83.0	3
  84.0	2
  85.0	1
  86.0	3
  87.0	3
  88.0	1.5
  89.0	1
  90.0	0
  91.0	0
  92.0	3
  93.0	4
  94.0	3
  95.0	2
