prim_db	prim_id	prim_alt	prim_cons	sec_db	sec_id	sec_alt	sec_cons	trim_left	trim_right	red_db	red_id	red_alt	E-value	gap	orient	count	total	adj_p-value	p-value
meme.xml	TGCCCTSAGGCW	MEME-3	TGCCCTSAGGCW	meme.xml	TGTGGTCAGACYGGTTCTCTGCTCTYRAAC	MEME-6	TGTGGTCAGACYGGTTCTCTGCTCTYRAAC	0	0	.	.	.	1.36e-01	32	2	3	5	9.77e-09	8.79e-08
meme.xml	TGCCCTSAGGCW	MEME-3	TGCCCTSAGGCW	meme.xml	TGTGGTCAGACYGGTTCTCTGCTCTYRAAC	MEME-6	TGTGGTCAGACYGGTTCTCTGCTCTYRAAC	0	0	.	.	.	1.36e-01	32	6	3	5	7.79e-08	7.01e-07
meme.xml	TGCCCTSAGGCW	MEME-3	TGCCCTSAGGCW	meme.xml	TGTGGTCAGACYGGTTCTCTGCTCTYRAAC	MEME-6	TGTGGTCAGACYGGTTCTCTGCTCTYRAAC	0	0	.	.	.	1.36e-01	32	7	3	5	7.79e-08	7.01e-07
meme.xml	TGCCCTSAGGCW	MEME-3	TGCCCTSAGGCW	meme.xml	TGTGGTCAGACYGGTTCTCTGCTCTYRAAC	MEME-6	TGTGGTCAGACYGGTTCTCTGCTCTYRAAC	0	0	.	.	.	1.36e-01	32	8	3	5	6.19e-07	5.57e-06
meme.xml	TGCCCTSAGGCW	MEME-3	TGCCCTSAGGCW	meme.xml	GTCTATGTTCAGCDDTGCACRTATTGTCTT	MEME-7	GTCTATGTTCAGCDDTGCACRTATTGTCTT	0	0	.	.	.	2.71e-01	87	3	3	6	1.95e-08	1.76e-07
meme.xml	TGCCCTSAGGCW	MEME-3	TGCCCTSAGGCW	meme.xml	GTCTATGTTCAGCDDTGCACRTATTGTCTT	MEME-7	GTCTATGTTCAGCDDTGCACRTATTGTCTT	0	0	.	.	.	2.71e-01	87	5	3	6	1.55e-07	1.40e-06
meme.xml	TGCCCTSAGGCW	MEME-3	TGCCCTSAGGCW	meme.xml	GTCTATGTTCAGCDDTGCACRTATTGTCTT	MEME-7	GTCTATGTTCAGCDDTGCACRTATTGTCTT	0	0	.	.	.	2.71e-01	87	7	3	6	1.55e-07	1.40e-06
meme.xml	TGCCCTSAGGCW	MEME-3	TGCCCTSAGGCW	meme.xml	GTCTATGTTCAGCDDTGCACRTATTGTCTT	MEME-7	GTCTATGTTCAGCDDTGCACRTATTGTCTT	0	0	.	.	.	2.71e-01	87	8	3	6	1.23e-06	1.11e-05
meme.xml	TGCCCTSAGGCW	MEME-3	TGCCCTSAGGCW	dreme.xml	AGATAW	DREME-3	AGATAW	0	0	.	.	.	3.91e-01	29	0	7	232	2.35e-08	2.11e-07
meme.xml	TGCCCTSAGGCW	MEME-3	TGCCCTSAGGCW	dreme.xml	AGATAW	DREME-3	AGATAW	0	0	.	.	.	3.91e-01	29	5	8	232	2.06e-07	1.86e-06
meme.xml	TGCCCTSAGGCW	MEME-3	TGCCCTSAGGCW	dreme.xml	AGATAW	DREME-3	AGATAW	0	0	.	.	.	3.91e-01	29	4	7	232	2.15e-06	1.93e-05
meme.xml	TGCCCTSAGGCW	MEME-3	TGCCCTSAGGCW	JASPAR2018_CORE_non-redundant	MA0300.1	GAT1	YYGATAAG	1	0	JASPAR2018_CORE_non-redundant	AGATAW	DREME-3	4.46e-01	28	5	7	119	2.70e-08	2.43e-07
meme.xml	TGCCCTSAGGCW	MEME-3	TGCCCTSAGGCW	JASPAR2018_CORE_non-redundant	MA0300.1	GAT1	YYGATAAG	1	0	JASPAR2018_CORE_non-redundant	AGATAW	DREME-3	4.46e-01	28	0	5	119	2.71e-07	2.44e-06
meme.xml	TGCCCTSAGGCW	MEME-3	TGCCCTSAGGCW	JASPAR2018_CORE_non-redundant	MA0300.1	GAT1	YYGATAAG	1	0	JASPAR2018_CORE_non-redundant	AGATAW	DREME-3	4.46e-01	28	8	7	119	2.46e-06	2.21e-05
meme.xml	TGCCCTSAGGCW	MEME-3	TGCCCTSAGGCW	JASPAR2018_CORE_non-redundant	MA0289.1	DAL80	CGATAAG	0	0	JASPAR2018_CORE_non-redundant	AGATAW	DREME-3	8.56e-01	28	5	7	131	5.18e-08	4.66e-07
meme.xml	TGCCCTSAGGCW	MEME-3	TGCCCTSAGGCW	JASPAR2018_CORE_non-redundant	MA0289.1	DAL80	CGATAAG	0	0	JASPAR2018_CORE_non-redundant	AGATAW	DREME-3	8.56e-01	28	0	5	131	4.35e-07	3.91e-06
meme.xml	TGCCCTSAGGCW	MEME-3	TGCCCTSAGGCW	JASPAR2018_CORE_non-redundant	MA0309.1	GZF3	YGATAASR	0	1	JASPAR2018_CORE_non-redundant	AGATAW	DREME-3	9.41e-01	28	5	8	194	5.69e-08	5.12e-07
meme.xml	TGCCCTSAGGCW	MEME-3	TGCCCTSAGGCW	JASPAR2018_CORE_non-redundant	MA0309.1	GZF3	YGATAASR	0	1	JASPAR2018_CORE_non-redundant	AGATAW	DREME-3	9.41e-01	28	0	6	194	1.58e-07	1.42e-06
meme.xml	TGCCCTSAGGCW	MEME-3	TGCCCTSAGGCW	JASPAR2018_CORE_non-redundant	MA0036.3	GATA2	NBCTTATCTNH	2	2	JASPAR2018_CORE_non-redundant	AGATAW	DREME-3	1.03e+00	28	6	9	268	6.24e-08	5.62e-07
meme.xml	TGCCCTSAGGCW	MEME-3	TGCCCTSAGGCW	JASPAR2018_CORE_non-redundant	MA0036.3	GATA2	NBCTTATCTNH	2	2	JASPAR2018_CORE_non-redundant	AGATAW	DREME-3	1.03e+00	28	1	6	268	1.00e-06	9.03e-06
meme.xml	TGCCCTSAGGCW	MEME-3	TGCCCTSAGGCW	JASPAR2018_CORE_non-redundant	MA0035.3	Gata1	TYCTTATCTSY	0	0	JASPAR2018_CORE_non-redundant	AGATAW	DREME-3	1.29e+00	26	6	7	136	8.04e-08	7.23e-07
meme.xml	TGCCCTSAGGCW	MEME-3	TGCCCTSAGGCW	JASPAR2018_CORE_non-redundant	MA0035.3	Gata1	TYCTTATCTSY	0	0	JASPAR2018_CORE_non-redundant	AGATAW	DREME-3	1.29e+00	26	1	5	136	5.98e-07	5.38e-06
meme.xml	TGCCCTSAGGCW	MEME-3	TGCCCTSAGGCW	JASPAR2018_CORE_non-redundant	MA1261.1	AT5G67000	HDDHTRCGGCKGHGG	4	1	JASPAR2018_CORE_non-redundant	AGATAW	DREME-3	2.50e+00	33	0	5	104	1.55e-07	1.39e-06
meme.xml	TGCCCTSAGGCW	MEME-3	TGCCCTSAGGCW	JASPAR2018_CORE_non-redundant	MA1261.1	AT5G67000	HDDHTRCGGCKGHGG	4	1	JASPAR2018_CORE_non-redundant	AGATAW	DREME-3	2.50e+00	33	4	5	104	4.28e-06	3.85e-05
meme.xml	TGCCCTSAGGCW	MEME-3	TGCCCTSAGGCW	JASPAR2018_CORE_non-redundant	MA1261.1	AT5G67000	HDDHTRCGGCKGHGG	4	1	JASPAR2018_CORE_non-redundant	AGATAW	DREME-3	2.50e+00	33	5	5	104	4.28e-06	3.85e-05
meme.xml	TGCCCTSAGGCW	MEME-3	TGCCCTSAGGCW	JASPAR2018_CORE_non-redundant	MA1261.1	AT5G67000	HDDHTRCGGCKGHGG	4	1	JASPAR2018_CORE_non-redundant	AGATAW	DREME-3	2.50e+00	26	3	4	104	4.38e-06	3.94e-05
meme.xml	TGCCCTSAGGCW	MEME-3	TGCCCTSAGGCW	JASPAR2018_CORE_non-redundant	MA1399.1	At5g08520	DWWDWRGATAAGR	1	0	JASPAR2018_CORE_non-redundant	AGATAW	DREME-3	5.13e+00	27	0	5	119	3.22e-07	2.90e-06
meme.xml	TGCCCTSAGGCW	MEME-3	TGCCCTSAGGCW	JASPAR2018_CORE_non-redundant	MA1399.1	At5g08520	DWWDWRGATAAGR	1	0	JASPAR2018_CORE_non-redundant	AGATAW	DREME-3	5.13e+00	27	4	6	119	5.90e-07	5.31e-06
meme.xml	TGCCCTSAGGCW	MEME-3	TGCCCTSAGGCW	JASPAR2018_CORE_non-redundant	MA1399.1	At5g08520	DWWDWRGATAAGR	1	0	JASPAR2018_CORE_non-redundant	AGATAW	DREME-3	5.13e+00	27	5	6	119	5.90e-07	5.31e-06
meme.xml	TGCCCTSAGGCW	MEME-3	TGCCCTSAGGCW	JASPAR2018_CORE_non-redundant	MA1399.1	At5g08520	DWWDWRGATAAGR	1	0	JASPAR2018_CORE_non-redundant	AGATAW	DREME-3	5.13e+00	27	8	7	119	3.07e-06	2.77e-05
meme.xml	TGCCCTSAGGCW	MEME-3	TGCCCTSAGGCW	JASPAR2018_CORE_non-redundant	MA1175.1	MYB81	VTAACHGWWTY	1	1	.	.	.	1.98e+00	35	1	6	183	1.22e-07	1.10e-06
meme.xml	TGCCCTSAGGCW	MEME-3	TGCCCTSAGGCW	JASPAR2018_CORE_non-redundant	MA0057.1	MZF1(var.2)	BKAGGGGKAR	1	1	.	.	.	2.13e+00	3	2	8	427	1.30e-07	1.17e-06
meme.xml	TGCCCTSAGGCW	MEME-3	TGCCCTSAGGCW	JASPAR2018_CORE_non-redundant	MA0057.1	MZF1(var.2)	BKAGGGGKAR	1	1	.	.	.	2.13e+00	3	7	10	427	4.05e-07	3.64e-06
meme.xml	TGCCCTSAGGCW	MEME-3	TGCCCTSAGGCW	JASPAR2018_CORE_non-redundant	MA0447.1	gt	RTTACGTAAY	0	0	.	.	.	3.39e+00	129	7	4	25	2.09e-07	1.88e-06
meme.xml	TGCCCTSAGGCW	MEME-3	TGCCCTSAGGCW	JASPAR2018_CORE_non-redundant	MA0447.1	gt	RTTACGTAAY	0	0	.	.	.	3.39e+00	129	2	3	25	1.38e-06	1.25e-05
meme.xml	TGCCCTSAGGCW	MEME-3	TGCCCTSAGGCW	JASPAR2018_CORE_non-redundant	MA0447.1	gt	RTTACGTAAY	0	0	.	.	.	3.39e+00	129	8	4	25	3.16e-06	2.84e-05
meme.xml	TGCCCTSAGGCW	MEME-3	TGCCCTSAGGCW	JASPAR2018_CORE_non-redundant	MA1116.1	RBPJ	BVTGGGAANN	2	2	.	.	.	3.85e+00	9	2	5	116	2.32e-07	2.08e-06
meme.xml	TGCCCTSAGGCW	MEME-3	TGCCCTSAGGCW	JASPAR2018_CORE_non-redundant	MA0791.1	POU4F3	RTGMATWATTAATGAR	1	2	.	.	.	3.97e+00	120	7	7	159	2.51e-07	2.26e-06
meme.xml	TGCCCTSAGGCW	MEME-3	TGCCCTSAGGCW	JASPAR2018_CORE_non-redundant	MA0791.1	POU4F3	RTGMATWATTAATGAR	1	2	.	.	.	3.97e+00	120	3	5	159	1.37e-06	1.23e-05
meme.xml	TGCCCTSAGGCW	MEME-3	TGCCCTSAGGCW	JASPAR2018_CORE_non-redundant	MA0421.1	NSI1	TTTACCCGGM	0	0	.	.	.	5.51e+00	21	3	3	16	3.41e-07	3.07e-06
meme.xml	TGCCCTSAGGCW	MEME-3	TGCCCTSAGGCW	JASPAR2018_CORE_non-redundant	MA0421.1	NSI1	TTTACCCGGM	0	0	.	.	.	5.51e+00	21	5	3	16	2.68e-06	2.41e-05
meme.xml	TGCCCTSAGGCW	MEME-3	TGCCCTSAGGCW	JASPAR2018_CORE_non-redundant	MA0421.1	NSI1	TTTACCCGGM	0	0	.	.	.	5.51e+00	21	7	3	16	2.68e-06	2.41e-05
##
# Detailed descriptions of columns in this file:
#
# prim_db:	The name of the database (file name) that contains the primary motif.
# prim_id:	A name for the primary motif that is unique in the motif database file.
# prim_alt:	An alternate name of the primary motif that may be provided
#		in the motif database file.
# prim_cons:	A consensus sequence computed from the primary motif (see doc/motif-consensus.html).
# sec_db:	The name of the database (file name) that contains the secondary motif.
# sec_id:	A name for the motif that is unique in the motif database file.
# sec_alt:	An alternate name of the secondary motif that may be provided
#		in the motif database file.
# sec_cons:	A consensus sequence computed from the secondary motif (see doc/motif-consensus.html).
# trim_left:	Number of positions trimmed from left of secondary motif
# trim_right:	Number of positions trimmed from right of secondary motif
# If the next three fields are not blank, the motif is redundant with a more significant ('parent') motif.
# red_db:	The database (file name) that contains the parent motif.
# red_id:	A name for the parent motif that is unique in the motif database file.
# red_alt:	An alternate name of the parent motif that may be provided
#		in the motif database file.
# E-value:	The expected number motifs that would have least one
#		spacing as enriched as the best spacing for this secondary.
#		The E-value is the best spacing p-value multiplied by the number of motifs in the
#		input database(s).
# gap:		The distance between the edge of the primary and the (trimmed) secondary motif.
# orient:	The (combination) of quadrants for which occurrences
#		of this spacing are combined.
# count:	The number of occurrences of the secondary motif with the
#		given spacing and orientation to the primary motif.
# total:	The total number of occurrences of the secondary motif within the
#		margins around the best primary motif occurrence.
# adj_p-value:	The p-value of the gap and orientation, adjusted for
#		nine combinations of quadrants times the number of gaps tested
#		(as controlled by the -range switch).
# p-value:	The p-value of the gap and orientation adjusted only for the number of gaps tested.
