prim_db	prim_id	prim_alt	prim_cons	sec_db	sec_id	sec_alt	sec_cons	trim_left	trim_right	red_db	red_id	red_alt	E-value	gap	orient	count	total	adj_p-value	p-value
dreme.xml	RYAAAYA	DREME-1	RYAAAYA	meme.xml	TSTRGTCAGACYGGTTCTCTGCTCTTGAAC	MEME-4	TSTRGTCAGACYGGTTCTCTGCTCTTGAAC	0	0	.	.	.	4.20e-04	17	3	4	6	3.03e-11	2.72e-10
dreme.xml	RYAAAYA	DREME-1	RYAAAYA	meme.xml	TSTRGTCAGACYGGTTCTCTGCTCTTGAAC	MEME-4	TSTRGTCAGACYGGTTCTCTGCTCTTGAAC	0	0	.	.	.	4.20e-04	17	5	4	6	4.83e-10	4.34e-09
dreme.xml	RYAAAYA	DREME-1	RYAAAYA	meme.xml	TSTRGTCAGACYGGTTCTCTGCTCTTGAAC	MEME-4	TSTRGTCAGACYGGTTCTCTGCTCTTGAAC	0	0	.	.	.	4.20e-04	17	7	4	6	4.83e-10	4.34e-09
dreme.xml	RYAAAYA	DREME-1	RYAAAYA	meme.xml	TSTRGTCAGACYGGTTCTCTGCTCTTGAAC	MEME-4	TSTRGTCAGACYGGTTCTCTGCTCTTGAAC	0	0	.	.	.	4.20e-04	17	8	4	6	7.67e-09	6.91e-08
dreme.xml	RYAAAYA	DREME-1	RYAAAYA	meme.xml	CAWGACCAAGARYYCAAARGCA	MEME-5	CAWGACCAAGARYYCAAARGCA	0	0	.	.	.	5.11e-04	18	0	5	19	3.45e-11	3.11e-10
dreme.xml	RYAAAYA	DREME-1	RYAAAYA	meme.xml	CAWGACCAAGARYYCAAARGCA	MEME-5	CAWGACCAAGARYYCAAARGCA	0	0	.	.	.	5.11e-04	18	4	5	19	1.08e-09	9.72e-09
dreme.xml	RYAAAYA	DREME-1	RYAAAYA	meme.xml	CAWGACCAAGARYYCAAARGCA	MEME-5	CAWGACCAAGARYYCAAARGCA	0	0	.	.	.	5.11e-04	18	5	5	19	1.08e-09	9.72e-09
dreme.xml	RYAAAYA	DREME-1	RYAAAYA	meme.xml	CAWGACCAAGARYYCAAARGCA	MEME-5	CAWGACCAAGARYYCAAARGCA	0	0	.	.	.	5.11e-04	18	8	5	19	3.30e-08	2.97e-07
dreme.xml	RYAAAYA	DREME-1	RYAAAYA	JASPAR2018_CORE_non-redundant	MA0767.1	GCM2	BATGCGGGTR	1	1	.	.	.	1.43e-03	29	0	8	165	8.71e-11	7.84e-10
dreme.xml	RYAAAYA	DREME-1	RYAAAYA	JASPAR2018_CORE_non-redundant	MA0767.1	GCM2	BATGCGGGTR	1	1	.	.	.	1.43e-03	29	5	9	165	1.06e-09	9.57e-09
dreme.xml	RYAAAYA	DREME-1	RYAAAYA	JASPAR2018_CORE_non-redundant	MA0767.1	GCM2	BATGCGGGTR	1	1	.	.	.	1.43e-03	29	4	8	165	1.75e-08	1.57e-07
dreme.xml	RYAAAYA	DREME-1	RYAAAYA	JASPAR2018_CORE_non-redundant	MA0767.1	GCM2	BATGCGGGTR	1	1	.	.	.	1.43e-03	29	8	9	165	3.34e-07	3.00e-06
dreme.xml	RYAAAYA	DREME-1	RYAAAYA	JASPAR2018_CORE_non-redundant	MA0917.1	gcm2	ATGCGGGY	0	0	JASPAR2018_CORE_non-redundant	MA0767.1	GCM2	1.11e+00	29	0	7	268	6.78e-08	6.10e-07
dreme.xml	RYAAAYA	DREME-1	RYAAAYA	JASPAR2018_CORE_non-redundant	MA0347.1	NRG1	YNNNRYMAGGGTCCWNBGVN	6	2	JASPAR2018_CORE_non-redundant	MA0767.1	GCM2	2.29e+00	23	0	5	101	1.43e-07	1.29e-06
dreme.xml	RYAAAYA	DREME-1	RYAAAYA	JASPAR2018_CORE_non-redundant	MA0347.1	NRG1	YNNNRYMAGGGTCCWNBGVN	6	2	JASPAR2018_CORE_non-redundant	MA0767.1	GCM2	2.29e+00	23	4	5	101	3.98e-06	3.58e-05
dreme.xml	RYAAAYA	DREME-1	RYAAAYA	JASPAR2018_CORE_non-redundant	MA0347.1	NRG1	YNNNRYMAGGGTCCWNBGVN	6	2	JASPAR2018_CORE_non-redundant	MA0767.1	GCM2	2.29e+00	23	5	5	101	3.98e-06	3.58e-05
dreme.xml	RYAAAYA	DREME-1	RYAAAYA	meme.xml	AAAAYTCTAGAAGATARCATYRGAAAAMCC	MEME-7	AAAAYTCTAGAAGATARCATYRGAAAAMCC	0	0	.	.	.	3.51e-03	69	0	4	9	2.53e-10	2.28e-09
dreme.xml	RYAAAYA	DREME-1	RYAAAYA	meme.xml	AAAAYTCTAGAAGATARCATYRGAAAAMCC	MEME-7	AAAAYTCTAGAAGATARCATYRGAAAAMCC	0	0	.	.	.	3.51e-03	69	4	4	9	4.01e-09	3.61e-08
dreme.xml	RYAAAYA	DREME-1	RYAAAYA	meme.xml	AAAAYTCTAGAAGATARCATYRGAAAAMCC	MEME-7	AAAAYTCTAGAAGATARCATYRGAAAAMCC	0	0	.	.	.	3.51e-03	69	5	4	9	4.01e-09	3.61e-08
dreme.xml	RYAAAYA	DREME-1	RYAAAYA	meme.xml	AAAAYTCTAGAAGATARCATYRGAAAAMCC	MEME-7	AAAAYTCTAGAAGATARCATYRGAAAAMCC	0	0	.	.	.	3.51e-03	69	8	4	9	6.32e-08	5.69e-07
dreme.xml	RYAAAYA	DREME-1	RYAAAYA	JASPAR2018_CORE_non-redundant	MA1398.1	At5g47390	HHWWYCTTATCCAHW	3	0	JASPAR2018_CORE_non-redundant	AAAAYTCTAGAAGATARCATYRGAAAAMCC	MEME-7	1.84e-01	79	1	6	120	1.15e-08	1.04e-07
dreme.xml	RYAAAYA	DREME-1	RYAAAYA	JASPAR2018_CORE_non-redundant	MA1398.1	At5g47390	HHWWYCTTATCCAHW	3	0	JASPAR2018_CORE_non-redundant	AAAAYTCTAGAAGATARCATYRGAAAAMCC	MEME-7	1.84e-01	79	4	7	120	3.61e-08	3.25e-07
dreme.xml	RYAAAYA	DREME-1	RYAAAYA	JASPAR2018_CORE_non-redundant	MA1398.1	At5g47390	HHWWYCTTATCCAHW	3	0	JASPAR2018_CORE_non-redundant	AAAAYTCTAGAAGATARCATYRGAAAAMCC	MEME-7	1.84e-01	79	6	6	120	6.19e-07	5.57e-06
dreme.xml	RYAAAYA	DREME-1	RYAAAYA	JASPAR2018_CORE_non-redundant	MA1398.1	At5g47390	HHWWYCTTATCCAHW	3	0	JASPAR2018_CORE_non-redundant	AAAAYTCTAGAAGATARCATYRGAAAAMCC	MEME-7	1.84e-01	79	8	7	120	3.24e-06	2.92e-05
dreme.xml	RYAAAYA	DREME-1	RYAAAYA	JASPAR2018_CORE_non-redundant	MA1195.1	AT5G56840	AAYCTTATCCAWWWH	0	1	JASPAR2018_CORE_non-redundant	AAAAYTCTAGAAGATARCATYRGAAAAMCC	MEME-7	4.03e+00	78	1	5	112	2.56e-07	2.31e-06
dreme.xml	RYAAAYA	DREME-1	RYAAAYA	JASPAR2018_CORE_non-redundant	MA1195.1	AT5G56840	AAYCTTATCCAWWWH	0	1	JASPAR2018_CORE_non-redundant	AAAAYTCTAGAAGATARCATYRGAAAAMCC	MEME-7	4.03e+00	78	4	6	112	4.51e-07	4.06e-06
dreme.xml	RYAAAYA	DREME-1	RYAAAYA	JASPAR2018_CORE_non-redundant	MA1399.1	At5g08520	DWWDWRGATAAGR	1	0	JASPAR2018_CORE_non-redundant	AAAAYTCTAGAAGATARCATYRGAAAAMCC	MEME-7	5.34e+00	80	0	5	120	3.36e-07	3.02e-06
dreme.xml	RYAAAYA	DREME-1	RYAAAYA	JASPAR2018_CORE_non-redundant	MA1399.1	At5g08520	DWWDWRGATAAGR	1	0	JASPAR2018_CORE_non-redundant	AAAAYTCTAGAAGATARCATYRGAAAAMCC	MEME-7	5.34e+00	80	4	6	120	6.19e-07	5.57e-06
dreme.xml	RYAAAYA	DREME-1	RYAAAYA	JASPAR2018_CORE_non-redundant	MA1399.1	At5g08520	DWWDWRGATAAGR	1	0	JASPAR2018_CORE_non-redundant	AAAAYTCTAGAAGATARCATYRGAAAAMCC	MEME-7	5.34e+00	80	5	6	120	6.19e-07	5.57e-06
dreme.xml	RYAAAYA	DREME-1	RYAAAYA	JASPAR2018_CORE_non-redundant	MA1399.1	At5g08520	DWWDWRGATAAGR	1	0	JASPAR2018_CORE_non-redundant	AAAAYTCTAGAAGATARCATYRGAAAAMCC	MEME-7	5.34e+00	80	8	7	120	3.24e-06	2.92e-05
dreme.xml	RYAAAYA	DREME-1	RYAAAYA	JASPAR2018_CORE_non-redundant	MA0593.1	FOXP2	RWGTAAACAVR	1	1	.	.	.	1.00e+00	2	0	5	87	6.16e-08	5.54e-07
dreme.xml	RYAAAYA	DREME-1	RYAAAYA	JASPAR2018_CORE_non-redundant	MA0593.1	FOXP2	RWGTAAACAVR	1	1	.	.	.	1.00e+00	2	4	5	87	1.75e-06	1.57e-05
dreme.xml	RYAAAYA	DREME-1	RYAAAYA	JASPAR2018_CORE_non-redundant	MA0593.1	FOXP2	RWGTAAACAVR	1	1	.	.	.	1.00e+00	2	5	5	87	1.75e-06	1.57e-05
dreme.xml	RYAAAYA	DREME-1	RYAAAYA	JASPAR2018_CORE_non-redundant	MA0343.1	NDT80	HHTHCKGMCACAAAAACSVDA	5	4	.	.	.	1.87e+00	19	0	6	178	1.17e-07	1.05e-06
dreme.xml	RYAAAYA	DREME-1	RYAAAYA	JASPAR2018_CORE_non-redundant	MA0421.1	NSI1	TTTACCCGGM	0	0	.	.	.	2.18e+00	48	2	3	12	1.35e-07	1.21e-06
dreme.xml	RYAAAYA	DREME-1	RYAAAYA	JASPAR2018_CORE_non-redundant	MA0421.1	NSI1	TTTACCCGGM	0	0	.	.	.	2.18e+00	48	6	3	12	1.06e-06	9.58e-06
dreme.xml	RYAAAYA	DREME-1	RYAAAYA	JASPAR2018_CORE_non-redundant	MA0421.1	NSI1	TTTACCCGGM	0	0	.	.	.	2.18e+00	48	7	3	12	1.06e-06	9.58e-06
dreme.xml	RYAAAYA	DREME-1	RYAAAYA	JASPAR2018_CORE_non-redundant	MA1236.1	ESE3	HGGHGGHGGCGGCGGMGGW	1	1	.	.	.	3.35e+00	123	5	5	54	2.18e-07	1.96e-06
dreme.xml	RYAAAYA	DREME-1	RYAAAYA	JASPAR2018_CORE_non-redundant	MA1236.1	ESE3	HGGHGGHGGCGGCGGMGGW	1	1	.	.	.	3.35e+00	123	3	4	54	3.95e-07	3.56e-06
dreme.xml	RYAAAYA	DREME-1	RYAAAYA	JASPAR2018_CORE_non-redundant	MA1405.1	SIZF2	BACTGACAGT	1	0	.	.	.	4.92e+00	3	1	5	120	3.03e-07	2.72e-06
dreme.xml	RYAAAYA	DREME-1	RYAAAYA	JASPAR2018_CORE_non-redundant	MA0216.2	cad	RGYMATAAAAM	0	0	.	.	.	6.10e+00	5	0	5	124	3.81e-07	3.43e-06
dreme.xml	RYAAAYA	DREME-1	RYAAAYA	JASPAR2018_CORE_non-redundant	MA0216.2	cad	RGYMATAAAAM	0	0	.	.	.	6.10e+00	5	4	6	124	7.18e-07	6.46e-06
dreme.xml	RYAAAYA	DREME-1	RYAAAYA	JASPAR2018_CORE_non-redundant	MA0034.1	Gam1	SVYAACCGMC	2	0	.	.	.	9.34e+00	7	2	6	241	5.71e-07	5.14e-06
##
# Detailed descriptions of columns in this file:
#
# prim_db:	The name of the database (file name) that contains the primary motif.
# prim_id:	A name for the primary motif that is unique in the motif database file.
# prim_alt:	An alternate name of the primary motif that may be provided
#		in the motif database file.
# prim_cons:	A consensus sequence computed from the primary motif (see doc/motif-consensus.html).
# sec_db:	The name of the database (file name) that contains the secondary motif.
# sec_id:	A name for the motif that is unique in the motif database file.
# sec_alt:	An alternate name of the secondary motif that may be provided
#		in the motif database file.
# sec_cons:	A consensus sequence computed from the secondary motif (see doc/motif-consensus.html).
# trim_left:	Number of positions trimmed from left of secondary motif
# trim_right:	Number of positions trimmed from right of secondary motif
# If the next three fields are not blank, the motif is redundant with a more significant ('parent') motif.
# red_db:	The database (file name) that contains the parent motif.
# red_id:	A name for the parent motif that is unique in the motif database file.
# red_alt:	An alternate name of the parent motif that may be provided
#		in the motif database file.
# E-value:	The expected number motifs that would have least one
#		spacing as enriched as the best spacing for this secondary.
#		The E-value is the best spacing p-value multiplied by the number of motifs in the
#		input database(s).
# gap:		The distance between the edge of the primary and the (trimmed) secondary motif.
# orient:	The (combination) of quadrants for which occurrences
#		of this spacing are combined.
# count:	The number of occurrences of the secondary motif with the
#		given spacing and orientation to the primary motif.
# total:	The total number of occurrences of the secondary motif within the
#		margins around the best primary motif occurrence.
# adj_p-value:	The p-value of the gap and orientation, adjusted for
#		nine combinations of quadrants times the number of gaps tested
#		(as controlled by the -range switch).
# p-value:	The p-value of the gap and orientation adjusted only for the number of gaps tested.
