# motif_id	motif_alt_id	sequence_name	start	stop	strand	score	p-value	q-value	matched_sequence
ATCTTTGTTTTTATTGCATTTGCTTTTGGG	MEME-1	chr5	53039662	53039691	-	51.5083	6.02e-18	3.46e-14	ATCTTTGTTTTTATTGCATTTGCTTTTGGG
ATCTTTGTTTTTATTGCATTTGCTTTTGGG	MEME-1	chr17	78690264	78690293	+	51.5083	6.02e-18	3.46e-14	atctttgtttttattgcatttgcttttggg
ATCTTTGTTTTTATTGCATTTGCTTTTGGG	MEME-1	chr7	117565317	117565346	-	48.3917	3.14e-16	1.2e-12	ATCTTTGTTTCTATTGAATTTGCTTTTGGG
ATCTTTGTTTTTATTGCATTTGCTTTTGGG	MEME-1	chr3	30367423	30367452	-	35.9083	6.66e-13	1.91e-09	ATCTTTATTTTTATCTCATTTTGCTCGCTG
ATCTTTGTTTTTATTGCATTTGCTTTTGGG	MEME-1	chr2	43826834	43826863	-	29.9083	1.28e-11	2.93e-08	ATCTCTGTTTTTATTGTATTTGCTTTTGAG
ATCTTTGTTTTTATTGCATTTGCTTTTGGG	MEME-1	chr4	24862027	24862056	-	27.5333	3.4e-11	6.51e-08	ATCTTTGTTTTTGTTGCATATGCTTTTGTA
ATCTTTGTTTTTATTGCATTTGCTTTTGGG	MEME-1	chr4	131057640	131057669	-	2.81667	2.61e-07	0.000428	ATGTTTGTTTTTTTTTCTTGTTGGTTTGAG
ATCTTTGTTTTTATTGCATTTGCTTTTGGG	MEME-1	chr4	131057478	131057507	-	-0.941667	7.64e-07	0.0011	ATCTTTGTTTTAATTTGCTTTTGGGTTCTT
ATCTTTGTTTTTATTGCATTTGCTTTTGGG	MEME-1	chr4	131057484	131057513	-	-7.99167	5.2e-06	0.00664	CTATTTATCTTTGTTTTAATTTGCTTTTGG
ATCTTTGTTTTTATTGCATTTGCTTTTGGG	MEME-1	chr4	131057483	131057512	-	-10.1333	8.95e-06	0.0103	TATTTATCTTTGTTTTAATTTGCTTTTGGG
ATCTTTGTTTTTATTGCATTTGCTTTTGGG	MEME-1	chr3	65974206	65974235	-	-14.9167	2.9e-05	0.0303	CCCTTTCACTGTATCTCATTGTGTTCTTTG
ATCTTTGTTTTTATTGCATTTGCTTTTGGG	MEME-1	chr5	38533698	38533727	-	-18.2	6.14e-05	0.0552	ATATTTATGTATATAGAGAGGGGTTGGGGG
ATCTTTGTTTTTATTGCATTTGCTTTTGGG	MEME-1	chr3	30367472	30367501	-	-18.2167	6.25e-05	0.0552	ATCTGTAGTTGTATTGTTATTGGCCTCCGT
ATCTTTGTTTTTATTGCATTTGCTTTTGGG	MEME-1	chr17	78690270	78690299	+	-18.8417	7.19e-05	0.059	gtttttattgcatttgcttttgggttcttg
ATCTTTGTTTTTATTGCATTTGCTTTTGGG	MEME-1	chr4	131057646	131057675	-	-19.1833	7.75e-05	0.0593	TTAATTATGTTTGTTTTTTTTTCTTGTTGG
