# motif_id	motif_alt_id	sequence_name	start	stop	strand	score	p-value	q-value	matched_sequence
KTGYGTGTSTGYGTVTNWGYBH	MEME-2	chr16	54543265	54543286	-	26.9639	9.23e-14	4.59e-09	GTGCGTGTGTGTGTGTGTGTGT
KTGYGTGTSTGYGTVTNWGYBH	MEME-2	chr12	53624441	53624462	+	26.9639	9.23e-14	4.59e-09	gtgcgtgtgtgtgtgtgtgtgt
KTGYGTGTSTGYGTVTNWGYBH	MEME-2	chrX	106916222	106916243	+	26.9639	9.23e-14	4.59e-09	gtgcgtgtgtgtgtgtgtgtgt
KTGYGTGTSTGYGTVTNWGYBH	MEME-2	chr7	155711518	155711539	+	26.9639	9.23e-14	4.59e-09	gtgcgtgtgtgtgtgtgtgtgt
KTGYGTGTSTGYGTVTNWGYBH	MEME-2	chr16	54543273	54543294	-	26.6867	2.34e-13	4.59e-09	GTGTGTGTGTGCGTGTGTGTGT
KTGYGTGTSTGYGTVTNWGYBH	MEME-2	chr22	37908201	37908222	-	26.5181	3.81e-13	4.59e-09	GTGTGTGTGTGTGTGTGTGTGT
KTGYGTGTSTGYGTVTNWGYBH	MEME-2	chr22	37908203	37908224	-	26.5181	3.81e-13	4.59e-09	GTGTGTGTGTGTGTGTGTGTGT
KTGYGTGTSTGYGTVTNWGYBH	MEME-2	chr22	37908205	37908226	-	26.5181	3.81e-13	4.59e-09	GTGTGTGTGTGTGTGTGTGTGT
KTGYGTGTSTGYGTVTNWGYBH	MEME-2	chr11	131566555	131566576	-	26.5181	3.81e-13	4.59e-09	GTGTGTGTGTGTGTGTGTGTGT
KTGYGTGTSTGYGTVTNWGYBH	MEME-2	chr11	131566557	131566578	-	26.5181	3.81e-13	4.59e-09	GTGTGTGTGTGTGTGTGTGTGT
KTGYGTGTSTGYGTVTNWGYBH	MEME-2	chr12	53624445	53624466	+	26.5181	3.81e-13	4.59e-09	gtgtgtgtgtgtgtgtgtgtgt
KTGYGTGTSTGYGTVTNWGYBH	MEME-2	chr12	53624447	53624468	+	26.5181	3.81e-13	4.59e-09	gtgtgtgtgtgtgtgtgtgtgt
KTGYGTGTSTGYGTVTNWGYBH	MEME-2	chr12	53624449	53624470	+	26.5181	3.81e-13	4.59e-09	gtgtgtgtgtgtgtgtgtgtgt
KTGYGTGTSTGYGTVTNWGYBH	MEME-2	chr12	53624451	53624472	+	26.5181	3.81e-13	4.59e-09	gtgtgtgtgtgtgtgtgtgtgt
KTGYGTGTSTGYGTVTNWGYBH	MEME-2	chr12	53624453	53624474	+	26.5181	3.81e-13	4.59e-09	gtgtgtgtgtgtgtgtgtgtgt
KTGYGTGTSTGYGTVTNWGYBH	MEME-2	chr12	53624455	53624476	+	26.5181	3.81e-13	4.59e-09	gtgtgtgtgtgtgtgtgtgtgt
KTGYGTGTSTGYGTVTNWGYBH	MEME-2	chr12	53624457	53624478	+	26.5181	3.81e-13	4.59e-09	gtgtgtgtgtgtgtgtgtgtgt
KTGYGTGTSTGYGTVTNWGYBH	MEME-2	chr12	53624459	53624480	+	26.5181	3.81e-13	4.59e-09	gtgtgtgtgtgtgtgtgtgtgt
KTGYGTGTSTGYGTVTNWGYBH	MEME-2	chr12	53624461	53624482	+	26.5181	3.81e-13	4.59e-09	gtgtgtgtgtgtgtgtgtgtgt
KTGYGTGTSTGYGTVTNWGYBH	MEME-2	chr12	53624463	53624484	+	26.5181	3.81e-13	4.59e-09	gtgtgtgtgtgtgtgtgtgtgt
KTGYGTGTSTGYGTVTNWGYBH	MEME-2	chr12	53624465	53624486	+	26.5181	3.81e-13	4.59e-09	gtgtgtgtgtgtgtgtgtgtgt
KTGYGTGTSTGYGTVTNWGYBH	MEME-2	chr12	53624467	53624488	+	26.5181	3.81e-13	4.59e-09	gtgtgtgtgtgtgtgtgtgtgt
KTGYGTGTSTGYGTVTNWGYBH	MEME-2	chr12	53624469	53624490	+	26.5181	3.81e-13	4.59e-09	gtgtgtgtgtgtgtgtgtgtgt
KTGYGTGTSTGYGTVTNWGYBH	MEME-2	chr14	56648384	56648405	+	26.5181	3.81e-13	4.59e-09	gtgtgtgtgtgtgtgtgtgtgt
KTGYGTGTSTGYGTVTNWGYBH	MEME-2	chr14	56648386	56648407	+	26.5181	3.81e-13	4.59e-09	gtgtgtgtgtgtgtgtgtgtgt
KTGYGTGTSTGYGTVTNWGYBH	MEME-2	chr14	56648388	56648409	+	26.5181	3.81e-13	4.59e-09	gtgtgtgtgtgtgtgtgtgtgt
KTGYGTGTSTGYGTVTNWGYBH	MEME-2	chr14	56648390	56648411	+	26.5181	3.81e-13	4.59e-09	gtgtgtgtgtgtgtgtgtgtgt
KTGYGTGTSTGYGTVTNWGYBH	MEME-2	chr14	56648392	56648413	+	26.5181	3.81e-13	4.59e-09	gtgtgtgtgtgtgtgtgtgtgt
KTGYGTGTSTGYGTVTNWGYBH	MEME-2	chr14	56648394	56648415	+	26.5181	3.81e-13	4.59e-09	gtgtgtgtgtgtgtgtgtgtgt
KTGYGTGTSTGYGTVTNWGYBH	MEME-2	chr7	155711522	155711543	+	26.5181	3.81e-13	4.59e-09	gtgtgtgtgtgtgtgtgtgtgt
KTGYGTGTSTGYGTVTNWGYBH	MEME-2	chr7	155711524	155711545	+	26.5181	3.81e-13	4.59e-09	gtgtgtgtgtgtgtgtgtgtgt
KTGYGTGTSTGYGTVTNWGYBH	MEME-2	chr7	155711526	155711547	+	26.5181	3.81e-13	4.59e-09	gtgtgtgtgtgtgtgtgtgtgt
KTGYGTGTSTGYGTVTNWGYBH	MEME-2	chr1	188458261	188458282	+	26.5181	3.81e-13	4.59e-09	gtgtgtgtgtgtgtgtgtgtgt
KTGYGTGTSTGYGTVTNWGYBH	MEME-2	chr1	188458263	188458284	+	26.5181	3.81e-13	4.59e-09	gtgtgtgtgtgtgtgtgtgtgt
KTGYGTGTSTGYGTVTNWGYBH	MEME-2	chr1	188458265	188458286	+	26.5181	3.81e-13	4.59e-09	gtgtgtgtgtgtgtgtgtgtgt
KTGYGTGTSTGYGTVTNWGYBH	MEME-2	chr1	188458267	188458288	+	26.5181	3.81e-13	4.59e-09	gtgtgtgtgtgtgtgtgtgtgt
KTGYGTGTSTGYGTVTNWGYBH	MEME-2	chr1	188458269	188458290	+	26.5181	3.81e-13	4.59e-09	gtgtgtgtgtgtgtgtgtgtgt
KTGYGTGTSTGYGTVTNWGYBH	MEME-2	chr1	188458271	188458292	+	26.5181	3.81e-13	4.59e-09	gtgtgtgtgtgtgtgtgtgtgt
KTGYGTGTSTGYGTVTNWGYBH	MEME-2	chr1	188458273	188458294	+	26.5181	3.81e-13	4.59e-09	gtgtgtgtgtgtgtgtgtgtgt
KTGYGTGTSTGYGTVTNWGYBH	MEME-2	chr1	188458275	188458296	+	26.5181	3.81e-13	4.59e-09	gtgtgtgtgtgtgtgtgtgtgt
KTGYGTGTSTGYGTVTNWGYBH	MEME-2	chrX	106916214	106916235	+	26.1928	1.42e-12	1.67e-08	gtgcgtgcgtgcgtgtgtgtgt
KTGYGTGTSTGYGTVTNWGYBH	MEME-2	chrX	106916218	106916239	+	26.0241	2.52e-12	2.89e-08	gtgcgtgcgtgtgtgtgtgtgt
KTGYGTGTSTGYGTVTNWGYBH	MEME-2	chr14	56648396	56648417	+	25.9518	3.06e-12	3.42e-08	gtgtgtgtgtgtgtgtgtgtTT
KTGYGTGTSTGYGTVTNWGYBH	MEME-2	chr11	131566559	131566580	-	25.8916	3.56e-12	3.9e-08	TTGTGTGTGTGTGTGTGTGTGT
KTGYGTGTSTGYGTVTNWGYBH	MEME-2	chr11	131566553	131566574	-	25.7952	5.08e-12	5.44e-08	GTGTGTGTGTGTGTGTGTGTGC
KTGYGTGTSTGYGTVTNWGYBH	MEME-2	chr6	13873342	13873363	+	25.6867	6.45e-12	6.76e-08	gtgtgtgtgtgtgtgtgtgcgt
KTGYGTGTSTGYGTVTNWGYBH	MEME-2	chr16	54543269	54543290	-	25.5783	9.06e-12	9.1e-08	GTGTGTGCGTGTGTGTGTGTGT
KTGYGTGTSTGYGTVTNWGYBH	MEME-2	chr7	155711514	155711535	+	25.5783	9.06e-12	9.1e-08	gtgtgtgcgtgtgtgtgtgtgt
KTGYGTGTSTGYGTVTNWGYBH	MEME-2	chr2	105760151	105760172	-	25.5663	9.38e-12	9.22e-08	GTGTGTGTGTGCGTGCGTGTGT
KTGYGTGTSTGYGTVTNWGYBH	MEME-2	chr20	15843098	15843119	-	25.3976	1.42e-11	1.32e-07	GTGTGTGTGTGTGTGCGTGTGT
KTGYGTGTSTGYGTVTNWGYBH	MEME-2	chr1	169042730	169042751	-	25.3976	1.42e-11	1.32e-07	GTGTGTGTGTGTGTGCGTGTGT
KTGYGTGTSTGYGTVTNWGYBH	MEME-2	chr10	120766448	120766469	+	25.3976	1.42e-11	1.32e-07	gtgtgtgtgtgtgtgcgtgtgt
KTGYGTGTSTGYGTVTNWGYBH	MEME-2	chr1	188458277	188458298	+	25.2289	2.14e-11	1.94e-07	gtgtgtgtgtgtgtgtgtgtTC
KTGYGTGTSTGYGTVTNWGYBH	MEME-2	chrX	106916210	106916231	+	25.0723	3.13e-11	2.8e-07	gtgcgtgcgtgcgtgcgtgtgt
KTGYGTGTSTGYGTVTNWGYBH	MEME-2	chr20	15843096	15843117	-	24.6145	8.55e-11	7.36e-07	GTGTGTGTGTGTGCGTGTGTGT
KTGYGTGTSTGYGTVTNWGYBH	MEME-2	chr1	169042728	169042749	-	24.6145	8.55e-11	7.36e-07	GTGTGTGTGTGTGCGTGTGTGT
KTGYGTGTSTGYGTVTNWGYBH	MEME-2	chr12	53624475	53624496	+	24.5783	9.16e-11	7.75e-07	gtgtgtgtgtgtgtgtatgtct
KTGYGTGTSTGYGTVTNWGYBH	MEME-2	chr12	53624471	53624492	+	24.5181	1.05e-10	8.71e-07	gtgtgtgtgtgtgtgtgtgtat
KTGYGTGTSTGYGTVTNWGYBH	MEME-2	chr6	13873346	13873367	+	24.506	1.08e-10	8.8e-07	gtgtgtgtgtgtgtgcgtgtgA
KTGYGTGTSTGYGTVTNWGYBH	MEME-2	chr1	44870664	44870685	+	24.4699	1.16e-10	9.31e-07	gtgcgtgcgtgtgtgtgtgcgc
KTGYGTGTSTGYGTVTNWGYBH	MEME-2	chr8	100941782	100941803	-	24.3855	1.35e-10	1.07e-06	GTGTGTGTGTGGGTGTATGTGT
KTGYGTGTSTGYGTVTNWGYBH	MEME-2	chr7	1959396	1959417	+	24.3494	1.45e-10	1.13e-06	gtgcgtgcgtgcgtgcgtgtgc
KTGYGTGTSTGYGTVTNWGYBH	MEME-2	chr1	169042726	169042747	-	24.2892	1.65e-10	1.26e-06	GTGTGTGTGTGCGTGTGTGTTG
KTGYGTGTSTGYGTVTNWGYBH	MEME-2	chrX	106916206	106916227	+	24.241	1.81e-10	1.36e-06	gtgcgtgcgtgcgtgcgtgcgt
KTGYGTGTSTGYGTVTNWGYBH	MEME-2	chr5	173249123	173249144	+	24.2289	1.85e-10	1.37e-06	gtgtgtgggtgtgtatgtgtgt
KTGYGTGTSTGYGTVTNWGYBH	MEME-2	chr20	15843094	15843115	-	23.9639	3.03e-10	2.21e-06	GTGTGTGTGTGCGTGTGTGTAC
KTGYGTGTSTGYGTVTNWGYBH	MEME-2	chr1	169042744	169042765	-	23.9398	3.15e-10	2.27e-06	TTGTGTGTGTGCATGTGTGTGT
KTGYGTGTSTGYGTVTNWGYBH	MEME-2	chrX	106916202	106916223	+	23.7952	4.1e-10	2.91e-06	gtgtgtgcgtgcgtgcgtgcgt
KTGYGTGTSTGYGTVTNWGYBH	MEME-2	chr13	93978375	93978396	-	23.7831	4.18e-10	2.92e-06	GTGTGTGTGTGTGCGTGTGCGT
KTGYGTGTSTGYGTVTNWGYBH	MEME-2	chr6	13873350	13873371	+	23.7349	4.54e-10	3.08e-06	gtgtgtgtgtgcgtgtgAGAGA
KTGYGTGTSTGYGTVTNWGYBH	MEME-2	chr11	121349008	121349029	+	23.7349	4.54e-10	3.08e-06	ttgtgtgtgtgcttgtgtgcgt
KTGYGTGTSTGYGTVTNWGYBH	MEME-2	chr6	24879569	24879590	-	23.7229	4.63e-10	3.1e-06	TTGTGTGTGTGCGTGCTTGTTT
KTGYGTGTSTGYGTVTNWGYBH	MEME-2	chr11	131566551	131566572	-	23.6867	4.92e-10	3.24e-06	GTGTGTGTGTGTGTGTGTGCAT
KTGYGTGTSTGYGTVTNWGYBH	MEME-2	chr13	93978369	93978390	-	23.6747	5.03e-10	3.28e-06	GTGTGTGCGTGTGCGTGTGTGT
KTGYGTGTSTGYGTVTNWGYBH	MEME-2	chr1	44870672	44870693	+	23.6627	5.14e-10	3.3e-06	gtgtgtgtgtgcgcgcgtgtgt
KTGYGTGTSTGYGTVTNWGYBH	MEME-2	chr12	53624477	53624498	+	23.6506	5.25e-10	3.33e-06	gtgtgtgtgtgtgtatgtctgt
KTGYGTGTSTGYGTVTNWGYBH	MEME-2	chr16	54543261	54543282	-	23.6265	5.47e-10	3.43e-06	GTGTGTGTGTGTGTGTGTGTAA
KTGYGTGTSTGYGTVTNWGYBH	MEME-2	chr1	85763341	85763362	-	23.5783	5.95e-10	3.67e-06	GTGTGTGCGTGTGTGTGTGTAT
KTGYGTGTSTGYGTVTNWGYBH	MEME-2	chr10	114875258	114875279	+	23.494	6.82e-10	4.16e-06	GTGTGTGCGTGTGTCTCTGCTT
KTGYGTGTSTGYGTVTNWGYBH	MEME-2	chr11	131566547	131566568	-	23.4699	7.1e-10	4.27e-06	GTGTGTGTGTGTGTGCATGCGT
KTGYGTGTSTGYGTVTNWGYBH	MEME-2	chr17	42164318	42164339	-	23.4217	7.7e-10	4.58e-06	GTGCGTGCCTGTGCGTGTGTGT
KTGYGTGTSTGYGTVTNWGYBH	MEME-2	chr6	139866627	139866648	+	23.3494	8.66e-10	5.09e-06	GTGTGTGCGTGTGTGTCTGTAT
KTGYGTGTSTGYGTVTNWGYBH	MEME-2	chr14	56648398	56648419	+	23.3373	8.83e-10	5.13e-06	gtgtgtgtgtgtgtgtgtTTTT
KTGYGTGTSTGYGTVTNWGYBH	MEME-2	chr12	53624479	53624500	+	23.3253	9e-10	5.16e-06	gtgtgtgtgtgtatgtctgtCT
KTGYGTGTSTGYGTVTNWGYBH	MEME-2	chr11	121348940	121348961	+	23.3133	9.16e-10	5.2e-06	ctgtgtgtgtgcttgtgtgcgt
KTGYGTGTSTGYGTVTNWGYBH	MEME-2	chr13	93978373	93978394	-	23.0964	1.29e-09	7.23e-06	GTGTGTGTGTGCGTGTGCGTGT
KTGYGTGTSTGYGTVTNWGYBH	MEME-2	chr12	52596875	52596896	+	23.012	1.47e-09	8.14e-06	gtgtgtgtgtgagtgtgtgGCT
KTGYGTGTSTGYGTVTNWGYBH	MEME-2	chr20	15843100	15843121	-	22.9277	1.67e-09	8.95e-06	GTGTGTGTGTGTGTGTGCGTGT
KTGYGTGTSTGYGTVTNWGYBH	MEME-2	chr1	169042736	169042757	-	22.9277	1.67e-09	8.95e-06	GTGCATGTGTGTGTGTGTGTGC
KTGYGTGTSTGYGTVTNWGYBH	MEME-2	chr6	13873344	13873365	+	22.9277	1.67e-09	8.95e-06	gtgtgtgtgtgtgtgtgcgtgt
KTGYGTGTSTGYGTVTNWGYBH	MEME-2	chrX	106916226	106916247	+	22.8072	2e-09	1.06e-05	gtgtgtgtgtgtgtgtgtggtg
KTGYGTGTSTGYGTVTNWGYBH	MEME-2	chr19	36426777	36426798	+	22.747	2.19e-09	1.14e-05	gtgtatgtgtgtgtctgtgtgt
KTGYGTGTSTGYGTVTNWGYBH	MEME-2	chr7	155711528	155711549	+	22.6867	2.39e-09	1.24e-05	gtgtgtgtgtgtgtgtgtgtag
KTGYGTGTSTGYGTVTNWGYBH	MEME-2	chr6	13873348	13873369	+	22.6265	2.6e-09	1.33e-05	gtgtgtgtgtgtgcgtgtgAGA
KTGYGTGTSTGYGTVTNWGYBH	MEME-2	chr10	120766450	120766471	+	22.6145	2.65e-09	1.34e-05	gtgtgtgtgtgtgcgtgtgtat
KTGYGTGTSTGYGTVTNWGYBH	MEME-2	chr12	131707110	131707131	+	22.5663	2.84e-09	1.42e-05	gtgtgtgcgtgtgcatgtgtgt
KTGYGTGTSTGYGTVTNWGYBH	MEME-2	chr1	524043	524064	-	22.5422	2.94e-09	1.44e-05	GTGTGTGGGTGGGTGTGTCTGT
KTGYGTGTSTGYGTVTNWGYBH	MEME-2	chr6	171042833	171042854	+	22.5422	2.94e-09	1.44e-05	gtgtgtgggtgggtgtgtctgt
KTGYGTGTSTGYGTVTNWGYBH	MEME-2	chr7	155711506	155711527	+	22.5301	2.99e-09	1.44e-05	gtgcatgtgtgtgtgcgtgtgt
KTGYGTGTSTGYGTVTNWGYBH	MEME-2	chr7	140677491	140677512	+	22.5181	3.04e-09	1.44e-05	GTGTGTGCGTGCATATGTGTGT
KTGYGTGTSTGYGTVTNWGYBH	MEME-2	chr2	192731355	192731376	+	22.5181	3.04e-09	1.44e-05	GTGTGTGCGTGCATATGTGTGT
KTGYGTGTSTGYGTVTNWGYBH	MEME-2	chr12	131707026	131707047	+	22.506	3.09e-09	1.44e-05	gtgtgtgagtgcatgtgagtgt
KTGYGTGTSTGYGTVTNWGYBH	MEME-2	chr1	188458279	188458300	+	22.506	3.09e-09	1.44e-05	gtgtgtgtgtgtgtgtgtTCTT
KTGYGTGTSTGYGTVTNWGYBH	MEME-2	chr1	169042756	169042777	-	22.494	3.15e-09	1.44e-05	GTGCCTGTGTGCTTGTGTGTGT
KTGYGTGTSTGYGTVTNWGYBH	MEME-2	chr3	197391651	197391672	+	22.494	3.15e-09	1.44e-05	gtgtgtgcgtgcgtccgtgcct
KTGYGTGTSTGYGTVTNWGYBH	MEME-2	chr11	121348910	121348931	+	22.3614	3.78e-09	1.72e-05	gtgtgtgtgtgcttgtgtgcat
KTGYGTGTSTGYGTVTNWGYBH	MEME-2	chr7	1959404	1959425	+	22.1807	4.84e-09	2.18e-05	gtgcgtgcgtgtgcatgtgcgt
KTGYGTGTSTGYGTVTNWGYBH	MEME-2	chr5	173249117	173249138	+	22.1566	5e-09	2.23e-05	gtgtgtgtgtgtgggtgtgtat
KTGYGTGTSTGYGTVTNWGYBH	MEME-2	chr11	131566543	131566564	-	22.1325	5.17e-09	2.28e-05	GTGTGTGTGTGCATGCGTGGGT
KTGYGTGTSTGYGTVTNWGYBH	MEME-2	chr12	131707120	131707141	+	21.8072	7.92e-09	3.46e-05	gtgcatgtgtgtgtgcgtgtgc
KTGYGTGTSTGYGTVTNWGYBH	MEME-2	chr19	36426775	36426796	+	21.7952	8.04e-09	3.46e-05	gtgtgtatgtgtgtgtctgtgt
KTGYGTGTSTGYGTVTNWGYBH	MEME-2	chr1	85763337	85763358	-	21.7952	8.04e-09	3.46e-05	GTGCGTGTGTGTGTGTATTTTA
KTGYGTGTSTGYGTVTNWGYBH	MEME-2	chr6	139866631	139866652	+	21.7831	8.17e-09	3.48e-05	GTGCGTGTGTGTCTGTATCTGT
KTGYGTGTSTGYGTVTNWGYBH	MEME-2	chr7	155711510	155711531	+	21.6988	9.1e-09	3.84e-05	atgtgtgtgtgcgtgtgtgtgt
KTGYGTGTSTGYGTVTNWGYBH	MEME-2	chr6	26257371	26257392	+	21.6265	9.96e-09	4.17e-05	gtgtgtgcgtgtgtgcgtgaca
KTGYGTGTSTGYGTVTNWGYBH	MEME-2	chr6	139866635	139866656	+	21.5663	1.07e-08	4.46e-05	GTGTGTGTCTGTATCTGTGCCT
KTGYGTGTSTGYGTVTNWGYBH	MEME-2	chr14	56648382	56648403	+	21.5301	1.12e-08	4.55e-05	Atgtgtgtgtgtgtgtgtgtgt
KTGYGTGTSTGYGTVTNWGYBH	MEME-2	chr1	188458259	188458280	+	21.5301	1.12e-08	4.55e-05	atgtgtgtgtgtgtgtgtgtgt
KTGYGTGTSTGYGTVTNWGYBH	MEME-2	chr7	130858352	130858373	-	21.5301	1.12e-08	4.55e-05	GTGTGTGTGTTTTTGTTTGTTT
KTGYGTGTSTGYGTVTNWGYBH	MEME-2	chr2	105760147	105760168	-	21.4578	1.23e-08	4.93e-05	GTGTGTGCGTGCGTGTGTTCCT
KTGYGTGTSTGYGTVTNWGYBH	MEME-2	chr1	44870668	44870689	+	21.4217	1.28e-08	5.11e-05	gtgcgtgtgtgtgtgcgcgcgt
KTGYGTGTSTGYGTVTNWGYBH	MEME-2	chr14	81901806	81901827	-	21.3494	1.4e-08	5.54e-05	GTGCGTGTGTGTGCGCGTCCGT
KTGYGTGTSTGYGTVTNWGYBH	MEME-2	chr6	13873340	13873361	+	21.3253	1.44e-08	5.61e-05	CGgtgtgtgtgtgtgtgtgtgc
KTGYGTGTSTGYGTVTNWGYBH	MEME-2	chrX	70296174	70296195	-	21.3253	1.44e-08	5.61e-05	GTGTGTATCTGTGTGTGTGTGT
KTGYGTGTSTGYGTVTNWGYBH	MEME-2	chr3	197391655	197391676	+	21.2651	1.55e-08	5.98e-05	gtgcgtgcgtccgtgcctgggt
KTGYGTGTSTGYGTVTNWGYBH	MEME-2	chr12	107637881	107637902	+	21.1928	1.69e-08	6.47e-05	gtgcgtgtgtgtgtgcatgcac
KTGYGTGTSTGYGTVTNWGYBH	MEME-2	chr1	169042740	169042761	-	21.1446	1.79e-08	6.8e-05	GTGTGTGCATGTGTGTGTGTGT
KTGYGTGTSTGYGTVTNWGYBH	MEME-2	chr6	34522674	34522695	-	20.9759	2.18e-08	8.22e-05	ATGTGTGTGTGCGTGTGTGTGC
KTGYGTGTSTGYGTVTNWGYBH	MEME-2	chr9	140376465	140376486	-	20.9157	2.34e-08	8.74e-05	CTGTGTGCGTGCTTCTGTGTGG
KTGYGTGTSTGYGTVTNWGYBH	MEME-2	chrX	106916198	106916219	+	20.8434	2.54e-08	9.42e-05	CTCcgtgtgtgcgtgcgtgcgt
KTGYGTGTSTGYGTVTNWGYBH	MEME-2	chr3	197391567	197391588	+	20.8313	2.58e-08	9.48e-05	ctgtgtgcgtgcatctgtgttc
KTGYGTGTSTGYGTVTNWGYBH	MEME-2	chr1	44870660	44870681	+	20.759	2.8e-08	0.000102	atgtgtgcgtgcgtgtgtgtgt
KTGYGTGTSTGYGTVTNWGYBH	MEME-2	chr12	131707102	131707123	+	20.7108	2.95e-08	0.000107	gtgcatgagtgtgtgcgtgtgc
KTGYGTGTSTGYGTVTNWGYBH	MEME-2	chr20	15843102	15843123	-	20.6988	3e-08	0.000108	ATGTGTGTGTGTGTGTGTGCGT
KTGYGTGTSTGYGTVTNWGYBH	MEME-2	chr19	36426783	36426804	+	20.6747	3.08e-08	0.00011	gtgtgtgtctgtgtgtgCGCGC
KTGYGTGTSTGYGTVTNWGYBH	MEME-2	chr12	131707062	131707083	+	20.5422	3.57e-08	0.000126	gtgtgtgagtgtgtgtgcgttc
KTGYGTGTSTGYGTVTNWGYBH	MEME-2	chr21	46823299	46823320	-	20.4096	4.12e-08	0.000144	GTGCGTGTGAGTGTGTGTCAGG
KTGYGTGTSTGYGTVTNWGYBH	MEME-2	chr16	85548378	85548399	+	20.4096	4.12e-08	0.000144	ctgtgtgggtggatgtgtgtgc
KTGYGTGTSTGYGTVTNWGYBH	MEME-2	chr12	131707060	131707081	+	20.3976	4.18e-08	0.000145	gggtgtgtgagtgtgtgtgcgt
KTGYGTGTSTGYGTVTNWGYBH	MEME-2	chr14	56648400	56648421	+	20.3614	4.34e-08	0.00015	gtgtgtgtgtgtgtgtTTTTAA
KTGYGTGTSTGYGTVTNWGYBH	MEME-2	chr17	4681656	4681677	-	20.2289	5.01e-08	0.000171	TTTCGTGTGTGTGTGTGTTTGC
KTGYGTGTSTGYGTVTNWGYBH	MEME-2	chr2	220433551	220433572	+	20.1325	5.55e-08	0.000188	TTGTGTGCGTGTGTGTATGCAA
KTGYGTGTSTGYGTVTNWGYBH	MEME-2	chr19	35135739	35135760	-	20.1084	5.69e-08	0.000192	GTGTGTGTGTTTCTCCCTGTGT
KTGYGTGTSTGYGTVTNWGYBH	MEME-2	chr2	226199172	226199193	-	20.0843	5.84e-08	0.000195	CTGTATGTGTGAGTGTGTGTGC
KTGYGTGTSTGYGTVTNWGYBH	MEME-2	chr3	197391563	197391584	+	20.012	6.3e-08	0.000209	gtgcctgtgtgcgtgcatctgt
KTGYGTGTSTGYGTVTNWGYBH	MEME-2	chr11	121348876	121348897	+	19.8916	7.13e-08	0.000235	gtgcgtgtgagtacctgtgtgc
KTGYGTGTSTGYGTVTNWGYBH	MEME-2	chr1	524029	524050	-	19.8795	7.22e-08	0.000235	GTGTCTGTCTGTGTGCGTGCCT
KTGYGTGTSTGYGTVTNWGYBH	MEME-2	chr6	171042847	171042868	+	19.8795	7.22e-08	0.000235	gtgtctgtctgtgtgcgtgCCT
KTGYGTGTSTGYGTVTNWGYBH	MEME-2	chrX	70296176	70296197	-	19.8193	7.68e-08	0.000248	GTGTGTGTATCTGTGTGTGTGT
KTGYGTGTSTGYGTVTNWGYBH	MEME-2	chr8	142164114	142164135	+	19.7952	7.87e-08	0.000253	GTGCGTGACTCAGTATTTGTGT
KTGYGTGTSTGYGTVTNWGYBH	MEME-2	chr12	83079670	83079691	+	19.6627	9e-08	0.000287	GGGTGTGTGTGTGTCTTTCTTT
KTGYGTGTSTGYGTVTNWGYBH	MEME-2	chrX	106920177	106920198	+	19.6506	9.11e-08	0.000289	TTGCGTGAGAGCGTCTTAGAGC
KTGYGTGTSTGYGTVTNWGYBH	MEME-2	chr13	36287886	36287907	+	19.6386	9.22e-08	0.00029	GTGCGTGTCTGGAGCTTTGTGT
KTGYGTGTSTGYGTVTNWGYBH	MEME-2	chr3	50306324	50306345	+	19.6145	9.45e-08	0.000296	TGGCGTGGGTGTGTCTGTGATT
KTGYGTGTSTGYGTVTNWGYBH	MEME-2	chrX	70296164	70296185	-	19.5422	1.02e-07	0.000316	GTGTGTGTGTGTGTATTTTGTC
KTGYGTGTSTGYGTVTNWGYBH	MEME-2	chr5	81046638	81046659	+	19.5301	1.03e-07	0.000317	GTGCGTGCGTGAGTGTGCGCGC
KTGYGTGTSTGYGTVTNWGYBH	MEME-2	chr1	201987684	201987705	-	19.506	1.05e-07	0.000323	GTGAGTGTGAGTGTGTGTGACT
KTGYGTGTSTGYGTVTNWGYBH	MEME-2	chrX	70296166	70296187	-	19.3614	1.21e-07	0.00037	CTGTGTGTGTGTGTGTATTTTG
KTGYGTGTSTGYGTVTNWGYBH	MEME-2	chr3	63898605	63898626	+	19.3494	1.23e-07	0.000372	GTGCGTGCGTGAGTGTGCGTCA
KTGYGTGTSTGYGTVTNWGYBH	MEME-2	chr19	36426779	36426800	+	19.2892	1.3e-07	0.000389	gtatgtgtgtgtctgtgtgtgC
KTGYGTGTSTGYGTVTNWGYBH	MEME-2	chr5	66511007	66511028	+	19.2892	1.3e-07	0.000389	CTGCGTGTGTGCGCACATGTCC
KTGYGTGTSTGYGTVTNWGYBH	MEME-2	chr5	81046642	81046663	+	19.253	1.35e-07	0.000398	GTGCGTGAGTGTGCGCGCGTGT
KTGYGTGTSTGYGTVTNWGYBH	MEME-2	chr1	524033	524054	-	19.241	1.36e-07	0.000398	GGGTGTGTCTGTCTGTGTGCGT
KTGYGTGTSTGYGTVTNWGYBH	MEME-2	chr12	131707160	131707181	+	19.241	1.36e-07	0.000398	gtatgtgagtgtgtgtgtgtAT
KTGYGTGTSTGYGTVTNWGYBH	MEME-2	chr6	171042843	171042864	+	19.241	1.36e-07	0.000398	gggtgtgtctgtctgtgtgcgt
KTGYGTGTSTGYGTVTNWGYBH	MEME-2	chr18	20681781	20681802	+	19.2289	1.38e-07	0.0004	GTGTGTGTCTGTCTATCTGAGG
KTGYGTGTSTGYGTVTNWGYBH	MEME-2	chr10	120766460	120766481	+	19.1205	1.53e-07	0.000441	gtgcgtgtgtatgcatgtgcgt
KTGYGTGTSTGYGTVTNWGYBH	MEME-2	chr17	46126225	46126246	+	19.1084	1.55e-07	0.000444	gtgtgtgtgtgcgcacgttcgt
KTGYGTGTSTGYGTVTNWGYBH	MEME-2	chr1	188458281	188458302	+	19.0964	1.57e-07	0.000446	gtgtgtgtgtgtgtgtTCTTTT
KTGYGTGTSTGYGTVTNWGYBH	MEME-2	chr2	226199170	226199191	-	19.0723	1.6e-07	0.000451	GTATGTGTGAGTGTGTGTGCTT
KTGYGTGTSTGYGTVTNWGYBH	MEME-2	chr3	63898609	63898630	+	19.0723	1.6e-07	0.000451	GTGCGTGAGTGTGCGTCACACT
KTGYGTGTSTGYGTVTNWGYBH	MEME-2	chr17	46126217	46126238	+	19	1.72e-07	0.000481	gtgtgagtgtgtgtgtgtgcgc
KTGYGTGTSTGYGTVTNWGYBH	MEME-2	chr14	81901824	81901845	-	18.988	1.73e-07	0.000483	GTGCGTGTGTGTGCATTCGTGC
KTGYGTGTSTGYGTVTNWGYBH	MEME-2	chr10	114875262	114875283	+	18.9277	1.84e-07	0.000508	GTGCGTGTGTCTCTGCTTGCCT
KTGYGTGTSTGYGTVTNWGYBH	MEME-2	chr12	131707022	131707043	+	18.8554	1.96e-07	0.000541	gtgagtgtgtgagtgcatgtga
KTGYGTGTSTGYGTVTNWGYBH	MEME-2	chr8	100941778	100941799	-	18.7711	2.12e-07	0.000578	GTGTGTGGGTGTATGTGTTTGG
KTGYGTGTSTGYGTVTNWGYBH	MEME-2	chr12	131707128	131707149	+	18.7711	2.12e-07	0.000578	gtgtgtgcgtgtgcatgagcat
KTGYGTGTSTGYGTVTNWGYBH	MEME-2	chr9	134622775	134622796	-	18.6386	2.4e-07	0.000649	GTGTGTGTGTGCGTGCGCTTGC
KTGYGTGTSTGYGTVTNWGYBH	MEME-2	chr1	65992876	65992897	-	18.6145	2.45e-07	0.000659	GTGTGTGCGTGTGTCCATTCCT
KTGYGTGTSTGYGTVTNWGYBH	MEME-2	chr19	36426771	36426792	+	18.4699	2.79e-07	0.000747	gtgagtgtgtatgtgtgtgtct
KTGYGTGTSTGYGTVTNWGYBH	MEME-2	chr19	36426769	36426790	+	18.4337	2.88e-07	0.000767	gtgtgagtgtgtatgtgtgtgt
KTGYGTGTSTGYGTVTNWGYBH	MEME-2	chr1	44870632	44870653	+	18.4217	2.91e-07	0.000771	GTGCCtgtatgtgtgtgagtgt
KTGYGTGTSTGYGTVTNWGYBH	MEME-2	chr17	38707991	38708012	-	18.3976	2.98e-07	0.000784	CTGTGTGCGTGAGCGTGTGGCC
KTGYGTGTSTGYGTVTNWGYBH	MEME-2	chr12	53624481	53624502	+	18.3012	3.24e-07	0.000849	gtgtgtgtgtatgtctgtCTAT
KTGYGTGTSTGYGTVTNWGYBH	MEME-2	chr6	171042851	171042872	+	18.2892	3.28e-07	0.000853	ctgtctgtgtgcgtgCCTCAGT
KTGYGTGTSTGYGTVTNWGYBH	MEME-2	chr21	46823323	46823344	-	18.2771	3.31e-07	0.000858	GTGTGTGCATGTGTGTCAGCCT
KTGYGTGTSTGYGTVTNWGYBH	MEME-2	chr17	4681650	4681671	-	18.241	3.42e-07	0.000876	GTGTGTGTGTGTTTGCTTTTTG
KTGYGTGTSTGYGTVTNWGYBH	MEME-2	chr5	172882113	172882134	-	18.241	3.42e-07	0.000876	GTCCGTGACTGCGTATGAGTCA
KTGYGTGTSTGYGTVTNWGYBH	MEME-2	chr12	83079674	83079695	+	18.2169	3.49e-07	0.00089	GTGTGTGTGTCTTTCTTTCCCT
KTGYGTGTSTGYGTVTNWGYBH	MEME-2	chr6	34522666	34522687	-	18.1928	3.56e-07	0.000904	GTGCGTGTGTGTGCATGTTGGG
KTGYGTGTSTGYGTVTNWGYBH	MEME-2	chr15	86422120	86422141	-	18.0964	3.88e-07	0.000978	CTGTGTGGCTTCTTGTCTGATT
KTGYGTGTSTGYGTVTNWGYBH	MEME-2	chr11	131566545	131566566	-	18.0843	3.92e-07	0.000983	GTGTGTGTGTGTGCATGCGTGG
KTGYGTGTSTGYGTVTNWGYBH	MEME-2	chr20	49377969	49377990	-	18.0723	3.96e-07	0.000988	GTGTGTGGGTGTGTATTTTTAA
KTGYGTGTSTGYGTVTNWGYBH	MEME-2	chr1	44870638	44870659	+	18.0361	4.08e-07	0.00101	gtatgtgtgtgagtgtgagaga
KTGYGTGTSTGYGTVTNWGYBH	MEME-2	chr12	107637885	107637906	+	18.0361	4.08e-07	0.00101	gtgtgtgtgtgcatgcacgtgc
KTGYGTGTSTGYGTVTNWGYBH	MEME-2	chr6	26257367	26257388	+	18.0241	4.13e-07	0.00101	atccgtgtgtgcgtgtgtgcgt
KTGYGTGTSTGYGTVTNWGYBH	MEME-2	chr17	46126213	46126234	+	18.0241	4.13e-07	0.00101	GGGAgtgtgagtgtgtgtgtgt
KTGYGTGTSTGYGTVTNWGYBH	MEME-2	chr1	169042732	169042753	-	17.9398	4.43e-07	0.00108	ATGTGTGTGTGTGTGTGCGTGT
KTGYGTGTSTGYGTVTNWGYBH	MEME-2	chr14	81901818	81901839	-	17.9157	4.53e-07	0.0011	GTGTGTGCATTCGTGCGTGTGT
KTGYGTGTSTGYGTVTNWGYBH	MEME-2	chr18	23671100	23671121	-	17.9036	4.57e-07	0.0011	CTTTGTGCGTGCGTGCGAGACT
KTGYGTGTSTGYGTVTNWGYBH	MEME-2	chr12	49275858	49275879	-	17.8193	4.91e-07	0.00118	TTGTGTGTGTGTTTCCTTTTCA
KTGYGTGTSTGYGTVTNWGYBH	MEME-2	chr12	107637877	107637898	+	17.759	5.17e-07	0.00123	atgtgtgcgtgtgtgtgtgcat
KTGYGTGTSTGYGTVTNWGYBH	MEME-2	chr19	36426781	36426802	+	17.7108	5.38e-07	0.00128	atgtgtgtgtctgtgtgtgCGC
KTGYGTGTSTGYGTVTNWGYBH	MEME-2	chr1	201987686	201987707	-	17.6867	5.49e-07	0.0013	TTGTGAGTGTGAGTGTGTGTGA
KTGYGTGTSTGYGTVTNWGYBH	MEME-2	chr13	114304708	114304729	+	17.6506	5.66e-07	0.00133	TTGCGTTTGTGTGCGTGTGTGC
KTGYGTGTSTGYGTVTNWGYBH	MEME-2	chr5	173249135	173249156	+	17.6265	5.77e-07	0.00135	gtatgtgtgtgggggtgtgggt
KTGYGTGTSTGYGTVTNWGYBH	MEME-2	chr17	46126223	46126244	+	17.5181	6.31e-07	0.00147	gtgtgtgtgtgtgcgcacgttc
KTGYGTGTSTGYGTVTNWGYBH	MEME-2	chr6	24879565	24879586	-	17.494	6.44e-07	0.00149	GTGTGTGCGTGCTTGTTTTATG
KTGYGTGTSTGYGTVTNWGYBH	MEME-2	chr14	102948075	102948096	+	17.3976	6.97e-07	0.00161	ttgtctgtgtgactctttgttt
KTGYGTGTSTGYGTVTNWGYBH	MEME-2	chr11	66794966	66794987	+	17.3855	7.04e-07	0.00161	GTGCGTGTGTGTACATTAGCAT
KTGYGTGTSTGYGTVTNWGYBH	MEME-2	chr7	155711469	155711490	+	17.3614	7.18e-07	0.00164	tggtgtgtgtttgtgtgtgcat
KTGYGTGTSTGYGTVTNWGYBH	MEME-2	chr10	114875252	114875273	+	17.253	7.83e-07	0.00178	GTGAATGTGTGTGCGTGTGTCT
KTGYGTGTSTGYGTVTNWGYBH	MEME-2	chr12	131707164	131707185	+	17.2289	7.98e-07	0.0018	gtgagtgtgtgtgtgtATCCTG
KTGYGTGTSTGYGTVTNWGYBH	MEME-2	chr2	220433555	220433576	+	17.2289	7.98e-07	0.0018	GTGCGTGTGTGTATGCAACTCG
KTGYGTGTSTGYGTVTNWGYBH	MEME-2	chr14	74223074	74223095	-	17.2048	8.14e-07	0.00182	CTGTGTGTGTGCAGGCGTGCAT
KTGYGTGTSTGYGTVTNWGYBH	MEME-2	chrX	70296170	70296191	-	17.1928	8.22e-07	0.00183	GTATCTGTGTGTGTGTGTGTAT
KTGYGTGTSTGYGTVTNWGYBH	MEME-2	chr1	17738376	17738397	-	17.0482	9.22e-07	0.00204	CTGCGTGGGTGCAGGTCTGGGG
KTGYGTGTSTGYGTVTNWGYBH	MEME-2	chr17	38707953	38707974	-	17.0482	9.22e-07	0.00204	GTGCGTGTGTGTCCCCGAGGGG
KTGYGTGTSTGYGTVTNWGYBH	MEME-2	chr16	85548388	85548409	+	16.9639	9.85e-07	0.00217	ggatgtgtgtgcatgtgtgtgt
KTGYGTGTSTGYGTVTNWGYBH	MEME-2	chr7	155711534	155711555	+	16.9398	1e-06	0.0022	gtgtgtgtgtgtgtagcactgg
KTGYGTGTSTGYGTVTNWGYBH	MEME-2	chr11	131566539	131566560	-	16.9036	1.03e-06	0.00224	GTGTGTGCATGCGTGGGTGTGC
KTGYGTGTSTGYGTVTNWGYBH	MEME-2	chr16	85548312	85548333	+	16.9036	1.03e-06	0.00224	gtgcatgtgagcgtgcatgcat
KTGYGTGTSTGYGTVTNWGYBH	MEME-2	chr7	155711439	155711460	+	16.8675	1.06e-06	0.0023	gtgtgtgtgtttctgcatgcat
KTGYGTGTSTGYGTVTNWGYBH	MEME-2	chr17	78734265	78734286	+	16.8554	1.07e-06	0.00231	GTGCGTGTCTGCCGGTCTGCAG
KTGYGTGTSTGYGTVTNWGYBH	MEME-2	chr9	102195870	102195891	-	16.7952	1.12e-06	0.00241	CTGCGTGACAGGGCCTCTGTGG
KTGYGTGTSTGYGTVTNWGYBH	MEME-2	chr16	85548324	85548345	+	16.7831	1.13e-06	0.00242	gtgcatgcatgtttgtgtgtgt
KTGYGTGTSTGYGTVTNWGYBH	MEME-2	chr7	70253152	70253173	+	16.7711	1.14e-06	0.00243	GTGTATGTATGTGTGTGTGTAT
KTGYGTGTSTGYGTVTNWGYBH	MEME-2	chr1	224393045	224393066	+	16.6506	1.26e-06	0.00265	CTGCCTGTGAGGATGTGTGAGT
KTGYGTGTSTGYGTVTNWGYBH	MEME-2	chr18	20681779	20681800	+	16.6265	1.28e-06	0.00268	GGGTGTGTGTCTGTCTATCTGA
KTGYGTGTSTGYGTVTNWGYBH	MEME-2	chr2	71347468	71347489	-	16.6265	1.28e-06	0.00268	TTGTGTGTCTTTGCCTCTCACT
KTGYGTGTSTGYGTVTNWGYBH	MEME-2	chr1	8889308	8889329	+	16.494	1.41e-06	0.00295	GTCTGTATCTGTGTGTTTGTGA
KTGYGTGTSTGYGTVTNWGYBH	MEME-2	chr21	46172652	46172673	+	16.3614	1.56e-06	0.00324	atgtgtgtgagtgtACCTGTCT
KTGYGTGTSTGYGTVTNWGYBH	MEME-2	chr10	29311214	29311235	-	16.3373	1.59e-06	0.00329	GTGCGTGTGTGTGTGGCACGCG
KTGYGTGTSTGYGTVTNWGYBH	MEME-2	chr11	131566535	131566556	-	16.3253	1.6e-06	0.0033	GTGCATGCGTGGGTGTGCCTGT
KTGYGTGTSTGYGTVTNWGYBH	MEME-2	chr1	524025	524046	-	16.2892	1.65e-06	0.00336	CTGTCTGTGTGCGTGCCTCAAT
KTGYGTGTSTGYGTVTNWGYBH	MEME-2	chr21	46172654	46172675	+	16.2892	1.65e-06	0.00336	gtgtgtgagtgtACCTGTCTAA
KTGYGTGTSTGYGTVTNWGYBH	MEME-2	chr12	52596871	52596892	+	16.2651	1.68e-06	0.00341	gtgcgtgtgtgtgtgagtgtgt
KTGYGTGTSTGYGTVTNWGYBH	MEME-2	chr7	130858358	130858379	-	16.1928	1.77e-06	0.00358	TTCTCTGTGTGTGTGTTTTTGT
KTGYGTGTSTGYGTVTNWGYBH	MEME-2	chr17	46126219	46126240	+	16.1687	1.8e-06	0.00363	gtgagtgtgtgtgtgtgcgcac
KTGYGTGTSTGYGTVTNWGYBH	MEME-2	chr14	81901814	81901835	-	16.0964	1.9e-06	0.00381	GTGCATTCGTGCGTGTGTGTGC
KTGYGTGTSTGYGTVTNWGYBH	MEME-2	chr7	70253158	70253179	+	16.0843	1.92e-06	0.00383	GTATGTGTGTGTGTATATCCTA
KTGYGTGTSTGYGTVTNWGYBH	MEME-2	chr11	14663390	14663411	-	15.988	2.05e-06	0.00409	TTTTGTGAGTTTTTGTCTGGGC
KTGYGTGTSTGYGTVTNWGYBH	MEME-2	chr21	46823315	46823336	-	15.9759	2.07e-06	0.00411	ATGTGTGTCAGCCTGTGTGCGT
KTGYGTGTSTGYGTVTNWGYBH	MEME-2	chr15	60188909	60188930	+	15.8434	2.28e-06	0.0045	GTGCGTGCCAGGCTGGGTGTTT
KTGYGTGTSTGYGTVTNWGYBH	MEME-2	chr16	85548336	85548357	+	15.8193	2.32e-06	0.00456	ttgtgtgtgtgtgCAGTTGTAC
KTGYGTGTSTGYGTVTNWGYBH	MEME-2	chr1	169042760	169042781	-	15.7952	2.36e-06	0.00462	ATTCGTGCCTGTGTGCTTGTGT
KTGYGTGTSTGYGTVTNWGYBH	MEME-2	chr8	102504743	102504764	-	15.7831	2.38e-06	0.00464	GTGTGTGAGAGCGCCCGAGATG
KTGYGTGTSTGYGTVTNWGYBH	MEME-2	chr12	53624487	53624508	+	15.7711	2.4e-06	0.00466	gtgtatgtctgtCTATATGGGA
KTGYGTGTSTGYGTVTNWGYBH	MEME-2	chr8	128831701	128831722	+	15.7349	2.46e-06	0.00476	GTGCGTGTCTCTTTCTTTTGCA
KTGYGTGTSTGYGTVTNWGYBH	MEME-2	chr11	121348890	121348911	+	15.7229	2.48e-06	0.00477	ctgtgtgcgtgtgggtacctgt
KTGYGTGTSTGYGTVTNWGYBH	MEME-2	chr3	197391647	197391668	+	15.7229	2.48e-06	0.00477	tggagtgtgtgcgtgcgtccgt
KTGYGTGTSTGYGTVTNWGYBH	MEME-2	chr17	76501453	76501474	+	15.7108	2.5e-06	0.00479	GTGCGTGGCTTGGGCTTTCCGT
KTGYGTGTSTGYGTVTNWGYBH	MEME-2	chr12	53624473	53624494	+	15.6506	2.61e-06	0.00498	gtgtgtgtgtgtgtgtgtatgt
KTGYGTGTSTGYGTVTNWGYBH	MEME-2	chr12	52596765	52596786	-	15.6145	2.68e-06	0.00507	GGGCATGAGTGGGTGTGTCTGC
KTGYGTGTSTGYGTVTNWGYBH	MEME-2	chr16	54543271	54543292	-	15.6024	2.7e-06	0.00507	GTGTGTGTGCGTGTGTGTGTGT
KTGYGTGTSTGYGTVTNWGYBH	MEME-2	chr1	85763343	85763364	-	15.6024	2.7e-06	0.00507	GTGTGTGTGCGTGTGTGTGTGT
KTGYGTGTSTGYGTVTNWGYBH	MEME-2	chr7	155711512	155711533	+	15.6024	2.7e-06	0.00507	gtgtgtgtgcgtgtgtgtgtgt
KTGYGTGTSTGYGTVTNWGYBH	MEME-2	chr6	17101615	17101636	+	15.5301	2.84e-06	0.00529	GTTCGTGCGACCGTCTTTCTGA
KTGYGTGTSTGYGTVTNWGYBH	MEME-2	chr1	85763345	85763366	-	15.5301	2.84e-06	0.00529	GAGTGTGTGTGCGTGTGTGTGT
KTGYGTGTSTGYGTVTNWGYBH	MEME-2	chr7	55008474	55008495	-	15.506	2.89e-06	0.00536	CTGCGTGACTTTCTCTCTCTCC
KTGYGTGTSTGYGTVTNWGYBH	MEME-2	chr9	84202362	84202383	-	15.4578	2.99e-06	0.00552	TTTTGTGTGTTTGTCTTTTATT
KTGYGTGTSTGYGTVTNWGYBH	MEME-2	chr12	131707016	131707037	+	15.3976	3.12e-06	0.00573	CTGAAtgtgagtgtgtgagtgc
KTGYGTGTSTGYGTVTNWGYBH	MEME-2	chr12	53624443	53624464	+	15.3614	3.19e-06	0.00581	gcgtgtgtgtgtgtgtgtgtgt
KTGYGTGTSTGYGTVTNWGYBH	MEME-2	chr16	54543263	54543284	-	15.3614	3.19e-06	0.00581	GCGTGTGTGTGTGTGTGTGTGT
KTGYGTGTSTGYGTVTNWGYBH	MEME-2	chr7	155711520	155711541	+	15.3614	3.19e-06	0.00581	gcgtgtgtgtgtgtgtgtgtgt
KTGYGTGTSTGYGTVTNWGYBH	MEME-2	chr6	139866639	139866660	+	15.3253	3.28e-06	0.00591	GTGTCTGTATCTGTGCCTGTGT
KTGYGTGTSTGYGTVTNWGYBH	MEME-2	chr5	173249133	173249154	+	15.3253	3.28e-06	0.00591	gtgtatgtgtgtgggggtgtgg
KTGYGTGTSTGYGTVTNWGYBH	MEME-2	chr16	54543267	54543288	-	15.2771	3.38e-06	0.00606	GTGTGCGTGTGTGTGTGTGTGT
KTGYGTGTSTGYGTVTNWGYBH	MEME-2	chr7	155711516	155711537	+	15.2771	3.38e-06	0.00606	gtgtgcgtgtgtgtgtgtgtgt
KTGYGTGTSTGYGTVTNWGYBH	MEME-2	chr19	24065251	24065272	-	15.1928	3.58e-06	0.0064	CTGTGTACCTGTGTCTGAGTAC
KTGYGTGTSTGYGTVTNWGYBH	MEME-2	chr1	85763349	85763370	-	15.1807	3.61e-06	0.00643	CTGAGAGTGTGTGTGCGTGTGT
KTGYGTGTSTGYGTVTNWGYBH	MEME-2	chr10	120766452	120766473	+	15.0964	3.83e-06	0.00678	gtgtgtgtgtgcgtgtgtatgc
KTGYGTGTSTGYGTVTNWGYBH	MEME-2	chr9	90959436	90959457	-	15.0843	3.86e-06	0.00681	TTCTCTGTGTGCTTGTGTCTTC
KTGYGTGTSTGYGTVTNWGYBH	MEME-2	chr20	15843112	15843133	-	15.0602	3.92e-06	0.00689	GTGTGTAAGAATGTGTGTGTGT
KTGYGTGTSTGYGTVTNWGYBH	MEME-2	chr20	15843090	15843111	-	15.0482	3.95e-06	0.0069	GTGTGTGCGTGTGTGTACTCTG
KTGYGTGTSTGYGTVTNWGYBH	MEME-2	chr7	150700572	150700593	+	15.0482	3.95e-06	0.0069	ctgcgtgactcagtatttcact
KTGYGTGTSTGYGTVTNWGYBH	MEME-2	chr1	182057270	182057291	+	14.9398	4.25e-06	0.00739	TTGCGTGTGTCCTGACTTGCCA
KTGYGTGTSTGYGTVTNWGYBH	MEME-2	chr11	131566531	131566552	-	14.9277	4.28e-06	0.00742	ATGCGTGGGTGTGCCTGTTTGA
KTGYGTGTSTGYGTVTNWGYBH	MEME-2	chr12	52596855	52596876	+	14.8675	4.46e-06	0.00764	ctctgtgtgtgaacatgtgcgt
KTGYGTGTSTGYGTVTNWGYBH	MEME-2	chr7	140677495	140677516	+	14.8675	4.46e-06	0.00764	GTGCGTGCATATGTGTGTGTAC
KTGYGTGTSTGYGTVTNWGYBH	MEME-2	chr2	192731359	192731380	+	14.8675	4.46e-06	0.00764	GTGCGTGCATATGTGTGTGTAC
KTGYGTGTSTGYGTVTNWGYBH	MEME-2	chr12	131707092	131707113	+	14.8434	4.53e-06	0.00774	gtgagtatgtgtgcatgagtgt
KTGYGTGTSTGYGTVTNWGYBH	MEME-2	chr1	44870676	44870697	+	14.8313	4.57e-06	0.00777	gtgtgtgcgcgcgtgtgtgtgt
KTGYGTGTSTGYGTVTNWGYBH	MEME-2	chr22	31976001	31976022	-	14.8072	4.64e-06	0.00782	CTCCCTGAGTGTTTCTCTGCTT
KTGYGTGTSTGYGTVTNWGYBH	MEME-2	chr12	52596799	52596820	+	14.8072	4.64e-06	0.00782	gtgtgtgtctctagatgtcctt
KTGYGTGTSTGYGTVTNWGYBH	MEME-2	chr5	123935159	123935180	-	14.8072	4.64e-06	0.00782	GGGCCTGCGTGCCTCTGTGGGC
KTGYGTGTSTGYGTVTNWGYBH	MEME-2	chr10	32250263	32250284	-	14.7952	4.68e-06	0.00785	TTTTATGTGTGTGTGTGTTTTG
KTGYGTGTSTGYGTVTNWGYBH	MEME-2	chr1	201987766	201987787	-	14.7711	4.75e-06	0.00795	GTCCATGCGAGTGTGTGAGAGC
KTGYGTGTSTGYGTVTNWGYBH	MEME-2	chr1	153517694	153517715	-	14.759	4.79e-06	0.00796	GTATGTGCCTGTGGGTATCTGC
KTGYGTGTSTGYGTVTNWGYBH	MEME-2	chr6	171042859	171042880	+	14.759	4.79e-06	0.00796	gtgcgtgCCTCAGTCTTTTCTG
KTGYGTGTSTGYGTVTNWGYBH	MEME-2	chr16	85548402	85548423	+	14.7229	4.9e-06	0.00812	gtgtgtgtatgaatgcatgcct
KTGYGTGTSTGYGTVTNWGYBH	MEME-2	chr2	105812971	105812992	-	14.7108	4.94e-06	0.00813	TTGTCTGGGAGACTGTGTGGGT
KTGYGTGTSTGYGTVTNWGYBH	MEME-2	chr2	226199166	226199187	-	14.7108	4.94e-06	0.00813	GTGTGAGTGTGTGTGCTTTTTA
KTGYGTGTSTGYGTVTNWGYBH	MEME-2	chr3	107646218	107646239	+	14.6867	5.02e-06	0.0082	GTGCGTGCGAACATGTAAGTTA
KTGYGTGTSTGYGTVTNWGYBH	MEME-2	chr12	117580710	117580731	+	14.6867	5.02e-06	0.0082	GTGCGTGCGTGTAGGGGAGGGA
KTGYGTGTSTGYGTVTNWGYBH	MEME-2	chr6	139866623	139866644	+	14.6627	5.1e-06	0.0083	AGTTGTGTGTGCGTGTGTGTCT
KTGYGTGTSTGYGTVTNWGYBH	MEME-2	chr13	114304718	114304739	+	14.6386	5.18e-06	0.00835	GTGCGTGTGTGCACACACGCGC
KTGYGTGTSTGYGTVTNWGYBH	MEME-2	chr10	120766466	120766487	+	14.6386	5.18e-06	0.00835	gtgtatgcatgtgcgtgtgtTC
KTGYGTGTSTGYGTVTNWGYBH	MEME-2	chr9	134622777	134622798	-	14.6386	5.18e-06	0.00835	ATGTGTGTGTGTGCGTGCGCTT
KTGYGTGTSTGYGTVTNWGYBH	MEME-2	chr5	173249119	173249140	+	14.6145	5.26e-06	0.00845	gtgtgtgtgtgggtgtgtatgt
KTGYGTGTSTGYGTVTNWGYBH	MEME-2	chr6	24879571	24879592	-	14.5904	5.34e-06	0.00853	CTTTGTGTGTGTGCGTGCTTGT
KTGYGTGTSTGYGTVTNWGYBH	MEME-2	chr4	96338762	96338783	+	14.5904	5.34e-06	0.00853	CTGCGTGTATGCTTCTGACATC
KTGYGTGTSTGYGTVTNWGYBH	MEME-2	chr14	95739698	95739719	+	14.5181	5.6e-06	0.0089	TTCCGTGCCTGAGTGTCTCCAC
KTGYGTGTSTGYGTVTNWGYBH	MEME-2	chr5	173249121	173249142	+	14.506	5.64e-06	0.00894	gtgtgtgtgggtgtgtatgtgt
KTGYGTGTSTGYGTVTNWGYBH	MEME-2	chr13	93978371	93978392	-	14.4819	5.73e-06	0.00905	GTGTGTGTGCGTGTGCGTGTGT
KTGYGTGTSTGYGTVTNWGYBH	MEME-2	chr9	134180214	134180235	-	14.4699	5.78e-06	0.00909	CTCTGTGTGTGACTCTTTGAGG
KTGYGTGTSTGYGTVTNWGYBH	MEME-2	chr5	173249115	173249136	+	14.4217	5.96e-06	0.00935	AGgtgtgtgtgtgtgggtgtgt
KTGYGTGTSTGYGTVTNWGYBH	MEME-2	chr7	155711403	155711424	+	14.4096	6e-06	0.00939	atgtgtgcatgtgtgtttgagt
KTGYGTGTSTGYGTVTNWGYBH	MEME-2	chr11	121348922	121348943	+	14.3373	6.29e-06	0.00977	ttgtgtgcatgtgggtaactgt
KTGYGTGTSTGYGTVTNWGYBH	MEME-2	chr12	122933864	122933885	-	14.3373	6.29e-06	0.00977	GTGCGTGCCATCATGCTAGGCT
KTGYGTGTSTGYGTVTNWGYBH	MEME-2	chr7	70253162	70253183	+	14.3133	6.38e-06	0.00982	GTGTGTGTGTATATCCTAGTAA
KTGYGTGTSTGYGTVTNWGYBH	MEME-2	chr10	114875250	114875271	+	14.3133	6.38e-06	0.00982	TTGTGAATGTGTGTGCGTGTGT
KTGYGTGTSTGYGTVTNWGYBH	MEME-2	chr22	37908207	37908228	-	14.3133	6.38e-06	0.00982	CCGTGTGTGTGTGTGTGTGTGT
KTGYGTGTSTGYGTVTNWGYBH	MEME-2	chr10	74091208	74091229	+	14.253	6.63e-06	0.0101	TGGCATGGCTGTGTGCCTGCTC
KTGYGTGTSTGYGTVTNWGYBH	MEME-2	chr14	102948079	102948100	+	14.253	6.63e-06	0.0101	ctgtgtgactctttgttttccc
KTGYGTGTSTGYGTVTNWGYBH	MEME-2	chr12	116940709	116940730	+	14.241	6.68e-06	0.0102	TTGACTGTGTGCTTCTAAGTTA
KTGYGTGTSTGYGTVTNWGYBH	MEME-2	chr10	32250261	32250282	-	14.241	6.68e-06	0.0102	TTATGTGTGTGTGTGTTTTGAA
KTGYGTGTSTGYGTVTNWGYBH	MEME-2	chr11	121348882	121348903	+	14.2289	6.73e-06	0.0102	gtgagtacctgtgtgcgtgtgg
KTGYGTGTSTGYGTVTNWGYBH	MEME-2	chr11	121348936	121348957	+	14.2169	6.78e-06	0.0102	gtaactgtgtgtgtgcttgtgt
KTGYGTGTSTGYGTVTNWGYBH	MEME-2	chr15	63752602	63752623	+	14.2048	6.83e-06	0.0103	ctgcctgcctgcctgcctcatt
KTGYGTGTSTGYGTVTNWGYBH	MEME-2	chr14	81901802	81901823	-	14.1928	6.89e-06	0.0103	GTGTGTGTGCGCGTCCGTGTGT
KTGYGTGTSTGYGTVTNWGYBH	MEME-2	chr11	68147570	68147591	+	14.1807	6.94e-06	0.0104	ttttGTGTGAGAGTGGCAGTCT
KTGYGTGTSTGYGTVTNWGYBH	MEME-2	chr11	121348998	121349019	+	14.1807	6.94e-06	0.0104	gtgagtacctttgtgtgtgtgc
KTGYGTGTSTGYGTVTNWGYBH	MEME-2	chr20	47377619	47377640	+	14.1687	6.99e-06	0.0104	ttatgtgtgtttatatcagtct
KTGYGTGTSTGYGTVTNWGYBH	MEME-2	chr10	29413842	29413863	-	14.1446	7.1e-06	0.0105	TTACGTGCCTGTGGCCCTGGGA
KTGYGTGTSTGYGTVTNWGYBH	MEME-2	chr12	131707156	131707177	+	14.0723	7.42e-06	0.011	tttagtatgtgagtgtgtgtgt
KTGYGTGTSTGYGTVTNWGYBH	MEME-2	chr12	52596857	52596878	+	14.0602	7.48e-06	0.011	ctgtgtgtgaacatgtgcgtgt
KTGYGTGTSTGYGTVTNWGYBH	MEME-2	chr12	131707098	131707119	+	13.9759	7.88e-06	0.0116	atgtgtgcatgagtgtgtgcgt
KTGYGTGTSTGYGTVTNWGYBH	MEME-2	chr5	16815543	16815564	-	13.9277	8.12e-06	0.0119	GTGCGTGTGTTGTTATTATTAA
KTGYGTGTSTGYGTVTNWGYBH	MEME-2	chr8	100941780	100941801	-	13.9277	8.12e-06	0.0119	GTGTGTGTGGGTGTATGTGTTT
KTGYGTGTSTGYGTVTNWGYBH	MEME-2	chr18	74766539	74766560	-	13.8916	8.3e-06	0.0121	ATGTGTGCGTGCATGCAAGTCC
KTGYGTGTSTGYGTVTNWGYBH	MEME-2	chr19	36426873	36426894	+	13.8675	8.42e-06	0.0122	ctctgtgtctcgctgtctctgt
KTGYGTGTSTGYGTVTNWGYBH	MEME-2	chr1	44870674	44870695	+	13.8675	8.42e-06	0.0122	gtgtgtgtgcgcgcgtgtgtgt
KTGYGTGTSTGYGTVTNWGYBH	MEME-2	chr1	94045310	94045331	+	13.8675	8.42e-06	0.0122	TTGCGTGACTACCTGTGAGCAC
KTGYGTGTSTGYGTVTNWGYBH	MEME-2	chr4	2331745	2331766	-	13.8554	8.49e-06	0.0122	TTGCGTGACTTACTCTGTTATT
KTGYGTGTSTGYGTVTNWGYBH	MEME-2	chr9	22084518	22084539	-	13.8434	8.55e-06	0.0122	TTGCCTGAGTTGTCGTCTGGGT
KTGYGTGTSTGYGTVTNWGYBH	MEME-2	chr14	81901810	81901831	-	13.8434	8.55e-06	0.0122	ATTCGTGCGTGTGTGTGCGCGT
KTGYGTGTSTGYGTVTNWGYBH	MEME-2	chr21	46823303	46823324	-	13.759	9e-06	0.0128	CTGTGTGCGTGTGAGTGTGTGT
KTGYGTGTSTGYGTVTNWGYBH	MEME-2	chr21	46823311	46823332	-	13.759	9e-06	0.0128	GTGTCAGCCTGTGTGCGTGTGA
KTGYGTGTSTGYGTVTNWGYBH	MEME-2	chr16	85548300	85548321	+	13.7229	9.2e-06	0.013	ttgcctatgagtgtgcatgtga
KTGYGTGTSTGYGTVTNWGYBH	MEME-2	chr2	121154702	121154723	-	13.7229	9.2e-06	0.013	TTGCGTGGCATCTGGTGAGACT
KTGYGTGTSTGYGTVTNWGYBH	MEME-2	chr6	139866641	139866662	+	13.6747	9.47e-06	0.0133	GTCTGTATCTGTGCCTGTGTAT
KTGYGTGTSTGYGTVTNWGYBH	MEME-2	chr8	119890525	119890546	+	13.6627	9.54e-06	0.0134	GTGTGTAGCTCAGTATCAGTTT
KTGYGTGTSTGYGTVTNWGYBH	MEME-2	chr2	226199168	226199189	-	13.6627	9.54e-06	0.0134	ATGTGTGAGTGTGTGTGCTTTT
KTGYGTGTSTGYGTVTNWGYBH	MEME-2	chr19	35135808	35135829	-	13.6506	9.61e-06	0.0134	TTGTCTGAATGTTTGCCTGTGC
KTGYGTGTSTGYGTVTNWGYBH	MEME-2	chrX	129169306	129169327	+	13.6386	9.68e-06	0.0135	GTGCGTGCCTGGATAGCTGCCG
KTGYGTGTSTGYGTVTNWGYBH	MEME-2	chr3	107569168	107569189	+	13.6145	9.82e-06	0.0136	TTGCGAGTCTGTATATGTGCAT
KTGYGTGTSTGYGTVTNWGYBH	MEME-2	chr1	169042748	169042769	-	13.6024	9.89e-06	0.0137	GTGCTTGTGTGTGTGCATGTGT
KTGYGTGTSTGYGTVTNWGYBH	MEME-2	chr12	131707064	131707085	+	13.5904	9.97e-06	0.0137	gtgtgagtgtgtgtgcgttctg
KTGYGTGTSTGYGTVTNWGYBH	MEME-2	chr10	33587524	33587545	-	13.5904	9.97e-06	0.0137	CGGTGTGCCTGGTGGTATGCGT
KTGYGTGTSTGYGTVTNWGYBH	MEME-2	chr19	35135735	35135756	-	13.5783	1e-05	0.0138	GTGTGTTTCTCCCTGTGTCTGT
KTGYGTGTSTGYGTVTNWGYBH	MEME-2	chr11	129723680	129723701	+	13.5542	1.02e-05	0.0139	ATGTGTGTGTGGTTGTGTTCAT
KTGYGTGTSTGYGTVTNWGYBH	MEME-2	chr17	46126215	46126236	+	13.5422	1.03e-05	0.014	GAgtgtgagtgtgtgtgtgtgc
KTGYGTGTSTGYGTVTNWGYBH	MEME-2	chrX	106916224	106916245	+	13.5301	1.03e-05	0.0141	gcgtgtgtgtgtgtgtgtgtgg
KTGYGTGTSTGYGTVTNWGYBH	MEME-2	chr6	171042829	171042850	+	13.5181	1.04e-05	0.0141	atctgtgtgtgggtgggtgtgt
KTGYGTGTSTGYGTVTNWGYBH	MEME-2	chr1	524047	524068	-	13.5181	1.04e-05	0.0141	ATCTGTGTGTGGGTGGGTGTGT
KTGYGTGTSTGYGTVTNWGYBH	MEME-2	chr13	114304687	114304708	+	13.506	1.05e-05	0.0141	GTGTGTGCCGGTGTCTGTGTGT
KTGYGTGTSTGYGTVTNWGYBH	MEME-2	chr20	52522734	52522755	+	13.4699	1.07e-05	0.0144	GTGCATGCGTGTTTACAATTCT
KTGYGTGTSTGYGTVTNWGYBH	MEME-2	chr2	161022102	161022123	+	13.4699	1.07e-05	0.0144	CTCTGTGTCTGTGGGCTTCCTC
KTGYGTGTSTGYGTVTNWGYBH	MEME-2	chrX	13687314	13687335	+	13.4458	1.09e-05	0.0145	TGGCGTGTGACTTCATGTGCGT
KTGYGTGTSTGYGTVTNWGYBH	MEME-2	chr5	138089708	138089729	+	13.4458	1.09e-05	0.0145	GCGTGTGTGTGCGTGCGAGTGT
KTGYGTGTSTGYGTVTNWGYBH	MEME-2	chr11	121348904	121348925	+	13.4337	1.09e-05	0.0145	gtacctgtgtgtgtgtgcttgt
KTGYGTGTSTGYGTVTNWGYBH	MEME-2	chr9	128058965	128058986	-	13.4337	1.09e-05	0.0145	TTGTGTGTCTGGGCAGCAGACA
KTGYGTGTSTGYGTVTNWGYBH	MEME-2	chr12	52596731	52596752	+	13.4217	1.1e-05	0.0146	GTGAATGTGTGTGGACATGTGA
KTGYGTGTSTGYGTVTNWGYBH	MEME-2	chr21	40693174	40693195	+	13.4096	1.11e-05	0.0147	ctgcatggctgagtccctcccc
KTGYGTGTSTGYGTVTNWGYBH	MEME-2	chr9	84027883	84027904	-	13.3976	1.12e-05	0.0147	GTGCATGTATATGTGTGTGAGC
KTGYGTGTSTGYGTVTNWGYBH	MEME-2	chr2	39348289	39348310	-	13.3494	1.15e-05	0.0151	TTTCGTGACAGAGCACCTGTCT
KTGYGTGTSTGYGTVTNWGYBH	MEME-2	chr6	138409314	138409335	-	13.3494	1.15e-05	0.0151	GTGTGAGCATGCGTGTGTGTAT
KTGYGTGTSTGYGTVTNWGYBH	MEME-2	chr12	131707112	131707133	+	13.3253	1.17e-05	0.0152	gtgtgcgtgtgcatgtgtgtgt
KTGYGTGTSTGYGTVTNWGYBH	MEME-2	chr19	44019988	44020009	+	13.2771	1.2e-05	0.0156	ctgagtgggatggtgtgagatt
KTGYGTGTSTGYGTVTNWGYBH	MEME-2	chr6	139866625	139866646	+	13.2169	1.24e-05	0.0161	TTGTGTGTGCGTGTGTGTCTGT
KTGYGTGTSTGYGTVTNWGYBH	MEME-2	chr19	36426787	36426808	+	13.2048	1.25e-05	0.0162	gtgtctgtgtgtgCGCGCGCAC
KTGYGTGTSTGYGTVTNWGYBH	MEME-2	chr14	56648378	56648399	+	13.1807	1.27e-05	0.0164	TGTAAtgtgtgtgtgtgtgtgt
KTGYGTGTSTGYGTVTNWGYBH	MEME-2	chr14	95351093	95351114	-	13.1807	1.27e-05	0.0164	TGTTGTGTGTCCGTCTCAGGTA
KTGYGTGTSTGYGTVTNWGYBH	MEME-2	chr19	36426767	36426788	+	13.1566	1.29e-05	0.0165	GCgtgtgagtgtgtatgtgtgt
KTGYGTGTSTGYGTVTNWGYBH	MEME-2	chr20	47314170	47314191	-	13.1566	1.29e-05	0.0165	CTGTGTTTGTCCTTGCCTGGGT
KTGYGTGTSTGYGTVTNWGYBH	MEME-2	chr6	171042837	171042858	+	13.0723	1.35e-05	0.0172	gtgggtgggtgtgtctgtctgt
KTGYGTGTSTGYGTVTNWGYBH	MEME-2	chr1	524039	524060	-	13.0723	1.35e-05	0.0172	GTGGGTGGGTGTGTCTGTCTGT
KTGYGTGTSTGYGTVTNWGYBH	MEME-2	chr6	171042841	171042862	+	13.0241	1.39e-05	0.0176	gtgggtgtgtctgtctgtgtgc
KTGYGTGTSTGYGTVTNWGYBH	MEME-2	chr1	524035	524056	-	13.0241	1.39e-05	0.0176	GTGGGTGTGTCTGTCTGTGTGC
KTGYGTGTSTGYGTVTNWGYBH	MEME-2	chr15	70384079	70384100	-	13.012	1.4e-05	0.0177	GTTCGTGTGATTACATCTGCCT
KTGYGTGTSTGYGTVTNWGYBH	MEME-2	chr20	57431015	57431036	+	12.988	1.42e-05	0.0179	CTGTATGTCTTTCTCTCTTTTT
KTGYGTGTSTGYGTVTNWGYBH	MEME-2	chr20	47314174	47314195	-	12.9398	1.46e-05	0.0184	CTGACTGTGTTTGTCCTTGCCT
KTGYGTGTSTGYGTVTNWGYBH	MEME-2	chr7	1959350	1959371	+	12.9157	1.48e-05	0.0186	ttgcctgtcattgcgtgagcca
KTGYGTGTSTGYGTVTNWGYBH	MEME-2	chr8	100941790	100941811	-	12.9036	1.49e-05	0.0186	TTTTATAAGTGTGTGTGTGGGT
KTGYGTGTSTGYGTVTNWGYBH	MEME-2	chr11	121348944	121348965	+	12.8675	1.52e-05	0.019	gtgtgtgcttgtgtgcgtgtga
KTGYGTGTSTGYGTVTNWGYBH	MEME-2	chr19	36426765	36426786	+	12.8434	1.54e-05	0.0192	GAGCgtgtgagtgtgtatgtgt
KTGYGTGTSTGYGTVTNWGYBH	MEME-2	chr3	193587972	193587993	+	12.8193	1.56e-05	0.0194	ctgagtgagtgtatgcaaggca
KTGYGTGTSTGYGTVTNWGYBH	MEME-2	chr13	114488160	114488181	-	12.7952	1.58e-05	0.0196	GTGCCTGCGTGCAGGGCAGTGA
KTGYGTGTSTGYGTVTNWGYBH	MEME-2	chr13	26596615	26596636	-	12.7831	1.59e-05	0.0197	TTGTGTGTGACACTCTGACCTC
KTGYGTGTSTGYGTVTNWGYBH	MEME-2	chr6	34522672	34522693	-	12.7711	1.61e-05	0.0198	GTGTGTGTGCGTGTGTGTGCAT
KTGYGTGTSTGYGTVTNWGYBH	MEME-2	chr7	140677499	140677520	+	12.7108	1.66e-05	0.0204	GTGCATATGTGTGTGTACCTGT
KTGYGTGTSTGYGTVTNWGYBH	MEME-2	chr12	52596725	52596746	+	12.6988	1.67e-05	0.0205	CTGCATGTGAATGTGTGTGGAC
KTGYGTGTSTGYGTVTNWGYBH	MEME-2	chr17	4681654	4681675	-	12.6867	1.68e-05	0.0206	TCGTGTGTGTGTGTGTTTGCTT
KTGYGTGTSTGYGTVTNWGYBH	MEME-2	chr12	54753187	54753208	-	12.6627	1.71e-05	0.0208	GTGTGAGTCACTGTCTGTCTCT
KTGYGTGTSTGYGTVTNWGYBH	MEME-2	chr17	42164344	42164365	-	12.6506	1.72e-05	0.0209	GTCTGTGTATGCATGCGTCGGT
KTGYGTGTSTGYGTVTNWGYBH	MEME-2	chr1	524017	524038	-	12.6386	1.73e-05	0.021	GTGCGTGCCTCAATCTTTTCTG
KTGYGTGTSTGYGTVTNWGYBH	MEME-2	chr2	105760153	105760174	-	12.6145	1.75e-05	0.0212	AGGTGTGTGTGTGCGTGCGTGT
KTGYGTGTSTGYGTVTNWGYBH	MEME-2	chr1	150254199	150254220	-	12.6145	1.75e-05	0.0212	GTGTGTGACACGGTATATTCTC
KTGYGTGTSTGYGTVTNWGYBH	MEME-2	chr7	155711530	155711551	+	12.6024	1.76e-05	0.0212	gtgtgtgtgtgtgtgtgtagca
KTGYGTGTSTGYGTVTNWGYBH	MEME-2	chr3	197391571	197391592	+	12.6024	1.76e-05	0.0212	gtgcgtgcatctgtgttcctgc
KTGYGTGTSTGYGTVTNWGYBH	MEME-2	chr16	84340646	84340667	+	12.5783	1.79e-05	0.0214	TTGAGTGTCACCTTGCGTGACA
KTGYGTGTSTGYGTVTNWGYBH	MEME-2	chr11	121348908	121348929	+	12.5783	1.79e-05	0.0214	ctgtgtgtgtgtgcttgtgtgc
KTGYGTGTSTGYGTVTNWGYBH	MEME-2	chr8	100941905	100941926	+	12.5542	1.81e-05	0.0216	CTGTATGACAATGTGTTTGTTC
KTGYGTGTSTGYGTVTNWGYBH	MEME-2	chr20	19028325	19028346	+	12.5422	1.82e-05	0.0217	ctgcctgccagagtgggagtgc
KTGYGTGTSTGYGTVTNWGYBH	MEME-2	chr13	20368447	20368468	-	12.5422	1.82e-05	0.0217	TTCCCTGGGTCTTTCTCTGTCA
KTGYGTGTSTGYGTVTNWGYBH	MEME-2	chr6	150944271	150944292	+	12.5181	1.85e-05	0.0219	TTTTGTGAGAGCTTGGCTGTTG
KTGYGTGTSTGYGTVTNWGYBH	MEME-2	chr8	59143609	59143630	-	12.494	1.87e-05	0.022	ATGAATGCGTGCGTGTTTGAGT
KTGYGTGTSTGYGTVTNWGYBH	MEME-2	chr1	188458255	188458276	+	12.494	1.87e-05	0.022	gcgcatgtgtgtgtgtgtgtgt
KTGYGTGTSTGYGTVTNWGYBH	MEME-2	chr1	224393059	224393080	+	12.494	1.87e-05	0.022	GTGTGAGTGTGGATGTCAGGTG
KTGYGTGTSTGYGTVTNWGYBH	MEME-2	chr2	106778290	106778311	-	12.4578	1.91e-05	0.0224	TTTCCTGACTCAGTGTGTGATA
KTGYGTGTSTGYGTVTNWGYBH	MEME-2	chr2	192731347	192731368	+	12.4578	1.91e-05	0.0224	TGGTGTTTGTGTGTGCGTGCAT
KTGYGTGTSTGYGTVTNWGYBH	MEME-2	chr1	201987649	201987670	-	12.4458	1.92e-05	0.0225	GTGTGTATGAATGTGTGTGGTG
KTGYGTGTSTGYGTVTNWGYBH	MEME-2	chr2	105760149	105760170	-	12.4096	1.96e-05	0.0228	GTGTGTGTGCGTGCGTGTGTTC
KTGYGTGTSTGYGTVTNWGYBH	MEME-2	chrX	104413257	104413278	-	12.3855	1.99e-05	0.0231	GTGTCTATGAGGGTGTGTCTGG
KTGYGTGTSTGYGTVTNWGYBH	MEME-2	chr16	87840434	87840455	-	12.3735	2e-05	0.0231	GTGCGTGTCAGAGCAGCTCAGA
KTGYGTGTSTGYGTVTNWGYBH	MEME-2	chr2	182885075	182885096	+	12.3735	2e-05	0.0231	CTTTCTGGCTGTTTATGAGTCA
KTGYGTGTSTGYGTVTNWGYBH	MEME-2	chr21	38446195	38446216	+	12.3614	2.02e-05	0.0232	TGCTGTGTGTGCGTGTCACGAC
KTGYGTGTSTGYGTVTNWGYBH	MEME-2	chr16	54963757	54963778	+	12.3494	2.03e-05	0.0233	GGGTGTAGCTGATTCTCTGTCT
KTGYGTGTSTGYGTVTNWGYBH	MEME-2	chr6	17012514	17012535	+	12.3373	2.04e-05	0.0234	ttgcgtgacttttccgttgtca
KTGYGTGTSTGYGTVTNWGYBH	MEME-2	chr3	188665183	188665204	+	12.3133	2.07e-05	0.0237	GTGCGTGACAGAGGGCTTTTAA
KTGYGTGTSTGYGTVTNWGYBH	MEME-2	chr11	121348868	121348889	+	12.3012	2.08e-05	0.0237	gtgcttgtgtgcgtgtgagtac
KTGYGTGTSTGYGTVTNWGYBH	MEME-2	chr11	121348948	121348969	+	12.3012	2.08e-05	0.0237	gtgcttgtgtgcgtgtgagtac
KTGYGTGTSTGYGTVTNWGYBH	MEME-2	chr19	39684531	39684552	+	12.2892	2.1e-05	0.0238	GTGCGTGTGTTGTGAGCTCTGC
KTGYGTGTSTGYGTVTNWGYBH	MEME-2	chr1	17577142	17577163	+	12.2771	2.11e-05	0.0239	CTGCGTGCCATGGGGTGACTCA
KTGYGTGTSTGYGTVTNWGYBH	MEME-2	chr1	224393057	224393078	+	12.2771	2.11e-05	0.0239	ATGTGTGAGTGTGGATGTCAGG
KTGYGTGTSTGYGTVTNWGYBH	MEME-2	chr7	130858364	130858385	-	12.2651	2.12e-05	0.024	CTATGTTTCTCTGTGTGTGTGT
KTGYGTGTSTGYGTVTNWGYBH	MEME-2	chr10	29872659	29872680	+	12.253	2.14e-05	0.0241	GTTTATGCGTGGGTGTAACATC
KTGYGTGTSTGYGTVTNWGYBH	MEME-2	chr9	102195808	102195829	-	12.241	2.15e-05	0.0242	CTCCGTGAGTCATCCTGTGAGC
KTGYGTGTSTGYGTVTNWGYBH	MEME-2	chr14	75919879	75919900	+	12.2289	2.17e-05	0.0242	GGGCCTGGCTGGCTGTGTGAGG
KTGYGTGTSTGYGTVTNWGYBH	MEME-2	chr1	201987674	201987695	-	12.2289	2.17e-05	0.0242	GTGTGTGTGACTTTGGTTCCCA
KTGYGTGTSTGYGTVTNWGYBH	MEME-2	chr21	46823301	46823322	-	12.1928	2.21e-05	0.0246	GTGTGCGTGTGAGTGTGTGTCA
KTGYGTGTSTGYGTVTNWGYBH	MEME-2	chrX	135285023	135285044	+	12.1928	2.21e-05	0.0246	CTGCGTGCATGAGGGTTTGAAA
KTGYGTGTSTGYGTVTNWGYBH	MEME-2	chr18	45659602	45659623	-	12.1446	2.27e-05	0.0252	GTGTGTGTGTGCTTGTTAATTT
KTGYGTGTSTGYGTVTNWGYBH	MEME-2	chr1	42255325	42255346	-	12.1325	2.28e-05	0.0252	TTACGTGTGATCCTGTCTGATG
KTGYGTGTSTGYGTVTNWGYBH	MEME-2	chr5	81046630	81046651	+	12.1325	2.28e-05	0.0252	GTGTGCGAGTGCGTGCGTGAGT
KTGYGTGTSTGYGTVTNWGYBH	MEME-2	chr21	46890826	46890847	+	12.1084	2.31e-05	0.0255	CTGTGTTGGTTGATCTCTGTGT
KTGYGTGTSTGYGTVTNWGYBH	MEME-2	chr16	77469472	77469493	-	12.0964	2.33e-05	0.0256	TTCTGTGGGTTTGGGTATCTGG
KTGYGTGTSTGYGTVTNWGYBH	MEME-2	chr3	53810604	53810625	+	12.0843	2.34e-05	0.0257	TGGCGTGTGTGGGTGGATTTTG
KTGYGTGTSTGYGTVTNWGYBH	MEME-2	chrX	39473658	39473679	-	12.0602	2.37e-05	0.026	GTGCGTGCCAAAATGTGTTGGT
KTGYGTGTSTGYGTVTNWGYBH	MEME-2	chr13	83932471	83932492	+	12.0361	2.4e-05	0.0263	TTATGTGCGTGTTGCTCAGCTG
KTGYGTGTSTGYGTVTNWGYBH	MEME-2	chr4	3113168	3113189	+	12.012	2.43e-05	0.0265	ttttctgtgtgcatctcacgtc
KTGYGTGTSTGYGTVTNWGYBH	MEME-2	chr3	42538451	42538472	-	11.988	2.47e-05	0.0268	GTTCCTGTGTGTAGCTGACCTT
KTGYGTGTSTGYGTVTNWGYBH	MEME-2	chr19	2524756	2524777	-	11.9639	2.5e-05	0.0271	GGGCATGGCTGCTCCTGAGTCA
KTGYGTGTSTGYGTVTNWGYBH	MEME-2	chr2	237654308	237654329	+	11.9518	2.51e-05	0.0272	TTGCATGCCAGCTCCTTTGCTG
KTGYGTGTSTGYGTVTNWGYBH	MEME-2	chr14	36852972	36852993	-	11.9277	2.55e-05	0.0275	TTCTGTGGCTTTTTCTTTCGCT
KTGYGTGTSTGYGTVTNWGYBH	MEME-2	chr9	74398080	74398101	+	11.9277	2.55e-05	0.0275	GTTTGTGCCAGCATGTCATATA
KTGYGTGTSTGYGTVTNWGYBH	MEME-2	chr16	54543257	54543278	-	11.9157	2.56e-05	0.0275	GTGTGTGTGTGTGTGTAAACCT
KTGYGTGTSTGYGTVTNWGYBH	MEME-2	chr7	155711473	155711494	+	11.9157	2.56e-05	0.0275	gtgtgtttgtgtgtgcattgtg
KTGYGTGTSTGYGTVTNWGYBH	MEME-2	chr17	42164336	42164357	-	11.8916	2.6e-05	0.0278	ATGCATGCGTCGGTCCCTGTGC
KTGYGTGTSTGYGTVTNWGYBH	MEME-2	chr15	40390914	40390935	-	11.8675	2.63e-05	0.028	CTCTGTGGCTGGCTCTGTTTAT
KTGYGTGTSTGYGTVTNWGYBH	MEME-2	chrX	70296172	70296193	-	11.8675	2.63e-05	0.028	GTGTATCTGTGTGTGTGTGTGT
KTGYGTGTSTGYGTVTNWGYBH	MEME-2	chr16	54543259	54543280	-	11.8313	2.68e-05	0.0285	GTGTGTGTGTGTGTGTGTAAAC
KTGYGTGTSTGYGTVTNWGYBH	MEME-2	chr20	19028317	19028338	+	11.8193	2.7e-05	0.0286	tgctgtgactgcctgccagagt
KTGYGTGTSTGYGTVTNWGYBH	MEME-2	chr4	159076856	159076877	-	11.8072	2.71e-05	0.0287	GTGTGTTTGTTTTTCTGATTCT
KTGYGTGTSTGYGTVTNWGYBH	MEME-2	chr16	1695918	1695939	+	11.7952	2.73e-05	0.0289	ttttgtgtgagcgtggttttcg
KTGYGTGTSTGYGTVTNWGYBH	MEME-2	chr11	121348892	121348913	+	11.7831	2.75e-05	0.0289	gtgtgcgtgtgggtacctgtgt
KTGYGTGTSTGYGTVTNWGYBH	MEME-2	chr12	131707066	131707087	+	11.7831	2.75e-05	0.0289	gtgagtgtgtgtgcgttctgta
KTGYGTGTSTGYGTVTNWGYBH	MEME-2	chr17	42164366	42164387	-	11.7711	2.77e-05	0.029	TGGCCTGCCTCTCTGCTTGTGT
KTGYGTGTSTGYGTVTNWGYBH	MEME-2	chr20	15843114	15843135	-	11.759	2.78e-05	0.0292	ATGTGTGTAAGAATGTGTGTGT
KTGYGTGTSTGYGTVTNWGYBH	MEME-2	chr7	1959400	1959421	+	11.7349	2.82e-05	0.0295	gtgcgtgcgtgcgtgtgcatgt
KTGYGTGTSTGYGTVTNWGYBH	MEME-2	chr20	15843110	15843131	-	11.7108	2.85e-05	0.0298	GTGTAAGAATGTGTGTGTGTGT
KTGYGTGTSTGYGTVTNWGYBH	MEME-2	chr6	139866647	139866668	+	11.6988	2.87e-05	0.0299	ATCTGTGCCTGTGTATgagaca
KTGYGTGTSTGYGTVTNWGYBH	MEME-2	chr5	77995229	77995250	-	11.6747	2.91e-05	0.0301	TTGCGTGCCTTCTGGGTACTGT
KTGYGTGTSTGYGTVTNWGYBH	MEME-2	chr10	120766454	120766475	+	11.6747	2.91e-05	0.0301	gtgtgtgtgcgtgtgtatgcat
KTGYGTGTSTGYGTVTNWGYBH	MEME-2	chr13	93978367	93978388	-	11.6145	3e-05	0.031	GTGTGCGTGTGCGTGTGTGTAG
KTGYGTGTSTGYGTVTNWGYBH	MEME-2	chr2	71347364	71347385	-	11.6024	3.02e-05	0.031	TTGTGTTTGTGCTCCTAACTGC
KTGYGTGTSTGYGTVTNWGYBH	MEME-2	chr1	169042742	169042763	-	11.6024	3.02e-05	0.031	GTGTGTGTGCATGTGTGTGTGT
KTGYGTGTSTGYGTVTNWGYBH	MEME-2	chr6	170589148	170589169	-	11.6024	3.02e-05	0.031	TTGAGTGGGATCTTCCATCTGT
KTGYGTGTSTGYGTVTNWGYBH	MEME-2	chr7	1959392	1959413	+	11.5904	3.04e-05	0.0312	cCGTgtgcgtgcgtgcgtgcgt
KTGYGTGTSTGYGTVTNWGYBH	MEME-2	chr16	85548304	85548325	+	11.5783	3.06e-05	0.0312	ctatgagtgtgcatgtgagcgt
KTGYGTGTSTGYGTVTNWGYBH	MEME-2	chrX	129243699	129243720	+	11.5783	3.06e-05	0.0312	GCGCGTGTGTGCGTGTGACCCT
KTGYGTGTSTGYGTVTNWGYBH	MEME-2	chr11	121348894	121348915	+	11.5663	3.08e-05	0.0312	gtgcgtgtgggtacctgtgtgt
KTGYGTGTSTGYGTVTNWGYBH	MEME-2	chrX	129243689	129243710	+	11.5663	3.08e-05	0.0312	AGGTCTGCGTGCGCGTGTGTGC
KTGYGTGTSTGYGTVTNWGYBH	MEME-2	chr12	131707126	131707147	+	11.5663	3.08e-05	0.0312	gtgtgtgtgcgtgtgcatgagc
KTGYGTGTSTGYGTVTNWGYBH	MEME-2	chr11	131566561	131566582	-	11.5422	3.12e-05	0.0315	CCTTGTGTGTGTGTGTGTGTGT
KTGYGTGTSTGYGTVTNWGYBH	MEME-2	chr1	85763351	85763372	-	11.5301	3.14e-05	0.0316	CTCTGAGAGTGTGTGTGCGTGT
KTGYGTGTSTGYGTVTNWGYBH	MEME-2	chr6	150944174	150944195	-	11.5301	3.14e-05	0.0316	CTTTCTGGCTGCACCTGTGTGG
KTGYGTGTSTGYGTVTNWGYBH	MEME-2	chr12	116309681	116309702	-	11.5181	3.15e-05	0.0317	CTGTGTGCGTGTCTGCCCCAAA
KTGYGTGTSTGYGTVTNWGYBH	MEME-2	chr11	123015781	123015802	+	11.506	3.17e-05	0.0319	TTTCGTGCCAACCTCTGTGACT
KTGYGTGTSTGYGTVTNWGYBH	MEME-2	chr2	1235299	1235320	-	11.494	3.19e-05	0.0319	CTTTGTGAGTAAATGTTTGAGA
KTGYGTGTSTGYGTVTNWGYBH	MEME-2	chr3	107569176	107569197	+	11.494	3.19e-05	0.0319	CTGTATATGTGCATGTCTGAAA
KTGYGTGTSTGYGTVTNWGYBH	MEME-2	chr17	38707961	38707982	-	11.4699	3.23e-05	0.0322	ATGCCAGTGTGCGTGTGTGTCC
KTGYGTGTSTGYGTVTNWGYBH	MEME-2	chr11	121348874	121348895	+	11.4699	3.23e-05	0.0322	gtgtgcgtgtgagtacctgtgt
KTGYGTGTSTGYGTVTNWGYBH	MEME-2	chr3	64142604	64142625	+	11.4458	3.27e-05	0.0325	GTGCCTGCCACAGTATATCTTC
KTGYGTGTSTGYGTVTNWGYBH	MEME-2	chrX	30922347	30922368	+	11.3855	3.38e-05	0.0334	GGTTGTGCATGCGCATGTGTGC
KTGYGTGTSTGYGTVTNWGYBH	MEME-2	chrX	40033288	40033309	+	11.3855	3.38e-05	0.0334	GTGCGTGCCAAGCTGCCAGCCC
KTGYGTGTSTGYGTVTNWGYBH	MEME-2	chr2	226199180	226199201	-	11.3614	3.42e-05	0.0338	GTGTGGGTCTGTATGTGTGAGT
KTGYGTGTSTGYGTVTNWGYBH	MEME-2	chr1	524045	524066	-	11.3494	3.44e-05	0.0338	CTGTGTGTGGGTGGGTGTGTCT
KTGYGTGTSTGYGTVTNWGYBH	MEME-2	chr6	171042831	171042852	+	11.3494	3.44e-05	0.0338	ctgtgtgtgggtgggtgtgtct
KTGYGTGTSTGYGTVTNWGYBH	MEME-2	chr20	57431013	57431034	+	11.3373	3.46e-05	0.0339	TTCTGTATGTCTTTCTCTCTTT
KTGYGTGTSTGYGTVTNWGYBH	MEME-2	chr11	131566549	131566570	-	11.3373	3.46e-05	0.0339	GTGTGTGTGTGTGTGTGCATGC
KTGYGTGTSTGYGTVTNWGYBH	MEME-2	chr12	131707114	131707135	+	11.3253	3.48e-05	0.034	gtgcgtgtgcatgtgtgtgtgc
KTGYGTGTSTGYGTVTNWGYBH	MEME-2	chr5	173249125	173249146	+	11.3253	3.48e-05	0.034	gtgtgggtgtgtatgtgtgtgg
KTGYGTGTSTGYGTVTNWGYBH	MEME-2	chr11	71136487	71136508	-	11.3133	3.5e-05	0.0341	TTTCGTGTCTGTAGATGATATC
KTGYGTGTSTGYGTVTNWGYBH	MEME-2	chr21	16571750	16571771	-	11.2892	3.55e-05	0.0345	GTCTGTGAATGCCTCTAAGTCA
KTGYGTGTSTGYGTVTNWGYBH	MEME-2	chr12	118768147	118768168	+	11.2771	3.57e-05	0.0346	GTGTAAGTGTATGTGCGTGTCT
KTGYGTGTSTGYGTVTNWGYBH	MEME-2	chr12	52596743	52596764	+	11.2651	3.59e-05	0.0347	GGACATGTGAGCATGTGAGTGT
KTGYGTGTSTGYGTVTNWGYBH	MEME-2	chr13	107173415	107173436	-	11.241	3.63e-05	0.0351	GTGTGTTTGAATTTCTGTGCTT
KTGYGTGTSTGYGTVTNWGYBH	MEME-2	chr1	94535219	94535240	-	11.2289	3.66e-05	0.0352	CTCTGTGGGTGAACGTTTCAGA
KTGYGTGTSTGYGTVTNWGYBH	MEME-2	chr1	188458253	188458274	+	11.2289	3.66e-05	0.0352	gtgcgcatgtgtgtgtgtgtgt
KTGYGTGTSTGYGTVTNWGYBH	MEME-2	chr14	55800363	55800384	+	11.2048	3.7e-05	0.0355	CTTAGTGTCTGTATATTTTAGT
KTGYGTGTSTGYGTVTNWGYBH	MEME-2	chr1	188458257	188458278	+	11.1807	3.75e-05	0.0359	gcatgtgtgtgtgtgtgtgtgt
KTGYGTGTSTGYGTVTNWGYBH	MEME-2	chr19	39684517	39684538	+	11.1687	3.77e-05	0.036	GGGAGTGTCTGGTCGTGCGTGT
KTGYGTGTSTGYGTVTNWGYBH	MEME-2	chr12	118768145	118768166	+	11.1687	3.77e-05	0.036	TGGTGTAAGTGTATGTGCGTGT
KTGYGTGTSTGYGTVTNWGYBH	MEME-2	chrX	129243697	129243718	+	11.1566	3.79e-05	0.036	GTGCGCGTGTGTGCGTGTGACC
KTGYGTGTSTGYGTVTNWGYBH	MEME-2	chr2	171095181	171095202	-	11.1566	3.79e-05	0.036	CTGTGTGTGATCTTCTAATGTG
KTGYGTGTSTGYGTVTNWGYBH	MEME-2	chr15	40385066	40385087	-	11.1325	3.84e-05	0.0363	CTGCCTGGATGCCTCTCTTTTT
KTGYGTGTSTGYGTVTNWGYBH	MEME-2	chr4	96338701	96338722	-	11.1325	3.84e-05	0.0363	CTTTGTGCCTGCCCCCGTTCCT
KTGYGTGTSTGYGTVTNWGYBH	MEME-2	chr6	34522670	34522691	-	11.1205	3.86e-05	0.0364	GTGTGTGCGTGTGTGTGCATGT
KTGYGTGTSTGYGTVTNWGYBH	MEME-2	chr7	155711532	155711553	+	11.1205	3.86e-05	0.0364	gtgtgtgtgtgtgtgtagcact
KTGYGTGTSTGYGTVTNWGYBH	MEME-2	chr3	50306231	50306252	+	11.1084	3.88e-05	0.0366	CTGTGAGTGTGTATACAAGAGA
KTGYGTGTSTGYGTVTNWGYBH	MEME-2	chr16	85548426	85548447	+	11.0964	3.91e-05	0.0366	ggatgtgtgtgcacacgtgtCA
KTGYGTGTSTGYGTVTNWGYBH	MEME-2	chr7	130858354	130858375	-	11.0964	3.91e-05	0.0366	CTGTGTGTGTGTTTTTGTTTGT
KTGYGTGTSTGYGTVTNWGYBH	MEME-2	chr17	36442302	36442323	-	11.0843	3.93e-05	0.0366	TTGCGTGTCAGCAGACACGTTA
KTGYGTGTSTGYGTVTNWGYBH	MEME-2	chr17	45579426	45579447	+	11.0843	3.93e-05	0.0366	TTGCGTGTCAGCAGACACGTTA
KTGYGTGTSTGYGTVTNWGYBH	MEME-2	chr3	197391553	197391574	+	11.0843	3.93e-05	0.0366	gagcgtgcctgtgcctgtgtgc
KTGYGTGTSTGYGTVTNWGYBH	MEME-2	chr6	26257375	26257396	+	11.0602	3.98e-05	0.0369	gtgcgtgtgtgcgtgacattcc
KTGYGTGTSTGYGTVTNWGYBH	MEME-2	chr11	121348970	121348991	+	11.0602	3.98e-05	0.0369	ttgtgtggatgtgcatgcttgt
KTGYGTGTSTGYGTVTNWGYBH	MEME-2	chr22	30129557	30129578	-	11.0482	4e-05	0.037	GGCCCTGGCAGTGTGCCAGTGT
KTGYGTGTSTGYGTVTNWGYBH	MEME-2	chr11	121348954	121348975	+	11.0482	4e-05	0.037	gtgtgcgtgtgagtacttgtgt
KTGYGTGTSTGYGTVTNWGYBH	MEME-2	chr1	153517700	153517721	-	11.0482	4e-05	0.037	TGGTATGTATGTGCCTGTGGGT
KTGYGTGTSTGYGTVTNWGYBH	MEME-2	chr6	139866633	139866654	+	11.0361	4.03e-05	0.0371	GCGTGTGTGTCTGTATCTGTGC
KTGYGTGTSTGYGTVTNWGYBH	MEME-2	chr1	169042752	169042773	-	11	4.1e-05	0.0377	CTGTGTGCTTGTGTGTGTGCAT
KTGYGTGTSTGYGTVTNWGYBH	MEME-2	chr20	62762433	62762454	+	10.988	4.12e-05	0.0379	AGTCGTGTGTGTGTGTGAGTAG
KTGYGTGTSTGYGTVTNWGYBH	MEME-2	chr1	201987682	201987703	-	10.9759	4.15e-05	0.038	GAGTGTGAGTGTGTGTGACTTT
KTGYGTGTSTGYGTVTNWGYBH	MEME-2	chr3	13236370	13236391	-	10.9639	4.17e-05	0.0382	GTTTGTGTCTTTTGCCCATTTT
KTGYGTGTSTGYGTVTNWGYBH	MEME-2	chr7	1959408	1959429	+	10.9277	4.25e-05	0.0388	gtgcgtgtgcatgtgcgtgtgt
KTGYGTGTSTGYGTVTNWGYBH	MEME-2	chr11	121348854	121348875	+	10.9157	4.28e-05	0.0389	gtgtgtgcatgtacgtgcttgt
KTGYGTGTSTGYGTVTNWGYBH	MEME-2	chr7	1959420	1959441	+	10.8795	4.35e-05	0.0396	gtgcgtgtgtACACACATTCTA
KTGYGTGTSTGYGTVTNWGYBH	MEME-2	chr6	47665731	47665752	-	10.8675	4.38e-05	0.0396	TTGCATGAGACTCTGCTTGCAT
KTGYGTGTSTGYGTVTNWGYBH	MEME-2	chr7	140677489	140677510	+	10.8675	4.38e-05	0.0396	TTGTGTGTGCGTGCATATGTGT
KTGYGTGTSTGYGTVTNWGYBH	MEME-2	chr2	192731353	192731374	+	10.8675	4.38e-05	0.0396	TTGTGTGTGCGTGCATATGTGT
KTGYGTGTSTGYGTVTNWGYBH	MEME-2	chr14	60718772	60718793	+	10.8554	4.4e-05	0.0397	GTGCGTGCATATTTGTAATTTT
KTGYGTGTSTGYGTVTNWGYBH	MEME-2	chr20	33113760	33113781	+	10.8434	4.43e-05	0.0399	TGTCCTGCGTGGGGGTGTGAGC
KTGYGTGTSTGYGTVTNWGYBH	MEME-2	chr11	121348914	121348935	+	10.8313	4.46e-05	0.0399	gtgtgtgcttgtgtgcatgtgg
KTGYGTGTSTGYGTVTNWGYBH	MEME-2	chr2	192731351	192731372	+	10.8313	4.46e-05	0.0399	GTTTGTGTGTGCGTGCATATGT
KTGYGTGTSTGYGTVTNWGYBH	MEME-2	chr1	201987688	201987709	-	10.8313	4.46e-05	0.0399	CTTTGTGAGTGTGAGTGTGTGT
KTGYGTGTSTGYGTVTNWGYBH	MEME-2	chr12	15368632	15368653	+	10.8193	4.48e-05	0.0399	TTATGTGTATTTGTCTAAGATT
KTGYGTGTSTGYGTVTNWGYBH	MEME-2	chr16	15601133	15601154	+	10.8193	4.48e-05	0.0399	GTCTGTGCCTTCATGctttgct
KTGYGTGTSTGYGTVTNWGYBH	MEME-2	chr21	46823307	46823328	-	10.8193	4.48e-05	0.0399	CAGCCTGTGTGCGTGTGAGTGT
KTGYGTGTSTGYGTVTNWGYBH	MEME-2	chr20	49378013	49378034	-	10.8072	4.51e-05	0.0401	CTGTGTGGGAGACGGCAAGCCC
KTGYGTGTSTGYGTVTNWGYBH	MEME-2	chr19	4706770	4706791	+	10.7952	4.54e-05	0.0402	atgtgtgTGACCCTCTGTGAAA
KTGYGTGTSTGYGTVTNWGYBH	MEME-2	chr4	15342504	15342525	+	10.7952	4.54e-05	0.0402	TTCCCTGAGAATGTCTCTGTTA
KTGYGTGTSTGYGTVTNWGYBH	MEME-2	chr16	54543251	54543272	-	10.7831	4.56e-05	0.0403	GTGTGTGTGTAAACCTTTCATG
KTGYGTGTSTGYGTVTNWGYBH	MEME-2	chr1	169042738	169042759	-	10.7831	4.56e-05	0.0403	GTGTGCATGTGTGTGTGTGTGT
KTGYGTGTSTGYGTVTNWGYBH	MEME-2	chr7	70253160	70253181	+	10.7711	4.59e-05	0.0404	ATGTGTGTGTGTATATCCTAGT
KTGYGTGTSTGYGTVTNWGYBH	MEME-2	chr7	155711407	155711428	+	10.7349	4.67e-05	0.0411	gtgcatgtgtgtttgagtgtgc
KTGYGTGTSTGYGTVTNWGYBH	MEME-2	chr7	475753	475774	-	10.7229	4.7e-05	0.0412	CTTTGTGTGTGCACAGCTGAAT
KTGYGTGTSTGYGTVTNWGYBH	MEME-2	chr3	197391626	197391647	+	10.7229	4.7e-05	0.0412	atgcgtgcgtgttcacacgtgt
KTGYGTGTSTGYGTVTNWGYBH	MEME-2	chr13	25085361	25085382	+	10.6988	4.75e-05	0.0415	GTGTGTGAGTCAGCACACGCTA
KTGYGTGTSTGYGTVTNWGYBH	MEME-2	chr7	130858356	130858377	-	10.6988	4.75e-05	0.0415	CTCTGTGTGTGTGTTTTTGTTT
KTGYGTGTSTGYGTVTNWGYBH	MEME-2	chr1	51794875	51794896	-	10.6867	4.78e-05	0.0416	TTGCGTGTGTGTGGCTCTATCA
KTGYGTGTSTGYGTVTNWGYBH	MEME-2	chr4	158284449	158284470	+	10.6867	4.78e-05	0.0416	TTACGTGAGTCCTGGCATGGGA
KTGYGTGTSTGYGTVTNWGYBH	MEME-2	chr6	34522668	34522689	-	10.6627	4.84e-05	0.0419	GTGTGCGTGTGTGTGCATGTTG
KTGYGTGTSTGYGTVTNWGYBH	MEME-2	chr11	121348976	121348997	+	10.6627	4.84e-05	0.0419	ggatgtgcatgcttgtgtgcgc
KTGYGTGTSTGYGTVTNWGYBH	MEME-2	chrX	104395068	104395089	-	10.6506	4.87e-05	0.0421	TTGCGTGCCAAAGCCTGAGCCG
KTGYGTGTSTGYGTVTNWGYBH	MEME-2	chrX	39473576	39473597	-	10.6386	4.9e-05	0.0423	TTTCCTGGGAGTGTGGGTGGCA
KTGYGTGTSTGYGTVTNWGYBH	MEME-2	chr1	524077	524098	-	10.6265	4.92e-05	0.0424	CTCAGAGTGTGCGTGTCTCTTT
KTGYGTGTSTGYGTVTNWGYBH	MEME-2	chr6	171042799	171042820	+	10.6265	4.92e-05	0.0424	CTCAGAgtgtgcgtgtctcttt
KTGYGTGTSTGYGTVTNWGYBH	MEME-2	chr11	129723676	129723697	+	10.5904	5.01e-05	0.043	ATCTATGTGTGTGTGGTTGTGT
KTGYGTGTSTGYGTVTNWGYBH	MEME-2	chr12	54753181	54753202	-	10.5542	5.1e-05	0.0436	GTCACTGTCTGTCTCTCTTTGT
KTGYGTGTSTGYGTVTNWGYBH	MEME-2	chr14	56648380	56648401	+	10.5542	5.1e-05	0.0436	TAAtgtgtgtgtgtgtgtgtgt
KTGYGTGTSTGYGTVTNWGYBH	MEME-2	chr1	151170254	151170275	+	10.5542	5.1e-05	0.0436	gtgcctaactttgtgcttgagg
KTGYGTGTSTGYGTVTNWGYBH	MEME-2	chr1	224393055	224393076	+	10.5301	5.16e-05	0.044	GGATGTGTGAGTGTGGATGTCA
KTGYGTGTSTGYGTVTNWGYBH	MEME-2	chrX	30922357	30922378	+	10.506	5.22e-05	0.0444	GCGCATGTGTGCGTGTGTGGCT
KTGYGTGTSTGYGTVTNWGYBH	MEME-2	chr16	54543277	54543298	-	10.506	5.22e-05	0.0444	GCACGTGTGTGTGTGCGTGTGT
KTGYGTGTSTGYGTVTNWGYBH	MEME-2	chr17	70657360	70657381	+	10.494	5.25e-05	0.0445	TTGTGTGGCAGGCCCTTACATA
KTGYGTGTSTGYGTVTNWGYBH	MEME-2	chr12	118768155	118768176	+	10.494	5.25e-05	0.0445	GTATGTGCGTGTCTGGCTGCAG
KTGYGTGTSTGYGTVTNWGYBH	MEME-2	chr15	99398007	99398028	+	10.4819	5.28e-05	0.0446	ctgtgtgtctgactccacttca
KTGYGTGTSTGYGTVTNWGYBH	MEME-2	chrX	129243693	129243714	+	10.4699	5.31e-05	0.0448	CTGCGTGCGCGTGTGTGCGTGT
KTGYGTGTSTGYGTVTNWGYBH	MEME-2	chr20	15843104	15843125	-	10.4578	5.34e-05	0.0449	GAATGTGTGTGTGTGTGTGTGC
KTGYGTGTSTGYGTVTNWGYBH	MEME-2	chr12	52596877	52596898	+	10.4578	5.34e-05	0.0449	gtgtgtgtgagtgtgtgGCTGG
KTGYGTGTSTGYGTVTNWGYBH	MEME-2	chr13	26301372	26301393	-	10.4458	5.37e-05	0.045	GGGCATGTGAGAGTGTATCGTG
KTGYGTGTSTGYGTVTNWGYBH	MEME-2	chr20	46927801	46927822	-	10.4458	5.37e-05	0.045	TTGTCTGCGTGAAGGTATTAGC
KTGYGTGTSTGYGTVTNWGYBH	MEME-2	chr17	42164340	42164361	-	10.4217	5.43e-05	0.0455	GTGTATGCATGCGTCGGTCCCT
KTGYGTGTSTGYGTVTNWGYBH	MEME-2	chr2	105760143	105760164	-	10.3976	5.5e-05	0.0459	GTGCGTGCGTGTGTTCCTTCTT
KTGYGTGTSTGYGTVTNWGYBH	MEME-2	chr2	11529564	11529585	-	10.3735	5.56e-05	0.0463	GTCCCTGGCTGCAGGTTTGGAT
KTGYGTGTSTGYGTVTNWGYBH	MEME-2	chr5	123935224	123935245	-	10.3735	5.56e-05	0.0463	TTGTGTGCTTGTGCCTCTGTTC
KTGYGTGTSTGYGTVTNWGYBH	MEME-2	chr3	63898663	63898684	+	10.3614	5.59e-05	0.0465	GTGTGTGTATATCTCCTAGGGA
KTGYGTGTSTGYGTVTNWGYBH	MEME-2	chr22	36000973	36000994	-	10.3494	5.62e-05	0.0466	GTGCGTGCATGGGGAGGTGGCA
KTGYGTGTSTGYGTVTNWGYBH	MEME-2	chr1	169042734	169042755	-	10.3494	5.62e-05	0.0466	GCATGTGTGTGTGTGTGTGCGT
KTGYGTGTSTGYGTVTNWGYBH	MEME-2	chr12	54753220	54753241	-	10.3373	5.66e-05	0.0466	GTGTGTGTGTTTGGAGGCCCTT
KTGYGTGTSTGYGTVTNWGYBH	MEME-2	chr16	59512813	59512834	+	10.3373	5.66e-05	0.0466	TTGCGTGACAAGAGCTGAGCTT
KTGYGTGTSTGYGTVTNWGYBH	MEME-2	chr2	222658918	222658939	+	10.3373	5.66e-05	0.0466	ttgcgtgagtgaaCCTGCCCAA
KTGYGTGTSTGYGTVTNWGYBH	MEME-2	chr12	49275864	49275885	-	10.3012	5.75e-05	0.0472	GTTAGTTTGTGTGTGTGTTTCC
KTGYGTGTSTGYGTVTNWGYBH	MEME-2	chr3	140675928	140675949	+	10.3012	5.75e-05	0.0472	TGGAATGCCTTCGTGTCTGCCT
KTGYGTGTSTGYGTVTNWGYBH	MEME-2	chr7	41188220	41188241	-	10.2771	5.82e-05	0.0477	GTGTGTGCGTGTATCTGAATGA
KTGYGTGTSTGYGTVTNWGYBH	MEME-2	chr6	3849188	3849209	-	10.2651	5.85e-05	0.0478	GTGCGTGCGTGCTGAGCCTTCT
KTGYGTGTSTGYGTVTNWGYBH	MEME-2	chr19	35135743	35135764	-	10.2651	5.85e-05	0.0478	GTTCGTGTGTGTGTTTCTCCCT
KTGYGTGTSTGYGTVTNWGYBH	MEME-2	chr1	85763347	85763368	-	10.253	5.89e-05	0.048	GAGAGTGTGTGTGCGTGTGTGT
KTGYGTGTSTGYGTVTNWGYBH	MEME-2	chr10	120766458	120766479	+	10.2169	5.99e-05	0.0487	gtgtgcgtgtgtatgcatgtgc
KTGYGTGTSTGYGTVTNWGYBH	MEME-2	chr1	169042724	169042745	-	10.2169	5.99e-05	0.0487	GTGTGTGTGCGTGTGTGTTGTA
KTGYGTGTSTGYGTVTNWGYBH	MEME-2	chr2	111526071	111526092	+	10.2048	6.02e-05	0.0488	ctttgtgtctgcgtgtactcag
KTGYGTGTSTGYGTVTNWGYBH	MEME-2	chrX	30922369	30922390	+	10.1928	6.06e-05	0.049	GTGTGTGGCTTGAGCTTTTAGG
KTGYGTGTSTGYGTVTNWGYBH	MEME-2	chr1	201987692	201987713	-	10.1928	6.06e-05	0.049	TTATCTTTGTGAGTGTGAGTGT
KTGYGTGTSTGYGTVTNWGYBH	MEME-2	chr5	138089752	138089773	+	10.1807	6.09e-05	0.0492	TTGCCTGAATGAATGCCTGACC
KTGYGTGTSTGYGTVTNWGYBH	MEME-2	chr16	85548386	85548407	+	10.1446	6.19e-05	0.0499	gtggatgtgtgtgcatgtgtgt
KTGYGTGTSTGYGTVTNWGYBH	MEME-2	chr14	81901699	81901720	-	10.1325	6.23e-05	0.0501	CTGCCTGCCTCCCCGCCTCTCC
KTGYGTGTSTGYGTVTNWGYBH	MEME-2	chr16	87822336	87822357	-	10.1205	6.26e-05	0.0503	TTTCGTGCCTCCTGCCATTTTT
KTGYGTGTSTGYGTVTNWGYBH	MEME-2	chr17	42164346	42164367	-	10.0964	6.33e-05	0.0507	GTGTCTGTGTATGCATGCGTCG
KTGYGTGTSTGYGTVTNWGYBH	MEME-2	chr12	131707172	131707193	+	10.0964	6.33e-05	0.0507	gtgtgtgtATCCTGCCGACTCA
KTGYGTGTSTGYGTVTNWGYBH	MEME-2	chr3	158489566	158489587	-	10.0602	6.44e-05	0.0515	ATCTGTGGGTTTTTCTTTGCTC
KTGYGTGTSTGYGTVTNWGYBH	MEME-2	chr5	138089712	138089733	+	10.0482	6.48e-05	0.0516	GTGTGTGCGTGCGAGTGTGAAG
KTGYGTGTSTGYGTVTNWGYBH	MEME-2	chr7	155711413	155711434	+	10.0482	6.48e-05	0.0516	gtgtgtttgagtgtgcattgtg
KTGYGTGTSTGYGTVTNWGYBH	MEME-2	chr1	8889306	8889327	+	10.012	6.59e-05	0.0521	TGGTCTGTATCTGTGTGTTTGT
KTGYGTGTSTGYGTVTNWGYBH	MEME-2	chr17	42164348	42164369	-	10.012	6.59e-05	0.0521	GTGTGTCTGTGTATGCATGCGT
KTGYGTGTSTGYGTVTNWGYBH	MEME-2	chr10	120766456	120766477	+	10.012	6.59e-05	0.0521	gtgtgtgcgtgtgtatgcatgt
KTGYGTGTSTGYGTVTNWGYBH	MEME-2	chr12	132349524	132349545	-	10.012	6.59e-05	0.0521	GTATGTGCGTGTGTATACCTAG
KTGYGTGTSTGYGTVTNWGYBH	MEME-2	chr16	85548396	85548417	+	9.98795	6.66e-05	0.0526	gtgcatgtgtgtgtatgaatgc
KTGYGTGTSTGYGTVTNWGYBH	MEME-2	chr5	159935760	159935781	-	9.95181	6.77e-05	0.0534	GGGTGTGCCTGCAGACTTCATA
KTGYGTGTSTGYGTVTNWGYBH	MEME-2	chr5	131721116	131721137	+	9.93976	6.81e-05	0.0536	GTGAGTGTGACCTTGTGCCCCA
KTGYGTGTSTGYGTVTNWGYBH	MEME-2	chr21	46823297	46823318	-	9.92771	6.85e-05	0.0538	GCGTGTGAGTGTGTGTCAGGGG
KTGYGTGTSTGYGTVTNWGYBH	MEME-2	chr11	121349012	121349033	+	9.92771	6.85e-05	0.0538	gtgtgtgcttgtgtgcgtgtag
KTGYGTGTSTGYGTVTNWGYBH	MEME-2	chr2	226199182	226199203	-	9.91566	6.89e-05	0.054	GCGTGTGGGTCTGTATGTGTGA
KTGYGTGTSTGYGTVTNWGYBH	MEME-2	chr1	188458251	188458272	+	9.90361	6.93e-05	0.0542	gtgtgcgcatgtgtgtgtgtgt
KTGYGTGTSTGYGTVTNWGYBH	MEME-2	chr16	74642698	74642719	+	9.89157	6.97e-05	0.0543	CTGCATGTGTTCAGACAAGTGG
KTGYGTGTSTGYGTVTNWGYBH	MEME-2	chr16	85548316	85548337	+	9.89157	6.97e-05	0.0543	atgtgagcgtgcatgcatgttt
KTGYGTGTSTGYGTVTNWGYBH	MEME-2	chr11	9587364	9587385	-	9.87952	7e-05	0.0544	TTGTGTGTGACATGATAAGCCG
KTGYGTGTSTGYGTVTNWGYBH	MEME-2	chr20	50359582	50359603	+	9.87952	7e-05	0.0544	TGTTGTGGGTGCTGCTGTTGTT
KTGYGTGTSTGYGTVTNWGYBH	MEME-2	chr1	44870652	44870673	+	9.86747	7.04e-05	0.0547	gtgagagaatgtgtgcgtgcgt
KTGYGTGTSTGYGTVTNWGYBH	MEME-2	chrX	129169254	129169275	+	9.83133	7.16e-05	0.0555	TGACGTGACAGTGTCTCACTGG
KTGYGTGTSTGYGTVTNWGYBH	MEME-2	chr14	81901804	81901825	-	9.80723	7.24e-05	0.0558	GCGTGTGTGTGCGCGTCCGTGT
KTGYGTGTSTGYGTVTNWGYBH	MEME-2	chr11	121349006	121349027	+	9.80723	7.24e-05	0.0558	ctttgtgtgtgtgcttgtgtgc
KTGYGTGTSTGYGTVTNWGYBH	MEME-2	chr2	164205444	164205465	+	9.80723	7.24e-05	0.0558	TTGCATGTGACTTCCCTTTTCT
KTGYGTGTSTGYGTVTNWGYBH	MEME-2	chr11	9124970	9124991	-	9.79518	7.28e-05	0.056	GTGCATGGGAAGCTGCTTGCCT
KTGYGTGTSTGYGTVTNWGYBH	MEME-2	chr19	24065241	24065262	-	9.79518	7.28e-05	0.056	GTGTCTGAGTACTCCTTTCATC
KTGYGTGTSTGYGTVTNWGYBH	MEME-2	chr10	1331773	1331794	-	9.73494	7.48e-05	0.0571	TGCCGTGTATGTGCCTATGTAT
KTGYGTGTSTGYGTVTNWGYBH	MEME-2	chr12	52596819	52596840	+	9.73494	7.48e-05	0.0571	ttgtgggagtgagtgtttgagc
KTGYGTGTSTGYGTVTNWGYBH	MEME-2	chr11	121348942	121348963	+	9.73494	7.48e-05	0.0571	gtgtgtgtgcttgtgtgcgtgt
KTGYGTGTSTGYGTVTNWGYBH	MEME-2	chr11	121349010	121349031	+	9.73494	7.48e-05	0.0571	gtgtgtgtgcttgtgtgcgtgt
KTGYGTGTSTGYGTVTNWGYBH	MEME-2	chr19	36426825	36426846	+	9.72289	7.52e-05	0.0574	gtttctgtctttctctgacttg
KTGYGTGTSTGYGTVTNWGYBH	MEME-2	chr6	170341121	170341142	+	9.6988	7.61e-05	0.0579	TTTCCTGGCTGTTTATTTCTAG
KTGYGTGTSTGYGTVTNWGYBH	MEME-2	chr7	105709260	105709281	+	9.68675	7.65e-05	0.0581	ttctgtgtcagctgggatggtt
KTGYGTGTSTGYGTVTNWGYBH	MEME-2	chr6	129017554	129017575	-	9.6747	7.69e-05	0.0584	GTGCGTGAGTGATTCAATGAGT
KTGYGTGTSTGYGTVTNWGYBH	MEME-2	chr14	81901826	81901847	-	9.61446	7.9e-05	0.0598	GTGTGCGTGTGTGTGCATTCGT
KTGYGTGTSTGYGTVTNWGYBH	MEME-2	chr11	121348900	121348921	+	9.61446	7.9e-05	0.0598	gtgggtacctgtgtgtgtgtgc
KTGYGTGTSTGYGTVTNWGYBH	MEME-2	chrX	106916228	106916249	+	9.59036	7.99e-05	0.0603	gtgtgtgtgtgtgtgtggtgtg
KTGYGTGTSTGYGTVTNWGYBH	MEME-2	chr9	102195824	102195845	-	9.57831	8.03e-05	0.0605	CTGAGTGGCACTTCCTCTCCGT
KTGYGTGTSTGYGTVTNWGYBH	MEME-2	chr1	169042746	169042767	-	9.57831	8.03e-05	0.0605	GCTTGTGTGTGTGCATGTGTGT
KTGYGTGTSTGYGTVTNWGYBH	MEME-2	chr16	85548414	85548435	+	9.55422	8.12e-05	0.0609	atgcatgcctatggatgtgtgt
KTGYGTGTSTGYGTVTNWGYBH	MEME-2	chr12	131707158	131707179	+	9.55422	8.12e-05	0.0609	tagtatgtgagtgtgtgtgtgt
KTGYGTGTSTGYGTVTNWGYBH	MEME-2	chr1	201987678	201987699	-	9.55422	8.12e-05	0.0609	GTGAGTGTGTGTGACTTTGGTT
KTGYGTGTSTGYGTVTNWGYBH	MEME-2	chr3	63898661	63898682	+	9.53012	8.21e-05	0.0614	CTGTGTGTGTATATCTCCTAGG
KTGYGTGTSTGYGTVTNWGYBH	MEME-2	chr6	16766228	16766249	-	9.51807	8.25e-05	0.0615	TTGTGTGAGTGTTTTTCACTTT
KTGYGTGTSTGYGTVTNWGYBH	MEME-2	chr12	83079672	83079693	+	9.51807	8.25e-05	0.0615	GTGTGTGTGTGTCTTTCTTTCC
KTGYGTGTSTGYGTVTNWGYBH	MEME-2	chr6	91521301	91521322	+	9.51807	8.25e-05	0.0615	TTATCTGAGTGTTTATCACCCC
KTGYGTGTSTGYGTVTNWGYBH	MEME-2	chr20	52129985	52130006	+	9.50602	8.3e-05	0.0617	TTCCGTGACTTGCTGTATTCCC
KTGYGTGTSTGYGTVTNWGYBH	MEME-2	chr6	34522660	34522681	-	9.49398	8.34e-05	0.0619	GTGTGTGCATGTTGGGGAGGGG
KTGYGTGTSTGYGTVTNWGYBH	MEME-2	chr17	4681652	4681673	-	9.48193	8.39e-05	0.062	GTGTGTGTGTGTGTTTGCTTTT
KTGYGTGTSTGYGTVTNWGYBH	MEME-2	chr12	52596797	52596818	+	9.48193	8.39e-05	0.062	atgtgtgtgtctctagatgtcc
KTGYGTGTSTGYGTVTNWGYBH	MEME-2	chr9	94914035	94914056	+	9.48193	8.39e-05	0.062	TTGTGAACCTGGGTGTCTGGCA
KTGYGTGTSTGYGTVTNWGYBH	MEME-2	chr12	106695401	106695422	+	9.45783	8.48e-05	0.0625	GGGCCTGGATGGGTGTGACTCC
KTGYGTGTSTGYGTVTNWGYBH	MEME-2	chr13	110651101	110651122	+	9.45783	8.48e-05	0.0625	CTGCCTGACTCATTCCAAGGTA
KTGYGTGTSTGYGTVTNWGYBH	MEME-2	chr11	66794972	66794993	+	9.44578	8.52e-05	0.0627	GTGTGTACATTAGCATGTGTTT
KTGYGTGTSTGYGTVTNWGYBH	MEME-2	chr18	74766543	74766564	-	9.42169	8.62e-05	0.0633	TTAAATGTGTGCGTGCATGCAA
KTGYGTGTSTGYGTVTNWGYBH	MEME-2	chr12	131707058	131707079	+	9.40964	8.66e-05	0.0635	atgggtgtgtgagtgtgtgtgc
KTGYGTGTSTGYGTVTNWGYBH	MEME-2	chr1	44870636	44870657	+	9.39759	8.71e-05	0.0636	Ctgtatgtgtgtgagtgtgaga
KTGYGTGTSTGYGTVTNWGYBH	MEME-2	chr7	140677505	140677526	+	9.39759	8.71e-05	0.0636	ATGTGTGTGTACCTGTCTCAAA
KTGYGTGTSTGYGTVTNWGYBH	MEME-2	chr5	150992648	150992669	+	9.39759	8.71e-05	0.0636	ATGCGTGACATCTTGGCTGCTT
KTGYGTGTSTGYGTVTNWGYBH	MEME-2	chr16	85548392	85548413	+	9.38554	8.76e-05	0.0637	gtgtgtgcatgtgtgtgtatga
KTGYGTGTSTGYGTVTNWGYBH	MEME-2	chr12	131707024	131707045	+	9.38554	8.76e-05	0.0637	gagtgtgtgagtgcatgtgagt
KTGYGTGTSTGYGTVTNWGYBH	MEME-2	chr17	80255809	80255830	+	9.37349	8.8e-05	0.0639	TTGTGTGCGTGCGTGTGGGGAG
KTGYGTGTSTGYGTVTNWGYBH	MEME-2	chr7	140677503	140677524	+	9.37349	8.8e-05	0.0639	ATATGTGTGTGTACCTGTCTCA
KTGYGTGTSTGYGTVTNWGYBH	MEME-2	chr20	15041727	15041748	+	9.3494	8.9e-05	0.0643	gggcctgtctctctctttctaa
KTGYGTGTSTGYGTVTNWGYBH	MEME-2	chr11	27423238	27423259	-	9.3494	8.9e-05	0.0643	TTGCATGCCTTGTTATTTCGTG
KTGYGTGTSTGYGTVTNWGYBH	MEME-2	chr15	75121219	75121240	-	9.3494	8.9e-05	0.0643	TTGAATGAGTGAATGTGATGTT
KTGYGTGTSTGYGTVTNWGYBH	MEME-2	chr4	86014929	86014950	+	9.33735	8.95e-05	0.0644	ATTTGTGCCTGAGGGTTTCATT
KTGYGTGTSTGYGTVTNWGYBH	MEME-2	chr5	10453525	10453546	+	9.3253	8.99e-05	0.0644	CTGCCTGCGTGAGCGGGATAGA
KTGYGTGTSTGYGTVTNWGYBH	MEME-2	chr19	10728453	10728474	+	9.3253	8.99e-05	0.0644	TTTTCTGTGTTTGCGTGATTAA
KTGYGTGTSTGYGTVTNWGYBH	MEME-2	chr12	52596869	52596890	+	9.3253	8.99e-05	0.0644	atgtgcgtgtgtgtgtgagtgt
KTGYGTGTSTGYGTVTNWGYBH	MEME-2	chr8	59143584	59143605	+	9.3253	8.99e-05	0.0644	CTGCCTATCTGTCCCTGACTCT
KTGYGTGTSTGYGTVTNWGYBH	MEME-2	chr5	173249127	173249148	+	9.3253	8.99e-05	0.0644	gtgggtgtgtatgtgtgtgggg
KTGYGTGTSTGYGTVTNWGYBH	MEME-2	chr3	180024301	180024322	-	9.31325	9.04e-05	0.0644	GTTTCTGCCTGCAGGCCTGAAA
KTGYGTGTSTGYGTVTNWGYBH	MEME-2	chr1	524037	524058	-	9.3012	9.09e-05	0.0644	GGGTGGGTGTGTCTGTCTGTGT
KTGYGTGTSTGYGTVTNWGYBH	MEME-2	chr22	21241603	21241624	-	9.3012	9.09e-05	0.0644	TGGTGTGGGTAAGTGGGAGAGA
KTGYGTGTSTGYGTVTNWGYBH	MEME-2	chr3	42942362	42942383	+	9.3012	9.09e-05	0.0644	gttcctgggtgggggccacaat
KTGYGTGTSTGYGTVTNWGYBH	MEME-2	chr3	133705061	133705082	+	9.3012	9.09e-05	0.0644	GTTTGTGTGTGTGTGCTAATCT
KTGYGTGTSTGYGTVTNWGYBH	MEME-2	chr3	140676011	140676032	+	9.3012	9.09e-05	0.0644	TTCTGTGTATTTACCTTTGTTA
KTGYGTGTSTGYGTVTNWGYBH	MEME-2	chr6	171042839	171042860	+	9.3012	9.09e-05	0.0644	gggtgggtgtgtctgtctgtgt
KTGYGTGTSTGYGTVTNWGYBH	MEME-2	chr6	34522676	34522697	-	9.27711	9.19e-05	0.0647	GCATGTGTGTGTGCGTGTGTGT
KTGYGTGTSTGYGTVTNWGYBH	MEME-2	chr1	44870650	44870671	+	9.27711	9.19e-05	0.0647	gtgtgagagaatgtgtgcgtgc
KTGYGTGTSTGYGTVTNWGYBH	MEME-2	chr15	67155232	67155253	-	9.27711	9.19e-05	0.0647	TTATCTGTGTTTTCATCAGGGT
KTGYGTGTSTGYGTVTNWGYBH	MEME-2	chr7	155711508	155711529	+	9.27711	9.19e-05	0.0647	gcatgtgtgtgtgcgtgtgtgt
KTGYGTGTSTGYGTVTNWGYBH	MEME-2	chr7	155711443	155711464	+	9.26506	9.24e-05	0.065	gtgtgtttctgcatgcattgtg
KTGYGTGTSTGYGTVTNWGYBH	MEME-2	chrX	52963494	52963515	-	9.22892	9.38e-05	0.0659	GGACCTGCCTGCGTCCCTTAGT
KTGYGTGTSTGYGTVTNWGYBH	MEME-2	chr14	81901703	81901724	-	9.21687	9.43e-05	0.066	GTCTCTGCCTGCCTCCCCGCCT
KTGYGTGTSTGYGTVTNWGYBH	MEME-2	chr9	97856057	97856078	+	9.21687	9.43e-05	0.066	ctctctgtgtttgcatttcctc
KTGYGTGTSTGYGTVTNWGYBH	MEME-2	chr5	138089706	138089727	+	9.21687	9.43e-05	0.066	GAGCGTGTGTGTGCGTGCGAGT
KTGYGTGTSTGYGTVTNWGYBH	MEME-2	chr21	46823319	46823340	-	9.20482	9.48e-05	0.066	GTGCATGTGTGTCAGCCTGTGT
KTGYGTGTSTGYGTVTNWGYBH	MEME-2	chr12	115569864	115569885	+	9.20482	9.48e-05	0.066	CTGTCTATGTTGGTCTATCTAT
KTGYGTGTSTGYGTVTNWGYBH	MEME-2	chr12	118768149	118768170	+	9.20482	9.48e-05	0.066	GTAAGTGTATGTGCGTGTCTGG
KTGYGTGTSTGYGTVTNWGYBH	MEME-2	chr6	13873336	13873357	+	9.18072	9.59e-05	0.0667	TTTCCGgtgtgtgtgtgtgtgt
KTGYGTGTSTGYGTVTNWGYBH	MEME-2	chr19	36426773	36426794	+	9.16867	9.64e-05	0.0669	gagtgtgtatgtgtgtgtctgt
KTGYGTGTSTGYGTVTNWGYBH	MEME-2	chr12	131707116	131707137	+	9.15663	9.69e-05	0.0672	gcgtgtgcatgtgtgtgtgcgt
KTGYGTGTSTGYGTVTNWGYBH	MEME-2	chr14	81901800	81901821	-	9.14458	9.74e-05	0.0672	GTGTGTGCGCGTCCGTGTGTTC
KTGYGTGTSTGYGTVTNWGYBH	MEME-2	chr8	102702389	102702410	+	9.14458	9.74e-05	0.0672	CTGCCTGGCTCTGCACGCCTGT
KTGYGTGTSTGYGTVTNWGYBH	MEME-2	chr1	188458283	188458304	+	9.14458	9.74e-05	0.0672	gtgtgtgtgtgtgtTCTTTTAC
KTGYGTGTSTGYGTVTNWGYBH	MEME-2	chr6	96644327	96644348	+	9.13253	9.79e-05	0.0674	ttctgaggctgcttctgaggcc
KTGYGTGTSTGYGTVTNWGYBH	MEME-2	chr11	121348864	121348885	+	9.13253	9.79e-05	0.0674	gtacgtgcttgtgtgcgtgtga
KTGYGTGTSTGYGTVTNWGYBH	MEME-2	chr14	95739702	95739723	+	9.12048	9.84e-05	0.0677	GTGCCTGAGTGTCTCCACTTTG
KTGYGTGTSTGYGTVTNWGYBH	MEME-2	chr22	21241665	21241686	+	9.10843	9.89e-05	0.0679	CTGCGTGTCATTTCCTCCTCCT
KTGYGTGTSTGYGTVTNWGYBH	MEME-2	chr5	177505039	177505060	+	9.08434	0.0001	0.0685	gtgcgagggagctcgccactcc
