prim_db	prim_id	prim_alt	prim_cons	sec_db	sec_id	sec_alt	sec_cons	trim_left	trim_right	red_db	red_id	red_alt	E-value	gap	orient	count	total	adj_p-value	p-value
dreme.xml	RYAAAYA	DREME-2	RYAAAYA	HOCOMOCOv11_full_HUMAN_mono_meme_format	FOXI1_HUMAN.H11MO.0.B	.	YTBTGATTGGYY	1	0	.	.	.	1.12e+00	81	5	4	22	1.26e-07	1.13e-06
dreme.xml	RYAAAYA	DREME-2	RYAAAYA	HOCOMOCOv11_full_HUMAN_mono_meme_format	FOXI1_HUMAN.H11MO.0.B	.	YTBTGATTGGYY	1	0	.	.	.	1.12e+00	81	3	3	22	9.50e-07	8.55e-06
dreme.xml	RYAAAYA	DREME-2	RYAAAYA	HOCOMOCOv11_full_HUMAN_mono_meme_format	FOXI1_HUMAN.H11MO.0.B	.	YTBTGATTGGYY	1	0	.	.	.	1.12e+00	81	8	4	22	1.91e-06	1.72e-05
dreme.xml	RYAAAYA	DREME-2	RYAAAYA	HOCOMOCOv11_full_HUMAN_mono_meme_format	IRF9_HUMAN.H11MO.0.C	.	GAAAGCGAAAYT	0	0	.	.	.	3.01e+00	65	0	4	54	3.42e-07	3.08e-06
dreme.xml	RYAAAYA	DREME-2	RYAAAYA	HOCOMOCOv11_full_HUMAN_mono_meme_format	HXB13_HUMAN.H11MO.0.A	.	TTTTATDGSH	0	1	.	.	.	3.79e+00	15	0	6	227	4.22e-07	3.80e-06
dreme.xml	RYAAAYA	DREME-2	RYAAAYA	HOCOMOCOv11_full_HUMAN_mono_meme_format	HXB13_HUMAN.H11MO.0.A	.	TTTTATDGSH	0	1	.	.	.	3.79e+00	15	5	7	227	2.13e-06	1.92e-05
dreme.xml	RYAAAYA	DREME-2	RYAAAYA	HOCOMOCOv11_full_HUMAN_mono_meme_format	EPAS1_HUMAN.H11MO.0.B	.	VTACGTGMC	1	1	.	.	.	4.03e+00	16	2	6	232	4.41e-07	3.97e-06
dreme.xml	RYAAAYA	DREME-2	RYAAAYA	HOCOMOCOv11_full_HUMAN_mono_meme_format	EPAS1_HUMAN.H11MO.0.B	.	VTACGTGMC	1	1	.	.	.	4.03e+00	16	7	7	232	2.24e-06	2.02e-05
dreme.xml	RYAAAYA	DREME-2	RYAAAYA	HOCOMOCOv11_full_HUMAN_mono_meme_format	ZKSC1_HUMAN.H11MO.0.B	.	WGHRSMCCTACTRTGTGCH	1	1	.	.	.	6.28e+00	6	7	5	69	7.40e-07	6.66e-06
dreme.xml	RYAAAYA	DREME-2	RYAAAYA	HOCOMOCOv11_full_HUMAN_mono_meme_format	ZKSC1_HUMAN.H11MO.0.B	.	WGHRSMCCTACTRTGTGCH	1	1	.	.	.	6.28e+00	0	8	6	69	1.54e-06	1.38e-05
dreme.xml	RYAAAYA	DREME-2	RYAAAYA	HOCOMOCOv11_full_HUMAN_mono_meme_format	ETS2_HUMAN.H11MO.0.B	.	RDVRGGAARVRRR	3	0	.	.	.	9.37e+00	127	6	12	689	1.05e-06	9.47e-06
##
# Detailed descriptions of columns in this file:
#
# prim_db:	The name of the database (file name) that contains the primary motif.
# prim_id:	A name for the primary motif that is unique in the motif database file.
# prim_alt:	An alternate name of the primary motif that may be provided
#		in the motif database file.
# prim_cons:	A consensus sequence computed from the primary motif (see doc/motif-consensus.html).
# sec_db:	The name of the database (file name) that contains the secondary motif.
# sec_id:	A name for the motif that is unique in the motif database file.
# sec_alt:	An alternate name of the secondary motif that may be provided
#		in the motif database file.
# sec_cons:	A consensus sequence computed from the secondary motif (see doc/motif-consensus.html).
# trim_left:	Number of positions trimmed from left of secondary motif
# trim_right:	Number of positions trimmed from right of secondary motif
# If the next three fields are not blank, the motif is redundant with a more significant ('parent') motif.
# red_db:	The database (file name) that contains the parent motif.
# red_id:	A name for the parent motif that is unique in the motif database file.
# red_alt:	An alternate name of the parent motif that may be provided
#		in the motif database file.
# E-value:	The expected number motifs that would have least one
#		spacing as enriched as the best spacing for this secondary.
#		The E-value is the best spacing p-value multiplied by the number of motifs in the
#		input database(s).
# gap:		The distance between the edge of the primary and the (trimmed) secondary motif.
# orient:	The (combination) of quadrants for which occurrences
#		of this spacing are combined.
# count:	The number of occurrences of the secondary motif with the
#		given spacing and orientation to the primary motif.
# total:	The total number of occurrences of the secondary motif within the
#		margins around the best primary motif occurrence.
# adj_p-value:	The p-value of the gap and orientation, adjusted for
#		nine combinations of quadrants times the number of gaps tested
#		(as controlled by the -range switch).
# p-value:	The p-value of the gap and orientation adjusted only for the number of gaps tested.
