prim_db	prim_id	prim_alt	prim_cons	sec_db	sec_id	sec_alt	sec_cons	trim_left	trim_right	red_db	red_id	red_alt	E-value	gap	orient	count	total	adj_p-value	p-value
meme.xml	CCCYCAGGC	MEME-6	CCCYCAGGC	meme.xml	CAWGACCAAGARYYCAAARGCA	MEME-5	CAWGACCAAGARYYCAAARGCA	0	0	.	.	.	5.21e-07	8	1	5	7	6.36e-14	5.72e-13
meme.xml	CCCYCAGGC	MEME-6	CCCYCAGGC	meme.xml	CAWGACCAAGARYYCAAARGCA	MEME-5	CAWGACCAAGARYYCAAARGCA	0	0	.	.	.	5.21e-07	8	4	5	7	2.03e-12	1.83e-11
meme.xml	CCCYCAGGC	MEME-6	CCCYCAGGC	meme.xml	CAWGACCAAGARYYCAAARGCA	MEME-5	CAWGACCAAGARYYCAAARGCA	0	0	.	.	.	5.21e-07	8	6	5	7	2.03e-12	1.83e-11
meme.xml	CCCYCAGGC	MEME-6	CCCYCAGGC	meme.xml	CAWGACCAAGARYYCAAARGCA	MEME-5	CAWGACCAAGARYYCAAARGCA	0	0	.	.	.	5.21e-07	8	8	5	7	6.45e-11	5.80e-10
meme.xml	CCCYCAGGC	MEME-6	CCCYCAGGC	HOCOMOCOv11_full_HUMAN_mono_meme_format	HXC9_HUMAN.H11MO.0.C	.	WTTTATKGCH	0	0	HOCOMOCOv11_full_HUMAN_mono_meme_format	CAWGACCAAGARYYCAAARGCA	MEME-5	2.26e-03	5	8	9	71	2.53e-10	2.27e-09
meme.xml	CCCYCAGGC	MEME-6	CCCYCAGGC	HOCOMOCOv11_full_HUMAN_mono_meme_format	HXC9_HUMAN.H11MO.0.C	.	WTTTATKGCH	0	0	HOCOMOCOv11_full_HUMAN_mono_meme_format	CAWGACCAAGARYYCAAARGCA	MEME-5	2.26e-03	5	1	6	71	4.48e-10	4.03e-09
meme.xml	CCCYCAGGC	MEME-6	CCCYCAGGC	HOCOMOCOv11_full_HUMAN_mono_meme_format	HXC9_HUMAN.H11MO.0.C	.	WTTTATKGCH	0	0	HOCOMOCOv11_full_HUMAN_mono_meme_format	CAWGACCAAGARYYCAAARGCA	MEME-5	2.26e-03	5	4	7	71	8.54e-10	7.69e-09
meme.xml	CCCYCAGGC	MEME-6	CCCYCAGGC	HOCOMOCOv11_full_HUMAN_mono_meme_format	HXC9_HUMAN.H11MO.0.C	.	WTTTATKGCH	0	0	HOCOMOCOv11_full_HUMAN_mono_meme_format	CAWGACCAAGARYYCAAARGCA	MEME-5	2.26e-03	5	6	7	71	8.54e-10	7.69e-09
meme.xml	CCCYCAGGC	MEME-6	CCCYCAGGC	HOCOMOCOv11_full_HUMAN_mono_meme_format	HXC9_HUMAN.H11MO.0.C	.	WTTTATKGCH	0	0	HOCOMOCOv11_full_HUMAN_mono_meme_format	CAWGACCAAGARYYCAAARGCA	MEME-5	2.26e-03	32	5	5	71	6.68e-07	6.01e-06
meme.xml	CCCYCAGGC	MEME-6	CCCYCAGGC	HOCOMOCOv11_full_HUMAN_mono_meme_format	HXC9_HUMAN.H11MO.0.C	.	WTTTATKGCH	0	0	HOCOMOCOv11_full_HUMAN_mono_meme_format	CAWGACCAAGARYYCAAARGCA	MEME-5	2.26e-03	32	0	4	71	9.70e-07	8.73e-06
meme.xml	CCCYCAGGC	MEME-6	CCCYCAGGC	HOCOMOCOv11_full_HUMAN_mono_meme_format	HXC9_HUMAN.H11MO.0.C	.	WTTTATKGCH	0	0	HOCOMOCOv11_full_HUMAN_mono_meme_format	CAWGACCAAGARYYCAAARGCA	MEME-5	2.26e-03	32	8	6	71	1.36e-06	1.23e-05
meme.xml	CCCYCAGGC	MEME-6	CCCYCAGGC	HOCOMOCOv11_full_HUMAN_mono_meme_format	NF2L1_HUMAN.H11MO.0.C	.	HGTCATN	1	1	HOCOMOCOv11_full_HUMAN_mono_meme_format	CAWGACCAAGARYYCAAARGCA	MEME-5	3.58e-02	9	5	7	91	3.86e-09	3.48e-08
meme.xml	CCCYCAGGC	MEME-6	CCCYCAGGC	HOCOMOCOv11_full_HUMAN_mono_meme_format	NF2L1_HUMAN.H11MO.0.C	.	HGTCATN	1	1	HOCOMOCOv11_full_HUMAN_mono_meme_format	CAWGACCAAGARYYCAAARGCA	MEME-5	3.58e-02	9	0	5	91	6.73e-08	6.06e-07
meme.xml	CCCYCAGGC	MEME-6	CCCYCAGGC	HOCOMOCOv11_full_HUMAN_mono_meme_format	NF2L1_HUMAN.H11MO.0.C	.	HGTCATN	1	1	HOCOMOCOv11_full_HUMAN_mono_meme_format	CAWGACCAAGARYYCAAARGCA	MEME-5	3.58e-02	9	8	7	91	3.85e-07	3.46e-06
meme.xml	CCCYCAGGC	MEME-6	CCCYCAGGC	HOCOMOCOv11_full_HUMAN_mono_meme_format	NF2L1_HUMAN.H11MO.0.C	.	HGTCATN	1	1	HOCOMOCOv11_full_HUMAN_mono_meme_format	CAWGACCAAGARYYCAAARGCA	MEME-5	3.58e-02	9	4	5	91	1.91e-06	1.71e-05
meme.xml	CCCYCAGGC	MEME-6	CCCYCAGGC	meme.xml	MANAAARRYAAACADA	MEME-1	MANAAARRYAAACADA	1	2	meme.xml	CAWGACCAAGARYYCAAARGCA	MEME-5	1.94e-01	21	1	6	133	2.21e-08	1.99e-07
meme.xml	CCCYCAGGC	MEME-6	CCCYCAGGC	meme.xml	MANAAARRYAAACADA	MEME-1	MANAAARRYAAACADA	1	2	meme.xml	CAWGACCAAGARYYCAAARGCA	MEME-5	1.94e-01	21	4	6	133	1.16e-06	1.05e-05
meme.xml	CCCYCAGGC	MEME-6	CCCYCAGGC	meme.xml	MANAAARRYAAACADA	MEME-1	MANAAARRYAAACADA	1	2	meme.xml	CAWGACCAAGARYYCAAARGCA	MEME-5	1.94e-01	21	6	6	133	1.16e-06	1.05e-05
meme.xml	CCCYCAGGC	MEME-6	CCCYCAGGC	HOCOMOCOv11_full_HUMAN_mono_meme_format	PO3F1_HUMAN.H11MO.0.C	.	VATKSWWATGCAAW	1	1	HOCOMOCOv11_full_HUMAN_mono_meme_format	CAWGACCAAGARYYCAAARGCA	MEME-5	2.87e-01	25	1	5	75	3.25e-08	2.92e-07
meme.xml	CCCYCAGGC	MEME-6	CCCYCAGGC	HOCOMOCOv11_full_HUMAN_mono_meme_format	PO3F1_HUMAN.H11MO.0.C	.	VATKSWWATGCAAW	1	1	HOCOMOCOv11_full_HUMAN_mono_meme_format	CAWGACCAAGARYYCAAARGCA	MEME-5	2.87e-01	25	6	6	75	3.92e-08	3.53e-07
meme.xml	CCCYCAGGC	MEME-6	CCCYCAGGC	HOCOMOCOv11_full_HUMAN_mono_meme_format	PO3F1_HUMAN.H11MO.0.C	.	VATKSWWATGCAAW	1	1	HOCOMOCOv11_full_HUMAN_mono_meme_format	CAWGACCAAGARYYCAAARGCA	MEME-5	2.87e-01	25	4	5	75	9.37e-07	8.43e-06
meme.xml	CCCYCAGGC	MEME-6	CCCYCAGGC	HOCOMOCOv11_full_HUMAN_mono_meme_format	PO3F1_HUMAN.H11MO.0.C	.	VATKSWWATGCAAW	1	1	HOCOMOCOv11_full_HUMAN_mono_meme_format	CAWGACCAAGARYYCAAARGCA	MEME-5	2.87e-01	25	8	6	75	2.03e-06	1.83e-05
meme.xml	CCCYCAGGC	MEME-6	CCCYCAGGC	HOCOMOCOv11_full_HUMAN_mono_meme_format	ZN418_HUMAN.H11MO.0.C	.	TGCTTYTRGCYTCTKVY	0	2	HOCOMOCOv11_full_HUMAN_mono_meme_format	CAWGACCAAGARYYCAAARGCA	MEME-5	5.51e-01	15	0	5	84	6.38e-08	5.74e-07
meme.xml	CCCYCAGGC	MEME-6	CCCYCAGGC	HOCOMOCOv11_full_HUMAN_mono_meme_format	ZN418_HUMAN.H11MO.0.C	.	TGCTTYTRGCYTCTKVY	0	2	HOCOMOCOv11_full_HUMAN_mono_meme_format	CAWGACCAAGARYYCAAARGCA	MEME-5	5.51e-01	15	4	5	84	1.81e-06	1.63e-05
meme.xml	CCCYCAGGC	MEME-6	CCCYCAGGC	HOCOMOCOv11_full_HUMAN_mono_meme_format	ZN418_HUMAN.H11MO.0.C	.	TGCTTYTRGCYTCTKVY	0	2	HOCOMOCOv11_full_HUMAN_mono_meme_format	CAWGACCAAGARYYCAAARGCA	MEME-5	5.51e-01	15	5	5	84	1.81e-06	1.63e-05
meme.xml	CCCYCAGGC	MEME-6	CCCYCAGGC	HOCOMOCOv11_full_HUMAN_mono_meme_format	PO2F1_HUMAN.H11MO.0.C	.	AWKBRWATGSAAWYAW	0	0	HOCOMOCOv11_full_HUMAN_mono_meme_format	CAWGACCAAGARYYCAAARGCA	MEME-5	9.41e-01	25	1	5	93	1.10e-07	9.88e-07
meme.xml	CCCYCAGGC	MEME-6	CCCYCAGGC	HOCOMOCOv11_full_HUMAN_mono_meme_format	PO2F1_HUMAN.H11MO.0.C	.	AWKBRWATGSAAWYAW	0	0	HOCOMOCOv11_full_HUMAN_mono_meme_format	CAWGACCAAGARYYCAAARGCA	MEME-5	9.41e-01	25	6	6	93	1.66e-07	1.49e-06
meme.xml	CCCYCAGGC	MEME-6	CCCYCAGGC	HOCOMOCOv11_full_HUMAN_mono_meme_format	PO2F1_HUMAN.H11MO.0.C	.	AWKBRWATGSAAWYAW	0	0	HOCOMOCOv11_full_HUMAN_mono_meme_format	CAWGACCAAGARYYCAAARGCA	MEME-5	9.41e-01	25	4	5	93	3.07e-06	2.76e-05
meme.xml	CCCYCAGGC	MEME-6	CCCYCAGGC	HOCOMOCOv11_full_HUMAN_mono_meme_format	EVX2_HUMAN.H11MO.0.A	.	KTTTTATKRCYBY	2	2	HOCOMOCOv11_full_HUMAN_mono_meme_format	CAWGACCAAGARYYCAAARGCA	MEME-5	1.23e+00	6	6	5	52	1.36e-07	1.23e-06
meme.xml	CCCYCAGGC	MEME-6	CCCYCAGGC	HOCOMOCOv11_full_HUMAN_mono_meme_format	EVX2_HUMAN.H11MO.0.A	.	KTTTTATKRCYBY	2	2	HOCOMOCOv11_full_HUMAN_mono_meme_format	CAWGACCAAGARYYCAAARGCA	MEME-5	1.23e+00	6	1	4	52	2.70e-07	2.43e-06
meme.xml	CCCYCAGGC	MEME-6	CCCYCAGGC	HOCOMOCOv11_full_HUMAN_mono_meme_format	EVX2_HUMAN.H11MO.0.A	.	KTTTTATKRCYBY	2	2	HOCOMOCOv11_full_HUMAN_mono_meme_format	CAWGACCAAGARYYCAAARGCA	MEME-5	1.23e+00	6	8	5	52	3.80e-06	3.42e-05
meme.xml	CCCYCAGGC	MEME-6	CCCYCAGGC	HOCOMOCOv11_full_HUMAN_mono_meme_format	EVX2_HUMAN.H11MO.0.A	.	KTTTTATKRCYBY	2	2	HOCOMOCOv11_full_HUMAN_mono_meme_format	CAWGACCAAGARYYCAAARGCA	MEME-5	1.23e+00	6	4	4	52	4.04e-06	3.64e-05
meme.xml	CCCYCAGGC	MEME-6	CCCYCAGGC	HOCOMOCOv11_full_HUMAN_mono_meme_format	IRF7_HUMAN.H11MO.0.C	.	GAAASYGAAA	0	0	HOCOMOCOv11_full_HUMAN_mono_meme_format	CAWGACCAAGARYYCAAARGCA	MEME-5	3.42e+00	23	1	5	125	3.83e-07	3.44e-06
meme.xml	CCCYCAGGC	MEME-6	CCCYCAGGC	HOCOMOCOv11_full_HUMAN_mono_meme_format	HXD8_HUMAN.H11MO.0.D	.	WAATWTGCAYN	1	3	HOCOMOCOv11_full_HUMAN_mono_meme_format	CAWGACCAAGARYYCAAARGCA	MEME-5	3.68e+00	27	0	5	129	4.03e-07	3.63e-06
meme.xml	CCCYCAGGC	MEME-6	CCCYCAGGC	HOCOMOCOv11_full_HUMAN_mono_meme_format	HXD8_HUMAN.H11MO.0.D	.	WAATWTGCAYN	1	3	HOCOMOCOv11_full_HUMAN_mono_meme_format	CAWGACCAAGARYYCAAARGCA	MEME-5	3.68e+00	27	4	6	129	7.69e-07	6.92e-06
meme.xml	CCCYCAGGC	MEME-6	CCCYCAGGC	HOCOMOCOv11_full_HUMAN_mono_meme_format	HXD8_HUMAN.H11MO.0.D	.	WAATWTGCAYN	1	3	HOCOMOCOv11_full_HUMAN_mono_meme_format	CAWGACCAAGARYYCAAARGCA	MEME-5	3.68e+00	27	5	6	129	7.69e-07	6.92e-06
meme.xml	CCCYCAGGC	MEME-6	CCCYCAGGC	HOCOMOCOv11_full_HUMAN_mono_meme_format	HXD8_HUMAN.H11MO.0.D	.	WAATWTGCAYN	1	3	HOCOMOCOv11_full_HUMAN_mono_meme_format	CAWGACCAAGARYYCAAARGCA	MEME-5	3.68e+00	27	8	7	129	4.13e-06	3.72e-05
meme.xml	CCCYCAGGC	MEME-6	CCCYCAGGC	HOCOMOCOv11_full_HUMAN_mono_meme_format	HXD9_HUMAN.H11MO.0.D	.	ARWTTNATKD	0	0	HOCOMOCOv11_full_HUMAN_mono_meme_format	CAWGACCAAGARYYCAAARGCA	MEME-5	5.04e+00	3	1	4	62	5.64e-07	5.08e-06
meme.xml	CCCYCAGGC	MEME-6	CCCYCAGGC	meme.xml	TWTTGYCKTGMWAAASMTCTTW	MEME-2	TWTTGYCKTGMWAAASMTCTTW	0	0	.	.	.	4.47e-04	74	0	4	7	5.46e-11	4.91e-10
meme.xml	CCCYCAGGC	MEME-6	CCCYCAGGC	meme.xml	TWTTGYCKTGMWAAASMTCTTW	MEME-2	TWTTGYCKTGMWAAASMTCTTW	0	0	.	.	.	4.47e-04	74	4	4	7	8.70e-10	7.83e-09
meme.xml	CCCYCAGGC	MEME-6	CCCYCAGGC	meme.xml	TWTTGYCKTGMWAAASMTCTTW	MEME-2	TWTTGYCKTGMWAAASMTCTTW	0	0	.	.	.	4.47e-04	74	5	4	7	8.70e-10	7.83e-09
meme.xml	CCCYCAGGC	MEME-6	CCCYCAGGC	meme.xml	TWTTGYCKTGMWAAASMTCTTW	MEME-2	TWTTGYCKTGMWAAASMTCTTW	0	0	.	.	.	4.47e-04	74	8	4	7	1.38e-08	1.24e-07
meme.xml	CCCYCAGGC	MEME-6	CCCYCAGGC	HOCOMOCOv11_full_HUMAN_mono_meme_format	DMBX1_HUMAN.H11MO.0.D	.	YMMTWWWAAYCYAATTAABD	3	2	HOCOMOCOv11_full_HUMAN_mono_meme_format	TWTTGYCKTGMWAAASMTCTTW	MEME-2	3.78e-01	63	0	4	32	4.38e-08	3.94e-07
meme.xml	CCCYCAGGC	MEME-6	CCCYCAGGC	HOCOMOCOv11_full_HUMAN_mono_meme_format	DMBX1_HUMAN.H11MO.0.D	.	YMMTWWWAAYCYAATTAABD	3	2	HOCOMOCOv11_full_HUMAN_mono_meme_format	TWTTGYCKTGMWAAASMTCTTW	MEME-2	3.78e-01	63	4	4	32	6.72e-07	6.05e-06
meme.xml	CCCYCAGGC	MEME-6	CCCYCAGGC	HOCOMOCOv11_full_HUMAN_mono_meme_format	DMBX1_HUMAN.H11MO.0.D	.	YMMTWWWAAYCYAATTAABD	3	2	HOCOMOCOv11_full_HUMAN_mono_meme_format	TWTTGYCKTGMWAAASMTCTTW	MEME-2	3.78e-01	63	5	4	32	6.72e-07	6.05e-06
meme.xml	CCCYCAGGC	MEME-6	CCCYCAGGC	HOCOMOCOv11_full_HUMAN_mono_meme_format	PO5F1_HUMAN.H11MO.0.A	.	CYWTTSWYATGCAAAT	0	0	HOCOMOCOv11_full_HUMAN_mono_meme_format	TWTTGYCKTGMWAAASMTCTTW	MEME-2	4.38e+00	81	0	4	58	5.12e-07	4.61e-06
meme.xml	CCCYCAGGC	MEME-6	CCCYCAGGC	HOCOMOCOv11_full_HUMAN_mono_meme_format	LHX8_HUMAN.H11MO.0.D	.	YRYTRATTRCMATTAATT	1	1	HOCOMOCOv11_full_HUMAN_mono_meme_format	TWTTGYCKTGMWAAASMTCTTW	MEME-2	6.71e+00	62	1	3	20	7.86e-07	7.07e-06
meme.xml	CCCYCAGGC	MEME-6	CCCYCAGGC	HOCOMOCOv11_full_HUMAN_mono_meme_format	PPARG_HUMAN.H11MO.1.A	.	CARAGGKCA	0	0	.	.	.	1.24e-02	43	1	7	150	1.37e-09	1.24e-08
meme.xml	CCCYCAGGC	MEME-6	CCCYCAGGC	HOCOMOCOv11_full_HUMAN_mono_meme_format	PPARG_HUMAN.H11MO.1.A	.	CARAGGKCA	0	0	.	.	.	1.24e-02	43	6	8	150	8.86e-09	7.97e-08
meme.xml	CCCYCAGGC	MEME-6	CCCYCAGGC	HOCOMOCOv11_full_HUMAN_mono_meme_format	PPARG_HUMAN.H11MO.1.A	.	CARAGGKCA	0	0	.	.	.	1.24e-02	43	4	7	150	1.41e-07	1.27e-06
meme.xml	CCCYCAGGC	MEME-6	CCCYCAGGC	HOCOMOCOv11_full_HUMAN_mono_meme_format	PPARG_HUMAN.H11MO.1.A	.	CARAGGKCA	0	0	.	.	.	1.24e-02	43	8	8	150	1.46e-06	1.31e-05
meme.xml	CCCYCAGGC	MEME-6	CCCYCAGGC	HOCOMOCOv11_full_HUMAN_mono_meme_format	Z354A_HUMAN.H11MO.0.C	.	RTTTARWYCATTTACATTTAATGT	1	0	HOCOMOCOv11_full_HUMAN_mono_meme_format	PPARG_HUMAN.H11MO.1.A	.	9.02e-02	39	0	5	56	1.11e-08	9.99e-08
meme.xml	CCCYCAGGC	MEME-6	CCCYCAGGC	HOCOMOCOv11_full_HUMAN_mono_meme_format	Z354A_HUMAN.H11MO.0.C	.	RTTTARWYCATTTACATTTAATGT	1	0	HOCOMOCOv11_full_HUMAN_mono_meme_format	PPARG_HUMAN.H11MO.1.A	.	9.02e-02	39	4	5	56	3.27e-07	2.94e-06
meme.xml	CCCYCAGGC	MEME-6	CCCYCAGGC	HOCOMOCOv11_full_HUMAN_mono_meme_format	Z354A_HUMAN.H11MO.0.C	.	RTTTARWYCATTTACATTTAATGT	1	0	HOCOMOCOv11_full_HUMAN_mono_meme_format	PPARG_HUMAN.H11MO.1.A	.	9.02e-02	39	5	5	56	3.27e-07	2.94e-06
meme.xml	CCCYCAGGC	MEME-6	CCCYCAGGC	HOCOMOCOv11_full_HUMAN_mono_meme_format	Z354A_HUMAN.H11MO.0.C	.	RTTTARWYCATTTACATTTAATGT	1	0	HOCOMOCOv11_full_HUMAN_mono_meme_format	PPARG_HUMAN.H11MO.1.A	.	9.02e-02	18	0	4	56	5.48e-07	4.93e-06
meme.xml	CCCYCAGGC	MEME-6	CCCYCAGGC	HOCOMOCOv11_full_HUMAN_mono_meme_format	ZN418_HUMAN.H11MO.1.D	.	KRTTGCTTYYRK	2	0	HOCOMOCOv11_full_HUMAN_mono_meme_format	PPARG_HUMAN.H11MO.1.A	.	2.08e-01	36	0	6	137	2.33e-08	2.09e-07
meme.xml	CCCYCAGGC	MEME-6	CCCYCAGGC	HOCOMOCOv11_full_HUMAN_mono_meme_format	ZN418_HUMAN.H11MO.1.D	.	KRTTGCTTYYRK	2	0	HOCOMOCOv11_full_HUMAN_mono_meme_format	PPARG_HUMAN.H11MO.1.A	.	2.08e-01	36	5	7	137	8.06e-08	7.25e-07
meme.xml	CCCYCAGGC	MEME-6	CCCYCAGGC	HOCOMOCOv11_full_HUMAN_mono_meme_format	ZN418_HUMAN.H11MO.1.D	.	KRTTGCTTYYRK	2	0	HOCOMOCOv11_full_HUMAN_mono_meme_format	PPARG_HUMAN.H11MO.1.A	.	2.08e-01	36	4	6	137	1.22e-06	1.10e-05
meme.xml	CCCYCAGGC	MEME-6	CCCYCAGGC	HOCOMOCOv11_full_HUMAN_mono_meme_format	FOXJ3_HUMAN.H11MO.0.A	.	TTGTTTATKKTTW	1	0	HOCOMOCOv11_full_HUMAN_mono_meme_format	PPARG_HUMAN.H11MO.1.A	.	3.07e-01	33	5	5	39	3.48e-08	3.13e-07
meme.xml	CCCYCAGGC	MEME-6	CCCYCAGGC	HOCOMOCOv11_full_HUMAN_mono_meme_format	FOXJ3_HUMAN.H11MO.0.A	.	TTGTTTATKKTTW	1	0	HOCOMOCOv11_full_HUMAN_mono_meme_format	PPARG_HUMAN.H11MO.1.A	.	3.07e-01	33	0	4	39	9.09e-08	8.18e-07
meme.xml	CCCYCAGGC	MEME-6	CCCYCAGGC	HOCOMOCOv11_full_HUMAN_mono_meme_format	FOXJ3_HUMAN.H11MO.0.A	.	TTGTTTATKKTTW	1	0	HOCOMOCOv11_full_HUMAN_mono_meme_format	PPARG_HUMAN.H11MO.1.A	.	3.07e-01	33	8	5	39	1.01e-06	9.05e-06
meme.xml	CCCYCAGGC	MEME-6	CCCYCAGGC	HOCOMOCOv11_full_HUMAN_mono_meme_format	FOXJ3_HUMAN.H11MO.0.A	.	TTGTTTATKKTTW	1	0	HOCOMOCOv11_full_HUMAN_mono_meme_format	PPARG_HUMAN.H11MO.1.A	.	3.07e-01	33	4	4	39	1.38e-06	1.25e-05
meme.xml	CCCYCAGGC	MEME-6	CCCYCAGGC	HOCOMOCOv11_full_HUMAN_mono_meme_format	HXD10_HUMAN.H11MO.0.D	.	TGCTTTAATT	0	0	HOCOMOCOv11_full_HUMAN_mono_meme_format	PPARG_HUMAN.H11MO.1.A	.	4.79e-01	35	0	5	84	5.35e-08	4.81e-07
meme.xml	CCCYCAGGC	MEME-6	CCCYCAGGC	HOCOMOCOv11_full_HUMAN_mono_meme_format	HXD10_HUMAN.H11MO.0.D	.	TGCTTTAATT	0	0	HOCOMOCOv11_full_HUMAN_mono_meme_format	PPARG_HUMAN.H11MO.1.A	.	4.79e-01	35	4	6	84	7.09e-08	6.38e-07
meme.xml	CCCYCAGGC	MEME-6	CCCYCAGGC	HOCOMOCOv11_full_HUMAN_mono_meme_format	HXD10_HUMAN.H11MO.0.D	.	TGCTTTAATT	0	0	HOCOMOCOv11_full_HUMAN_mono_meme_format	PPARG_HUMAN.H11MO.1.A	.	4.79e-01	35	5	5	84	1.52e-06	1.37e-05
meme.xml	CCCYCAGGC	MEME-6	CCCYCAGGC	HOCOMOCOv11_full_HUMAN_mono_meme_format	HXD10_HUMAN.H11MO.0.D	.	TGCTTTAATT	0	0	HOCOMOCOv11_full_HUMAN_mono_meme_format	PPARG_HUMAN.H11MO.1.A	.	4.79e-01	35	8	6	84	3.58e-06	3.22e-05
meme.xml	CCCYCAGGC	MEME-6	CCCYCAGGC	dreme.xml	AGATAA	DREME-5	AGATAA	0	0	dreme.xml	PPARG_HUMAN.H11MO.1.A	.	2.47e+00	46	1	4	53	2.69e-07	2.42e-06
meme.xml	CCCYCAGGC	MEME-6	CCCYCAGGC	dreme.xml	AGATAA	DREME-5	AGATAA	0	0	dreme.xml	PPARG_HUMAN.H11MO.1.A	.	2.47e+00	46	4	4	53	4.02e-06	3.62e-05
meme.xml	CCCYCAGGC	MEME-6	CCCYCAGGC	dreme.xml	AGATAA	DREME-5	AGATAA	0	0	dreme.xml	PPARG_HUMAN.H11MO.1.A	.	2.47e+00	46	6	4	53	4.02e-06	3.62e-05
meme.xml	CCCYCAGGC	MEME-6	CCCYCAGGC	HOCOMOCOv11_full_HUMAN_mono_meme_format	LEF1_HUMAN.H11MO.0.A	.	BCCTTTSWWNTBYH	1	1	HOCOMOCOv11_full_HUMAN_mono_meme_format	PPARG_HUMAN.H11MO.1.A	.	4.09e+00	37	0	6	226	4.64e-07	4.18e-06
meme.xml	CCCYCAGGC	MEME-6	CCCYCAGGC	HOCOMOCOv11_full_HUMAN_mono_meme_format	NR2F6_HUMAN.H11MO.0.D	.	RGGWCAAAGKTCANNKRR	0	0	HOCOMOCOv11_full_HUMAN_mono_meme_format	PPARG_HUMAN.H11MO.1.A	.	4.57e+00	39	1	4	58	5.43e-07	4.88e-06
meme.xml	CCCYCAGGC	MEME-6	CCCYCAGGC	HOCOMOCOv11_full_HUMAN_mono_meme_format	SOX2_HUMAN.H11MO.0.A	.	BBCCTTTGTYYYB	1	2	HOCOMOCOv11_full_HUMAN_mono_meme_format	PPARG_HUMAN.H11MO.1.A	.	5.16e+00	40	0	5	136	5.78e-07	5.20e-06
meme.xml	CCCYCAGGC	MEME-6	CCCYCAGGC	HOCOMOCOv11_full_HUMAN_mono_meme_format	SOX2_HUMAN.H11MO.0.A	.	BBCCTTTGTYYYB	1	2	HOCOMOCOv11_full_HUMAN_mono_meme_format	PPARG_HUMAN.H11MO.1.A	.	5.16e+00	40	4	6	136	1.17e-06	1.05e-05
meme.xml	CCCYCAGGC	MEME-6	CCCYCAGGC	HOCOMOCOv11_full_HUMAN_mono_meme_format	GATA1_HUMAN.H11MO.1.A	.	DSAGATAAGVV	2	2	HOCOMOCOv11_full_HUMAN_mono_meme_format	PPARG_HUMAN.H11MO.1.A	.	8.59e+00	46	1	4	72	9.45e-07	8.50e-06
meme.xml	CCCYCAGGC	MEME-6	CCCYCAGGC	meme.xml	AAAAYTCTAGAAGATARCATYRGAAAAMCC	MEME-7	AAAAYTCTAGAAGATARCATYRGAAAAMCC	0	0	.	.	.	3.01e-02	12	3	3	4	3.91e-09	3.52e-08
meme.xml	CCCYCAGGC	MEME-6	CCCYCAGGC	meme.xml	AAAAYTCTAGAAGATARCATYRGAAAAMCC	MEME-7	AAAAYTCTAGAAGATARCATYRGAAAAMCC	0	0	.	.	.	3.01e-02	12	5	3	4	3.13e-08	2.81e-07
meme.xml	CCCYCAGGC	MEME-6	CCCYCAGGC	meme.xml	AAAAYTCTAGAAGATARCATYRGAAAAMCC	MEME-7	AAAAYTCTAGAAGATARCATYRGAAAAMCC	0	0	.	.	.	3.01e-02	12	7	3	4	3.13e-08	2.81e-07
meme.xml	CCCYCAGGC	MEME-6	CCCYCAGGC	meme.xml	AAAAYTCTAGAAGATARCATYRGAAAAMCC	MEME-7	AAAAYTCTAGAAGATARCATYRGAAAAMCC	0	0	.	.	.	3.01e-02	12	8	3	4	2.49e-07	2.24e-06
meme.xml	CCCYCAGGC	MEME-6	CCCYCAGGC	HOCOMOCOv11_full_HUMAN_mono_meme_format	FOXO3_HUMAN.H11MO.0.B	.	BYTGTTTACH	2	1	.	.	.	2.97e-01	80	2	6	148	3.25e-08	2.92e-07
meme.xml	CCCYCAGGC	MEME-6	CCCYCAGGC	HOCOMOCOv11_full_HUMAN_mono_meme_format	FOXO3_HUMAN.H11MO.0.B	.	BYTGTTTACH	2	1	.	.	.	2.97e-01	80	6	6	148	1.68e-06	1.51e-05
meme.xml	CCCYCAGGC	MEME-6	CCCYCAGGC	HOCOMOCOv11_full_HUMAN_mono_meme_format	FOXO3_HUMAN.H11MO.0.B	.	BYTGTTTACH	2	1	.	.	.	2.97e-01	80	7	6	148	1.68e-06	1.51e-05
meme.xml	CCCYCAGGC	MEME-6	CCCYCAGGC	HOCOMOCOv11_full_HUMAN_mono_meme_format	FOXP2_HUMAN.H11MO.0.C	.	BTGTTTACH	1	1	HOCOMOCOv11_full_HUMAN_mono_meme_format	FOXO3_HUMAN.H11MO.0.B	.	7.16e-01	80	2	6	172	7.83e-08	7.05e-07
meme.xml	CCCYCAGGC	MEME-6	CCCYCAGGC	HOCOMOCOv11_full_HUMAN_mono_meme_format	FOXP2_HUMAN.H11MO.0.C	.	BTGTTTACH	1	1	HOCOMOCOv11_full_HUMAN_mono_meme_format	FOXO3_HUMAN.H11MO.0.B	.	7.16e-01	80	6	6	172	3.92e-06	3.53e-05
meme.xml	CCCYCAGGC	MEME-6	CCCYCAGGC	HOCOMOCOv11_full_HUMAN_mono_meme_format	FOXP2_HUMAN.H11MO.0.C	.	BTGTTTACH	1	1	HOCOMOCOv11_full_HUMAN_mono_meme_format	FOXO3_HUMAN.H11MO.0.B	.	7.16e-01	80	7	6	172	3.92e-06	3.53e-05
meme.xml	CCCYCAGGC	MEME-6	CCCYCAGGC	HOCOMOCOv11_full_HUMAN_mono_meme_format	FOXO6_HUMAN.H11MO.0.D	.	WWSWTGTTTACRT	3	0	.	.	.	3.99e-01	79	2	5	81	4.46e-08	4.01e-07
meme.xml	CCCYCAGGC	MEME-6	CCCYCAGGC	HOCOMOCOv11_full_HUMAN_mono_meme_format	FOXO6_HUMAN.H11MO.0.D	.	WWSWTGTTTACRT	3	0	.	.	.	3.99e-01	79	6	5	81	1.28e-06	1.15e-05
meme.xml	CCCYCAGGC	MEME-6	CCCYCAGGC	HOCOMOCOv11_full_HUMAN_mono_meme_format	FOXO6_HUMAN.H11MO.0.D	.	WWSWTGTTTACRT	3	0	.	.	.	3.99e-01	79	7	5	81	1.28e-06	1.15e-05
meme.xml	CCCYCAGGC	MEME-6	CCCYCAGGC	HOCOMOCOv11_full_HUMAN_mono_meme_format	FOXO6_HUMAN.H11MO.0.D	.	WWSWTGTTTACRT	3	0	.	.	.	3.99e-01	79	8	6	81	2.91e-06	2.62e-05
meme.xml	CCCYCAGGC	MEME-6	CCCYCAGGC	HOCOMOCOv11_full_HUMAN_mono_meme_format	E2F2_HUMAN.H11MO.0.B	.	GGCGCGAAAC	0	0	.	.	.	9.05e-01	104	2	3	11	1.01e-07	9.10e-07
meme.xml	CCCYCAGGC	MEME-6	CCCYCAGGC	HOCOMOCOv11_full_HUMAN_mono_meme_format	E2F2_HUMAN.H11MO.0.B	.	GGCGCGAAAC	0	0	.	.	.	9.05e-01	104	6	3	11	8.00e-07	7.20e-06
meme.xml	CCCYCAGGC	MEME-6	CCCYCAGGC	HOCOMOCOv11_full_HUMAN_mono_meme_format	E2F2_HUMAN.H11MO.0.B	.	GGCGCGAAAC	0	0	.	.	.	9.05e-01	104	7	3	11	8.00e-07	7.20e-06
meme.xml	CCCYCAGGC	MEME-6	CCCYCAGGC	HOCOMOCOv11_full_HUMAN_mono_meme_format	PIT1_HUMAN.H11MO.0.C	.	YTMATGAATATWY	0	1	.	.	.	1.51e+00	22	8	7	77	1.72e-07	1.54e-06
meme.xml	CCCYCAGGC	MEME-6	CCCYCAGGC	HOCOMOCOv11_full_HUMAN_mono_meme_format	PIT1_HUMAN.H11MO.0.C	.	YTMATGAATATWY	0	1	.	.	.	1.51e+00	22	4	5	77	1.07e-06	9.59e-06
meme.xml	CCCYCAGGC	MEME-6	CCCYCAGGC	HOCOMOCOv11_full_HUMAN_mono_meme_format	PIT1_HUMAN.H11MO.0.C	.	YTMATGAATATWY	0	1	.	.	.	1.51e+00	22	1	4	77	1.42e-06	1.28e-05
meme.xml	CCCYCAGGC	MEME-6	CCCYCAGGC	HOCOMOCOv11_full_HUMAN_mono_meme_format	CDX2_HUMAN.H11MO.0.A	.	TTTTATTGCWBT	0	0	.	.	.	2.11e+00	30	5	5	57	2.40e-07	2.16e-06
meme.xml	CCCYCAGGC	MEME-6	CCCYCAGGC	HOCOMOCOv11_full_HUMAN_mono_meme_format	CDX2_HUMAN.H11MO.0.A	.	TTTTATTGCWBT	0	0	.	.	.	2.11e+00	30	0	4	57	4.26e-07	3.83e-06
meme.xml	CCCYCAGGC	MEME-6	CCCYCAGGC	HOCOMOCOv11_full_HUMAN_mono_meme_format	ZN563_HUMAN.H11MO.0.C	.	RGGNTCMTNDCHGGCAGCTGY	1	0	.	.	.	2.53e+00	22	1	5	111	3.05e-07	2.74e-06
meme.xml	CCCYCAGGC	MEME-6	CCCYCAGGC	HOCOMOCOv11_full_HUMAN_mono_meme_format	ZN563_HUMAN.H11MO.0.C	.	RGGNTCMTNDCHGGCAGCTGY	1	0	.	.	.	2.53e+00	22	6	6	111	5.52e-07	4.97e-06
meme.xml	CCCYCAGGC	MEME-6	CCCYCAGGC	HOCOMOCOv11_full_HUMAN_mono_meme_format	PROP1_HUMAN.H11MO.0.D	.	TAATTRRATTA	0	0	.	.	.	2.74e+00	86	2	4	53	3.08e-07	2.78e-06
meme.xml	CCCYCAGGC	MEME-6	CCCYCAGGC	HOCOMOCOv11_full_HUMAN_mono_meme_format	FOXK1_HUMAN.H11MO.0.A	.	TGTTTMCHTT	0	0	.	.	.	3.28e+00	80	2	6	220	3.67e-07	3.30e-06
meme.xml	CCCYCAGGC	MEME-6	CCCYCAGGC	meme.xml	TSTRGTCAGACYGGTTCTCTGCTCTTGAAC	MEME-4	TSTRGTCAGACYGGTTCTCTGCTCTTGAAC	0	0	.	.	.	3.64e+00	33	2	2	2	4.74e-07	4.27e-06
meme.xml	CCCYCAGGC	MEME-6	CCCYCAGGC	meme.xml	TSTRGTCAGACYGGTTCTCTGCTCTTGAAC	MEME-4	TSTRGTCAGACYGGTTCTCTGCTCTTGAAC	0	0	.	.	.	3.64e+00	33	6	2	2	1.90e-06	1.71e-05
meme.xml	CCCYCAGGC	MEME-6	CCCYCAGGC	meme.xml	TSTRGTCAGACYGGTTCTCTGCTCTTGAAC	MEME-4	TSTRGTCAGACYGGTTCTCTGCTCTTGAAC	0	0	.	.	.	3.64e+00	33	7	2	2	1.90e-06	1.71e-05
meme.xml	CCCYCAGGC	MEME-6	CCCYCAGGC	HOCOMOCOv11_full_HUMAN_mono_meme_format	FOXJ2_HUMAN.H11MO.0.C	.	TGTTTRTTTW	0	0	.	.	.	6.80e+00	33	0	5	144	7.63e-07	6.87e-06
meme.xml	CCCYCAGGC	MEME-6	CCCYCAGGC	HOCOMOCOv11_full_HUMAN_mono_meme_format	HSF2_HUMAN.H11MO.0.A	.	VGAABRTTCTAGAA	1	0	.	.	.	9.19e+00	30	3	4	71	1.06e-06	9.50e-06
##
# Detailed descriptions of columns in this file:
#
# prim_db:	The name of the database (file name) that contains the primary motif.
# prim_id:	A name for the primary motif that is unique in the motif database file.
# prim_alt:	An alternate name of the primary motif that may be provided
#		in the motif database file.
# prim_cons:	A consensus sequence computed from the primary motif (see doc/motif-consensus.html).
# sec_db:	The name of the database (file name) that contains the secondary motif.
# sec_id:	A name for the motif that is unique in the motif database file.
# sec_alt:	An alternate name of the secondary motif that may be provided
#		in the motif database file.
# sec_cons:	A consensus sequence computed from the secondary motif (see doc/motif-consensus.html).
# trim_left:	Number of positions trimmed from left of secondary motif
# trim_right:	Number of positions trimmed from right of secondary motif
# If the next three fields are not blank, the motif is redundant with a more significant ('parent') motif.
# red_db:	The database (file name) that contains the parent motif.
# red_id:	A name for the parent motif that is unique in the motif database file.
# red_alt:	An alternate name of the parent motif that may be provided
#		in the motif database file.
# E-value:	The expected number motifs that would have least one
#		spacing as enriched as the best spacing for this secondary.
#		The E-value is the best spacing p-value multiplied by the number of motifs in the
#		input database(s).
# gap:		The distance between the edge of the primary and the (trimmed) secondary motif.
# orient:	The (combination) of quadrants for which occurrences
#		of this spacing are combined.
# count:	The number of occurrences of the secondary motif with the
#		given spacing and orientation to the primary motif.
# total:	The total number of occurrences of the secondary motif within the
#		margins around the best primary motif occurrence.
# adj_p-value:	The p-value of the gap and orientation, adjusted for
#		nine combinations of quadrants times the number of gaps tested
#		(as controlled by the -range switch).
# p-value:	The p-value of the gap and orientation adjusted only for the number of gaps tested.
